[
  {
    "link_thumb": "https://live.staticflickr.com/65535/49888802513_253b6abd50_n.jpg",
    "id_album": "-462046716",
    "description": "2016_rv_DS_rv_3_rv_Performance_rv_V1_rv_2000",
    "title": "2016_rv_DS_rv_3_rv_Performance_rv_V1_rv_2000",
    "link_img": "https://live.staticflickr.com/65535/49888802513_ffc4ff2166_o.jpg",
    "id_image": "2016_rv_DS_rv_3_rv_Performance_rv_V1_rv_2000",
    "count_view": 0
  },
  {
    "link_thumb": "https://live.staticflickr.com/65535/49890203228_28682bed36_n.jpg",
    "id_album": "1310566757",
    "description": "2020_rv_Mercedes_rv_AMG_rv_CLA45_rv_V3_rv_2160",
    "title": "2020_rv_Mercedes_rv_AMG_rv_CLA45_rv_V3_rv_2160",
    "link_img": "https://live.staticflickr.com/65535/49890203228_427a7247ee_o.jpg",
    "id_image": "2020_rv_Mercedes_rv_AMG_rv_CLA45_rv_V3_rv_2160",
    "count_view": 0
  },
  {
    "link_thumb": "https://live.staticflickr.com/65535/48117646511_b79d57bb84_n.jpg",
    "id_album": "-1846404630",
    "description": "Ford_97330",
    "title": "Ford_97330",
    "link_img": "https://live.staticflickr.com/65535/48117646511_e2931ec69c_o.jpg",
    "id_image": "Ford_97330",
    "count_view": 0
  },
  {
    "link_thumb": "https://live.staticflickr.com/65535/48121807793_983372a6ba_n.jpg",
    "id_album": "-1178450892",
    "description": "Porsche_941775",
    "title": "Porsche_941775",
    "link_img": "https://live.staticflickr.com/65535/48121807793_acd68cb15a_o.jpg",
    "id_image": "Porsche_941775",
    "count_view": 0
  },
  {
    "link_thumb": "https://live.staticflickr.com/65535/49890091487_6cf1306b9e_n.jpg",
    "id_album": "-2000398090",
    "description": "2006_rv_Ford_rv_FPV_rv_BFII_rv_V5_rv_1600",
    "title": "2006_rv_Ford_rv_FPV_rv_BFII_rv_V5_rv_1600",
    "link_img": "https://live.staticflickr.com/65535/49890091487_139720d420_o.jpg",
    "id_image": "2006_rv_Ford_rv_FPV_rv_BFII_rv_V5_rv_1600",
    "count_view": 0
  },
  {
    "link_thumb": "https://live.staticflickr.com/65535/48118542032_5e597fa7e7_n.jpg",
    "id_album": "-2100339805",
    "description": "Lamborghini_433922",
    "title": "Lamborghini_433922",
    "link_img": "https://live.staticflickr.com/65535/48118542032_b85852beab_o.jpg",
    "id_image": "Lamborghini_433922",
    "count_view": 0
  },
  {
    "link_thumb": "https://live.staticflickr.com/65535/48118766466_8f99245326_n.jpg",
    "id_album": "1986285173",
    "description": "Lancia_273157",
    "title": "Lancia_273157",
    "link_img": "https://live.staticflickr.com/65535/48118766466_3d4e9fafc4_o.jpg",
    "id_image": "Lancia_273157",
    "count_view": 0
  },
  {
    "link_thumb": "https://live.staticflickr.com/65535/48112543943_c106b56ded_n.jpg",
    "id_album": "2097036181",
    "description": "Bentley_228658",
    "title": "Bentley_228658",
    "link_img": "https://live.staticflickr.com/65535/48112543943_9d8f9149bd_o.jpg",
    "id_image": "Bentley_228658",
    "count_view": 0
  },
  {
    "link_thumb": "https://live.staticflickr.com/65535/48122856438_16b976b77b_n.jpg",
    "id_album": "1274920659",
    "description": "Toyota_964875",
    "title": "Toyota_964875",
    "link_img": "https://live.staticflickr.com/65535/48122856438_314dac9826_o.jpg",
    "id_image": "Toyota_964875",
    "count_view": 0
  },
  {
    "link_thumb": "https://live.staticflickr.com/65535/49889270063_387844232d_n.jpg",
    "id_album": "-837371943",
    "description": "2016_rv_Bentley_rv_Continental_rv_GT_rv_Speed_rv_Breitling_rv_Jet_rv_Team_rv_Series_rv_V2_rv_1600",
    "title": "2016_rv_Bentley_rv_Continental_rv_GT_rv_Speed_rv_Breitling_rv_Jet_rv_Team_rv_Series_rv_V2_rv_1600",
    "link_img": "https://live.staticflickr.com/65535/49889270063_e8980935c5_o.jpg",
    "id_image": "2016_rv_Bentley_rv_Continental_rv_GT_rv_Speed_rv_Breitling_rv_Jet_rv_Team_rv_Series_rv_V2_rv_1600",
    "count_view": 0
  },
  {
    "link_thumb": "https://live.staticflickr.com/65535/48117448918_cab8352c2f_n.jpg",
    "id_album": "-1846404630",
    "description": "Ford_740918",
    "title": "Ford_740918",
    "link_img": "https://live.staticflickr.com/65535/48117448918_99de55f9bf_o.jpg",
    "id_image": "Ford_740918",
    "count_view": 0
  },
  {
    "link_thumb": "https://live.staticflickr.com/65535/49890752002_7f746606d5_n.jpg",
    "id_album": "284880556",
    "description": "2009_rv_Maserati_rv_Quattroporte_rv_Sport_rv_GT_rv_S_rv_V8_rv_1536",
    "title": "2009_rv_Maserati_rv_Quattroporte_rv_Sport_rv_GT_rv_S_rv_V8_rv_1536",
    "link_img": "https://live.staticflickr.com/65535/49890752002_0be902b41a_o.jpg",
    "id_image": "2009_rv_Maserati_rv_Quattroporte_rv_Sport_rv_GT_rv_S_rv_V8_rv_1536",
    "count_view": 0
  },
  {
    "link_thumb": "https://live.staticflickr.com/65535/48116480721_cee5ce93b1_n.jpg",
    "id_album": "-803737857",
    "description": "Fiat_472203",
    "title": "Fiat_472203",
    "link_img": "https://live.staticflickr.com/65535/48116480721_63ecbf3949_o.jpg",
    "id_image": "Fiat_472203",
    "count_view": 0
  },
  {
    "link_thumb": "https://live.staticflickr.com/65535/48121925397_f68840ba0a_n.jpg",
    "id_album": "-1178450892",
    "description": "Porsche_994753",
    "title": "Porsche_994753",
    "link_img": "https://live.staticflickr.com/65535/48121925397_e93ed153fa_o.jpg",
    "id_image": "Porsche_994753",
    "count_view": 0
  },
  {
    "link_thumb": "https://live.staticflickr.com/65535/48121086396_c83d4f6639_n.jpg",
    "id_album": "-2099496752",
    "description": "Pontiac_230487",
    "title": "Pontiac_230487",
    "link_img": "https://live.staticflickr.com/65535/48121086396_5e48f8d0c1_o.jpg",
    "id_image": "Pontiac_230487",
    "count_view": 0
  },
  {
    "link_thumb": "https://live.staticflickr.com/65535/49889790441_02b4f7b309_n.jpg",
    "id_album": "-837371943",
    "description": "2019_rv_Bentley_rv_Continental_rv_GT_rv_Convertible_rv_V2_rv_2000",
    "title": "2019_rv_Bentley_rv_Continental_rv_GT_rv_Convertible_rv_V2_rv_2000",
    "link_img": "https://live.staticflickr.com/65535/49889790441_850d7b45a3_o.jpg",
    "id_image": "2019_rv_Bentley_rv_Continental_rv_GT_rv_Convertible_rv_V2_rv_2000",
    "count_view": 0
  },
  {
    "link_thumb": "https://live.staticflickr.com/65535/49892081468_4dffb5419b_n.jpg",
    "id_album": "-57589574",
    "description": "2018_rv_Aston_rv_Martin_rv_Vantage_rv_AMR_rv_V3_rv_2000",
    "title": "2018_rv_Aston_rv_Martin_rv_Vantage_rv_AMR_rv_V3_rv_2000",
    "link_img": "https://live.staticflickr.com/65535/49892081468_157e0a075b_o.jpg",
    "id_image": "2018_rv_Aston_rv_Martin_rv_Vantage_rv_AMR_rv_V3_rv_2000",
    "count_view": 0
  },
  {
    "link_thumb": "https://live.staticflickr.com/65535/48119418203_b19481cc2c_n.jpg",
    "id_album": "990865885",
    "description": "McLaren_906841",
    "title": "McLaren_906841",
    "link_img": "https://live.staticflickr.com/65535/48119418203_3bc850c5e3_o.jpg",
    "id_image": "McLaren_906841",
    "count_view": 0
  },
  {
    "link_thumb": "https://live.staticflickr.com/65535/48112770942_f67af720c1_n.jpg",
    "id_album": "727633301",
    "description": "BMW_254111",
    "title": "BMW_254111",
    "link_img": "https://live.staticflickr.com/65535/48112770942_5900defb87_o.jpg",
    "id_image": "BMW_254111",
    "count_view": 0
  },
  {
    "link_thumb": "https://live.staticflickr.com/65535/48115723843_bca9d34c31_n.jpg",
    "id_album": "1364506720",
    "description": "Ferrari_255171",
    "title": "Ferrari_255171",
    "link_img": "https://live.staticflickr.com/65535/48115723843_72fd240bf3_o.jpg",
    "id_image": "Ferrari_255171",
    "count_view": 0
  },
  {
    "link_thumb": "https://live.staticflickr.com/65535/49889985052_b5f248d55b_n.jpg",
    "id_album": "-717927882",
    "description": "2015_rv_Fisker_rv_Thunderbolt_rv_V2_rv_1600",
    "title": "2015_rv_Fisker_rv_Thunderbolt_rv_V2_rv_1600",
    "link_img": "https://live.staticflickr.com/65535/49889985052_f7397c85c3_o.jpg",
    "id_image": "2015_rv_Fisker_rv_Thunderbolt_rv_V2_rv_1600",
    "count_view": 0
  },
  {
    "link_thumb": "https://live.staticflickr.com/65535/48117769733_584d99b07d_n.jpg",
    "id_album": "249743491",
    "description": "HarleyDavidson_758470",
    "title": "HarleyDavidson_758470",
    "link_img": "https://live.staticflickr.com/65535/48117769733_1b4ae42f86_o.jpg",
    "id_image": "HarleyDavidson_758470",
    "count_view": 0
  },
  {
    "link_thumb": "https://live.staticflickr.com/65535/48113181342_362d24d255_n.jpg",
    "id_album": "727633301",
    "description": "BMW_827563",
    "title": "BMW_827563",
    "link_img": "https://live.staticflickr.com/65535/48113181342_da7c9f94ab_o.jpg",
    "id_image": "BMW_827563",
    "count_view": 0
  },
  {
    "link_thumb": "https://live.staticflickr.com/65535/48122614838_f052af0fd3_n.jpg",
    "id_album": "1822826527",
    "description": "TeslaMotors_855798",
    "title": "TeslaMotors_855798",
    "link_img": "https://live.staticflickr.com/65535/48122614838_fb2e92b183_o.jpg",
    "id_image": "TeslaMotors_855798",
    "count_view": 0
  },
  {
    "link_thumb": "https://live.staticflickr.com/65535/48117257926_066fc76a70_n.jpg",
    "id_album": "-1846404630",
    "description": "Ford_476763",
    "title": "Ford_476763",
    "link_img": "https://live.staticflickr.com/65535/48117257926_5186e8161c_o.jpg",
    "id_image": "Ford_476763",
    "count_view": 0
  },
  {
    "link_thumb": "https://live.staticflickr.com/65535/49892596617_4d37ec0d7b_n.jpg",
    "id_album": "-2129407588",
    "description": "2020_rv_Rimac_rv_C_rv_Two_rv_V2_rv_2000",
    "title": "2020_rv_Rimac_rv_C_rv_Two_rv_V2_rv_2000",
    "link_img": "https://live.staticflickr.com/65535/49892596617_6ebdba0315_o.jpg",
    "id_image": "2020_rv_Rimac_rv_C_rv_Two_rv_V2_rv_2000",
    "count_view": 0
  },
  {
    "link_thumb": "https://live.staticflickr.com/65535/48117443133_c3fcd4d96e_n.jpg",
    "id_album": "-1846404630",
    "description": "Ford_740719",
    "title": "Ford_740719",
    "link_img": "https://live.staticflickr.com/65535/48117443133_68a995a84b_o.jpg",
    "id_image": "Ford_740719",
    "count_view": 0
  },
  {
    "link_thumb": "https://live.staticflickr.com/65535/49890393257_21a11cc5f5_n.jpg",
    "id_album": "-59902933",
    "description": "2012_rv_Lamborghini_rv_Aventador_rv_J_rv_Concept_rv_V5_rv_1440",
    "title": "2012_rv_Lamborghini_rv_Aventador_rv_J_rv_Concept_rv_V5_rv_1440",
    "link_img": "https://live.staticflickr.com/65535/49890393257_a072353c0e_o.jpg",
    "id_image": "2012_rv_Lamborghini_rv_Aventador_rv_J_rv_Concept_rv_V5_rv_1440",
    "count_view": 0
  },
  {
    "link_thumb": "https://live.staticflickr.com/65535/48118859452_2ac640468f_n.jpg",
    "id_album": "1986285173",
    "description": "Lancia_393359",
    "title": "Lancia_393359",
    "link_img": "https://live.staticflickr.com/65535/48118859452_330437143f_o.jpg",
    "id_image": "Lancia_393359",
    "count_view": 0
  },
  {
    "link_thumb": "https://live.staticflickr.com/65535/48119293366_7e7d81c84d_n.jpg",
    "id_album": "990865885",
    "description": "McLaren_507332",
    "title": "McLaren_507332",
    "link_img": "https://live.staticflickr.com/65535/48119293366_3b2ea82985_o.jpg",
    "id_image": "McLaren_507332",
    "count_view": 0
  },
  {
    "link_thumb": "https://live.staticflickr.com/65535/48118916033_6fb3a927c5_n.jpg",
    "id_album": "446908717",
    "description": "Lexus_686599",
    "title": "Lexus_686599",
    "link_img": "https://live.staticflickr.com/65535/48118916033_997b752714_o.jpg",
    "id_image": "Lexus_686599",
    "count_view": 0
  },
  {
    "link_thumb": "https://live.staticflickr.com/65535/49891175552_daa5b93140_n.jpg",
    "id_album": "-35902487",
    "description": "2017_rv_Mercedes_rv_AMG_rv_Project_rv_ONE_rv_Concept_rv_V1_rv_2000",
    "title": "2017_rv_Mercedes_rv_AMG_rv_Project_rv_ONE_rv_Concept_rv_V1_rv_2000",
    "link_img": "https://live.staticflickr.com/65535/49891175552_e36bc59ab6_o.jpg",
    "id_image": "2017_rv_Mercedes_rv_AMG_rv_Project_rv_ONE_rv_Concept_rv_V1_rv_2000",
    "count_view": 0
  },
  {
    "link_thumb": "https://live.staticflickr.com/65535/48117878798_da849d3ce4_n.jpg",
    "id_album": "-354267407",
    "description": "Honda_684217",
    "title": "Honda_684217",
    "link_img": "https://live.staticflickr.com/65535/48117878798_c0086f87d9_o.jpg",
    "id_image": "Honda_684217",
    "count_view": 0
  },
  {
    "link_thumb": "https://live.staticflickr.com/65535/48121278246_e361798cd6_n.jpg",
    "id_album": "-1178450892",
    "description": "Porsche_273787",
    "title": "Porsche_273787",
    "link_img": "https://live.staticflickr.com/65535/48121278246_fe6ec2b29c_o.jpg",
    "id_image": "Porsche_273787",
    "count_view": 0
  },
  {
    "link_thumb": "https://live.staticflickr.com/65535/48121786302_0e52327078_n.jpg",
    "id_album": "-1178450892",
    "description": "Porsche_880368",
    "title": "Porsche_880368",
    "link_img": "https://live.staticflickr.com/65535/48121786302_ed0247c5be_o.jpg",
    "id_image": "Porsche_880368",
    "count_view": 0
  },
  {
    "link_thumb": "https://live.staticflickr.com/65535/48123206488_01cbe24f12_n.jpg",
    "id_album": "1159292543",
    "description": "Volvo_879649",
    "title": "Volvo_879649",
    "link_img": "https://live.staticflickr.com/65535/48123206488_96d5a587d2_o.jpg",
    "id_image": "Volvo_879649",
    "count_view": 0
  },
  {
    "link_thumb": "https://live.staticflickr.com/65535/48116819388_1c90fd0132_n.jpg",
    "id_album": "-1846404630",
    "description": "Ford_235344",
    "title": "Ford_235344",
    "link_img": "https://live.staticflickr.com/65535/48116819388_c90b84b67f_o.jpg",
    "id_image": "Ford_235344",
    "count_view": 0
  },
  {
    "link_thumb": "https://live.staticflickr.com/65535/48119247392_87206b5a09_n.jpg",
    "id_album": "697984456",
    "description": "Maserati_935335",
    "title": "Maserati_935335",
    "link_img": "https://live.staticflickr.com/65535/48119247392_2c78ba4da6_o.jpg",
    "id_image": "Maserati_935335",
    "count_view": 0
  },
  {
    "link_thumb": "https://live.staticflickr.com/65535/48115359586_48ceeed850_n.jpg",
    "id_album": "413141323",
    "description": "Dodge_504594",
    "title": "Dodge_504594",
    "link_img": "https://live.staticflickr.com/65535/48115359586_3cea6126d7_o.jpg",
    "id_image": "Dodge_504594",
    "count_view": 0
  },
  {
    "link_thumb": "https://live.staticflickr.com/65535/48121769132_c86ea64eab_n.jpg",
    "id_album": "-1178450892",
    "description": "Porsche_864009",
    "title": "Porsche_864009",
    "link_img": "https://live.staticflickr.com/65535/48121769132_230950a5b8_o.jpg",
    "id_image": "Porsche_864009",
    "count_view": 0
  },
  {
    "link_thumb": "https://live.staticflickr.com/65535/48120669648_4b25b5421f_n.jpg",
    "id_album": "-2131154733",
    "description": "Oldsmobile_288793",
    "title": "Oldsmobile_288793",
    "link_img": "https://live.staticflickr.com/65535/48120669648_16c09ac11e_o.jpg",
    "id_image": "Oldsmobile_288793",
    "count_view": 0
  },
  {
    "link_thumb": "https://live.staticflickr.com/65535/48115372112_549b0e10f8_n.jpg",
    "id_album": "413141323",
    "description": "Dodge_457675",
    "title": "Dodge_457675",
    "link_img": "https://live.staticflickr.com/65535/48115372112_d6856b421d_o.jpg",
    "id_image": "Dodge_457675",
    "count_view": 0
  },
  {
    "link_thumb": "https://live.staticflickr.com/65535/48119506458_cb5ce948dc_n.jpg",
    "id_album": "-731054311",
    "description": "MercedesBenz_206891",
    "title": "MercedesBenz_206891",
    "link_img": "https://live.staticflickr.com/65535/48119506458_c4af3afee2_o.jpg",
    "id_image": "MercedesBenz_206891",
    "count_view": 0
  },
  {
    "link_thumb": "https://live.staticflickr.com/65535/48121562881_06eba4d769_n.jpg",
    "id_album": "-1178450892",
    "description": "Porsche_695249",
    "title": "Porsche_695249",
    "link_img": "https://live.staticflickr.com/65535/48121562881_4eeaf2bbc2_o.jpg",
    "id_image": "Porsche_695249",
    "count_view": 0
  },
  {
    "link_thumb": "https://live.staticflickr.com/65535/49892744317_07b72339c7_n.jpg",
    "id_album": "-992651525",
    "description": "2015_rv_Subaru_rv_WRX_rv_V2_rv_1600",
    "title": "2015_rv_Subaru_rv_WRX_rv_V2_rv_1600",
    "link_img": "https://live.staticflickr.com/65535/49892744317_5527eb3985_o.jpg",
    "id_image": "2015_rv_Subaru_rv_WRX_rv_V2_rv_1600",
    "count_view": 0
  },
  {
    "link_thumb": "https://live.staticflickr.com/65535/48120369721_29ca6337df_n.jpg",
    "id_album": "810634050",
    "description": "Nissan_319299",
    "title": "Nissan_319299",
    "link_img": "https://live.staticflickr.com/65535/48120369721_8c363b51fa_o.jpg",
    "id_image": "Nissan_319299",
    "count_view": 0
  },
  {
    "link_thumb": "https://live.staticflickr.com/65535/48115431271_b3c28a17ee_n.jpg",
    "id_album": "413141323",
    "description": "Dodge_598396",
    "title": "Dodge_598396",
    "link_img": "https://live.staticflickr.com/65535/48115431271_30aa7d49e4_o.jpg",
    "id_image": "Dodge_598396",
    "count_view": 0
  },
  {
    "link_thumb": "https://live.staticflickr.com/65535/49889267041_5727006f14_n.jpg",
    "id_album": "-842876963",
    "description": "2020_rv_Chevrolet_rv_Corvette_rv_Stingray_rv_V15_rv_2160",
    "title": "2020_rv_Chevrolet_rv_Corvette_rv_Stingray_rv_V15_rv_2160",
    "link_img": "https://live.staticflickr.com/65535/49889267041_6d9b941848_o.jpg",
    "id_image": "2020_rv_Chevrolet_rv_Corvette_rv_Stingray_rv_V15_rv_2160",
    "count_view": 0
  },
  {
    "link_thumb": "https://live.staticflickr.com/65535/49889620752_c108184136_n.jpg",
    "id_album": "-111605365",
    "description": "2005_rv_Chrysler_rv_Firepower_rv_Concept_rv_V3_rv_1536",
    "title": "2005_rv_Chrysler_rv_Firepower_rv_Concept_rv_V3_rv_1536",
    "link_img": "https://live.staticflickr.com/65535/49889620752_ec2282d6b4_o.jpg",
    "id_image": "2005_rv_Chrysler_rv_Firepower_rv_Concept_rv_V3_rv_1536",
    "count_view": 0
  },
  {
    "link_thumb": "https://live.staticflickr.com/65535/48119179886_3294541bc6_n.jpg",
    "id_album": "898314866",
    "description": "Mazda_188814",
    "title": "Mazda_188814",
    "link_img": "https://live.staticflickr.com/65535/48119179886_52d845fb55_o.jpg",
    "id_image": "Mazda_188814",
    "count_view": 0
  },
  {
    "link_thumb": "https://live.staticflickr.com/65535/48122860827_dd59c99dd7_n.jpg",
    "id_album": "1274920659",
    "description": "Toyota_711110",
    "title": "Toyota_711110",
    "link_img": "https://live.staticflickr.com/65535/48122860827_62cf21233c_o.jpg",
    "id_image": "Toyota_711110",
    "count_view": 0
  },
  {
    "link_thumb": "https://live.staticflickr.com/65535/48116849307_476b16e013_n.jpg",
    "id_album": "-1846404630",
    "description": "Ford_209790",
    "title": "Ford_209790",
    "link_img": "https://live.staticflickr.com/65535/48116849307_00b83d1da8_o.jpg",
    "id_image": "Ford_209790",
    "count_view": 0
  },
  {
    "link_thumb": "https://live.staticflickr.com/65535/49891112092_5df88c47e2_n.jpg",
    "id_album": "546154853",
    "description": "2016_rv_Mercedes_rv_Benz_rv_GLE450_rv_AMG_rv_Coupe_rv_V3_rv_1600",
    "title": "2016_rv_Mercedes_rv_Benz_rv_GLE450_rv_AMG_rv_Coupe_rv_V3_rv_1600",
    "link_img": "https://live.staticflickr.com/65535/49891112092_d3d2b8fc45_o.jpg",
    "id_image": "2016_rv_Mercedes_rv_Benz_rv_GLE450_rv_AMG_rv_Coupe_rv_V3_rv_1600",
    "count_view": 0
  },
  {
    "link_thumb": "https://live.staticflickr.com/65535/48116576892_cb1a82c428_n.jpg",
    "id_album": "-803737857",
    "description": "Fiat_472215",
    "title": "Fiat_472215",
    "link_img": "https://live.staticflickr.com/65535/48116576892_fa61ab4477_o.jpg",
    "id_image": "Fiat_472215",
    "count_view": 0
  },
  {
    "link_thumb": "https://live.staticflickr.com/65535/48121813492_310eb1f101_n.jpg",
    "id_album": "-1178450892",
    "description": "Porsche_897557",
    "title": "Porsche_897557",
    "link_img": "https://live.staticflickr.com/65535/48121813492_ae827dc3be_o.jpg",
    "id_image": "Porsche_897557",
    "count_view": 0
  },
  {
    "link_thumb": "https://live.staticflickr.com/65535/48116244417_f3e0672c85_n.jpg",
    "id_album": "1364506720",
    "description": "Ferrari_687032",
    "title": "Ferrari_687032",
    "link_img": "https://live.staticflickr.com/65535/48116244417_fef1936cf3_o.jpg",
    "id_image": "Ferrari_687032",
    "count_view": 0
  },
  {
    "link_thumb": "https://live.staticflickr.com/65535/48120009003_8c710bed34_n.jpg",
    "id_album": "-1366790033",
    "description": "Mercury_172489",
    "title": "Mercury_172489",
    "link_img": "https://live.staticflickr.com/65535/48120009003_ab23ee8c29_o.jpg",
    "id_image": "Mercury_172489",
    "count_view": 0
  },
  {
    "link_thumb": "https://live.staticflickr.com/65535/48115427227_b5b7a6c5e9_n.jpg",
    "id_album": "413141323",
    "description": "Dodge_483312",
    "title": "Dodge_483312",
    "link_img": "https://live.staticflickr.com/65535/48115427227_5755cc2fdd_o.jpg",
    "id_image": "Dodge_483312",
    "count_view": 0
  },
  {
    "link_thumb": "https://live.staticflickr.com/65535/49889121832_4eb9d23c4d_n.jpg",
    "id_album": "2068783385",
    "description": "2013_rv_Aston_rv_Martin_rv_DBC_rv_Concept_rv_V4_rv_1600",
    "title": "2013_rv_Aston_rv_Martin_rv_DBC_rv_Concept_rv_V4_rv_1600",
    "link_img": "https://live.staticflickr.com/65535/49889121832_bbf42a86fa_o.jpg",
    "id_image": "2013_rv_Aston_rv_Martin_rv_DBC_rv_Concept_rv_V4_rv_1600",
    "count_view": 0
  },
  {
    "link_thumb": "https://live.staticflickr.com/65535/48118151051_c209723ee0_n.jpg",
    "id_album": "-625217782",
    "description": "Kia_449870",
    "title": "Kia_449870",
    "link_img": "https://live.staticflickr.com/65535/48118151051_58fda8a332_o.jpg",
    "id_image": "Kia_449870",
    "count_view": 0
  },
  {
    "link_thumb": "https://live.staticflickr.com/65535/48118472271_28b089a916_n.jpg",
    "id_album": "-2100339805",
    "description": "Lamborghini_450814",
    "title": "Lamborghini_450814",
    "link_img": "https://live.staticflickr.com/65535/48118472271_d14467df92_o.jpg",
    "id_image": "Lamborghini_450814",
    "count_view": 0
  },
  {
    "link_thumb": "https://live.staticflickr.com/65535/48114093117_e9c84fe956_n.jpg",
    "id_album": "-1721545051",
    "description": "Chevrolet_288834",
    "title": "Chevrolet_288834",
    "link_img": "https://live.staticflickr.com/65535/48114093117_405714a4a7_o.jpg",
    "id_image": "Chevrolet_288834",
    "count_view": 0
  },
  {
    "link_thumb": "https://live.staticflickr.com/65535/48115137507_3ae50a1612_n.jpg",
    "id_album": "413141323",
    "description": "Dodge_194316",
    "title": "Dodge_194316",
    "link_img": "https://live.staticflickr.com/65535/48115137507_8934ff1226_o.jpg",
    "id_image": "Dodge_194316",
    "count_view": 0
  },
  {
    "link_thumb": "https://live.staticflickr.com/65535/48119513732_14b3359243_n.jpg",
    "id_album": "990865885",
    "description": "McLaren_980440",
    "title": "McLaren_980440",
    "link_img": "https://live.staticflickr.com/65535/48119513732_2e5fcd350a_o.jpg",
    "id_image": "McLaren_980440",
    "count_view": 0
  },
  {
    "link_thumb": "https://live.staticflickr.com/65535/48112687233_a0cba2488d_n.jpg",
    "id_album": "727633301",
    "description": "BMW_253949",
    "title": "BMW_253949",
    "link_img": "https://live.staticflickr.com/65535/48112687233_75a0d2fbf2_o.jpg",
    "id_image": "BMW_253949",
    "count_view": 0
  },
  {
    "link_thumb": "https://live.staticflickr.com/65535/48112874746_322b0ac539_n.jpg",
    "id_album": "727633301",
    "description": "BMW_485650",
    "title": "BMW_485650",
    "link_img": "https://live.staticflickr.com/65535/48112874746_c77e2ba76c_o.jpg",
    "id_image": "BMW_485650",
    "count_view": 0
  },
  {
    "link_thumb": "https://live.staticflickr.com/65535/48118570151_c566b4d2fa_n.jpg",
    "id_album": "-2100339805",
    "description": "Lamborghini_690983",
    "title": "Lamborghini_690983",
    "link_img": "https://live.staticflickr.com/65535/48118570151_76d73acb04_o.jpg",
    "id_image": "Lamborghini_690983",
    "count_view": 0
  },
  {
    "link_thumb": "https://live.staticflickr.com/65535/48112361903_85baedb659_n.jpg",
    "id_album": "-15119147",
    "description": "Audi_476172",
    "title": "Audi_476172",
    "link_img": "https://live.staticflickr.com/65535/48112361903_bce7ea589a_o.jpg",
    "id_image": "Audi_476172",
    "count_view": 0
  },
  {
    "link_thumb": "https://live.staticflickr.com/65535/48120023196_ecd18528cf_n.jpg",
    "id_album": "-1116477526",
    "description": "Mitsubishi_257433",
    "title": "Mitsubishi_257433",
    "link_img": "https://live.staticflickr.com/65535/48120023196_054879ba9b_o.jpg",
    "id_image": "Mitsubishi_257433",
    "count_view": 0
  },
  {
    "link_thumb": "https://live.staticflickr.com/65535/48118790501_0474cd477c_n.jpg",
    "id_album": "1234246491",
    "description": "LandRover_281943",
    "title": "LandRover_281943",
    "link_img": "https://live.staticflickr.com/65535/48118790501_8e8119baf2_o.jpg",
    "id_image": "LandRover_281943",
    "count_view": 0
  },
  {
    "link_thumb": "https://live.staticflickr.com/65535/48119761196_7bf22a72df_n.jpg",
    "id_album": "-731054311",
    "description": "MercedesBenz_729351",
    "title": "MercedesBenz_729351",
    "link_img": "https://live.staticflickr.com/65535/48119761196_4216c8b16a_o.jpg",
    "id_image": "MercedesBenz_729351",
    "count_view": 0
  },
  {
    "link_thumb": "https://live.staticflickr.com/65535/48121309951_69bab5402f_n.jpg",
    "id_album": "-1178450892",
    "description": "Porsche_319379",
    "title": "Porsche_319379",
    "link_img": "https://live.staticflickr.com/65535/48121309951_ff86b7e5ae_o.jpg",
    "id_image": "Porsche_319379",
    "count_view": 0
  },
  {
    "link_thumb": "https://live.staticflickr.com/65535/48119267323_6d81cc43c5_n.jpg",
    "id_album": "898314866",
    "description": "Mazda_862613",
    "title": "Mazda_862613",
    "link_img": "https://live.staticflickr.com/65535/48119267323_bd2bd49f92_o.jpg",
    "id_image": "Mazda_862613",
    "count_view": 0
  },
  {
    "link_thumb": "https://live.staticflickr.com/65535/49890558537_59f796fe36_n.jpg",
    "id_album": "2051566758",
    "description": "1973_rv_Lancia_rv_Stratos_rv_HF_rv_V7_rv_1440",
    "title": "1973_rv_Lancia_rv_Stratos_rv_HF_rv_V7_rv_1440",
    "link_img": "https://live.staticflickr.com/65535/49890558537_6e6e08269e_o.jpg",
    "id_image": "1973_rv_Lancia_rv_Stratos_rv_HF_rv_V7_rv_1440",
    "count_view": 0
  },
  {
    "link_thumb": "https://live.staticflickr.com/65535/48118229291_6c8d1663e5_n.jpg",
    "id_album": "-2100339805",
    "description": "Lamborghini_151878",
    "title": "Lamborghini_151878",
    "link_img": "https://live.staticflickr.com/65535/48118229291_a8e938a570_o.jpg",
    "id_image": "Lamborghini_151878",
    "count_view": 0
  },
  {
    "link_thumb": "https://live.staticflickr.com/65535/48113573523_ef0e66902d_n.jpg",
    "id_album": "-680120434",
    "description": "Cadillac_317619",
    "title": "Cadillac_317619",
    "link_img": "https://live.staticflickr.com/65535/48113573523_cd74b15462_o.jpg",
    "id_image": "Cadillac_317619",
    "count_view": 0
  },
  {
    "link_thumb": "https://live.staticflickr.com/65535/48119699181_21765ed6bd_n.jpg",
    "id_album": "-731054311",
    "description": "MercedesBenz_505459",
    "title": "MercedesBenz_505459",
    "link_img": "https://live.staticflickr.com/65535/48119699181_3f49a5d4aa_o.jpg",
    "id_image": "MercedesBenz_505459",
    "count_view": 0
  },
  {
    "link_thumb": "https://live.staticflickr.com/65535/48123167161_9b40ea7016_n.jpg",
    "id_album": "1159292543",
    "description": "Volvo_866730",
    "title": "Volvo_866730",
    "link_img": "https://live.staticflickr.com/65535/48123167161_3b52eae29e_o.jpg",
    "id_image": "Volvo_866730",
    "count_view": 0
  },
  {
    "link_thumb": "https://live.staticflickr.com/65535/49888810303_8d2c70b773_n.jpg",
    "id_album": "42071222",
    "description": "2015_rv_Chevrolet_rv_Camaro_rv_Krypton_rv_Concept_rv_V1_rv_2000",
    "title": "2015_rv_Chevrolet_rv_Camaro_rv_Krypton_rv_Concept_rv_V1_rv_2000",
    "link_img": "https://live.staticflickr.com/65535/49888810303_99c26a6eff_o.jpg",
    "id_image": "2015_rv_Chevrolet_rv_Camaro_rv_Krypton_rv_Concept_rv_V1_rv_2000",
    "count_view": 0
  },
  {
    "link_thumb": "https://live.staticflickr.com/65535/49889675528_9b66d20eed_n.jpg",
    "id_album": "-1888261940",
    "description": "2006_rv_Lamborghini_rv_Murcielago_rv_LP640_rv_V5_rv_1440",
    "title": "2006_rv_Lamborghini_rv_Murcielago_rv_LP640_rv_V5_rv_1440",
    "link_img": "https://live.staticflickr.com/65535/49889675528_a864f94668_o.jpg",
    "id_image": "2006_rv_Lamborghini_rv_Murcielago_rv_LP640_rv_V5_rv_1440",
    "count_view": 0
  },
  {
    "link_thumb": "https://live.staticflickr.com/65535/48122052096_09f01f2c51_n.jpg",
    "id_album": "-1217333387",
    "description": "Renault_906729",
    "title": "Renault_906729",
    "link_img": "https://live.staticflickr.com/65535/48122052096_f320fa3813_o.jpg",
    "id_image": "Renault_906729",
    "count_view": 0
  },
  {
    "link_thumb": "https://live.staticflickr.com/65535/48112695658_26ee3003e2_n.jpg",
    "id_album": "727633301",
    "description": "BMW_254013",
    "title": "BMW_254013",
    "link_img": "https://live.staticflickr.com/65535/48112695658_d3d5f7483c_o.jpg",
    "id_image": "BMW_254013",
    "count_view": 0
  },
  {
    "link_thumb": "https://live.staticflickr.com/65535/49890401913_6ddf7f0dfa_n.jpg",
    "id_album": "-2129417883",
    "description": "2011_rv_Mercedes_rv_Benz_rv_SLS_rv_AMG_rv_Roadster_rv_V3_rv_1536",
    "title": "2011_rv_Mercedes_rv_Benz_rv_SLS_rv_AMG_rv_Roadster_rv_V3_rv_1536",
    "link_img": "https://live.staticflickr.com/65535/49890401913_b925365def_o.jpg",
    "id_image": "2011_rv_Mercedes_rv_Benz_rv_SLS_rv_AMG_rv_Roadster_rv_V3_rv_1536",
    "count_view": 0
  },
  {
    "link_thumb": "https://live.staticflickr.com/65535/48116376067_e3c2c6174d_n.jpg",
    "id_album": "1364506720",
    "description": "Ferrari_758325",
    "title": "Ferrari_758325",
    "link_img": "https://live.staticflickr.com/65535/48116376067_b4c3126c32_o.jpg",
    "id_image": "Ferrari_758325",
    "count_view": 0
  },
  {
    "link_thumb": "https://live.staticflickr.com/65535/49890079187_5f7642d98c_n.jpg",
    "id_album": "1370790237",
    "description": "2015_rv_Dodge_rv_Challenger_rv_V1_rv_1600",
    "title": "2015_rv_Dodge_rv_Challenger_rv_V1_rv_1600",
    "link_img": "https://live.staticflickr.com/65535/49890079187_0dbf5cae2b_o.jpg",
    "id_image": "2015_rv_Dodge_rv_Challenger_rv_V1_rv_1600",
    "count_view": 0
  },
  {
    "link_thumb": "https://live.staticflickr.com/65535/48117156587_980e389156_n.jpg",
    "id_album": "-1846404630",
    "description": "Ford_378272",
    "title": "Ford_378272",
    "link_img": "https://live.staticflickr.com/65535/48117156587_836e59341b_o.jpg",
    "id_image": "Ford_378272",
    "count_view": 0
  },
  {
    "link_thumb": "https://live.staticflickr.com/65535/49892416061_61cce2c1eb_n.jpg",
    "id_album": "-681561632",
    "description": "2010_rv_Subaru_rv_Forester_rv_tS_rv_V4_rv_1440",
    "title": "2010_rv_Subaru_rv_Forester_rv_tS_rv_V4_rv_1440",
    "link_img": "https://live.staticflickr.com/65535/49892416061_05b60b18f7_o.jpg",
    "id_image": "2010_rv_Subaru_rv_Forester_rv_tS_rv_V4_rv_1440",
    "count_view": 0
  },
  {
    "link_thumb": "https://live.staticflickr.com/65535/49889679882_0dea2511c5_n.jpg",
    "id_album": "-1276282568",
    "description": "1989_rv_Formula1_rv_Ferrari_rv_F1_rv_89_rv_V1_rv_2000",
    "title": "1989_rv_Formula1_rv_Ferrari_rv_F1_rv_89_rv_V1_rv_2000",
    "link_img": "https://live.staticflickr.com/65535/49889679882_c847fc0418_o.jpg",
    "id_image": "1989_rv_Formula1_rv_Ferrari_rv_F1_rv_89_rv_V1_rv_2000",
    "count_view": 0
  },
  {
    "link_thumb": "https://live.staticflickr.com/65535/48112230951_f986d70098_n.jpg",
    "id_album": "-15119147",
    "description": "Audi_208302",
    "title": "Audi_208302",
    "link_img": "https://live.staticflickr.com/65535/48112230951_d51607409d_o.jpg",
    "id_image": "Audi_208302",
    "count_view": 0
  },
  {
    "link_thumb": "https://live.staticflickr.com/65535/48120971981_f6bcf2bb67_n.jpg",
    "id_album": "-1123679742",
    "description": "Plymouth_238389",
    "title": "Plymouth_238389",
    "link_img": "https://live.staticflickr.com/65535/48120971981_73ddb39709_o.jpg",
    "id_image": "Plymouth_238389",
    "count_view": 0
  },
  {
    "link_thumb": "https://live.staticflickr.com/65535/48118231512_f9fd39d1b4_n.jpg",
    "id_album": "-625217782",
    "description": "Kia_273147",
    "title": "Kia_273147",
    "link_img": "https://live.staticflickr.com/65535/48118231512_bb39785b33_o.jpg",
    "id_image": "Kia_273147",
    "count_view": 0
  },
  {
    "link_thumb": "https://live.staticflickr.com/65535/49889038758_cc9c9cf66d_n.jpg",
    "id_album": "1828657669",
    "description": "1995_rv_Ferrari_rv_F50_rv_V10_rv_1600",
    "title": "1995_rv_Ferrari_rv_F50_rv_V10_rv_1600",
    "link_img": "https://live.staticflickr.com/65535/49889038758_66a41c50dd_o.jpg",
    "id_image": "1995_rv_Ferrari_rv_F50_rv_V10_rv_1600",
    "count_view": 0
  },
  {
    "link_thumb": "https://live.staticflickr.com/65535/48116065441_ea207e672e_n.jpg",
    "id_album": "1364506720",
    "description": "Ferrari_525254",
    "title": "Ferrari_525254",
    "link_img": "https://live.staticflickr.com/65535/48116065441_6b290505da_o.jpg",
    "id_image": "Ferrari_525254",
    "count_view": 0
  },
  {
    "link_thumb": "https://live.staticflickr.com/65535/48118796051_86f9f0c190_n.jpg",
    "id_album": "1234246491",
    "description": "LandRover_351155",
    "title": "LandRover_351155",
    "link_img": "https://live.staticflickr.com/65535/48118796051_37415de15a_o.jpg",
    "id_image": "LandRover_351155",
    "count_view": 0
  },
  {
    "link_thumb": "https://live.staticflickr.com/65535/48117650566_e4f23f4b00_n.jpg",
    "id_album": "-1846404630",
    "description": "Ford_97592",
    "title": "Ford_97592",
    "link_img": "https://live.staticflickr.com/65535/48117650566_1ef1dda943_o.jpg",
    "id_image": "Ford_97592",
    "count_view": 0
  },
  {
    "link_thumb": "https://live.staticflickr.com/65535/48119921508_b4d58fb13e_n.jpg",
    "id_album": "-731054311",
    "description": "MercedesBenz_924846",
    "title": "MercedesBenz_924846",
    "link_img": "https://live.staticflickr.com/65535/48119921508_a3c6ae99d4_o.jpg",
    "id_image": "MercedesBenz_924846",
    "count_view": 0
  },
  {
    "link_thumb": "https://live.staticflickr.com/65535/49890988036_751cc2b38d_n.jpg",
    "id_album": "-1755207202",
    "description": "2012_rv_Morgan_rv_Aero_rv_Coupe_rv_V3_rv_1536",
    "title": "2012_rv_Morgan_rv_Aero_rv_Coupe_rv_V3_rv_1536",
    "link_img": "https://live.staticflickr.com/65535/49890988036_0ab17c904b_o.jpg",
    "id_image": "2012_rv_Morgan_rv_Aero_rv_Coupe_rv_V3_rv_1536",
    "count_view": 0
  },
  {
    "link_thumb": "https://live.staticflickr.com/65535/48122818046_034170ebdc_n.jpg",
    "id_album": "1274920659",
    "description": "Toyota_964862",
    "title": "Toyota_964862",
    "link_img": "https://live.staticflickr.com/65535/48122818046_32a87b66ff_o.jpg",
    "id_image": "Toyota_964862",
    "count_view": 0
  },
  {
    "link_thumb": "https://live.staticflickr.com/65535/49889752572_68ddbb4786_n.jpg",
    "id_album": "1471706457",
    "description": "1984_rv_Ferrari_rv_288_rv_GTO_rv_V1_rv_2160",
    "title": "1984_rv_Ferrari_rv_288_rv_GTO_rv_V1_rv_2160",
    "link_img": "https://live.staticflickr.com/65535/49889752572_f783fdc8a2_o.jpg",
    "id_image": "1984_rv_Ferrari_rv_288_rv_GTO_rv_V1_rv_2160",
    "count_view": 0
  },
  {
    "link_thumb": "https://live.staticflickr.com/65535/49890079002_8caf7f2ba9_n.jpg",
    "id_album": "1370790237",
    "description": "2015_rv_Dodge_rv_Challenger_rv_SRT_rv_Hellcat_rv_V9_rv_1600",
    "title": "2015_rv_Dodge_rv_Challenger_rv_SRT_rv_Hellcat_rv_V9_rv_1600",
    "link_img": "https://live.staticflickr.com/65535/49890079002_61f69760c0_o.jpg",
    "id_image": "2015_rv_Dodge_rv_Challenger_rv_SRT_rv_Hellcat_rv_V9_rv_1600",
    "count_view": 0
  },
  {
    "link_thumb": "https://live.staticflickr.com/65535/48113835251_491c9dc6f6_n.jpg",
    "id_album": "-1721545051",
    "description": "Chevrolet_223969",
    "title": "Chevrolet_223969",
    "link_img": "https://live.staticflickr.com/65535/48113835251_d45e74bae9_o.jpg",
    "id_image": "Chevrolet_223969",
    "count_view": 0
  },
  {
    "link_thumb": "https://live.staticflickr.com/65535/48120605017_bb2717aebc_n.jpg",
    "id_album": "810634050",
    "description": "Nissan_547159",
    "title": "Nissan_547159",
    "link_img": "https://live.staticflickr.com/65535/48120605017_167ab12447_o.jpg",
    "id_image": "Nissan_547159",
    "count_view": 0
  },
  {
    "link_thumb": "https://live.staticflickr.com/65535/49891378177_2dae716d93_n.jpg",
    "id_album": "1926016549",
    "description": "1978_rv_Nissan_rv_280Z_rv_V3_rv_1440",
    "title": "1978_rv_Nissan_rv_280Z_rv_V3_rv_1440",
    "link_img": "https://live.staticflickr.com/65535/49891378177_708f437f0b_o.jpg",
    "id_image": "1978_rv_Nissan_rv_280Z_rv_V3_rv_1440",
    "count_view": 0
  },
  {
    "link_thumb": "https://live.staticflickr.com/65535/49891974303_201ed3cfb1_n.jpg",
    "id_album": "-1642234658",
    "description": "1984_rv_Toyota_rv_Celica_rv_Supra_rv_V3_rv_1440",
    "title": "1984_rv_Toyota_rv_Celica_rv_Supra_rv_V3_rv_1440",
    "link_img": "https://live.staticflickr.com/65535/49891974303_1143bb46a5_o.jpg",
    "id_image": "1984_rv_Toyota_rv_Celica_rv_Supra_rv_V3_rv_1440",
    "count_view": 0
  },
  {
    "link_thumb": "https://live.staticflickr.com/65535/48120486096_135e79b549_n.jpg",
    "id_album": "810634050",
    "description": "Nissan_493137",
    "title": "Nissan_493137",
    "link_img": "https://live.staticflickr.com/65535/48120486096_99f33f13dc_o.jpg",
    "id_image": "Nissan_493137",
    "count_view": 0
  },
  {
    "link_thumb": "https://live.staticflickr.com/65535/48122134313_07c1766893_n.jpg",
    "id_album": "1536700661",
    "description": "RollsRoyce_319279",
    "title": "RollsRoyce_319279",
    "link_img": "https://live.staticflickr.com/65535/48122134313_2266ce0ffe_o.jpg",
    "id_image": "RollsRoyce_319279",
    "count_view": 0
  },
  {
    "link_thumb": "https://live.staticflickr.com/65535/48112372778_17b8b5d941_n.jpg",
    "id_album": "-15119147",
    "description": "Audi_478968",
    "title": "Audi_478968",
    "link_img": "https://live.staticflickr.com/65535/48112372778_270374a6fd_o.jpg",
    "id_image": "Audi_478968",
    "count_view": 0
  },
  {
    "link_thumb": "https://live.staticflickr.com/65535/49889154026_870bfea30a_n.jpg",
    "id_album": "-1077631613",
    "description": "2014_rv_BMW_rv_Vision_rv_Gran_rv_Turismo_rv_V3_rv_1600",
    "title": "2014_rv_BMW_rv_Vision_rv_Gran_rv_Turismo_rv_V3_rv_1600",
    "link_img": "https://live.staticflickr.com/65535/49889154026_3d143eccd0_o.jpg",
    "id_image": "2014_rv_BMW_rv_Vision_rv_Gran_rv_Turismo_rv_V3_rv_1600",
    "count_view": 0
  },
  {
    "link_thumb": "https://live.staticflickr.com/65535/48119024061_ab9ae533e3_n.jpg",
    "id_album": "-1153253263",
    "description": "Lotus_673564",
    "title": "Lotus_673564",
    "link_img": "https://live.staticflickr.com/65535/48119024061_5a8eeeab93_o.jpg",
    "id_image": "Lotus_673564",
    "count_view": 0
  },
  {
    "link_thumb": "https://live.staticflickr.com/65535/49889453293_f0fbfe0ab5_n.jpg",
    "id_album": "781714354",
    "description": "2013_rv_Jaguar_rv_C_rv_X75_rv_Prototype_rv_V5_rv_1600",
    "title": "2013_rv_Jaguar_rv_C_rv_X75_rv_Prototype_rv_V5_rv_1600",
    "link_img": "https://live.staticflickr.com/65535/49889453293_32732be40d_o.jpg",
    "id_image": "2013_rv_Jaguar_rv_C_rv_X75_rv_Prototype_rv_V5_rv_1600",
    "count_view": 0
  },
  {
    "link_thumb": "https://live.staticflickr.com/65535/48119322538_f7d25d8be1_n.jpg",
    "id_album": "990865885",
    "description": "McLaren_494658",
    "title": "McLaren_494658",
    "link_img": "https://live.staticflickr.com/65535/48119322538_0f95a8c5a7_o.jpg",
    "id_image": "McLaren_494658",
    "count_view": 0
  },
  {
    "link_thumb": "https://live.staticflickr.com/65535/48120761006_7a05e06741_n.jpg",
    "id_album": "1952909762",
    "description": "Packard_741856",
    "title": "Packard_741856",
    "link_img": "https://live.staticflickr.com/65535/48120761006_0821704a85_o.jpg",
    "id_image": "Packard_741856",
    "count_view": 0
  },
  {
    "link_thumb": "https://live.staticflickr.com/65535/48117768846_864da0c63e_n.jpg",
    "id_album": "-354267407",
    "description": "Honda_256002",
    "title": "Honda_256002",
    "link_img": "https://live.staticflickr.com/65535/48117768846_607354b7fd_o.jpg",
    "id_image": "Honda_256002",
    "count_view": 0
  },
  {
    "link_thumb": "https://live.staticflickr.com/65535/48112714262_49eb19c8b5_n.jpg",
    "id_album": "727633301",
    "description": "BMW_213818",
    "title": "BMW_213818",
    "link_img": "https://live.staticflickr.com/65535/48112714262_c5c3e1a42d_o.jpg",
    "id_image": "BMW_213818",
    "count_view": 0
  },
  {
    "link_thumb": "https://live.staticflickr.com/65535/48114941992_189320368d_n.jpg",
    "id_album": "2072464184",
    "description": "Citroen_291685",
    "title": "Citroen_291685",
    "link_img": "https://live.staticflickr.com/65535/48114941992_af5f9a7686_o.jpg",
    "id_image": "Citroen_291685",
    "count_view": 0
  },
  {
    "link_thumb": "https://live.staticflickr.com/65535/49891421182_589650e54b_n.jpg",
    "id_album": "-634611517",
    "description": "2016_rv_Nissan_rv_Titan_rv_Warrior_rv_Concept_rv_V6_rv_2000",
    "title": "2016_rv_Nissan_rv_Titan_rv_Warrior_rv_Concept_rv_V6_rv_2000",
    "link_img": "https://live.staticflickr.com/65535/49891421182_164b5e0d37_o.jpg",
    "id_image": "2016_rv_Nissan_rv_Titan_rv_Warrior_rv_Concept_rv_V6_rv_2000",
    "count_view": 0
  },
  {
    "link_thumb": "https://live.staticflickr.com/65535/48112740148_299b880162_n.jpg",
    "id_album": "727633301",
    "description": "BMW_317492",
    "title": "BMW_317492",
    "link_img": "https://live.staticflickr.com/65535/48112740148_622127d6fd_o.jpg",
    "id_image": "BMW_317492",
    "count_view": 0
  },
  {
    "link_thumb": "https://live.staticflickr.com/65535/49889267361_bf446370ab_n.jpg",
    "id_album": "-842876963",
    "description": "2020_rv_Chevrolet_rv_Corvette_rv_Stingray_rv_V18_rv_2160",
    "title": "2020_rv_Chevrolet_rv_Corvette_rv_Stingray_rv_V18_rv_2160",
    "link_img": "https://live.staticflickr.com/65535/49889267361_b928338fc9_o.jpg",
    "id_image": "2020_rv_Chevrolet_rv_Corvette_rv_Stingray_rv_V18_rv_2160",
    "count_view": 0
  },
  {
    "link_thumb": "https://live.staticflickr.com/65535/48118210683_38bba982a8_n.jpg",
    "id_album": "-625217782",
    "description": "Kia_964828",
    "title": "Kia_964828",
    "link_img": "https://live.staticflickr.com/65535/48118210683_f3ab97fb09_o.jpg",
    "id_image": "Kia_964828",
    "count_view": 0
  },
  {
    "link_thumb": "https://live.staticflickr.com/65535/48113110401_17949a727a_n.jpg",
    "id_album": "727633301",
    "description": "BMW_880150",
    "title": "BMW_880150",
    "link_img": "https://live.staticflickr.com/65535/48113110401_c9f3c50d1b_o.jpg",
    "id_image": "BMW_880150",
    "count_view": 0
  },
  {
    "link_thumb": "https://live.staticflickr.com/65535/49891765688_4318261959_n.jpg",
    "id_album": "-1977273812",
    "description": "2017_rv_Rezvani_rv_Beast_rv_Alpha_rv_V6_rv_2000",
    "title": "2017_rv_Rezvani_rv_Beast_rv_Alpha_rv_V6_rv_2000",
    "link_img": "https://live.staticflickr.com/65535/49891765688_44bddb9aa0_o.jpg",
    "id_image": "2017_rv_Rezvani_rv_Beast_rv_Alpha_rv_V6_rv_2000",
    "count_view": 0
  },
  {
    "link_thumb": "https://live.staticflickr.com/65535/48119500452_036723d0a4_n.jpg",
    "id_album": "990865885",
    "description": "McLaren_961059",
    "title": "McLaren_961059",
    "link_img": "https://live.staticflickr.com/65535/48119500452_cdbea52487_o.jpg",
    "id_image": "McLaren_961059",
    "count_view": 0
  },
  {
    "link_thumb": "https://live.staticflickr.com/65535/48112114906_db1e63d391_n.jpg",
    "id_album": "555757480",
    "description": "AstonMartin_394225",
    "title": "AstonMartin_394225",
    "link_img": "https://live.staticflickr.com/65535/48112114906_92cb18f15f_o.jpg",
    "id_image": "AstonMartin_394225",
    "count_view": 0
  },
  {
    "link_thumb": "https://live.staticflickr.com/65535/48114565868_cd22411603_n.jpg",
    "id_album": "-1721545051",
    "description": "Chevrolet_75271",
    "title": "Chevrolet_75271",
    "link_img": "https://live.staticflickr.com/65535/48114565868_365ca7762c_o.jpg",
    "id_image": "Chevrolet_75271",
    "count_view": 0
  },
  {
    "link_thumb": "https://live.staticflickr.com/65535/48118365132_c19223a2b5_n.jpg",
    "id_album": "-2100339805",
    "description": "Lamborghini_270265",
    "title": "Lamborghini_270265",
    "link_img": "https://live.staticflickr.com/65535/48118365132_93fce447c6_o.jpg",
    "id_image": "Lamborghini_270265",
    "count_view": 0
  },
  {
    "link_thumb": "https://live.staticflickr.com/65535/49888699688_06d0785624_n.jpg",
    "id_album": "-1678364421",
    "description": "2019_rv_Bugatti_rv_La_rv_Voiture_rv_Noire_rv_V2_rv_2160",
    "title": "2019_rv_Bugatti_rv_La_rv_Voiture_rv_Noire_rv_V2_rv_2160",
    "link_img": "https://live.staticflickr.com/65535/49888699688_53f173625c_o.jpg",
    "id_image": "2019_rv_Bugatti_rv_La_rv_Voiture_rv_Noire_rv_V2_rv_2160",
    "count_view": 0
  },
  {
    "link_thumb": "https://live.staticflickr.com/65535/48112537486_c9407525f0_n.jpg",
    "id_album": "2097036181",
    "description": "Bentley_481276",
    "title": "Bentley_481276",
    "link_img": "https://live.staticflickr.com/65535/48112537486_9c84e6b113_o.jpg",
    "id_image": "Bentley_481276",
    "count_view": 0
  },
  {
    "link_thumb": "https://live.staticflickr.com/65535/49889191096_8ea08ddf60_n.jpg",
    "id_album": "2085194193",
    "description": "2006_rv_BMW_rv_Z4_rv_M_rv_Coupe_rv_V5_rv_1440",
    "title": "2006_rv_BMW_rv_Z4_rv_M_rv_Coupe_rv_V5_rv_1440",
    "link_img": "https://live.staticflickr.com/65535/49889191096_759aec0cfa_o.jpg",
    "id_image": "2006_rv_BMW_rv_Z4_rv_M_rv_Coupe_rv_V5_rv_1440",
    "count_view": 0
  },
  {
    "link_thumb": "https://live.staticflickr.com/65535/48113775828_c77b15d408_n.jpg",
    "id_album": "-1721545051",
    "description": "Chevrolet_182678",
    "title": "Chevrolet_182678",
    "link_img": "https://live.staticflickr.com/65535/48113775828_08390f7ddc_o.jpg",
    "id_image": "Chevrolet_182678",
    "count_view": 0
  },
  {
    "link_thumb": "https://live.staticflickr.com/65535/48121383391_6bb31eca5f_n.jpg",
    "id_album": "-1178450892",
    "description": "Porsche_454839",
    "title": "Porsche_454839",
    "link_img": "https://live.staticflickr.com/65535/48121383391_d68cdb11a7_o.jpg",
    "id_image": "Porsche_454839",
    "count_view": 0
  },
  {
    "link_thumb": "https://live.staticflickr.com/65535/48113994307_79246371d4_n.jpg",
    "id_album": "-1721545051",
    "description": "Chevrolet_250841",
    "title": "Chevrolet_250841",
    "link_img": "https://live.staticflickr.com/65535/48113994307_246b0f883f_o.jpg",
    "id_image": "Chevrolet_250841",
    "count_view": 0
  },
  {
    "link_thumb": "https://live.staticflickr.com/65535/48112744641_d0bbd4fb4a_n.jpg",
    "id_album": "727633301",
    "description": "BMW_417611",
    "title": "BMW_417611",
    "link_img": "https://live.staticflickr.com/65535/48112744641_da3cc40c9b_o.jpg",
    "id_image": "BMW_417611",
    "count_view": 0
  },
  {
    "link_thumb": "https://live.staticflickr.com/65535/48117162561_15da15a869_n.jpg",
    "id_album": "-1846404630",
    "description": "Ford_428877",
    "title": "Ford_428877",
    "link_img": "https://live.staticflickr.com/65535/48117162561_5a4067c6eb_o.jpg",
    "id_image": "Ford_428877",
    "count_view": 0
  },
  {
    "link_thumb": "https://live.staticflickr.com/65535/48116677116_ecdf56ca10_n.jpg",
    "id_album": "-1846404630",
    "description": "Ford_182912",
    "title": "Ford_182912",
    "link_img": "https://live.staticflickr.com/65535/48116677116_086fe1682b_o.jpg",
    "id_image": "Ford_182912",
    "count_view": 0
  },
  {
    "link_thumb": "https://live.staticflickr.com/65535/48121383592_3490cc6358_n.jpg",
    "id_album": "-1178450892",
    "description": "Porsche_289427",
    "title": "Porsche_289427",
    "link_img": "https://live.staticflickr.com/65535/48121383592_ac79e12139_o.jpg",
    "id_image": "Porsche_289427",
    "count_view": 0
  },
  {
    "link_thumb": "https://live.staticflickr.com/65535/49891325931_ec3024f602_n.jpg",
    "id_album": "-783720337",
    "description": "1970_rv_Pontiac_rv_GTO_rv_455_rv_HO_rv_Hardtop_rv_Coupe_rv_V2_rv_1536",
    "title": "1970_rv_Pontiac_rv_GTO_rv_455_rv_HO_rv_Hardtop_rv_Coupe_rv_V2_rv_1536",
    "link_img": "https://live.staticflickr.com/65535/49891325931_7be06f3163_o.jpg",
    "id_image": "1970_rv_Pontiac_rv_GTO_rv_455_rv_HO_rv_Hardtop_rv_Coupe_rv_V2_rv_1536",
    "count_view": 0
  },
  {
    "link_thumb": "https://live.staticflickr.com/65535/49890579381_03ac91e4f3_n.jpg",
    "id_album": "-81448276",
    "description": "2021_rv_McLaren_rv_Elva_rv_M1A_rv_Theme_rv_by_rv_MSO_rv_V2_rv_2160",
    "title": "2021_rv_McLaren_rv_Elva_rv_M1A_rv_Theme_rv_by_rv_MSO_rv_V2_rv_2160",
    "link_img": "https://live.staticflickr.com/65535/49890579381_e7f189b418_o.jpg",
    "id_image": "2021_rv_McLaren_rv_Elva_rv_M1A_rv_Theme_rv_by_rv_MSO_rv_V2_rv_2160",
    "count_view": 0
  },
  {
    "link_thumb": "https://live.staticflickr.com/65535/48118319336_ee7aae57d9_n.jpg",
    "id_album": "-2100339805",
    "description": "Lamborghini_318535",
    "title": "Lamborghini_318535",
    "link_img": "https://live.staticflickr.com/65535/48118319336_c55c9e6b38_o.jpg",
    "id_image": "Lamborghini_318535",
    "count_view": 0
  },
  {
    "link_thumb": "https://live.staticflickr.com/65535/48117709406_d04f33b891_n.jpg",
    "id_album": "-885504812",
    "description": "GMC_989924",
    "title": "GMC_989924",
    "link_img": "https://live.staticflickr.com/65535/48117709406_b1e780cd80_o.jpg",
    "id_image": "GMC_989924",
    "count_view": 0
  },
  {
    "link_thumb": "https://live.staticflickr.com/65535/48112641848_7bc3119564_n.jpg",
    "id_album": "727633301",
    "description": "BMW_154986",
    "title": "BMW_154986",
    "link_img": "https://live.staticflickr.com/65535/48112641848_4f86413a82_o.jpg",
    "id_image": "BMW_154986",
    "count_view": 0
  },
  {
    "link_thumb": "https://live.staticflickr.com/65535/48118991716_b71371248d_n.jpg",
    "id_album": "-120702461",
    "description": "Lincoln_741432",
    "title": "Lincoln_741432",
    "link_img": "https://live.staticflickr.com/65535/48118991716_9668818aa4_o.jpg",
    "id_image": "Lincoln_741432",
    "count_view": 0
  },
  {
    "link_thumb": "https://live.staticflickr.com/65535/49891260716_eddd729ee5_n.jpg",
    "id_album": "-925276176",
    "description": "2010_rv_Peugeot_rv_SR1_rv_Concept_rv_Car_rv_V4_rv_1440",
    "title": "2010_rv_Peugeot_rv_SR1_rv_Concept_rv_Car_rv_V4_rv_1440",
    "link_img": "https://live.staticflickr.com/65535/49891260716_559ed88736_o.jpg",
    "id_image": "2010_rv_Peugeot_rv_SR1_rv_Concept_rv_Car_rv_V4_rv_1440",
    "count_view": 0
  },
  {
    "link_thumb": "https://live.staticflickr.com/65535/49890489297_d723a12a07_n.jpg",
    "id_album": "-1748385803",
    "description": "1970_rv_Lamborghini_rv_Jarama_rv_400_rv_GT_rv_V1_rv_1440",
    "title": "1970_rv_Lamborghini_rv_Jarama_rv_400_rv_GT_rv_V1_rv_1440",
    "link_img": "https://live.staticflickr.com/65535/49890489297_0fb824826e_o.jpg",
    "id_image": "1970_rv_Lamborghini_rv_Jarama_rv_400_rv_GT_rv_V1_rv_1440",
    "count_view": 0
  },
  {
    "link_thumb": "https://live.staticflickr.com/65535/49889653761_c3ca1b3489_n.jpg",
    "id_album": "-135411974",
    "description": "1966_rv_Shelby_rv_GT350_rv_V5_rv_2000",
    "title": "1966_rv_Shelby_rv_GT350_rv_V5_rv_2000",
    "link_img": "https://live.staticflickr.com/65535/49889653761_4567381cc0_o.jpg",
    "id_image": "1966_rv_Shelby_rv_GT350_rv_V5_rv_2000",
    "count_view": 0
  },
  {
    "link_thumb": "https://live.staticflickr.com/65535/48116404683_c3277c27a2_n.jpg",
    "id_album": "1364506720",
    "description": "Ferrari_900480",
    "title": "Ferrari_900480",
    "link_img": "https://live.staticflickr.com/65535/48116404683_950beb6365_o.jpg",
    "id_image": "Ferrari_900480",
    "count_view": 0
  },
  {
    "link_thumb": "https://live.staticflickr.com/65535/48116952808_384068fd25_n.jpg",
    "id_album": "-1846404630",
    "description": "Ford_273045",
    "title": "Ford_273045",
    "link_img": "https://live.staticflickr.com/65535/48116952808_8a4064f8bb_o.jpg",
    "id_image": "Ford_273045",
    "count_view": 0
  },
  {
    "link_thumb": "https://live.staticflickr.com/65535/48118086366_a876f0ca62_n.jpg",
    "id_album": "-2009218697",
    "description": "Jeep_383040",
    "title": "Jeep_383040",
    "link_img": "https://live.staticflickr.com/65535/48118086366_300d97b531_o.jpg",
    "id_image": "Jeep_383040",
    "count_view": 0
  },
  {
    "link_thumb": "https://live.staticflickr.com/65535/48122060137_8ef476737c_n.jpg",
    "id_album": "-1217333387",
    "description": "Renault_202408",
    "title": "Renault_202408",
    "link_img": "https://live.staticflickr.com/65535/48122060137_22e385863a_o.jpg",
    "id_image": "Renault_202408",
    "count_view": 0
  },
  {
    "link_thumb": "https://live.staticflickr.com/65535/48122151343_01e61e781b_n.jpg",
    "id_album": "1536700661",
    "description": "RollsRoyce_494685",
    "title": "RollsRoyce_494685",
    "link_img": "https://live.staticflickr.com/65535/48122151343_0b5a2dc3b3_o.jpg",
    "id_image": "RollsRoyce_494685",
    "count_view": 0
  },
  {
    "link_thumb": "https://live.staticflickr.com/65535/49892850867_29a6f93163_n.jpg",
    "id_album": "1662834735",
    "description": "2002_rv_Porsche_rv_911_rv_Turbo_rv_V2_rv_1536",
    "title": "2002_rv_Porsche_rv_911_rv_Turbo_rv_V2_rv_1536",
    "link_img": "https://live.staticflickr.com/65535/49892850867_bfbd57ff32_o.jpg",
    "id_image": "2002_rv_Porsche_rv_911_rv_Turbo_rv_V2_rv_1536",
    "count_view": 0
  },
  {
    "link_thumb": "https://live.staticflickr.com/65535/48115134927_3c5fd7f626_n.jpg",
    "id_album": "413141323",
    "description": "Dodge_189830",
    "title": "Dodge_189830",
    "link_img": "https://live.staticflickr.com/65535/48115134927_e1020f5d6b_o.jpg",
    "id_image": "Dodge_189830",
    "count_view": 0
  },
  {
    "link_thumb": "https://live.staticflickr.com/65535/48116510968_30b3e412bc_n.jpg",
    "id_album": "-803737857",
    "description": "Fiat_442831",
    "title": "Fiat_442831",
    "link_img": "https://live.staticflickr.com/65535/48116510968_3736625b2b_o.jpg",
    "id_image": "Fiat_442831",
    "count_view": 0
  },
  {
    "link_thumb": "https://live.staticflickr.com/65535/48116873326_e3dde15f14_n.jpg",
    "id_album": "-1846404630",
    "description": "Ford_255327",
    "title": "Ford_255327",
    "link_img": "https://live.staticflickr.com/65535/48116873326_1f3b364c47_o.jpg",
    "id_image": "Ford_255327",
    "count_view": 0
  },
  {
    "link_thumb": "https://live.staticflickr.com/65535/48115351588_748ab50767_n.jpg",
    "id_album": "413141323",
    "description": "Dodge_472160",
    "title": "Dodge_472160",
    "link_img": "https://live.staticflickr.com/65535/48115351588_61363cba4f_o.jpg",
    "id_image": "Dodge_472160",
    "count_view": 0
  },
  {
    "link_thumb": "https://live.staticflickr.com/65535/49889526028_8edb48006b_n.jpg",
    "id_album": "-1314216515",
    "description": "2019_rv_Kia_rv_HabaNiro_rv_Concept_rv_V1_rv_2160",
    "title": "2019_rv_Kia_rv_HabaNiro_rv_Concept_rv_V1_rv_2160",
    "link_img": "https://live.staticflickr.com/65535/49889526028_cefbe747ea_o.jpg",
    "id_image": "2019_rv_Kia_rv_HabaNiro_rv_Concept_rv_V1_rv_2160",
    "count_view": 0
  },
  {
    "link_thumb": "https://live.staticflickr.com/65535/48118404842_9e6ab424b6_n.jpg",
    "id_album": "-2100339805",
    "description": "Lamborghini_318504",
    "title": "Lamborghini_318504",
    "link_img": "https://live.staticflickr.com/65535/48118404842_03a5e9c63f_o.jpg",
    "id_image": "Lamborghini_318504",
    "count_view": 0
  },
  {
    "link_thumb": "https://live.staticflickr.com/65535/49890385973_fa497d2f80_n.jpg",
    "id_album": "929278309",
    "description": "2017_rv_Mercedes_rv_Benz_rv_SLC43_rv_AMG_rv_V2_rv_2000",
    "title": "2017_rv_Mercedes_rv_Benz_rv_SLC43_rv_AMG_rv_V2_rv_2000",
    "link_img": "https://live.staticflickr.com/65535/49890385973_b69d3d0a34_o.jpg",
    "id_image": "2017_rv_Mercedes_rv_Benz_rv_SLC43_rv_AMG_rv_V2_rv_2000",
    "count_view": 0
  },
  {
    "link_thumb": "https://live.staticflickr.com/65535/48112646478_40e3b18288_n.jpg",
    "id_album": "727633301",
    "description": "BMW_202284",
    "title": "BMW_202284",
    "link_img": "https://live.staticflickr.com/65535/48112646478_f59cf1a932_o.jpg",
    "id_image": "BMW_202284",
    "count_view": 0
  },
  {
    "link_thumb": "https://live.staticflickr.com/65535/48117668962_a99a7afc87_n.jpg",
    "id_album": "-1846404630",
    "description": "Ford_931651",
    "title": "Ford_931651",
    "link_img": "https://live.staticflickr.com/65535/48117668962_9b97c446cc_o.jpg",
    "id_image": "Ford_931651",
    "count_view": 0
  },
  {
    "link_thumb": "https://live.staticflickr.com/65535/49892443596_cd96f12b1f_n.jpg",
    "id_album": "804140489",
    "description": "2016_rv_Techrules_rv_AT96_rv_TREV_rv_Concept_rv_V2_rv_1600",
    "title": "2016_rv_Techrules_rv_AT96_rv_TREV_rv_Concept_rv_V2_rv_1600",
    "link_img": "https://live.staticflickr.com/65535/49892443596_5586592746_o.jpg",
    "id_image": "2016_rv_Techrules_rv_AT96_rv_TREV_rv_Concept_rv_V2_rv_1600",
    "count_view": 0
  },
  {
    "link_thumb": "https://live.staticflickr.com/65535/48112315461_c9d47f9553_n.jpg",
    "id_album": "-15119147",
    "description": "Audi_475646",
    "title": "Audi_475646",
    "link_img": "https://live.staticflickr.com/65535/48112315461_4a452d0a35_o.jpg",
    "id_image": "Audi_475646",
    "count_view": 0
  },
  {
    "link_thumb": "https://live.staticflickr.com/65535/48116054606_58404def93_n.jpg",
    "id_album": "1364506720",
    "description": "Ferrari_523489",
    "title": "Ferrari_523489",
    "link_img": "https://live.staticflickr.com/65535/48116054606_e1ec52d5d3_o.jpg",
    "id_image": "Ferrari_523489",
    "count_view": 0
  },
  {
    "link_thumb": "https://live.staticflickr.com/65535/48116838861_19d5099d9b_n.jpg",
    "id_album": "-1846404630",
    "description": "Ford_245143",
    "title": "Ford_245143",
    "link_img": "https://live.staticflickr.com/65535/48116838861_a7bb9ea721_o.jpg",
    "id_image": "Ford_245143",
    "count_view": 0
  },
  {
    "link_thumb": "https://live.staticflickr.com/65535/49113221192_8b9328e829_n.jpg",
    "id_album": "555757480",
    "description": "AstonMartin_473311_1",
    "title": "AstonMartin_473311_1",
    "link_img": "https://live.staticflickr.com/65535/49113221192_4f23fd5e89_o.jpg",
    "id_image": "AstonMartin_473311_1",
    "count_view": 0
  },
  {
    "link_thumb": "https://live.staticflickr.com/65535/49889459821_c209346b49_n.jpg",
    "id_album": "1828854320",
    "description": "2003_rv_Ferrari_rv_360_rv_Challenge_rv_Stradale_rv_V9_rv_1440",
    "title": "2003_rv_Ferrari_rv_360_rv_Challenge_rv_Stradale_rv_V9_rv_1440",
    "link_img": "https://live.staticflickr.com/65535/49889459821_fe24163feb_o.jpg",
    "id_image": "2003_rv_Ferrari_rv_360_rv_Challenge_rv_Stradale_rv_V9_rv_1440",
    "count_view": 0
  },
  {
    "link_thumb": "https://live.staticflickr.com/65535/49889888713_00e62fd881_n.jpg",
    "id_album": "1908695537",
    "description": "1961_rv_Maserati_rv_5000_rv_GT_rv_Coupe_rv_V2_rv_1440",
    "title": "1961_rv_Maserati_rv_5000_rv_GT_rv_Coupe_rv_V2_rv_1440",
    "link_img": "https://live.staticflickr.com/65535/49889888713_d115740775_o.jpg",
    "id_image": "1961_rv_Maserati_rv_5000_rv_GT_rv_Coupe_rv_V2_rv_1440",
    "count_view": 0
  },
  {
    "link_thumb": "https://live.staticflickr.com/65535/49888776073_ffa044f551_n.jpg",
    "id_album": "-1582663221",
    "description": "2013_rv_Caterham_rv_Seven_rv_620_rv_R_rv_V4_rv_1600",
    "title": "2013_rv_Caterham_rv_Seven_rv_620_rv_R_rv_V4_rv_1600",
    "link_img": "https://live.staticflickr.com/65535/49888776073_e043ee65f5_o.jpg",
    "id_image": "2013_rv_Caterham_rv_Seven_rv_620_rv_R_rv_V4_rv_1600",
    "count_view": 0
  },
  {
    "link_thumb": "https://live.staticflickr.com/65535/48115868526_2113fa39a5_n.jpg",
    "id_album": "1364506720",
    "description": "Ferrari_360894",
    "title": "Ferrari_360894",
    "link_img": "https://live.staticflickr.com/65535/48115868526_47c6905410_o.jpg",
    "id_image": "Ferrari_360894",
    "count_view": 0
  },
  {
    "link_thumb": "https://live.staticflickr.com/65535/48122434473_f587796f63_n.jpg",
    "id_album": "422322641",
    "description": "Subaru_259058",
    "title": "Subaru_259058",
    "link_img": "https://live.staticflickr.com/65535/48122434473_cd6499cc52_o.jpg",
    "id_image": "Subaru_259058",
    "count_view": 0
  },
  {
    "link_thumb": "https://live.staticflickr.com/65535/48117546946_8585fdbf32_n.jpg",
    "id_album": "-1846404630",
    "description": "Ford_930994",
    "title": "Ford_930994",
    "link_img": "https://live.staticflickr.com/65535/48117546946_d8e09673cd_o.jpg",
    "id_image": "Ford_930994",
    "count_view": 0
  },
  {
    "link_thumb": "https://live.staticflickr.com/65535/48112854516_365413e7e4_n.jpg",
    "id_album": "727633301",
    "description": "BMW_482627",
    "title": "BMW_482627",
    "link_img": "https://live.staticflickr.com/65535/48112854516_3212253e1e_o.jpg",
    "id_image": "BMW_482627",
    "count_view": 0
  },
  {
    "link_thumb": "https://live.staticflickr.com/65535/49890692027_d081aa64ca_n.jpg",
    "id_album": "-843792943",
    "description": "2010_rv_Lotus_rv_Exige_rv_S_rv_Type_rv_72_rv_V2_rv_1440",
    "title": "2010_rv_Lotus_rv_Exige_rv_S_rv_Type_rv_72_rv_V2_rv_1440",
    "link_img": "https://live.staticflickr.com/65535/49890692027_8c83242d68_o.jpg",
    "id_image": "2010_rv_Lotus_rv_Exige_rv_S_rv_Type_rv_72_rv_V2_rv_1440",
    "count_view": 0
  },
  {
    "link_thumb": "https://live.staticflickr.com/65535/48119182927_3feb0e4497_n.jpg",
    "id_album": "697984456",
    "description": "Maserati_450605",
    "title": "Maserati_450605",
    "link_img": "https://live.staticflickr.com/65535/48119182927_fc847fef17_o.jpg",
    "id_image": "Maserati_450605",
    "count_view": 0
  },
  {
    "link_thumb": "https://live.staticflickr.com/65535/49890360633_a2a50c1d33_n.jpg",
    "id_album": "-504136416",
    "description": "2015_rv_Mercedes_rv_Benz_rv_S63_rv_AMG_rv_Coupe_rv_V11_rv_1600",
    "title": "2015_rv_Mercedes_rv_Benz_rv_S63_rv_AMG_rv_Coupe_rv_V11_rv_1600",
    "link_img": "https://live.staticflickr.com/65535/49890360633_b6fc114c81_o.jpg",
    "id_image": "2015_rv_Mercedes_rv_Benz_rv_S63_rv_AMG_rv_Coupe_rv_V11_rv_1600",
    "count_view": 0
  },
  {
    "link_thumb": "https://live.staticflickr.com/65535/48115722971_3d04f6bbf9_n.jpg",
    "id_album": "1364506720",
    "description": "Ferrari_282866",
    "title": "Ferrari_282866",
    "link_img": "https://live.staticflickr.com/65535/48115722971_b0cf59e708_o.jpg",
    "id_image": "Ferrari_282866",
    "count_view": 0
  },
  {
    "link_thumb": "https://live.staticflickr.com/65535/49892296381_fc62255fb9_n.jpg",
    "id_album": "1486499240",
    "description": "2014_rv_Rolls_rv_Royce_rv_Wraith_rv_V1_rv_1600",
    "title": "2014_rv_Rolls_rv_Royce_rv_Wraith_rv_V1_rv_1600",
    "link_img": "https://live.staticflickr.com/65535/49892296381_6567974c08_o.jpg",
    "id_image": "2014_rv_Rolls_rv_Royce_rv_Wraith_rv_V1_rv_1600",
    "count_view": 0
  },
  {
    "link_thumb": "https://live.staticflickr.com/65535/49889784192_930d0deaaa_n.jpg",
    "id_album": "1472427359",
    "description": "2010_rv_Ferrari_rv_458_rv_Italia_rv_V8_rv_1440",
    "title": "2010_rv_Ferrari_rv_458_rv_Italia_rv_V8_rv_1440",
    "link_img": "https://live.staticflickr.com/65535/49889784192_6c690edf9f_o.jpg",
    "id_image": "2010_rv_Ferrari_rv_458_rv_Italia_rv_V8_rv_1440",
    "count_view": 0
  },
  {
    "link_thumb": "https://live.staticflickr.com/65535/48119450328_4ebcfc2008_n.jpg",
    "id_album": "990865885",
    "description": "McLaren_977182",
    "title": "McLaren_977182",
    "link_img": "https://live.staticflickr.com/65535/48119450328_7e48c9cc8a_o.jpg",
    "id_image": "McLaren_977182",
    "count_view": 0
  },
  {
    "link_thumb": "https://live.staticflickr.com/65535/48113459197_3bb0dca436_n.jpg",
    "id_album": "1456070666",
    "description": "Bugatti_366002",
    "title": "Bugatti_366002",
    "link_img": "https://live.staticflickr.com/65535/48113459197_5b93376742_o.jpg",
    "id_image": "Bugatti_366002",
    "count_view": 0
  },
  {
    "link_thumb": "https://live.staticflickr.com/65535/49889696676_8973a1dea1_n.jpg",
    "id_album": "924535588",
    "description": "2011_rv_Ford_rv_Falcon_rv_XR6_rv_Turbo_rv_V4_rv_1440",
    "title": "2011_rv_Ford_rv_Falcon_rv_XR6_rv_Turbo_rv_V4_rv_1440",
    "link_img": "https://live.staticflickr.com/65535/49889696676_8210d8a8eb_o.jpg",
    "id_image": "2011_rv_Ford_rv_Falcon_rv_XR6_rv_Turbo_rv_V4_rv_1440",
    "count_view": 0
  },
  {
    "link_thumb": "https://live.staticflickr.com/65535/49891548122_a49160ede1_n.jpg",
    "id_album": "1900098867",
    "description": "1984_rv_Peugeot_rv_205_rv_GTI_rv_V7_rv_1536",
    "title": "1984_rv_Peugeot_rv_205_rv_GTI_rv_V7_rv_1536",
    "link_img": "https://live.staticflickr.com/65535/49891548122_59f7b0d417_o.jpg",
    "id_image": "1984_rv_Peugeot_rv_205_rv_GTI_rv_V7_rv_1536",
    "count_view": 0
  },
  {
    "link_thumb": "https://live.staticflickr.com/65535/49890004141_f9c5ae2f61_n.jpg",
    "id_album": "1773051543",
    "description": "2013_rv_Jaguar_rv_XF_rv_Sportbrake_rv_V1_rv_1440",
    "title": "2013_rv_Jaguar_rv_XF_rv_Sportbrake_rv_V1_rv_1440",
    "link_img": "https://live.staticflickr.com/65535/49890004141_83200402b2_o.jpg",
    "id_image": "2013_rv_Jaguar_rv_XF_rv_Sportbrake_rv_V1_rv_1440",
    "count_view": 0
  },
  {
    "link_thumb": "https://live.staticflickr.com/65535/48115584696_40dee6d0a0_n.jpg",
    "id_album": "594975066",
    "description": "Duesenberg_742264",
    "title": "Duesenberg_742264",
    "link_img": "https://live.staticflickr.com/65535/48115584696_29c8a65ced_o.jpg",
    "id_image": "Duesenberg_742264",
    "count_view": 0
  },
  {
    "link_thumb": "https://live.staticflickr.com/65535/48123243588_a26ceb307e_n.jpg",
    "id_album": "-360260466",
    "description": "Yamaha_217094",
    "title": "Yamaha_217094",
    "link_img": "https://live.staticflickr.com/65535/48123243588_4a848b613a_o.jpg",
    "id_image": "Yamaha_217094",
    "count_view": 0
  },
  {
    "link_thumb": "https://live.staticflickr.com/65535/48122656336_71722e76c2_n.jpg",
    "id_album": "1274920659",
    "description": "Toyota_414182",
    "title": "Toyota_414182",
    "link_img": "https://live.staticflickr.com/65535/48122656336_75989f3d7b_o.jpg",
    "id_image": "Toyota_414182",
    "count_view": 0
  },
  {
    "link_thumb": "https://live.staticflickr.com/65535/48120747796_8615072db0_n.jpg",
    "id_album": "1952909762",
    "description": "Packard_741805",
    "title": "Packard_741805",
    "link_img": "https://live.staticflickr.com/65535/48120747796_e5dec46e31_o.jpg",
    "id_image": "Packard_741805",
    "count_view": 0
  },
  {
    "link_thumb": "https://live.staticflickr.com/65535/48116761882_df76b12505_n.jpg",
    "id_album": "-1846404630",
    "description": "Ford_179029",
    "title": "Ford_179029",
    "link_img": "https://live.staticflickr.com/65535/48116761882_558af8fdfd_o.jpg",
    "id_image": "Ford_179029",
    "count_view": 0
  },
  {
    "link_thumb": "https://live.staticflickr.com/65535/48112429356_477e34a8d5_n.jpg",
    "id_album": "-15119147",
    "description": "Audi_906795",
    "title": "Audi_906795",
    "link_img": "https://live.staticflickr.com/65535/48112429356_d40e5884c2_o.jpg",
    "id_image": "Audi_906795",
    "count_view": 0
  },
  {
    "link_thumb": "https://live.staticflickr.com/65535/48113500291_98bf23bbd3_n.jpg",
    "id_album": "-680120434",
    "description": "Cadillac_150397",
    "title": "Cadillac_150397",
    "link_img": "https://live.staticflickr.com/65535/48113500291_82ced375eb_o.jpg",
    "id_image": "Cadillac_150397",
    "count_view": 0
  },
  {
    "link_thumb": "https://live.staticflickr.com/65535/49040987776_a4c6161bfd_n.jpg",
    "id_album": "400986559",
    "description": "49133",
    "title": "49133",
    "link_img": "https://live.staticflickr.com/65535/49040987776_a060b6e86c_o.jpg",
    "id_image": "49133",
    "count_view": 0
  },
  {
    "link_thumb": "https://live.staticflickr.com/65535/48118503591_0befba6701_n.jpg",
    "id_album": "-2100339805",
    "description": "Lamborghini_510543",
    "title": "Lamborghini_510543",
    "link_img": "https://live.staticflickr.com/65535/48118503591_06f11d7659_o.jpg",
    "id_image": "Lamborghini_510543",
    "count_view": 0
  },
  {
    "link_thumb": "https://live.staticflickr.com/65535/48118772861_fb88138831_n.jpg",
    "id_album": "1986285173",
    "description": "Lancia_498725",
    "title": "Lancia_498725",
    "link_img": "https://live.staticflickr.com/65535/48118772861_a6a12b8e2e_o.jpg",
    "id_image": "Lancia_498725",
    "count_view": 0
  },
  {
    "link_thumb": "https://live.staticflickr.com/65535/48112970501_57f420d937_n.jpg",
    "id_album": "727633301",
    "description": "BMW_539572",
    "title": "BMW_539572",
    "link_img": "https://live.staticflickr.com/65535/48112970501_78e72d9186_o.jpg",
    "id_image": "BMW_539572",
    "count_view": 0
  },
  {
    "link_thumb": "https://live.staticflickr.com/65535/49889177768_a143129fb7_n.jpg",
    "id_album": "924535588",
    "description": "2011_rv_Ford_rv_Falcon_rv_XR6_rv_Turbo_rv_V1_rv_1440",
    "title": "2011_rv_Ford_rv_Falcon_rv_XR6_rv_Turbo_rv_V1_rv_1440",
    "link_img": "https://live.staticflickr.com/65535/49889177768_bbaa6ba933_o.jpg",
    "id_image": "2011_rv_Ford_rv_Falcon_rv_XR6_rv_Turbo_rv_V1_rv_1440",
    "count_view": 0
  },
  {
    "link_thumb": "https://live.staticflickr.com/65535/48112973686_84b7fd1a26_n.jpg",
    "id_album": "727633301",
    "description": "BMW_548882",
    "title": "BMW_548882",
    "link_img": "https://live.staticflickr.com/65535/48112973686_df412dcbd3_o.jpg",
    "id_image": "BMW_548882",
    "count_view": 0
  },
  {
    "link_thumb": "https://live.staticflickr.com/65535/49890424302_915b327262_n.jpg",
    "id_album": "1554721686",
    "description": "2010_rv_Lamborghini_rv_Sesto_rv_Elemento_rv_Concept_rv_V5_rv_1440",
    "title": "2010_rv_Lamborghini_rv_Sesto_rv_Elemento_rv_Concept_rv_V5_rv_1440",
    "link_img": "https://live.staticflickr.com/65535/49890424302_ebcc930b9c_o.jpg",
    "id_image": "2010_rv_Lamborghini_rv_Sesto_rv_Elemento_rv_Concept_rv_V5_rv_1440",
    "count_view": 0
  },
  {
    "link_thumb": "https://live.staticflickr.com/65535/49890985941_e1ecf447e6_n.jpg",
    "id_album": "-1755207202",
    "description": "2006_rv_Morgan_rv_Aero_rv_8_rv_V4_rv_1536",
    "title": "2006_rv_Morgan_rv_Aero_rv_8_rv_V4_rv_1536",
    "link_img": "https://live.staticflickr.com/65535/49890985941_ab125387c3_o.jpg",
    "id_image": "2006_rv_Morgan_rv_Aero_rv_8_rv_V4_rv_1536",
    "count_view": 0
  },
  {
    "link_thumb": "https://live.staticflickr.com/65535/48120333908_a55263bc2e_n.jpg",
    "id_album": "810634050",
    "description": "Nissan_151852",
    "title": "Nissan_151852",
    "link_img": "https://live.staticflickr.com/65535/48120333908_772cdeb768_o.jpg",
    "id_image": "Nissan_151852",
    "count_view": 0
  },
  {
    "link_thumb": "https://live.staticflickr.com/65535/48116089896_18560f66fd_n.jpg",
    "id_album": "1364506720",
    "description": "Ferrari_530130",
    "title": "Ferrari_530130",
    "link_img": "https://live.staticflickr.com/65535/48116089896_7e3e6a12de_o.jpg",
    "id_image": "Ferrari_530130",
    "count_view": 0
  },
  {
    "link_thumb": "https://live.staticflickr.com/65535/48112644533_ae743c8197_n.jpg",
    "id_album": "727633301",
    "description": "BMW_178951",
    "title": "BMW_178951",
    "link_img": "https://live.staticflickr.com/65535/48112644533_43d326f344_o.jpg",
    "id_image": "BMW_178951",
    "count_view": 0
  },
  {
    "link_thumb": "https://live.staticflickr.com/65535/48120470833_7acc6fb0e6_n.jpg",
    "id_album": "810634050",
    "description": "Nissan_455411",
    "title": "Nissan_455411",
    "link_img": "https://live.staticflickr.com/65535/48120470833_e39cb4c413_o.jpg",
    "id_image": "Nissan_455411",
    "count_view": 0
  },
  {
    "link_thumb": "https://live.staticflickr.com/65535/49890837753_52cb5ddf2c_n.jpg",
    "id_album": "1817834186",
    "description": "1970_rv_Porsche_rv_914_rv_V5_rv_1536",
    "title": "1970_rv_Porsche_rv_914_rv_V5_rv_1536",
    "link_img": "https://live.staticflickr.com/65535/49890837753_6bea671876_o.jpg",
    "id_image": "1970_rv_Porsche_rv_914_rv_V5_rv_1536",
    "count_view": 0
  },
  {
    "link_thumb": "https://live.staticflickr.com/65535/49889082296_cabddb9eb3_n.jpg",
    "id_album": "-1839907869",
    "description": "2015_rv_BMW_rv_4_rv_Series_rv_Gran_rv_Coupe_rv_V1_rv_1600",
    "title": "2015_rv_BMW_rv_4_rv_Series_rv_Gran_rv_Coupe_rv_V1_rv_1600",
    "link_img": "https://live.staticflickr.com/65535/49889082296_31b34a6d7e_o.jpg",
    "id_image": "2015_rv_BMW_rv_4_rv_Series_rv_Gran_rv_Coupe_rv_V1_rv_1600",
    "count_view": 0
  },
  {
    "link_thumb": "https://live.staticflickr.com/65535/48114816243_0289d02141_n.jpg",
    "id_album": "939606447",
    "description": "Chrysler_497381",
    "title": "Chrysler_497381",
    "link_img": "https://live.staticflickr.com/65535/48114816243_cb81200ef1_o.jpg",
    "id_image": "Chrysler_497381",
    "count_view": 0
  },
  {
    "link_thumb": "https://live.staticflickr.com/65535/49891167646_b9f7437557_n.jpg",
    "id_album": "-1746133601",
    "description": "2020_rv_Novitec_rv_McLaren_rv_720S_rv_Spider_rv_N_rv_Largo_rv_V6_rv_2160",
    "title": "2020_rv_Novitec_rv_McLaren_rv_720S_rv_Spider_rv_N_rv_Largo_rv_V6_rv_2160",
    "link_img": "https://live.staticflickr.com/65535/49891167646_b6c1d5b86d_o.jpg",
    "id_image": "2020_rv_Novitec_rv_McLaren_rv_720S_rv_Spider_rv_N_rv_Largo_rv_V6_rv_2160",
    "count_view": 0
  },
  {
    "link_thumb": "https://live.staticflickr.com/65535/48119014818_d731dac128_n.jpg",
    "id_album": "-120702461",
    "description": "Lincoln_480055",
    "title": "Lincoln_480055",
    "link_img": "https://live.staticflickr.com/65535/48119014818_250d48cce8_o.jpg",
    "id_image": "Lincoln_480055",
    "count_view": 0
  },
  {
    "link_thumb": "https://live.staticflickr.com/65535/48121047516_8b61525b71_n.jpg",
    "id_album": "-1123679742",
    "description": "Plymouth_98752",
    "title": "Plymouth_98752",
    "link_img": "https://live.staticflickr.com/65535/48121047516_5ecd37f58b_o.jpg",
    "id_image": "Plymouth_98752",
    "count_view": 0
  },
  {
    "link_thumb": "https://live.staticflickr.com/65535/48112455838_f9d076d012_n.jpg",
    "id_album": "-15119147",
    "description": "Audi_885865",
    "title": "Audi_885865",
    "link_img": "https://live.staticflickr.com/65535/48112455838_3a265234e5_o.jpg",
    "id_image": "Audi_885865",
    "count_view": 0
  },
  {
    "link_thumb": "https://live.staticflickr.com/65535/48116570953_d2f8224474_n.jpg",
    "id_album": "-1846404630",
    "description": "Ford_134171",
    "title": "Ford_134171",
    "link_img": "https://live.staticflickr.com/65535/48116570953_421ed39cc0_o.jpg",
    "id_image": "Ford_134171",
    "count_view": 0
  },
  {
    "link_thumb": "https://live.staticflickr.com/65535/48118818021_61a01d95c7_n.jpg",
    "id_album": "1234246491",
    "description": "LandRover_893196",
    "title": "LandRover_893196",
    "link_img": "https://live.staticflickr.com/65535/48118818021_2e260ddd9b_o.jpg",
    "id_image": "LandRover_893196",
    "count_view": 0
  },
  {
    "link_thumb": "https://live.staticflickr.com/65535/48112454093_f2e7614221_n.jpg",
    "id_album": "-15119147",
    "description": "Audi_885853",
    "title": "Audi_885853",
    "link_img": "https://live.staticflickr.com/65535/48112454093_f51e724aa5_o.jpg",
    "id_image": "Audi_885853",
    "count_view": 0
  },
  {
    "link_thumb": "https://live.staticflickr.com/65535/48113936551_cbe7370374_n.jpg",
    "id_album": "-1721545051",
    "description": "Chevrolet_270735",
    "title": "Chevrolet_270735",
    "link_img": "https://live.staticflickr.com/65535/48113936551_b391eb3b68_o.jpg",
    "id_image": "Chevrolet_270735",
    "count_view": 0
  },
  {
    "link_thumb": "https://live.staticflickr.com/65535/49889564691_02f0c50dbf_n.jpg",
    "id_album": "-1150105315",
    "description": "2002_rv_Formula1_rv_Ferrari_rv_F2002_rv_V1_rv_1440",
    "title": "2002_rv_Formula1_rv_Ferrari_rv_F2002_rv_V1_rv_1440",
    "link_img": "https://live.staticflickr.com/65535/49889564691_e380d07e4a_o.jpg",
    "id_image": "2002_rv_Formula1_rv_Ferrari_rv_F2002_rv_V1_rv_1440",
    "count_view": 0
  },
  {
    "link_thumb": "https://live.staticflickr.com/65535/48111998086_45e3726943_n.jpg",
    "id_album": "1906325017",
    "description": "Infiniti_960145",
    "title": "Infiniti_960145",
    "link_img": "https://live.staticflickr.com/65535/48111998086_743a2f06bb_o.jpg",
    "id_image": "Infiniti_960145",
    "count_view": 0
  },
  {
    "link_thumb": "https://live.staticflickr.com/65535/48112275361_e153b98ae4_n.jpg",
    "id_album": "-15119147",
    "description": "Audi_360650",
    "title": "Audi_360650",
    "link_img": "https://live.staticflickr.com/65535/48112275361_032eb6c72b_o.jpg",
    "id_image": "Audi_360650",
    "count_view": 0
  },
  {
    "link_thumb": "https://live.staticflickr.com/65535/48117192363_cde5c7d6dc_n.jpg",
    "id_album": "-1846404630",
    "description": "Ford_422729",
    "title": "Ford_422729",
    "link_img": "https://live.staticflickr.com/65535/48117192363_2a35b73814_o.jpg",
    "id_image": "Ford_422729",
    "count_view": 0
  },
  {
    "link_thumb": "https://live.staticflickr.com/65535/48117531022_818c8f3b80_n.jpg",
    "id_album": "-1846404630",
    "description": "Ford_741958",
    "title": "Ford_741958",
    "link_img": "https://live.staticflickr.com/65535/48117531022_f65209f367_o.jpg",
    "id_image": "Ford_741958",
    "count_view": 0
  },
  {
    "link_thumb": "https://live.staticflickr.com/65535/49892164073_95f34d9e3c_n.jpg",
    "id_album": "-1081399057",
    "description": "2010_rv_Volvo_rv_C30_rv_Polestar_rv_Concept_rv_V4_rv_1536",
    "title": "2010_rv_Volvo_rv_C30_rv_Polestar_rv_Concept_rv_V4_rv_1536",
    "link_img": "https://live.staticflickr.com/65535/49892164073_f045e5e0a7_o.jpg",
    "id_image": "2010_rv_Volvo_rv_C30_rv_Polestar_rv_Concept_rv_V4_rv_1536",
    "count_view": 0
  },
  {
    "link_thumb": "https://live.staticflickr.com/65535/48118845736_35e378e790_n.jpg",
    "id_album": "446908717",
    "description": "Lexus_256384",
    "title": "Lexus_256384",
    "link_img": "https://live.staticflickr.com/65535/48118845736_206c35fcab_o.jpg",
    "id_image": "Lexus_256384",
    "count_view": 0
  },
  {
    "link_thumb": "https://live.staticflickr.com/65535/48119321943_bcc458b753_n.jpg",
    "id_album": "990865885",
    "description": "McLaren_494653",
    "title": "McLaren_494653",
    "link_img": "https://live.staticflickr.com/65535/48119321943_f212e34aa0_o.jpg",
    "id_image": "McLaren_494653",
    "count_view": 0
  },
  {
    "link_thumb": "https://live.staticflickr.com/65535/49891952713_c906d00ab4_n.jpg",
    "id_album": "273552619",
    "description": "2015_rv_Touring_rv_Berlinetta_rv_Lusso_rv_V4_rv_1600",
    "title": "2015_rv_Touring_rv_Berlinetta_rv_Lusso_rv_V4_rv_1600",
    "link_img": "https://live.staticflickr.com/65535/49891952713_13aa9733b7_o.jpg",
    "id_image": "2015_rv_Touring_rv_Berlinetta_rv_Lusso_rv_V4_rv_1600",
    "count_view": 0
  },
  {
    "link_thumb": "https://live.staticflickr.com/65535/48117668788_822468d758_n.jpg",
    "id_album": "-1846404630",
    "description": "Ford_960073",
    "title": "Ford_960073",
    "link_img": "https://live.staticflickr.com/65535/48117668788_585ac7c5c8_o.jpg",
    "id_image": "Ford_960073",
    "count_view": 0
  },
  {
    "link_thumb": "https://live.staticflickr.com/65535/48114336207_d43ea6ccf9_n.jpg",
    "id_album": "-1721545051",
    "description": "Chevrolet_442603",
    "title": "Chevrolet_442603",
    "link_img": "https://live.staticflickr.com/65535/48114336207_4bf19b6956_o.jpg",
    "id_image": "Chevrolet_442603",
    "count_view": 0
  },
  {
    "link_thumb": "https://live.staticflickr.com/65535/49889738777_751dc56a77_n.jpg",
    "id_album": "1364506720",
    "description": "2003_rv_Ferrari_rv_360_rv_GT_rv_V5_rv_1536",
    "title": "2003_rv_Ferrari_rv_360_rv_GT_rv_V5_rv_1536",
    "link_img": "https://live.staticflickr.com/65535/49889738777_52eefb8575_o.jpg",
    "id_image": "2003_rv_Ferrari_rv_360_rv_GT_rv_V5_rv_1536",
    "count_view": 0
  },
  {
    "link_thumb": "https://live.staticflickr.com/65535/48118968677_b6c86f4a96_n.jpg",
    "id_album": "446908717",
    "description": "Lexus_552266",
    "title": "Lexus_552266",
    "link_img": "https://live.staticflickr.com/65535/48118968677_104a3265eb_o.jpg",
    "id_image": "Lexus_552266",
    "count_view": 0
  },
  {
    "link_thumb": "https://live.staticflickr.com/65535/48115713826_7cd06a3963_n.jpg",
    "id_album": "1364506720",
    "description": "Ferrari_273000",
    "title": "Ferrari_273000",
    "link_img": "https://live.staticflickr.com/65535/48115713826_def597a2f2_o.jpg",
    "id_image": "Ferrari_273000",
    "count_view": 0
  },
  {
    "link_thumb": "https://live.staticflickr.com/65535/49890116911_fe4950d82a_n.jpg",
    "id_album": "1554721686",
    "description": "2017_rv_Lamborghini_rv_Terzo_rv_Millennio_rv_Concept_rv_V3_rv_2000",
    "title": "2017_rv_Lamborghini_rv_Terzo_rv_Millennio_rv_Concept_rv_V3_rv_2000",
    "link_img": "https://live.staticflickr.com/65535/49890116911_698363320b_o.jpg",
    "id_image": "2017_rv_Lamborghini_rv_Terzo_rv_Millennio_rv_Concept_rv_V3_rv_2000",
    "count_view": 0
  },
  {
    "link_thumb": "https://live.staticflickr.com/65535/49889432248_d9eb0f19ce_n.jpg",
    "id_album": "-45591240",
    "description": "2017_rv_Infiniti_rv_Prototype_rv_9_rv_Concept_rv_V2_rv_2000",
    "title": "2017_rv_Infiniti_rv_Prototype_rv_9_rv_Concept_rv_V2_rv_2000",
    "link_img": "https://live.staticflickr.com/65535/49889432248_1994787354_o.jpg",
    "id_image": "2017_rv_Infiniti_rv_Prototype_rv_9_rv_Concept_rv_V2_rv_2000",
    "count_view": 0
  },
  {
    "link_thumb": "https://live.staticflickr.com/65535/49889726676_24a94dcfff_n.jpg",
    "id_album": "524349362",
    "description": "2017_rv_Ford_rv_GT_rv_66_rv_Heritage_rv_Edition_rv_V6_rv_1600",
    "title": "2017_rv_Ford_rv_GT_rv_66_rv_Heritage_rv_Edition_rv_V6_rv_1600",
    "link_img": "https://live.staticflickr.com/65535/49889726676_7095e31197_o.jpg",
    "id_image": "2017_rv_Ford_rv_GT_rv_66_rv_Heritage_rv_Edition_rv_V6_rv_1600",
    "count_view": 0
  },
  {
    "link_thumb": "https://live.staticflickr.com/65535/48120643766_45c9d1075a_n.jpg",
    "id_album": "-2131154733",
    "description": "Oldsmobile_422396",
    "title": "Oldsmobile_422396",
    "link_img": "https://live.staticflickr.com/65535/48120643766_534dd37c8d_o.jpg",
    "id_image": "Oldsmobile_422396",
    "count_view": 0
  },
  {
    "link_thumb": "https://live.staticflickr.com/65535/49890410518_eb4fc06447_n.jpg",
    "id_album": "-2129417883",
    "description": "2014_rv_Mercedes_rv_Benz_rv_SLS_rv_AMG_rv_GT_rv_Final_rv_Edition_rv_V7_rv_1440",
    "title": "2014_rv_Mercedes_rv_Benz_rv_SLS_rv_AMG_rv_GT_rv_Final_rv_Edition_rv_V7_rv_1440",
    "link_img": "https://live.staticflickr.com/65535/49890410518_3f3b5c99c7_o.jpg",
    "id_image": "2014_rv_Mercedes_rv_Benz_rv_SLS_rv_AMG_rv_GT_rv_Final_rv_Edition_rv_V7_rv_1440",
    "count_view": 0
  },
  {
    "link_thumb": "https://live.staticflickr.com/65535/49889989847_b339b247d5_n.jpg",
    "id_album": "-1221805240",
    "description": "2012_rv_Ford_rv_Mustang_rv_Boss_rv_302_rv_V5_rv_1536",
    "title": "2012_rv_Ford_rv_Mustang_rv_Boss_rv_302_rv_V5_rv_1536",
    "link_img": "https://live.staticflickr.com/65535/49889989847_e8942a0d4d_o.jpg",
    "id_image": "2012_rv_Ford_rv_Mustang_rv_Boss_rv_302_rv_V5_rv_1536",
    "count_view": 0
  },
  {
    "link_thumb": "https://live.staticflickr.com/65535/48117563656_6fff92535d_n.jpg",
    "id_album": "-1846404630",
    "description": "Ford_931276",
    "title": "Ford_931276",
    "link_img": "https://live.staticflickr.com/65535/48117563656_48186ac63a_o.jpg",
    "id_image": "Ford_931276",
    "count_view": 0
  },
  {
    "link_thumb": "https://live.staticflickr.com/65535/48118075693_b39005cf5c_n.jpg",
    "id_album": "-843028318",
    "description": "Jaguar_975014",
    "title": "Jaguar_975014",
    "link_img": "https://live.staticflickr.com/65535/48118075693_c62be255ef_o.jpg",
    "id_image": "Jaguar_975014",
    "count_view": 0
  },
  {
    "link_thumb": "https://live.staticflickr.com/65535/48118967868_561ccf3d46_n.jpg",
    "id_album": "446908717",
    "description": "Lexus_917775",
    "title": "Lexus_917775",
    "link_img": "https://live.staticflickr.com/65535/48118967868_a1d116c354_o.jpg",
    "id_image": "Lexus_917775",
    "count_view": 0
  },
  {
    "link_thumb": "https://live.staticflickr.com/65535/49890421173_38c3d7942f_n.jpg",
    "id_album": "-353804760",
    "description": "2010_rv_Mini_rv_Cooper_rv_S_rv_John_rv_Cooper_rv_Works_rv_V1_rv_1440",
    "title": "2010_rv_Mini_rv_Cooper_rv_S_rv_John_rv_Cooper_rv_Works_rv_V1_rv_1440",
    "link_img": "https://live.staticflickr.com/65535/49890421173_617cb994a3_o.jpg",
    "id_image": "2010_rv_Mini_rv_Cooper_rv_S_rv_John_rv_Cooper_rv_Works_rv_V1_rv_1440",
    "count_view": 0
  },
  {
    "link_thumb": "https://live.staticflickr.com/65535/48113565138_f6039c6d3e_n.jpg",
    "id_album": "-680120434",
    "description": "Cadillac_254233",
    "title": "Cadillac_254233",
    "link_img": "https://live.staticflickr.com/65535/48113565138_3b5e13818a_o.jpg",
    "id_image": "Cadillac_254233",
    "count_view": 0
  },
  {
    "link_thumb": "https://live.staticflickr.com/65535/49888398593_340fa66b8c_n.jpg",
    "id_album": "-15119147",
    "description": "2015_rv_Audi_rv_R8_rv_LMS_rv_V2_rv_1600",
    "title": "2015_rv_Audi_rv_R8_rv_LMS_rv_V2_rv_1600",
    "link_img": "https://live.staticflickr.com/65535/49888398593_f0db55d662_o.jpg",
    "id_image": "2015_rv_Audi_rv_R8_rv_LMS_rv_V2_rv_1600",
    "count_view": 0
  },
  {
    "link_thumb": "https://live.staticflickr.com/65535/49890080111_7794301129_n.jpg",
    "id_album": "-78345922",
    "description": "2014_rv_KTM_rv_X_rv_Bow_rv_GT_rv_V6_rv_1600",
    "title": "2014_rv_KTM_rv_X_rv_Bow_rv_GT_rv_V6_rv_1600",
    "link_img": "https://live.staticflickr.com/65535/49890080111_9480ba8bcb_o.jpg",
    "id_image": "2014_rv_KTM_rv_X_rv_Bow_rv_GT_rv_V6_rv_1600",
    "count_view": 0
  },
  {
    "link_thumb": "https://live.staticflickr.com/65535/49892173453_6f18445f92_n.jpg",
    "id_album": "-1749229761",
    "description": "2003_rv_Volvo_rv_S80_rv_V4_rv_1536",
    "title": "2003_rv_Volvo_rv_S80_rv_V4_rv_1536",
    "link_img": "https://live.staticflickr.com/65535/49892173453_4fc00b4755_o.jpg",
    "id_image": "2003_rv_Volvo_rv_S80_rv_V4_rv_1536",
    "count_view": 0
  },
  {
    "link_thumb": "https://live.staticflickr.com/65535/48119894678_248c0abd33_n.jpg",
    "id_album": "-731054311",
    "description": "MercedesBenz_919830",
    "title": "MercedesBenz_919830",
    "link_img": "https://live.staticflickr.com/65535/48119894678_fd4683b7ed_o.jpg",
    "id_image": "MercedesBenz_919830",
    "count_view": 0
  },
  {
    "link_thumb": "https://live.staticflickr.com/65535/48118869272_70f7be12cb_n.jpg",
    "id_album": "1986285173",
    "description": "Lancia_859588",
    "title": "Lancia_859588",
    "link_img": "https://live.staticflickr.com/65535/48118869272_0f254755d4_o.jpg",
    "id_image": "Lancia_859588",
    "count_view": 0
  },
  {
    "link_thumb": "https://live.staticflickr.com/65535/48120214716_75375cb9cb_n.jpg",
    "id_album": "666438681",
    "description": "Motorcycles_388672",
    "title": "Motorcycles_388672",
    "link_img": "https://live.staticflickr.com/65535/48120214716_90ee179224_o.jpg",
    "id_image": "Motorcycles_388672",
    "count_view": 0
  },
  {
    "link_thumb": "https://live.staticflickr.com/65535/48117083776_1d4057c4dd_n.jpg",
    "id_album": "-1846404630",
    "description": "Ford_395032",
    "title": "Ford_395032",
    "link_img": "https://live.staticflickr.com/65535/48117083776_f15c46cc0e_o.jpg",
    "id_image": "Ford_395032",
    "count_view": 0
  },
  {
    "link_thumb": "https://live.staticflickr.com/65535/49889072296_64cff9f5b8_n.jpg",
    "id_album": "-1839908199",
    "description": "2020_rv_BMW_rv_M2_rv_CS_rv_V6_rv_2160",
    "title": "2020_rv_BMW_rv_M2_rv_CS_rv_V6_rv_2160",
    "link_img": "https://live.staticflickr.com/65535/49889072296_80f5070901_o.jpg",
    "id_image": "2020_rv_BMW_rv_M2_rv_CS_rv_V6_rv_2160",
    "count_view": 0
  },
  {
    "link_thumb": "https://live.staticflickr.com/65535/48113289993_d9150050e4_n.jpg",
    "id_album": "727633301",
    "description": "BMW_935326",
    "title": "BMW_935326",
    "link_img": "https://live.staticflickr.com/65535/48113289993_9f6318a8e8_o.jpg",
    "id_image": "BMW_935326",
    "count_view": 0
  },
  {
    "link_thumb": "https://live.staticflickr.com/65535/48119049627_2592c9086f_n.jpg",
    "id_album": "446908717",
    "description": "Lexus_962202",
    "title": "Lexus_962202",
    "link_img": "https://live.staticflickr.com/65535/48119049627_167930e7c1_o.jpg",
    "id_image": "Lexus_962202",
    "count_view": 0
  },
  {
    "link_thumb": "https://live.staticflickr.com/65535/48115916816_034dcbc19c_n.jpg",
    "id_album": "1364506720",
    "description": "Ferrari_379087",
    "title": "Ferrari_379087",
    "link_img": "https://live.staticflickr.com/65535/48115916816_e01f3daf34_o.jpg",
    "id_image": "Ferrari_379087",
    "count_view": 0
  },
  {
    "link_thumb": "https://live.staticflickr.com/65535/48122968883_d7d7a81023_n.jpg",
    "id_album": "-150952028",
    "description": "Volkswagen_37008",
    "title": "Volkswagen_37008",
    "link_img": "https://live.staticflickr.com/65535/48122968883_89b1326ba5_o.jpg",
    "id_image": "Volkswagen_37008",
    "count_view": 0
  },
  {
    "link_thumb": "https://live.staticflickr.com/65535/49889788773_5fb083fbb2_n.jpg",
    "id_album": "-1054428103",
    "description": "2015_rv_Lexus_rv_NX_rv_V4_rv_1600",
    "title": "2015_rv_Lexus_rv_NX_rv_V4_rv_1600",
    "link_img": "https://live.staticflickr.com/65535/49889788773_5067000f5d_o.jpg",
    "id_image": "2015_rv_Lexus_rv_NX_rv_V4_rv_1600",
    "count_view": 0
  }
]