[
  {
    "total_img": 0,
    "number_page": 0,
    "title": "KTM",
    "tag": "KTM,",
    "description": "KTM",
    "link_thumb": "https://live.staticflickr.com/65535/49890079346_025bb7f2c3_n.jpg",
    "id_album": "-78345922",
    "total_view": 6
  }
]