[
  {
    "link_thumb": "https://live.staticflickr.com/65535/49889462936_7212e5c889_n.jpg",
    "id_album": "1069339433",
    "description": "1971_rv_Ferrari_rv_365_rv_GTB4_rv_Daytona_rv_V10_rv_1536",
    "title": "1971_rv_Ferrari_rv_365_rv_GTB4_rv_Daytona_rv_V10_rv_1536",
    "link_img": "https://live.staticflickr.com/65535/49889462936_c50f92cc6c_o.jpg",
    "id_image": "1971_rv_Ferrari_rv_365_rv_GTB4_rv_Daytona_rv_V10_rv_1536",
    "count_view": 0
  },
  {
    "link_thumb": "https://live.staticflickr.com/65535/49041148402_9b01118e52_n.jpg",
    "id_album": "-1428556500",
    "description": "AlfaRomeo_253530",
    "title": "AlfaRomeo_253530",
    "link_img": "https://live.staticflickr.com/65535/49041148402_1a9afd5393_o.jpg",
    "id_image": "AlfaRomeo_253530",
    "count_view": 0
  },
  {
    "link_thumb": "https://live.staticflickr.com/65535/48115156973_324fe3b0da_n.jpg",
    "id_album": "413141323",
    "description": "Dodge_255053",
    "title": "Dodge_255053",
    "link_img": "https://live.staticflickr.com/65535/48115156973_5df056c73a_o.jpg",
    "id_image": "Dodge_255053",
    "count_view": 0
  },
  {
    "link_thumb": "https://live.staticflickr.com/65535/48119260448_b42bf744ea_n.jpg",
    "id_album": "898314866",
    "description": "Mazda_77224",
    "title": "Mazda_77224",
    "link_img": "https://live.staticflickr.com/65535/48119260448_0d80ccea90_o.jpg",
    "id_image": "Mazda_77224",
    "count_view": 0
  },
  {
    "link_thumb": "https://live.staticflickr.com/65535/48120642337_b67ebba419_n.jpg",
    "id_album": "810634050",
    "description": "Nissan_707356",
    "title": "Nissan_707356",
    "link_img": "https://live.staticflickr.com/65535/48120642337_b93dd71a18_o.jpg",
    "id_image": "Nissan_707356",
    "count_view": 0
  },
  {
    "link_thumb": "https://live.staticflickr.com/65535/49891572222_6e38baf03f_n.jpg",
    "id_album": "-925276176",
    "description": "2014_rv_Peugeot_rv_Exalt_rv_Concept_rv_V1_rv_1600",
    "title": "2014_rv_Peugeot_rv_Exalt_rv_Concept_rv_V1_rv_1600",
    "link_img": "https://live.staticflickr.com/65535/49891572222_02001395a7_o.jpg",
    "id_image": "2014_rv_Peugeot_rv_Exalt_rv_Concept_rv_V1_rv_1600",
    "count_view": 0
  },
  {
    "link_thumb": "https://live.staticflickr.com/65535/49890572461_6df94e74cb_n.jpg",
    "id_album": "1807183876",
    "description": "2019_rv_McLaren_rv_720S_rv_Spider_rv_V2_rv_2000",
    "title": "2019_rv_McLaren_rv_720S_rv_Spider_rv_V2_rv_2000",
    "link_img": "https://live.staticflickr.com/65535/49890572461_bf13b0ae6b_o.jpg",
    "id_image": "2019_rv_McLaren_rv_720S_rv_Spider_rv_V2_rv_2000",
    "count_view": 0
  },
  {
    "link_thumb": "https://live.staticflickr.com/65535/48118821711_36bf719b5e_n.jpg",
    "id_album": "1234246491",
    "description": "LandRover_927448",
    "title": "LandRover_927448",
    "link_img": "https://live.staticflickr.com/65535/48118821711_f8ce74dd5f_o.jpg",
    "id_image": "LandRover_927448",
    "count_view": 0
  },
  {
    "link_thumb": "https://live.staticflickr.com/65535/48119287051_7e2dc25e71_n.jpg",
    "id_album": "990865885",
    "description": "McLaren_494644",
    "title": "McLaren_494644",
    "link_img": "https://live.staticflickr.com/65535/48119287051_a0218ac435_o.jpg",
    "id_image": "McLaren_494644",
    "count_view": 0
  },
  {
    "link_thumb": "https://live.staticflickr.com/65535/48122958742_b35c686aa5_n.jpg",
    "id_album": "-150952028",
    "description": "Volkswagen_235730",
    "title": "Volkswagen_235730",
    "link_img": "https://live.staticflickr.com/65535/48122958742_e79a7fdcf9_o.jpg",
    "id_image": "Volkswagen_235730",
    "count_view": 0
  },
  {
    "link_thumb": "https://live.staticflickr.com/65535/48119192676_d8ceeb2057_n.jpg",
    "id_album": "898314866",
    "description": "Mazda_257059",
    "title": "Mazda_257059",
    "link_img": "https://live.staticflickr.com/65535/48119192676_b75780fbdd_o.jpg",
    "id_image": "Mazda_257059",
    "count_view": 0
  },
  {
    "link_thumb": "https://live.staticflickr.com/65535/48117961442_539d9f4bc8_n.jpg",
    "id_album": "-354267407",
    "description": "Honda_684344",
    "title": "Honda_684344",
    "link_img": "https://live.staticflickr.com/65535/48117961442_531c3ee6d7_o.jpg",
    "id_image": "Honda_684344",
    "count_view": 0
  },
  {
    "link_thumb": "https://live.staticflickr.com/65535/48119664213_d0aebca0d7_n.jpg",
    "id_album": "-731054311",
    "description": "MercedesBenz_353956",
    "title": "MercedesBenz_353956",
    "link_img": "https://live.staticflickr.com/65535/48119664213_5e9da88983_o.jpg",
    "id_image": "MercedesBenz_353956",
    "count_view": 0
  },
  {
    "link_thumb": "https://live.staticflickr.com/65535/48116050332_8ce949939c_n.jpg",
    "id_album": "1364506720",
    "description": "Ferrari_429218",
    "title": "Ferrari_429218",
    "link_img": "https://live.staticflickr.com/65535/48116050332_8721d4d5cc_o.jpg",
    "id_image": "Ferrari_429218",
    "count_view": 0
  },
  {
    "link_thumb": "https://live.staticflickr.com/65535/49892804687_1f9b9029d9_n.jpg",
    "id_album": "-1642234658",
    "description": "1986_rv_Toyota_rv_Celica_rv_V2_rv_1536",
    "title": "1986_rv_Toyota_rv_Celica_rv_V2_rv_1536",
    "link_img": "https://live.staticflickr.com/65535/49892804687_71d5509db5_o.jpg",
    "id_image": "1986_rv_Toyota_rv_Celica_rv_V2_rv_1536",
    "count_view": 0
  },
  {
    "link_thumb": "https://live.staticflickr.com/65535/48117587988_1cf48a7f9a_n.jpg",
    "id_album": "-1846404630",
    "description": "Ford_931199",
    "title": "Ford_931199",
    "link_img": "https://live.staticflickr.com/65535/48117587988_03d9266199_o.jpg",
    "id_image": "Ford_931199",
    "count_view": 0
  },
  {
    "link_thumb": "https://live.staticflickr.com/65535/48121233033_2fc7bab761_n.jpg",
    "id_album": "-1178450892",
    "description": "Porsche_216018",
    "title": "Porsche_216018",
    "link_img": "https://live.staticflickr.com/65535/48121233033_8b18a35e29_o.jpg",
    "id_image": "Porsche_216018",
    "count_view": 0
  },
  {
    "link_thumb": "https://live.staticflickr.com/65535/49891781803_bc4f8a507d_n.jpg",
    "id_album": "1158625234",
    "description": "2013_rv_Rolls_rv_Royce_rv_Phantom_rv_Coupe_rv_V4_rv_1600",
    "title": "2013_rv_Rolls_rv_Royce_rv_Phantom_rv_Coupe_rv_V4_rv_1600",
    "link_img": "https://live.staticflickr.com/65535/49891781803_2eaa9afcfe_o.jpg",
    "id_image": "2013_rv_Rolls_rv_Royce_rv_Phantom_rv_Coupe_rv_V4_rv_1600",
    "count_view": 0
  },
  {
    "link_thumb": "https://live.staticflickr.com/65535/48112460958_5ed4372973_n.jpg",
    "id_album": "-15119147",
    "description": "Audi_892556",
    "title": "Audi_892556",
    "link_img": "https://live.staticflickr.com/65535/48112460958_fe3ffa88a7_o.jpg",
    "id_image": "Audi_892556",
    "count_view": 0
  },
  {
    "link_thumb": "https://live.staticflickr.com/65535/48122639421_fe2d862968_n.jpg",
    "id_album": "1274920659",
    "description": "Toyota_319433",
    "title": "Toyota_319433",
    "link_img": "https://live.staticflickr.com/65535/48122639421_16edd1d346_o.jpg",
    "id_image": "Toyota_319433",
    "count_view": 0
  },
  {
    "link_thumb": "https://live.staticflickr.com/65535/49889299747_3948dc6ce4_n.jpg",
    "id_album": "-446569246",
    "description": "2014_rv_Audi_rv_RS7_rv_Sportback_rv_V7_rv_1600",
    "title": "2014_rv_Audi_rv_RS7_rv_Sportback_rv_V7_rv_1600",
    "link_img": "https://live.staticflickr.com/65535/49889299747_8c19a529b4_o.jpg",
    "id_image": "2014_rv_Audi_rv_RS7_rv_Sportback_rv_V7_rv_1600",
    "count_view": 0
  },
  {
    "link_thumb": "https://live.staticflickr.com/65535/48120178632_bbb2533bc2_n.jpg",
    "id_album": "-1116477526",
    "description": "Mitsubishi_685648",
    "title": "Mitsubishi_685648",
    "link_img": "https://live.staticflickr.com/65535/48120178632_f4eb359ecc_o.jpg",
    "id_image": "Mitsubishi_685648",
    "count_view": 0
  },
  {
    "link_thumb": "https://live.staticflickr.com/65535/48112243882_dcc92a3707_n.jpg",
    "id_album": "555757480",
    "description": "AstonMartin_470554",
    "title": "AstonMartin_470554",
    "link_img": "https://live.staticflickr.com/65535/48112243882_ab692a4835_o.jpg",
    "id_image": "AstonMartin_470554",
    "count_view": 0
  },
  {
    "link_thumb": "https://live.staticflickr.com/65535/49888885843_d4b0d40331_n.jpg",
    "id_album": "123809772",
    "description": "2011_rv_Formula1_rv_Sauber_rv_C30_rv_V2_rv_1440",
    "title": "2011_rv_Formula1_rv_Sauber_rv_C30_rv_V2_rv_1440",
    "link_img": "https://live.staticflickr.com/65535/49888885843_3808f3eba9_o.jpg",
    "id_image": "2011_rv_Formula1_rv_Sauber_rv_C30_rv_V2_rv_1440",
    "count_view": 0
  },
  {
    "link_thumb": "https://live.staticflickr.com/65535/48113413221_05a5d5ed53_n.jpg",
    "id_album": "1456070666",
    "description": "Bugatti_547712",
    "title": "Bugatti_547712",
    "link_img": "https://live.staticflickr.com/65535/48113413221_44f860e1ef_o.jpg",
    "id_image": "Bugatti_547712",
    "count_view": 0
  },
  {
    "link_thumb": "https://live.staticflickr.com/65535/49891260716_eddd729ee5_n.jpg",
    "id_album": "-925276176",
    "description": "2010_rv_Peugeot_rv_SR1_rv_Concept_rv_Car_rv_V4_rv_1440",
    "title": "2010_rv_Peugeot_rv_SR1_rv_Concept_rv_Car_rv_V4_rv_1440",
    "link_img": "https://live.staticflickr.com/65535/49891260716_559ed88736_o.jpg",
    "id_image": "2010_rv_Peugeot_rv_SR1_rv_Concept_rv_Car_rv_V4_rv_1440",
    "count_view": 0
  },
  {
    "link_thumb": "https://live.staticflickr.com/65535/48112044498_590590e2c0_n.jpg",
    "id_album": "-843028318",
    "description": "Jaguar_186561",
    "title": "Jaguar_186561",
    "link_img": "https://live.staticflickr.com/65535/48112044498_7d25f64b1d_o.jpg",
    "id_image": "Jaguar_186561",
    "count_view": 0
  },
  {
    "link_thumb": "https://live.staticflickr.com/65535/48120875008_a45453eef1_n.jpg",
    "id_album": "1965631892",
    "description": "Peugeot_257584",
    "title": "Peugeot_257584",
    "link_img": "https://live.staticflickr.com/65535/48120875008_d7fa13a52a_o.jpg",
    "id_image": "Peugeot_257584",
    "count_view": 0
  },
  {
    "link_thumb": "https://live.staticflickr.com/65535/48112976052_e3941e7131_n.jpg",
    "id_album": "727633301",
    "description": "BMW_485346",
    "title": "BMW_485346",
    "link_img": "https://live.staticflickr.com/65535/48112976052_abe35a2b51_o.jpg",
    "id_image": "BMW_485346",
    "count_view": 0
  },
  {
    "link_thumb": "https://live.staticflickr.com/65535/48118353313_96d82a8c00_n.jpg",
    "id_album": "-2100339805",
    "description": "Lamborghini_318550",
    "title": "Lamborghini_318550",
    "link_img": "https://live.staticflickr.com/65535/48118353313_496efc1328_o.jpg",
    "id_image": "Lamborghini_318550",
    "count_view": 0
  },
  {
    "link_thumb": "https://live.staticflickr.com/65535/49889476086_8f0555b266_n.jpg",
    "id_album": "1472427359",
    "description": "2011_rv_Ferrari_rv_458_rv_Italia_rv_V2_rv_1440",
    "title": "2011_rv_Ferrari_rv_458_rv_Italia_rv_V2_rv_1440",
    "link_img": "https://live.staticflickr.com/65535/49889476086_7125ba466a_o.jpg",
    "id_image": "2011_rv_Ferrari_rv_458_rv_Italia_rv_V2_rv_1440",
    "count_view": 0
  },
  {
    "link_thumb": "https://live.staticflickr.com/65535/48119752583_b5e1db4e61_n.jpg",
    "id_album": "-731054311",
    "description": "MercedesBenz_644679",
    "title": "MercedesBenz_644679",
    "link_img": "https://live.staticflickr.com/65535/48119752583_f1ace35104_o.jpg",
    "id_image": "MercedesBenz_644679",
    "count_view": 0
  },
  {
    "link_thumb": "https://live.staticflickr.com/65535/48114715296_3e21a32232_n.jpg",
    "id_album": "-1721545051",
    "description": "Chevrolet_991637",
    "title": "Chevrolet_991637",
    "link_img": "https://live.staticflickr.com/65535/48114715296_fab0382f98_o.jpg",
    "id_image": "Chevrolet_991637",
    "count_view": 0
  },
  {
    "link_thumb": "https://live.staticflickr.com/65535/48119516538_36cfe7f2a7_n.jpg",
    "id_album": "-731054311",
    "description": "MercedesBenz_224124",
    "title": "MercedesBenz_224124",
    "link_img": "https://live.staticflickr.com/65535/48119516538_88281f33a7_o.jpg",
    "id_image": "MercedesBenz_224124",
    "count_view": 0
  },
  {
    "link_thumb": "https://live.staticflickr.com/65535/48119140128_a6f33afaea_n.jpg",
    "id_album": "697984456",
    "description": "Maserati_76266",
    "title": "Maserati_76266",
    "link_img": "https://live.staticflickr.com/65535/48119140128_ceb586bae8_o.jpg",
    "id_image": "Maserati_76266",
    "count_view": 0
  },
  {
    "link_thumb": "https://live.staticflickr.com/65535/48114106313_76b7775357_n.jpg",
    "id_album": "-1721545051",
    "description": "Chevrolet_289880",
    "title": "Chevrolet_289880",
    "link_img": "https://live.staticflickr.com/65535/48114106313_861c3b38a6_o.jpg",
    "id_image": "Chevrolet_289880",
    "count_view": 0
  },
  {
    "link_thumb": "https://live.staticflickr.com/65535/49892106883_032fa26c8a_n.jpg",
    "id_album": "-1763841130",
    "description": "2015_rv_Vauxhall_rv_Adam_rv_S_rv_V2_rv_1600",
    "title": "2015_rv_Vauxhall_rv_Adam_rv_S_rv_V2_rv_1600",
    "link_img": "https://live.staticflickr.com/65535/49892106883_db4de3337c_o.jpg",
    "id_image": "2015_rv_Vauxhall_rv_Adam_rv_S_rv_V2_rv_1600",
    "count_view": 0
  },
  {
    "link_thumb": "https://live.staticflickr.com/65535/48118183933_c89b05bec1_n.jpg",
    "id_album": "-625217782",
    "description": "Kia_449863",
    "title": "Kia_449863",
    "link_img": "https://live.staticflickr.com/65535/48118183933_5829d83180_o.jpg",
    "id_image": "Kia_449863",
    "count_view": 0
  },
  {
    "link_thumb": "https://live.staticflickr.com/65535/49890756367_0a4685ca25_n.jpg",
    "id_album": "2093957532",
    "description": "2001_rv_Maserati_rv_Spyder_rv_V2_rv_1440",
    "title": "2001_rv_Maserati_rv_Spyder_rv_V2_rv_1440",
    "link_img": "https://live.staticflickr.com/65535/49890756367_0dbe61fc22_o.jpg",
    "id_image": "2001_rv_Maserati_rv_Spyder_rv_V2_rv_1440",
    "count_view": 0
  },
  {
    "link_thumb": "https://live.staticflickr.com/65535/49890090368_d6c8d2f88c_n.jpg",
    "id_album": "2123877454",
    "description": "2018_rv_Formula1_rv_McLaren_rv_MCL33_rv_V4_rv_2000",
    "title": "2018_rv_Formula1_rv_McLaren_rv_MCL33_rv_V4_rv_2000",
    "link_img": "https://live.staticflickr.com/65535/49890090368_7efa042820_o.jpg",
    "id_image": "2018_rv_Formula1_rv_McLaren_rv_MCL33_rv_V4_rv_2000",
    "count_view": 0
  },
  {
    "link_thumb": "https://live.staticflickr.com/65535/49890620572_685bfc993d_n.jpg",
    "id_album": "-1502031787",
    "description": "2015_rv_Lexus_rv_RC_rv_V5_rv_1600",
    "title": "2015_rv_Lexus_rv_RC_rv_V5_rv_1600",
    "link_img": "https://live.staticflickr.com/65535/49890620572_417c4f8c52_o.jpg",
    "id_image": "2015_rv_Lexus_rv_RC_rv_V5_rv_1600",
    "count_view": 0
  },
  {
    "link_thumb": "https://live.staticflickr.com/65535/48122232562_79a5fb0e31_n.jpg",
    "id_album": "1536700661",
    "description": "RollsRoyce_814972",
    "title": "RollsRoyce_814972",
    "link_img": "https://live.staticflickr.com/65535/48122232562_bb1e0a5cb5_o.jpg",
    "id_image": "RollsRoyce_814972",
    "count_view": 0
  },
  {
    "link_thumb": "https://live.staticflickr.com/65535/48118859101_ede1bea6aa_n.jpg",
    "id_album": "446908717",
    "description": "Lexus_401221",
    "title": "Lexus_401221",
    "link_img": "https://live.staticflickr.com/65535/48118859101_fd20f8b354_o.jpg",
    "id_image": "Lexus_401221",
    "count_view": 0
  },
  {
    "link_thumb": "https://live.staticflickr.com/65535/49889579842_456b090f80_n.jpg",
    "id_album": "-10315880",
    "description": "2016_rv_Cadillac_rv_ATS_rv_V_rv_Sedan_rv_V3_rv_1600",
    "title": "2016_rv_Cadillac_rv_ATS_rv_V_rv_Sedan_rv_V3_rv_1600",
    "link_img": "https://live.staticflickr.com/65535/49889579842_9c542364bd_o.jpg",
    "id_image": "2016_rv_Cadillac_rv_ATS_rv_V_rv_Sedan_rv_V3_rv_1600",
    "count_view": 0
  },
  {
    "link_thumb": "https://live.staticflickr.com/65535/49890905981_27575207d1_n.jpg",
    "id_album": "-1836340891",
    "description": "2012_rv_Mercedes_rv_Benz_rv_SLK_rv_55_rv_AMG_rv_V6_rv_2000",
    "title": "2012_rv_Mercedes_rv_Benz_rv_SLK_rv_55_rv_AMG_rv_V6_rv_2000",
    "link_img": "https://live.staticflickr.com/65535/49890905981_a0256ecf90_o.jpg",
    "id_image": "2012_rv_Mercedes_rv_Benz_rv_SLK_rv_55_rv_AMG_rv_V6_rv_2000",
    "count_view": 0
  },
  {
    "link_thumb": "https://live.staticflickr.com/65535/48117160552_b72bd62762_n.jpg",
    "id_album": "-1846404630",
    "description": "Ford_379226",
    "title": "Ford_379226",
    "link_img": "https://live.staticflickr.com/65535/48117160552_20b6849631_o.jpg",
    "id_image": "Ford_379226",
    "count_view": 0
  },
  {
    "link_thumb": "https://live.staticflickr.com/65535/49889522863_e03d0482dc_n.jpg",
    "id_album": "-1314216515",
    "description": "2015_rv_Kia_rv_Novo_rv_Concept_rv_V4_rv_1600",
    "title": "2015_rv_Kia_rv_Novo_rv_Concept_rv_V4_rv_1600",
    "link_img": "https://live.staticflickr.com/65535/49889522863_78ea07e3a4_o.jpg",
    "id_image": "2015_rv_Kia_rv_Novo_rv_Concept_rv_V4_rv_1600",
    "count_view": 0
  },
  {
    "link_thumb": "https://live.staticflickr.com/65535/48120066402_693514e189_n.jpg",
    "id_album": "-1366790033",
    "description": "Mercury_150453",
    "title": "Mercury_150453",
    "link_img": "https://live.staticflickr.com/65535/48120066402_9f6d3401de_o.jpg",
    "id_image": "Mercury_150453",
    "count_view": 0
  },
  {
    "link_thumb": "https://live.staticflickr.com/65535/49891175552_daa5b93140_n.jpg",
    "id_album": "-35902487",
    "description": "2017_rv_Mercedes_rv_AMG_rv_Project_rv_ONE_rv_Concept_rv_V1_rv_2000",
    "title": "2017_rv_Mercedes_rv_AMG_rv_Project_rv_ONE_rv_Concept_rv_V1_rv_2000",
    "link_img": "https://live.staticflickr.com/65535/49891175552_e36bc59ab6_o.jpg",
    "id_image": "2017_rv_Mercedes_rv_AMG_rv_Project_rv_ONE_rv_Concept_rv_V1_rv_2000",
    "count_view": 0
  },
  {
    "link_thumb": "https://live.staticflickr.com/65535/48122452822_d168380120_n.jpg",
    "id_album": "422322641",
    "description": "Subaru_190862",
    "title": "Subaru_190862",
    "link_img": "https://live.staticflickr.com/65535/48122452822_4558d9edce_o.jpg",
    "id_image": "Subaru_190862",
    "count_view": 0
  },
  {
    "link_thumb": "https://live.staticflickr.com/65535/49888998756_2ab331396c_n.jpg",
    "id_album": "669176001",
    "description": "2006_rv_Audi_rv_S8_rv_V4_rv_1536",
    "title": "2006_rv_Audi_rv_S8_rv_V4_rv_1536",
    "link_img": "https://live.staticflickr.com/65535/49888998756_da6c709533_o.jpg",
    "id_image": "2006_rv_Audi_rv_S8_rv_V4_rv_1536",
    "count_view": 0
  },
  {
    "link_thumb": "https://live.staticflickr.com/65535/48120503308_87391994f5_n.jpg",
    "id_album": "810634050",
    "description": "Nissan_484034",
    "title": "Nissan_484034",
    "link_img": "https://live.staticflickr.com/65535/48120503308_31c9341aef_o.jpg",
    "id_image": "Nissan_484034",
    "count_view": 0
  },
  {
    "link_thumb": "https://live.staticflickr.com/65535/48115495853_b323c4719e_n.jpg",
    "id_album": "413141323",
    "description": "Dodge_759210",
    "title": "Dodge_759210",
    "link_img": "https://live.staticflickr.com/65535/48115495853_4901a157d2_o.jpg",
    "id_image": "Dodge_759210",
    "count_view": 0
  },
  {
    "link_thumb": "https://live.staticflickr.com/65535/49892336751_7d8b83946f_n.jpg",
    "id_album": "1479345904",
    "description": "2014_rv_Dodge_rv_Charger_rv_RT_rv_100th_rv_Anniversary_rv_V2_rv_1536",
    "title": "2014_rv_Dodge_rv_Charger_rv_RT_rv_100th_rv_Anniversary_rv_V2_rv_1536",
    "link_img": "https://live.staticflickr.com/65535/49892336751_5921c94f1a_o.jpg",
    "id_image": "2014_rv_Dodge_rv_Charger_rv_RT_rv_100th_rv_Anniversary_rv_V2_rv_1536",
    "count_view": 0
  },
  {
    "link_thumb": "https://live.staticflickr.com/65535/48119528303_8e1b5d71c9_n.jpg",
    "id_album": "-731054311",
    "description": "MercedesBenz_251422",
    "title": "MercedesBenz_251422",
    "link_img": "https://live.staticflickr.com/65535/48119528303_5b4d86628c_o.jpg",
    "id_image": "MercedesBenz_251422",
    "count_view": 0
  },
  {
    "link_thumb": "https://live.staticflickr.com/65535/48113643538_d66cfe4664_n.jpg",
    "id_album": "-680120434",
    "description": "Cadillac_772623",
    "title": "Cadillac_772623",
    "link_img": "https://live.staticflickr.com/65535/48113643538_959b5973fb_o.jpg",
    "id_image": "Cadillac_772623",
    "count_view": 0
  },
  {
    "link_thumb": "https://live.staticflickr.com/65535/48116341458_fb32285e01_n.jpg",
    "id_album": "1364506720",
    "description": "Ferrari_81492",
    "title": "Ferrari_81492",
    "link_img": "https://live.staticflickr.com/65535/48116341458_0f08c5261a_o.jpg",
    "id_image": "Ferrari_81492",
    "count_view": 0
  },
  {
    "link_thumb": "https://live.staticflickr.com/65535/48119236782_47cd7e0cd1_n.jpg",
    "id_album": "697984456",
    "description": "Maserati_895921",
    "title": "Maserati_895921",
    "link_img": "https://live.staticflickr.com/65535/48119236782_0a34a41f49_o.jpg",
    "id_image": "Maserati_895921",
    "count_view": 0
  },
  {
    "link_thumb": "https://live.staticflickr.com/65535/49890049797_d14aa4a056_n.jpg",
    "id_album": "-86218948",
    "description": "2019_rv_Ford_rv_Ranger_rv_Raptor_rv_V5_rv_2000",
    "title": "2019_rv_Ford_rv_Ranger_rv_Raptor_rv_V5_rv_2000",
    "link_img": "https://live.staticflickr.com/65535/49890049797_d910cc9f7e_o.jpg",
    "id_image": "2019_rv_Ford_rv_Ranger_rv_Raptor_rv_V5_rv_2000",
    "count_view": 0
  },
  {
    "link_thumb": "https://live.staticflickr.com/65535/49889241447_34f67d9d00_n.jpg",
    "id_album": "1171449162",
    "description": "2015_rv_Audi_rv_Prologue_rv_Piloted_rv_Driving_rv_Concept_rv_V4_rv_1600",
    "title": "2015_rv_Audi_rv_Prologue_rv_Piloted_rv_Driving_rv_Concept_rv_V4_rv_1600",
    "link_img": "https://live.staticflickr.com/65535/49889241447_4b4b557dcb_o.jpg",
    "id_image": "2015_rv_Audi_rv_Prologue_rv_Piloted_rv_Driving_rv_Concept_rv_V4_rv_1600",
    "count_view": 0
  },
  {
    "link_thumb": "https://live.staticflickr.com/65535/48111687006_3f24ba085d_n.jpg",
    "id_album": "1482519782",
    "description": "Hyundai_936533",
    "title": "Hyundai_936533",
    "link_img": "https://live.staticflickr.com/65535/48111687006_cb663c1814_o.jpg",
    "id_image": "Hyundai_936533",
    "count_view": 0
  },
  {
    "link_thumb": "https://live.staticflickr.com/65535/48122258217_34dcb0961c_n.jpg",
    "id_album": "1536700661",
    "description": "RollsRoyce_911411",
    "title": "RollsRoyce_911411",
    "link_img": "https://live.staticflickr.com/65535/48122258217_eaa651211c_o.jpg",
    "id_image": "RollsRoyce_911411",
    "count_view": 0
  },
  {
    "link_thumb": "https://live.staticflickr.com/65535/48118423708_e4ee387615_n.jpg",
    "id_album": "-2100339805",
    "description": "Lamborghini_378274",
    "title": "Lamborghini_378274",
    "link_img": "https://live.staticflickr.com/65535/48118423708_1e270e07db_o.jpg",
    "id_image": "Lamborghini_378274",
    "count_view": 0
  },
  {
    "link_thumb": "https://live.staticflickr.com/65535/48120037012_5dd5da6348_n.jpg",
    "id_album": "-731054311",
    "description": "MercedesBenz_975028",
    "title": "MercedesBenz_975028",
    "link_img": "https://live.staticflickr.com/65535/48120037012_3876b84082_o.jpg",
    "id_image": "MercedesBenz_975028",
    "count_view": 0
  },
  {
    "link_thumb": "https://live.staticflickr.com/65535/49889478816_32900fcfa4_n.jpg",
    "id_album": "1472427359",
    "description": "2013_rv_Ferrari_rv_458_rv_Spider_rv_V8_rv_1440",
    "title": "2013_rv_Ferrari_rv_458_rv_Spider_rv_V8_rv_1440",
    "link_img": "https://live.staticflickr.com/65535/49889478816_eb66001013_o.jpg",
    "id_image": "2013_rv_Ferrari_rv_458_rv_Spider_rv_V8_rv_1440",
    "count_view": 0
  },
  {
    "link_thumb": "https://live.staticflickr.com/65535/48119919312_63e693e5cf_n.jpg",
    "id_album": "-731054311",
    "description": "MercedesBenz_892740",
    "title": "MercedesBenz_892740",
    "link_img": "https://live.staticflickr.com/65535/48119919312_fd9778868f_o.jpg",
    "id_image": "MercedesBenz_892740",
    "count_view": 0
  },
  {
    "link_thumb": "https://live.staticflickr.com/65535/48121331317_c5de99f169_n.jpg",
    "id_album": "-1178450892",
    "description": "Porsche_251818",
    "title": "Porsche_251818",
    "link_img": "https://live.staticflickr.com/65535/48121331317_eec55435aa_o.jpg",
    "id_image": "Porsche_251818",
    "count_view": 0
  },
  {
    "link_thumb": "https://live.staticflickr.com/65535/48116078946_8ccfe7061c_n.jpg",
    "id_album": "1364506720",
    "description": "Ferrari_527439",
    "title": "Ferrari_527439",
    "link_img": "https://live.staticflickr.com/65535/48116078946_c7a14f3903_o.jpg",
    "id_image": "Ferrari_527439",
    "count_view": 0
  },
  {
    "link_thumb": "https://live.staticflickr.com/65535/48119120503_237f56db2d_n.jpg",
    "id_album": "697984456",
    "description": "Maserati_450041",
    "title": "Maserati_450041",
    "link_img": "https://live.staticflickr.com/65535/48119120503_05774990c8_o.jpg",
    "id_image": "Maserati_450041",
    "count_view": 0
  },
  {
    "link_thumb": "https://live.staticflickr.com/65535/48121187978_0d0cd4092a_n.jpg",
    "id_album": "-2099496752",
    "description": "Pontiac_498764",
    "title": "Pontiac_498764",
    "link_img": "https://live.staticflickr.com/65535/48121187978_3e041a235b_o.jpg",
    "id_image": "Pontiac_498764",
    "count_view": 0
  },
  {
    "link_thumb": "https://live.staticflickr.com/65535/48121488897_18ec5e3cb0_n.jpg",
    "id_album": "-1178450892",
    "description": "Porsche_462640",
    "title": "Porsche_462640",
    "link_img": "https://live.staticflickr.com/65535/48121488897_f911d18796_o.jpg",
    "id_image": "Porsche_462640",
    "count_view": 0
  },
  {
    "link_thumb": "https://live.staticflickr.com/65535/48112812197_7809d68ef8_n.jpg",
    "id_album": "727633301",
    "description": "BMW_317551",
    "title": "BMW_317551",
    "link_img": "https://live.staticflickr.com/65535/48112812197_b260156bf2_o.jpg",
    "id_image": "BMW_317551",
    "count_view": 0
  },
  {
    "link_thumb": "https://live.staticflickr.com/65535/48120020486_c4201f5e21_n.jpg",
    "id_album": "-1116477526",
    "description": "Mitsubishi_257420",
    "title": "Mitsubishi_257420",
    "link_img": "https://live.staticflickr.com/65535/48120020486_824086c223_o.jpg",
    "id_image": "Mitsubishi_257420",
    "count_view": 0
  },
  {
    "link_thumb": "https://live.staticflickr.com/65535/48113135468_1b61ced04a_n.jpg",
    "id_album": "727633301",
    "description": "BMW_856917",
    "title": "BMW_856917",
    "link_img": "https://live.staticflickr.com/65535/48113135468_500f446384_o.jpg",
    "id_image": "BMW_856917",
    "count_view": 0
  },
  {
    "link_thumb": "https://live.staticflickr.com/65535/49889782056_6e66139f4c_n.jpg",
    "id_album": "-2000398090",
    "description": "2006_rv_Ford_rv_FPV_rv_BFII_rv_V8_rv_1600",
    "title": "2006_rv_Ford_rv_FPV_rv_BFII_rv_V8_rv_1600",
    "link_img": "https://live.staticflickr.com/65535/49889782056_1518bb0b74_o.jpg",
    "id_image": "2006_rv_Ford_rv_FPV_rv_BFII_rv_V8_rv_1600",
    "count_view": 0
  },
  {
    "link_thumb": "https://live.staticflickr.com/65535/49889084132_1242ae9d69_n.jpg",
    "id_album": "921059289",
    "description": "2021_rv_Alfa_rv_Romeo_rv_Giulia_rv_GTA_rv_V2_rv_2160",
    "title": "2021_rv_Alfa_rv_Romeo_rv_Giulia_rv_GTA_rv_V2_rv_2160",
    "link_img": "https://live.staticflickr.com/65535/49889084132_f71d7c40c2_o.jpg",
    "id_image": "2021_rv_Alfa_rv_Romeo_rv_Giulia_rv_GTA_rv_V2_rv_2160",
    "count_view": 0
  },
  {
    "link_thumb": "https://live.staticflickr.com/65535/49891136086_f99c1c303c_n.jpg",
    "id_album": "1987308854",
    "description": "2017_rv_Nissan_rv_Sentra_rv_SR_rv_Turbo_rv_V2_rv_2000",
    "title": "2017_rv_Nissan_rv_Sentra_rv_SR_rv_Turbo_rv_V2_rv_2000",
    "link_img": "https://live.staticflickr.com/65535/49891136086_e29d7963d2_o.jpg",
    "id_image": "2017_rv_Nissan_rv_Sentra_rv_SR_rv_Turbo_rv_V2_rv_2000",
    "count_view": 0
  },
  {
    "link_thumb": "https://live.staticflickr.com/65535/49889020466_42739ecd9b_n.jpg",
    "id_album": "-885766951",
    "description": "2020_rv_BAC_rv_Mono_rv_R_rv_V3_rv_2160",
    "title": "2020_rv_BAC_rv_Mono_rv_R_rv_V3_rv_2160",
    "link_img": "https://live.staticflickr.com/65535/49889020466_63c16bec87_o.jpg",
    "id_image": "2020_rv_BAC_rv_Mono_rv_R_rv_V3_rv_2160",
    "count_view": 0
  },
  {
    "link_thumb": "https://live.staticflickr.com/65535/49891380412_03cc6beef5_n.jpg",
    "id_album": "1926016549",
    "description": "1980_rv_Nissan_rv_280ZX_rv_V2_rv_1440",
    "title": "1980_rv_Nissan_rv_280ZX_rv_V2_rv_1440",
    "link_img": "https://live.staticflickr.com/65535/49891380412_728a7584cd_o.jpg",
    "id_image": "1980_rv_Nissan_rv_280ZX_rv_V2_rv_1440",
    "count_view": 0
  },
  {
    "link_thumb": "https://live.staticflickr.com/65535/48116501291_24847f7ec7_n.jpg",
    "id_album": "-803737857",
    "description": "Fiat_852957",
    "title": "Fiat_852957",
    "link_img": "https://live.staticflickr.com/65535/48116501291_7e9b229c6a_o.jpg",
    "id_image": "Fiat_852957",
    "count_view": 0
  },
  {
    "link_thumb": "https://live.staticflickr.com/65535/49889353191_e27fac78f7_n.jpg",
    "id_album": "-1156404364",
    "description": "2020_rv_Drako_rv_GTE_rv_V4_rv_2160",
    "title": "2020_rv_Drako_rv_GTE_rv_V4_rv_2160",
    "link_img": "https://live.staticflickr.com/65535/49889353191_74353fb751_o.jpg",
    "id_image": "2020_rv_Drako_rv_GTE_rv_V4_rv_2160",
    "count_view": 0
  },
  {
    "link_thumb": "https://live.staticflickr.com/65535/48112741148_d3a30e6b04_n.jpg",
    "id_album": "727633301",
    "description": "BMW_317497",
    "title": "BMW_317497",
    "link_img": "https://live.staticflickr.com/65535/48112741148_e5e636e92f_o.jpg",
    "id_image": "BMW_317497",
    "count_view": 0
  },
  {
    "link_thumb": "https://live.staticflickr.com/65535/49888697098_42c0c641f5_n.jpg",
    "id_album": "-1678364421",
    "description": "2017_rv_Bugatti_rv_Chiron_rv_V20_rv_2000",
    "title": "2017_rv_Bugatti_rv_Chiron_rv_V20_rv_2000",
    "link_img": "https://live.staticflickr.com/65535/49888697098_99e7f1ff13_o.jpg",
    "id_image": "2017_rv_Bugatti_rv_Chiron_rv_V20_rv_2000",
    "count_view": 0
  },
  {
    "link_thumb": "https://live.staticflickr.com/65535/48112145831_854577bcb6_n.jpg",
    "id_album": "1546790746",
    "description": "AstonMartin_472446",
    "title": "AstonMartin_472446",
    "link_img": "https://live.staticflickr.com/65535/48112145831_ccf2bdd8e2_o.jpg",
    "id_image": "AstonMartin_472446",
    "count_view": 0
  },
  {
    "link_thumb": "https://live.staticflickr.com/65535/48114037872_7cd8c083dd_n.jpg",
    "id_album": "-1721545051",
    "description": "Chevrolet_272880",
    "title": "Chevrolet_272880",
    "link_img": "https://live.staticflickr.com/65535/48114037872_a38cf2a909_o.jpg",
    "id_image": "Chevrolet_272880",
    "count_view": 0
  },
  {
    "link_thumb": "https://live.staticflickr.com/65535/49888896591_289d1e7906_n.jpg",
    "id_album": "-1398775009",
    "description": "2015_rv_Aston_rv_Martin_rv_Vanquish_rv_V1_rv_1600",
    "title": "2015_rv_Aston_rv_Martin_rv_Vanquish_rv_V1_rv_1600",
    "link_img": "https://live.staticflickr.com/65535/49888896591_e88262e697_o.jpg",
    "id_image": "2015_rv_Aston_rv_Martin_rv_Vanquish_rv_V1_rv_1600",
    "count_view": 0
  },
  {
    "link_thumb": "https://live.staticflickr.com/65535/48118745367_a3268de72c_n.jpg",
    "id_album": "-2100339805",
    "description": "Lamborghini_911768",
    "title": "Lamborghini_911768",
    "link_img": "https://live.staticflickr.com/65535/48118745367_2c25c932a2_o.jpg",
    "id_image": "Lamborghini_911768",
    "count_view": 0
  },
  {
    "link_thumb": "https://live.staticflickr.com/65535/48117054116_37a2509225_n.jpg",
    "id_album": "-1846404630",
    "description": "Ford_363309",
    "title": "Ford_363309",
    "link_img": "https://live.staticflickr.com/65535/48117054116_71e5f2d39d_o.jpg",
    "id_image": "Ford_363309",
    "count_view": 0
  },
  {
    "link_thumb": "https://live.staticflickr.com/65535/48116537222_a6c4191f5c_n.jpg",
    "id_album": "1364506720",
    "description": "Ferrari_993596",
    "title": "Ferrari_993596",
    "link_img": "https://live.staticflickr.com/65535/48116537222_cd2bf249a3_o.jpg",
    "id_image": "Ferrari_993596",
    "count_view": 0
  },
  {
    "link_thumb": "https://live.staticflickr.com/65535/48117541902_9c25970f28_n.jpg",
    "id_album": "-1846404630",
    "description": "Ford_768940",
    "title": "Ford_768940",
    "link_img": "https://live.staticflickr.com/65535/48117541902_1225ea51c7_o.jpg",
    "id_image": "Ford_768940",
    "count_view": 0
  },
  {
    "link_thumb": "https://live.staticflickr.com/65535/48119182482_5283e68999_n.jpg",
    "id_album": "697984456",
    "description": "Maserati_450603",
    "title": "Maserati_450603",
    "link_img": "https://live.staticflickr.com/65535/48119182482_bc2384e2b5_o.jpg",
    "id_image": "Maserati_450603",
    "count_view": 0
  },
  {
    "link_thumb": "https://live.staticflickr.com/65535/48120087047_2761f403e6_n.jpg",
    "id_album": "-1366790033",
    "description": "Mercury_559319",
    "title": "Mercury_559319",
    "link_img": "https://live.staticflickr.com/65535/48120087047_5bd511d403_o.jpg",
    "id_image": "Mercury_559319",
    "count_view": 0
  },
  {
    "link_thumb": "https://live.staticflickr.com/65535/48112397403_faefdac2e0_n.jpg",
    "id_album": "-15119147",
    "description": "Audi_550532",
    "title": "Audi_550532",
    "link_img": "https://live.staticflickr.com/65535/48112397403_a388791be0_o.jpg",
    "id_image": "Audi_550532",
    "count_view": 0
  },
  {
    "link_thumb": "https://live.staticflickr.com/65535/48112260206_93954aec11_n.jpg",
    "id_album": "-15119147",
    "description": "Audi_263422",
    "title": "Audi_263422",
    "link_img": "https://live.staticflickr.com/65535/48112260206_c4eeaca8a5_o.jpg",
    "id_image": "Audi_263422",
    "count_view": 0
  },
  {
    "link_thumb": "https://live.staticflickr.com/65535/48123077892_476c2390b0_n.jpg",
    "id_album": "-150952028",
    "description": "Volkswagen_488181",
    "title": "Volkswagen_488181",
    "link_img": "https://live.staticflickr.com/65535/48123077892_40008e0e64_o.jpg",
    "id_image": "Volkswagen_488181",
    "count_view": 0
  },
  {
    "link_thumb": "https://live.staticflickr.com/65535/49890136806_5be813ae9c_n.jpg",
    "id_album": "636428280",
    "description": "2006_rv_Lamborghini_rv_Gallardo_rv_SE_rv_V2_rv_1440",
    "title": "2006_rv_Lamborghini_rv_Gallardo_rv_SE_rv_V2_rv_1440",
    "link_img": "https://live.staticflickr.com/65535/49890136806_856cd4b7da_o.jpg",
    "id_image": "2006_rv_Lamborghini_rv_Gallardo_rv_SE_rv_V2_rv_1440",
    "count_view": 0
  },
  {
    "link_thumb": "https://live.staticflickr.com/65535/48120151022_4e5ddaccf5_n.jpg",
    "id_album": "-1116477526",
    "description": "Mitsubishi_454089",
    "title": "Mitsubishi_454089",
    "link_img": "https://live.staticflickr.com/65535/48120151022_7770bf9fd3_o.jpg",
    "id_image": "Mitsubishi_454089",
    "count_view": 0
  },
  {
    "link_thumb": "https://live.staticflickr.com/65535/49889941453_fed7a04ff0_n.jpg",
    "id_album": "-2050288521",
    "description": "1990_rv_Mazda_rv_Eunos_rv_Cosmo_rv_V9_rv_1536",
    "title": "1990_rv_Mazda_rv_Eunos_rv_Cosmo_rv_V9_rv_1536",
    "link_img": "https://live.staticflickr.com/65535/49889941453_c7a01c00cb_o.jpg",
    "id_image": "1990_rv_Mazda_rv_Eunos_rv_Cosmo_rv_V9_rv_1536",
    "count_view": 0
  },
  {
    "link_thumb": "https://live.staticflickr.com/65535/48114472586_4e2798db42_n.jpg",
    "id_album": "-1721545051",
    "description": "Chevrolet_740906",
    "title": "Chevrolet_740906",
    "link_img": "https://live.staticflickr.com/65535/48114472586_77734192eb_o.jpg",
    "id_image": "Chevrolet_740906",
    "count_view": 0
  },
  {
    "link_thumb": "https://live.staticflickr.com/65535/48117489506_b8685f58bb_n.jpg",
    "id_album": "-1846404630",
    "description": "Ford_87978",
    "title": "Ford_87978",
    "link_img": "https://live.staticflickr.com/65535/48117489506_1cdf8d1a31_o.jpg",
    "id_image": "Ford_87978",
    "count_view": 0
  },
  {
    "link_thumb": "https://live.staticflickr.com/65535/49889467242_5ba252696e_n.jpg",
    "id_album": "-1077631613",
    "description": "2016_rv_BMW_rv_2002_rv_Hommage_rv_Concept_rv_V2_rv_2000",
    "title": "2016_rv_BMW_rv_2002_rv_Hommage_rv_Concept_rv_V2_rv_2000",
    "link_img": "https://live.staticflickr.com/65535/49889467242_162c56f300_o.jpg",
    "id_image": "2016_rv_BMW_rv_2002_rv_Hommage_rv_Concept_rv_V2_rv_2000",
    "count_view": 0
  },
  {
    "link_thumb": "https://live.staticflickr.com/65535/48116003022_35e58794f3_n.jpg",
    "id_album": "1364506720",
    "description": "Ferrari_378297",
    "title": "Ferrari_378297",
    "link_img": "https://live.staticflickr.com/65535/48116003022_c1b544052e_o.jpg",
    "id_image": "Ferrari_378297",
    "count_view": 0
  },
  {
    "link_thumb": "https://live.staticflickr.com/65535/48112733848_9c37e389b9_n.jpg",
    "id_album": "727633301",
    "description": "BMW_291626",
    "title": "BMW_291626",
    "link_img": "https://live.staticflickr.com/65535/48112733848_18e4116d24_o.jpg",
    "id_image": "BMW_291626",
    "count_view": 0
  },
  {
    "link_thumb": "https://live.staticflickr.com/65535/48118379283_692b8533f9_n.jpg",
    "id_album": "-2100339805",
    "description": "Lamborghini_327584",
    "title": "Lamborghini_327584",
    "link_img": "https://live.staticflickr.com/65535/48118379283_b01e901d3c_o.jpg",
    "id_image": "Lamborghini_327584",
    "count_view": 0
  },
  {
    "link_thumb": "https://live.staticflickr.com/65535/48116844822_a3fe1f6786_n.jpg",
    "id_album": "-1846404630",
    "description": "Ford_207737",
    "title": "Ford_207737",
    "link_img": "https://live.staticflickr.com/65535/48116844822_8145769de0_o.jpg",
    "id_image": "Ford_207737",
    "count_view": 0
  },
  {
    "link_thumb": "https://live.staticflickr.com/65535/48121916147_07c76c1132_n.jpg",
    "id_album": "-1178450892",
    "description": "Porsche_983458",
    "title": "Porsche_983458",
    "link_img": "https://live.staticflickr.com/65535/48121916147_70b4625a7e_o.jpg",
    "id_image": "Porsche_983458",
    "count_view": 0
  },
  {
    "link_thumb": "https://live.staticflickr.com/65535/49890008973_bd95ff8154_n.jpg",
    "id_album": "819163142",
    "description": "2018_rv_McLaren_rv_570S_rv_Spider_rv_V12_rv_2000",
    "title": "2018_rv_McLaren_rv_570S_rv_Spider_rv_V12_rv_2000",
    "link_img": "https://live.staticflickr.com/65535/49890008973_fa18bbd4ce_o.jpg",
    "id_image": "2018_rv_McLaren_rv_570S_rv_Spider_rv_V12_rv_2000",
    "count_view": 0
  },
  {
    "link_thumb": "https://live.staticflickr.com/65535/48111783182_651ae3ea86_n.jpg",
    "id_album": "1482519782",
    "description": "Hyundai_887204",
    "title": "Hyundai_887204",
    "link_img": "https://live.staticflickr.com/65535/48111783182_ea58bf9c1f_o.jpg",
    "id_image": "Hyundai_887204",
    "count_view": 0
  },
  {
    "link_thumb": "https://live.staticflickr.com/65535/48112749817_5668366327_n.jpg",
    "id_album": "727633301",
    "description": "BMW_253942",
    "title": "BMW_253942",
    "link_img": "https://live.staticflickr.com/65535/48112749817_2fb9eab644_o.jpg",
    "id_image": "BMW_253942",
    "count_view": 0
  },
  {
    "link_thumb": "https://live.staticflickr.com/65535/49888266308_b7e16281fc_n.jpg",
    "id_album": "110008377",
    "description": "2006_rv_Alfa_rv_Romeo_rv_Spider_rv_V5_rv_1600",
    "title": "2006_rv_Alfa_rv_Romeo_rv_Spider_rv_V5_rv_1600",
    "link_img": "https://live.staticflickr.com/65535/49888266308_59da66cf4d_o.jpg",
    "id_image": "2006_rv_Alfa_rv_Romeo_rv_Spider_rv_V5_rv_1600",
    "count_view": 0
  },
  {
    "link_thumb": "https://live.staticflickr.com/65535/48113985161_4f963baac1_n.jpg",
    "id_album": "-1721545051",
    "description": "Chevrolet_288573",
    "title": "Chevrolet_288573",
    "link_img": "https://live.staticflickr.com/65535/48113985161_ab2fe93f9b_o.jpg",
    "id_image": "Chevrolet_288573",
    "count_view": 0
  },
  {
    "link_thumb": "https://live.staticflickr.com/65535/48114311787_671853edbd_n.jpg",
    "id_album": "-1721545051",
    "description": "Chevrolet_420654",
    "title": "Chevrolet_420654",
    "link_img": "https://live.staticflickr.com/65535/48114311787_f8b7eaa6f9_o.jpg",
    "id_image": "Chevrolet_420654",
    "count_view": 0
  },
  {
    "link_thumb": "https://live.staticflickr.com/65535/49889705908_d509fcbe97_n.jpg",
    "id_album": "-196242968",
    "description": "2014_rv_Lamborghini_rv_Veneno_rv_Roadster_rv_V10_rv_2160",
    "title": "2014_rv_Lamborghini_rv_Veneno_rv_Roadster_rv_V10_rv_2160",
    "link_img": "https://live.staticflickr.com/65535/49889705908_0699e79522_o.jpg",
    "id_image": "2014_rv_Lamborghini_rv_Veneno_rv_Roadster_rv_V10_rv_2160",
    "count_view": 0
  },
  {
    "link_thumb": "https://live.staticflickr.com/65535/49891226897_caedb4c635_n.jpg",
    "id_album": "-2129417883",
    "description": "2011_rv_Mercedes_rv_Benz_rv_SLS_rv_AMG_rv_Roadster_rv_V4_rv_1536",
    "title": "2011_rv_Mercedes_rv_Benz_rv_SLS_rv_AMG_rv_Roadster_rv_V4_rv_1536",
    "link_img": "https://live.staticflickr.com/65535/49891226897_870386b0cb_o.jpg",
    "id_image": "2011_rv_Mercedes_rv_Benz_rv_SLS_rv_AMG_rv_Roadster_rv_V4_rv_1536",
    "count_view": 0
  },
  {
    "link_thumb": "https://live.staticflickr.com/65535/48118791076_bbb7f161bb_n.jpg",
    "id_album": "1234246491",
    "description": "LandRover_318796",
    "title": "LandRover_318796",
    "link_img": "https://live.staticflickr.com/65535/48118791076_3796039153_o.jpg",
    "id_image": "LandRover_318796",
    "count_view": 0
  },
  {
    "link_thumb": "https://live.staticflickr.com/65535/48121893303_a8cd8655d1_n.jpg",
    "id_album": "-1377335499",
    "description": "RangeRover_258942",
    "title": "RangeRover_258942",
    "link_img": "https://live.staticflickr.com/65535/48121893303_49bd5bde46_o.jpg",
    "id_image": "RangeRover_258942",
    "count_view": 0
  },
  {
    "link_thumb": "https://live.staticflickr.com/65535/48121861086_e38ee65d91_n.jpg",
    "id_album": "-1377335499",
    "description": "RangeRover_258954",
    "title": "RangeRover_258954",
    "link_img": "https://live.staticflickr.com/65535/48121861086_8ffafc8a1e_o.jpg",
    "id_image": "RangeRover_258954",
    "count_view": 0
  },
  {
    "link_thumb": "https://live.staticflickr.com/65535/48113628586_fc385c1bb1_n.jpg",
    "id_album": "-1721545051",
    "description": "Chevrolet_144768",
    "title": "Chevrolet_144768",
    "link_img": "https://live.staticflickr.com/65535/48113628586_bf21269bdd_o.jpg",
    "id_image": "Chevrolet_144768",
    "count_view": 0
  },
  {
    "link_thumb": "https://live.staticflickr.com/65535/48112063328_14fb51b1b0_n.jpg",
    "id_album": "-843028318",
    "description": "Jaguar_393284",
    "title": "Jaguar_393284",
    "link_img": "https://live.staticflickr.com/65535/48112063328_7ea553225d_o.jpg",
    "id_image": "Jaguar_393284",
    "count_view": 0
  },
  {
    "link_thumb": "https://live.staticflickr.com/65535/48118381461_d58cc9cc19_n.jpg",
    "id_album": "-2100339805",
    "description": "Lamborghini_369450",
    "title": "Lamborghini_369450",
    "link_img": "https://live.staticflickr.com/65535/48118381461_68cae03ae4_o.jpg",
    "id_image": "Lamborghini_369450",
    "count_view": 0
  },
  {
    "link_thumb": "https://live.staticflickr.com/65535/48112455453_143dbaede5_n.jpg",
    "id_album": "-15119147",
    "description": "Audi_885862",
    "title": "Audi_885862",
    "link_img": "https://live.staticflickr.com/65535/48112455453_04b6317d50_o.jpg",
    "id_image": "Audi_885862",
    "count_view": 0
  },
  {
    "link_thumb": "https://live.staticflickr.com/65535/48118795756_37e867b9a2_n.jpg",
    "id_album": "1234246491",
    "description": "LandRover_351152",
    "title": "LandRover_351152",
    "link_img": "https://live.staticflickr.com/65535/48118795756_940b0178e0_o.jpg",
    "id_image": "LandRover_351152",
    "count_view": 0
  },
  {
    "link_thumb": "https://live.staticflickr.com/65535/49954688277_7e14faa9bc_n.jpg",
    "id_album": "-924016578",
    "description": "2008_rv_Renault_rv_Megane_rv_RS_rv_R26.R_rv_V4_rv_1536",
    "title": "2008_rv_Renault_rv_Megane_rv_RS_rv_R26.R_rv_V4_rv_1536",
    "link_img": "https://live.staticflickr.com/65535/49954688277_df6b88f1a5_o.jpg",
    "id_image": "2008_rv_Renault_rv_Megane_rv_RS_rv_R26.R_rv_V4_rv_1536",
    "count_view": 0
  },
  {
    "link_thumb": "https://live.staticflickr.com/65535/48113184067_6aebc1927b_n.jpg",
    "id_album": "727633301",
    "description": "BMW_837087",
    "title": "BMW_837087",
    "link_img": "https://live.staticflickr.com/65535/48113184067_61da17d2a0_o.jpg",
    "id_image": "BMW_837087",
    "count_view": 0
  },
  {
    "link_thumb": "https://live.staticflickr.com/65535/49889324766_c7c6a6b674_n.jpg",
    "id_album": "42071222",
    "description": "2011_rv_Chevrolet_rv_Camaro_rv_Synergy_rv_Concept_rv_V1_rv_1440",
    "title": "2011_rv_Chevrolet_rv_Camaro_rv_Synergy_rv_Concept_rv_V1_rv_1440",
    "link_img": "https://live.staticflickr.com/65535/49889324766_84b4bda7a5_o.jpg",
    "id_image": "2011_rv_Chevrolet_rv_Camaro_rv_Synergy_rv_Concept_rv_V1_rv_1440",
    "count_view": 0
  },
  {
    "link_thumb": "https://live.staticflickr.com/65535/48117818523_1959d1b3d4_n.jpg",
    "id_album": "-354267407",
    "description": "Honda_350220",
    "title": "Honda_350220",
    "link_img": "https://live.staticflickr.com/65535/48117818523_fe2fd3dc93_o.jpg",
    "id_image": "Honda_350220",
    "count_view": 0
  },
  {
    "link_thumb": "https://live.staticflickr.com/65535/48116041706_6e57845331_n.jpg",
    "id_album": "1364506720",
    "description": "Ferrari_520551",
    "title": "Ferrari_520551",
    "link_img": "https://live.staticflickr.com/65535/48116041706_903f5025b1_o.jpg",
    "id_image": "Ferrari_520551",
    "count_view": 0
  },
  {
    "link_thumb": "https://live.staticflickr.com/65535/48112147771_cb4f4465e5_n.jpg",
    "id_album": "555757480",
    "description": "AstonMartin_472683",
    "title": "AstonMartin_472683",
    "link_img": "https://live.staticflickr.com/65535/48112147771_5c0cea8c65_o.jpg",
    "id_image": "AstonMartin_472683",
    "count_view": 0
  },
  {
    "link_thumb": "https://live.staticflickr.com/65535/48121482498_f00f69f6e8_n.jpg",
    "id_album": "-1178450892",
    "description": "Porsche_593223",
    "title": "Porsche_593223",
    "link_img": "https://live.staticflickr.com/65535/48121482498_4a32d80011_o.jpg",
    "id_image": "Porsche_593223",
    "count_view": 0
  },
  {
    "link_thumb": "https://live.staticflickr.com/65535/48119289297_0cea4637b2_n.jpg",
    "id_album": "898314866",
    "description": "Mazda_273623",
    "title": "Mazda_273623",
    "link_img": "https://live.staticflickr.com/65535/48119289297_9c2c74756c_o.jpg",
    "id_image": "Mazda_273623",
    "count_view": 0
  },
  {
    "link_thumb": "https://live.staticflickr.com/65535/49891282991_bcd6737f76_n.jpg",
    "id_album": "-741950554",
    "description": "2013_rv_Peugeot_rv_RCZ_rv_V4_rv_1440",
    "title": "2013_rv_Peugeot_rv_RCZ_rv_V4_rv_1440",
    "link_img": "https://live.staticflickr.com/65535/49891282991_3075dd79a3_o.jpg",
    "id_image": "2013_rv_Peugeot_rv_RCZ_rv_V4_rv_1440",
    "count_view": 0
  },
  {
    "link_thumb": "https://live.staticflickr.com/65535/48113563292_14ea454570_n.jpg",
    "id_album": "1246496342",
    "description": "Buick_211197",
    "title": "Buick_211197",
    "link_img": "https://live.staticflickr.com/65535/48113563292_8c118fd064_o.jpg",
    "id_image": "Buick_211197",
    "count_view": 0
  },
  {
    "link_thumb": "https://live.staticflickr.com/65535/48116653858_67d4369cef_n.jpg",
    "id_album": "-1846404630",
    "description": "Ford_165772",
    "title": "Ford_165772",
    "link_img": "https://live.staticflickr.com/65535/48116653858_9c4c8d2828_o.jpg",
    "id_image": "Ford_165772",
    "count_view": 0
  },
  {
    "link_thumb": "https://live.staticflickr.com/65535/48112393258_45d9b1f11e_n.jpg",
    "id_album": "-15119147",
    "description": "Audi_522294",
    "title": "Audi_522294",
    "link_img": "https://live.staticflickr.com/65535/48112393258_ef1623b6d6_o.jpg",
    "id_image": "Audi_522294",
    "count_view": 0
  },
  {
    "link_thumb": "https://live.staticflickr.com/65535/48114221153_fb71c0136e_n.jpg",
    "id_album": "-1721545051",
    "description": "Chevrolet_395529",
    "title": "Chevrolet_395529",
    "link_img": "https://live.staticflickr.com/65535/48114221153_de2a85e81f_o.jpg",
    "id_image": "Chevrolet_395529",
    "count_view": 0
  },
  {
    "link_thumb": "https://live.staticflickr.com/65535/49891879158_6d71764567_n.jpg",
    "id_album": "-738164840",
    "description": "2012_rv_Bentley_rv_Continental_rv_GT_rv_Speed_rv_V3_rv_1440",
    "title": "2012_rv_Bentley_rv_Continental_rv_GT_rv_Speed_rv_V3_rv_1440",
    "link_img": "https://live.staticflickr.com/65535/49891879158_f6e039bf50_o.jpg",
    "id_image": "2012_rv_Bentley_rv_Continental_rv_GT_rv_Speed_rv_V3_rv_1440",
    "count_view": 0
  },
  {
    "link_thumb": "https://live.staticflickr.com/65535/48115308437_ca92403e2a_n.jpg",
    "id_album": "413141323",
    "description": "Dodge_417585",
    "title": "Dodge_417585",
    "link_img": "https://live.staticflickr.com/65535/48115308437_29c0fa7d84_o.jpg",
    "id_image": "Dodge_417585",
    "count_view": 0
  },
  {
    "link_thumb": "https://live.staticflickr.com/65535/48113540866_9e9c763dca_n.jpg",
    "id_album": "-680120434",
    "description": "Cadillac_350435",
    "title": "Cadillac_350435",
    "link_img": "https://live.staticflickr.com/65535/48113540866_c0220c53bb_o.jpg",
    "id_image": "Cadillac_350435",
    "count_view": 0
  },
  {
    "link_thumb": "https://live.staticflickr.com/65535/48113216761_80e9be66c5_n.jpg",
    "id_album": "727633301",
    "description": "BMW_920344",
    "title": "BMW_920344",
    "link_img": "https://live.staticflickr.com/65535/48113216761_b4167fd979_o.jpg",
    "id_image": "BMW_920344",
    "count_view": 0
  },
  {
    "link_thumb": "https://live.staticflickr.com/65535/49888291238_ab885f3811_n.jpg",
    "id_album": "1997504810",
    "description": "2018_rv_Aston_rv_Martin_rv_Vantage_rv_GTE_rv_V5_rv_2000",
    "title": "2018_rv_Aston_rv_Martin_rv_Vantage_rv_GTE_rv_V5_rv_2000",
    "link_img": "https://live.staticflickr.com/65535/49888291238_74d1eb66e6_o.jpg",
    "id_image": "2018_rv_Aston_rv_Martin_rv_Vantage_rv_GTE_rv_V5_rv_2000",
    "count_view": 0
  },
  {
    "link_thumb": "https://live.staticflickr.com/65535/49892540857_cede508f00_n.jpg",
    "id_album": "200874695",
    "description": "1976_rv_Renault_rv_Alpine_rv_A310_rv_V6_rv_V5_rv_1536",
    "title": "1976_rv_Renault_rv_Alpine_rv_A310_rv_V6_rv_V5_rv_1536",
    "link_img": "https://live.staticflickr.com/65535/49892540857_e32833d545_o.jpg",
    "id_image": "1976_rv_Renault_rv_Alpine_rv_A310_rv_V6_rv_V5_rv_1536",
    "count_view": 0
  },
  {
    "link_thumb": "https://live.staticflickr.com/65535/48118525197_ebf83b58a5_n.jpg",
    "id_album": "-2100339805",
    "description": "Lamborghini_416560",
    "title": "Lamborghini_416560",
    "link_img": "https://live.staticflickr.com/65535/48118525197_bfe30984ff_o.jpg",
    "id_image": "Lamborghini_416560",
    "count_view": 0
  },
  {
    "link_thumb": "https://live.staticflickr.com/65535/49888416158_4796aa277b_n.jpg",
    "id_album": "1171449162",
    "description": "2018_rv_Audi_rv_E_rv_Tron_rv_GT_rv_Concept_rv_V4_rv_2000",
    "title": "2018_rv_Audi_rv_E_rv_Tron_rv_GT_rv_Concept_rv_V4_rv_2000",
    "link_img": "https://live.staticflickr.com/65535/49888416158_08b4f7c0c7_o.jpg",
    "id_image": "2018_rv_Audi_rv_E_rv_Tron_rv_GT_rv_Concept_rv_V4_rv_2000",
    "count_view": 0
  },
  {
    "link_thumb": "https://live.staticflickr.com/65535/48118177148_0f56d22918_n.jpg",
    "id_album": "-625217782",
    "description": "Kia_318457",
    "title": "Kia_318457",
    "link_img": "https://live.staticflickr.com/65535/48118177148_e4bbcd8c37_o.jpg",
    "id_image": "Kia_318457",
    "count_view": 0
  },
  {
    "link_thumb": "https://live.staticflickr.com/65535/49891429487_741be8428a_n.jpg",
    "id_album": "-634611517",
    "description": "2019_rv_Nissan_rv_IMs_rv_Concept_rv_V4_rv_2160",
    "title": "2019_rv_Nissan_rv_IMs_rv_Concept_rv_V4_rv_2160",
    "link_img": "https://live.staticflickr.com/65535/49891429487_de91a98a62_o.jpg",
    "id_image": "2019_rv_Nissan_rv_IMs_rv_Concept_rv_V4_rv_2160",
    "count_view": 0
  },
  {
    "link_thumb": "https://live.staticflickr.com/65535/48117764257_22f1faa497_n.jpg",
    "id_album": "-1846404630",
    "description": "Ford_989794",
    "title": "Ford_989794",
    "link_img": "https://live.staticflickr.com/65535/48117764257_72f64b010d_o.jpg",
    "id_image": "Ford_989794",
    "count_view": 0
  },
  {
    "link_thumb": "https://live.staticflickr.com/65535/48116208473_c2a3a9351a_n.jpg",
    "id_album": "1364506720",
    "description": "Ferrari_721637",
    "title": "Ferrari_721637",
    "link_img": "https://live.staticflickr.com/65535/48116208473_bb767ac282_o.jpg",
    "id_image": "Ferrari_721637",
    "count_view": 0
  },
  {
    "link_thumb": "https://live.staticflickr.com/65535/48120651256_f45704e6dd_n.jpg",
    "id_album": "-2131154733",
    "description": "Oldsmobile_612889",
    "title": "Oldsmobile_612889",
    "link_img": "https://live.staticflickr.com/65535/48120651256_67d91309c2_o.jpg",
    "id_image": "Oldsmobile_612889",
    "count_view": 0
  },
  {
    "link_thumb": "https://live.staticflickr.com/65535/49890457467_5120523d32_n.jpg",
    "id_album": "-1393136211",
    "description": "1966_rv_Lamborghini_rv_400_rv_GT_rv_V7_rv_2160",
    "title": "1966_rv_Lamborghini_rv_400_rv_GT_rv_V7_rv_2160",
    "link_img": "https://live.staticflickr.com/65535/49890457467_040576e882_o.jpg",
    "id_image": "1966_rv_Lamborghini_rv_400_rv_GT_rv_V7_rv_2160",
    "count_view": 0
  },
  {
    "link_thumb": "https://live.staticflickr.com/65535/49892198816_2657e20da6_n.jpg",
    "id_album": "-461005169",
    "description": "2016_rv_Nissan_rv_GT_rv_R_rv_45th_rv_Anniversary_rv_Gold_rv_Edition_rv_V7_rv_1600",
    "title": "2016_rv_Nissan_rv_GT_rv_R_rv_45th_rv_Anniversary_rv_Gold_rv_Edition_rv_V7_rv_1600",
    "link_img": "https://live.staticflickr.com/65535/49892198816_dd5d0cfac5_o.jpg",
    "id_image": "2016_rv_Nissan_rv_GT_rv_R_rv_45th_rv_Anniversary_rv_Gold_rv_Edition_rv_V7_rv_1600",
    "count_view": 0
  },
  {
    "link_thumb": "https://live.staticflickr.com/65535/48120213042_e3a37eb761_n.jpg",
    "id_album": "666438681",
    "description": "Motorcycles_167508",
    "title": "Motorcycles_167508",
    "link_img": "https://live.staticflickr.com/65535/48120213042_21777b002e_o.jpg",
    "id_image": "Motorcycles_167508",
    "count_view": 0
  },
  {
    "link_thumb": "https://live.staticflickr.com/65535/48115410151_72cf43d6e7_n.jpg",
    "id_album": "413141323",
    "description": "Dodge_515276",
    "title": "Dodge_515276",
    "link_img": "https://live.staticflickr.com/65535/48115410151_565b665b53_o.jpg",
    "id_image": "Dodge_515276",
    "count_view": 0
  },
  {
    "link_thumb": "https://live.staticflickr.com/65535/48117132502_6708837f32_n.jpg",
    "id_album": "-1846404630",
    "description": "Ford_352109",
    "title": "Ford_352109",
    "link_img": "https://live.staticflickr.com/65535/48117132502_f39f5200ff_o.jpg",
    "id_image": "Ford_352109",
    "count_view": 0
  },
  {
    "link_thumb": "https://live.staticflickr.com/65535/48112394866_f3116eff1f_n.jpg",
    "id_album": "-15119147",
    "description": "Audi_795470",
    "title": "Audi_795470",
    "link_img": "https://live.staticflickr.com/65535/48112394866_f1171bc27e_o.jpg",
    "id_image": "Audi_795470",
    "count_view": 0
  },
  {
    "link_thumb": "https://live.staticflickr.com/65535/49041116512_8940b3bdfa_n.jpg",
    "id_album": "-495894181",
    "description": "AlfaRomeo_382120",
    "title": "AlfaRomeo_382120",
    "link_img": "https://live.staticflickr.com/65535/49041116512_3ba392f5a7_o.jpg",
    "id_image": "AlfaRomeo_382120",
    "count_view": 0
  },
  {
    "link_thumb": "https://live.staticflickr.com/65535/48117735093_f86561b3c0_n.jpg",
    "id_album": "-885504812",
    "description": "GMC_449662",
    "title": "GMC_449662",
    "link_img": "https://live.staticflickr.com/65535/48117735093_4e45e8a685_o.jpg",
    "id_image": "GMC_449662",
    "count_view": 0
  },
  {
    "link_thumb": "https://live.staticflickr.com/65535/49890355141_a0ceeaa736_n.jpg",
    "id_album": "764198353",
    "description": "2010_rv_Lotus_rv_Elise_rv_Concept_rv_V3_rv_1536",
    "title": "2010_rv_Lotus_rv_Elise_rv_Concept_rv_V3_rv_1536",
    "link_img": "https://live.staticflickr.com/65535/49890355141_f1a246ce23_o.jpg",
    "id_image": "2010_rv_Lotus_rv_Elise_rv_Concept_rv_V3_rv_1536",
    "count_view": 0
  },
  {
    "link_thumb": "https://live.staticflickr.com/65535/48121498501_c445bfce7e_n.jpg",
    "id_album": "-1178450892",
    "description": "Porsche_618210",
    "title": "Porsche_618210",
    "link_img": "https://live.staticflickr.com/65535/48121498501_c6f74091ce_o.jpg",
    "id_image": "Porsche_618210",
    "count_view": 0
  },
  {
    "link_thumb": "https://live.staticflickr.com/65535/49890207268_d6e3f018c1_n.jpg",
    "id_album": "-1837389467",
    "description": "2004_rv_Mercedes_rv_Benz_rv_CLK_rv_DTM_rv_AMG_rv_V2_rv_1600",
    "title": "2004_rv_Mercedes_rv_Benz_rv_CLK_rv_DTM_rv_AMG_rv_V2_rv_1600",
    "link_img": "https://live.staticflickr.com/65535/49890207268_962ed35269_o.jpg",
    "id_image": "2004_rv_Mercedes_rv_Benz_rv_CLK_rv_DTM_rv_AMG_rv_V2_rv_1600",
    "count_view": 0
  },
  {
    "link_thumb": "https://live.staticflickr.com/65535/48122914557_fd9347f3ff_n.jpg",
    "id_album": "1274920659",
    "description": "Toyota_964863",
    "title": "Toyota_964863",
    "link_img": "https://live.staticflickr.com/65535/48122914557_06e6730991_o.jpg",
    "id_image": "Toyota_964863",
    "count_view": 0
  },
  {
    "link_thumb": "https://live.staticflickr.com/65535/48121191157_59df517550_n.jpg",
    "id_album": "-2099496752",
    "description": "Pontiac_249902",
    "title": "Pontiac_249902",
    "link_img": "https://live.staticflickr.com/65535/48121191157_632fbde67c_o.jpg",
    "id_image": "Pontiac_249902",
    "count_view": 0
  },
  {
    "link_thumb": "https://live.staticflickr.com/65535/48113103167_a0ba1cc0a7_n.jpg",
    "id_album": "727633301",
    "description": "BMW_684110",
    "title": "BMW_684110",
    "link_img": "https://live.staticflickr.com/65535/48113103167_412c39f443_o.jpg",
    "id_image": "BMW_684110",
    "count_view": 0
  },
  {
    "link_thumb": "https://live.staticflickr.com/65535/48120249491_b7807326b4_n.jpg",
    "id_album": "666438681",
    "description": "Motorcycles_639861",
    "title": "Motorcycles_639861",
    "link_img": "https://live.staticflickr.com/65535/48120249491_deef05b195_o.jpg",
    "id_image": "Motorcycles_639861",
    "count_view": 0
  },
  {
    "link_thumb": "https://live.staticflickr.com/65535/48123051137_3c638d9cbb_n.jpg",
    "id_album": "-150952028",
    "description": "Volkswagen_447774",
    "title": "Volkswagen_447774",
    "link_img": "https://live.staticflickr.com/65535/48123051137_b65d8e1ac0_o.jpg",
    "id_image": "Volkswagen_447774",
    "count_view": 0
  },
  {
    "link_thumb": "https://live.staticflickr.com/65535/48112397192_4af250fb9e_n.jpg",
    "id_album": "-15119147",
    "description": "Audi_444924",
    "title": "Audi_444924",
    "link_img": "https://live.staticflickr.com/65535/48112397192_443f820097_o.jpg",
    "id_image": "Audi_444924",
    "count_view": 0
  },
  {
    "link_thumb": "https://live.staticflickr.com/65535/49889271917_7c3ce650f8_n.jpg",
    "id_album": "-2012653187",
    "description": "2005_rv_Audi_rv_RS4_rv_V11_rv_1536",
    "title": "2005_rv_Audi_rv_RS4_rv_V11_rv_1536",
    "link_img": "https://live.staticflickr.com/65535/49889271917_a19cc53c3c_o.jpg",
    "id_image": "2005_rv_Audi_rv_RS4_rv_V11_rv_1536",
    "count_view": 0
  },
  {
    "link_thumb": "https://live.staticflickr.com/65535/48112364202_6ab944c97b_n.jpg",
    "id_album": "-15119147",
    "description": "Audi_253754",
    "title": "Audi_253754",
    "link_img": "https://live.staticflickr.com/65535/48112364202_352886b295_o.jpg",
    "id_image": "Audi_253754",
    "count_view": 0
  },
  {
    "link_thumb": "https://live.staticflickr.com/65535/49890750662_cbc209ecdf_n.jpg",
    "id_album": "284880556",
    "description": "2008_rv_Maserati_rv_Quattroporte_rv_V6_rv_1440",
    "title": "2008_rv_Maserati_rv_Quattroporte_rv_V6_rv_1440",
    "link_img": "https://live.staticflickr.com/65535/49890750662_07bcbeaf64_o.jpg",
    "id_image": "2008_rv_Maserati_rv_Quattroporte_rv_V6_rv_1440",
    "count_view": 0
  },
  {
    "link_thumb": "https://live.staticflickr.com/65535/48122474283_5aa9ce29cf_n.jpg",
    "id_album": "422322641",
    "description": "Subaru_455424",
    "title": "Subaru_455424",
    "link_img": "https://live.staticflickr.com/65535/48122474283_bb3cd42c4f_o.jpg",
    "id_image": "Subaru_455424",
    "count_view": 0
  },
  {
    "link_thumb": "https://live.staticflickr.com/65535/49891830248_2d6429d04e_n.jpg",
    "id_album": "-79257297",
    "description": "2011_rv_Shelby_rv_Classic_rv_Recreations_rv_GT500CR_rv_V4_rv_1440",
    "title": "2011_rv_Shelby_rv_Classic_rv_Recreations_rv_GT500CR_rv_V4_rv_1440",
    "link_img": "https://live.staticflickr.com/65535/49891830248_b6308d2ec6_o.jpg",
    "id_image": "2011_rv_Shelby_rv_Classic_rv_Recreations_rv_GT500CR_rv_V4_rv_1440",
    "count_view": 0
  },
  {
    "link_thumb": "https://live.staticflickr.com/65535/48112947128_e81eee8346_n.jpg",
    "id_album": "727633301",
    "description": "BMW_490295",
    "title": "BMW_490295",
    "link_img": "https://live.staticflickr.com/65535/48112947128_242ee3ee72_o.jpg",
    "id_image": "BMW_490295",
    "count_view": 0
  },
  {
    "link_thumb": "https://live.staticflickr.com/65535/48121918376_5fcbd37d21_n.jpg",
    "id_album": "-1377335499",
    "description": "RangeRover_731863",
    "title": "RangeRover_731863",
    "link_img": "https://live.staticflickr.com/65535/48121918376_b8cb6e7bb0_o.jpg",
    "id_image": "RangeRover_731863",
    "count_view": 0
  },
  {
    "link_thumb": "https://live.staticflickr.com/65535/48117668327_76c4feeb55_n.jpg",
    "id_album": "-1846404630",
    "description": "Ford_931647",
    "title": "Ford_931647",
    "link_img": "https://live.staticflickr.com/65535/48117668327_5942f86039_o.jpg",
    "id_image": "Ford_931647",
    "count_view": 0
  },
  {
    "link_thumb": "https://live.staticflickr.com/65535/48119382407_0cf88cb52f_n.jpg",
    "id_album": "990865885",
    "description": "McLaren_494662",
    "title": "McLaren_494662",
    "link_img": "https://live.staticflickr.com/65535/48119382407_bc6100ff5a_o.jpg",
    "id_image": "McLaren_494662",
    "count_view": 0
  },
  {
    "link_thumb": "https://live.staticflickr.com/65535/49891634523_097801c7bd_n.jpg",
    "id_album": "-522462605",
    "description": "2016_rv_Porsche_rv_919_rv_Hybrid_rv_V1_rv_2000",
    "title": "2016_rv_Porsche_rv_919_rv_Hybrid_rv_V1_rv_2000",
    "link_img": "https://live.staticflickr.com/65535/49891634523_0174bd1f46_o.jpg",
    "id_image": "2016_rv_Porsche_rv_919_rv_Hybrid_rv_V1_rv_2000",
    "count_view": 0
  },
  {
    "link_thumb": "https://live.staticflickr.com/65535/48117688357_7d0dfdc46d_n.jpg",
    "id_album": "-1846404630",
    "description": "Ford_935072",
    "title": "Ford_935072",
    "link_img": "https://live.staticflickr.com/65535/48117688357_e32f0fd719_o.jpg",
    "id_image": "Ford_935072",
    "count_view": 0
  },
  {
    "link_thumb": "https://live.staticflickr.com/65535/48114041917_875b676e08_n.jpg",
    "id_album": "-1721545051",
    "description": "Chevrolet_274301",
    "title": "Chevrolet_274301",
    "link_img": "https://live.staticflickr.com/65535/48114041917_6037bdf755_o.jpg",
    "id_image": "Chevrolet_274301",
    "count_view": 0
  },
  {
    "link_thumb": "https://live.staticflickr.com/65535/49892467667_e63ff3c020_n.jpg",
    "id_album": "-1890503075",
    "description": "2013_rv_Porsche_rv_Panamera_rv_GTS_rv_V2_rv_1600",
    "title": "2013_rv_Porsche_rv_Panamera_rv_GTS_rv_V2_rv_1600",
    "link_img": "https://live.staticflickr.com/65535/49892467667_2106c4c088_o.jpg",
    "id_image": "2013_rv_Porsche_rv_Panamera_rv_GTS_rv_V2_rv_1600",
    "count_view": 0
  },
  {
    "link_thumb": "https://live.staticflickr.com/65535/49892127243_a47f074c0f_n.jpg",
    "id_album": "1890694871",
    "description": "2001_rv_Mitsubishi_rv_Lancer_rv_GSR_rv_Evolution_rv_VII_rv_V6_rv_1600",
    "title": "2001_rv_Mitsubishi_rv_Lancer_rv_GSR_rv_Evolution_rv_VII_rv_V6_rv_1600",
    "link_img": "https://live.staticflickr.com/65535/49892127243_4367002d63_o.jpg",
    "id_image": "2001_rv_Mitsubishi_rv_Lancer_rv_GSR_rv_Evolution_rv_VII_rv_V6_rv_1600",
    "count_view": 0
  },
  {
    "link_thumb": "https://live.staticflickr.com/65535/48111773992_46145bb4f4_n.jpg",
    "id_album": "1482519782",
    "description": "Hyundai_502067",
    "title": "Hyundai_502067",
    "link_img": "https://live.staticflickr.com/65535/48111773992_c9532d3297_o.jpg",
    "id_image": "Hyundai_502067",
    "count_view": 0
  },
  {
    "link_thumb": "https://live.staticflickr.com/65535/49890979946_a9972220de_n.jpg",
    "id_album": "-1596384922",
    "description": "2001_rv_Mitsubishi_rv_Lancer_rv_Evolution_rv_VII_rv_WRC_rv_V2_rv_1440",
    "title": "2001_rv_Mitsubishi_rv_Lancer_rv_Evolution_rv_VII_rv_WRC_rv_V2_rv_1440",
    "link_img": "https://live.staticflickr.com/65535/49890979946_74be5c3f6d_o.jpg",
    "id_image": "2001_rv_Mitsubishi_rv_Lancer_rv_Evolution_rv_VII_rv_WRC_rv_V2_rv_1440",
    "count_view": 0
  },
  {
    "link_thumb": "https://live.staticflickr.com/65535/48119085623_38695e9b9e_n.jpg",
    "id_album": "697984456",
    "description": "Maserati_240132",
    "title": "Maserati_240132",
    "link_img": "https://live.staticflickr.com/65535/48119085623_e0d4cd58cc_o.jpg",
    "id_image": "Maserati_240132",
    "count_view": 0
  },
  {
    "link_thumb": "https://live.staticflickr.com/65535/48122554858_c3669568b2_n.jpg",
    "id_album": "422322641",
    "description": "Subaru_904892",
    "title": "Subaru_904892",
    "link_img": "https://live.staticflickr.com/65535/48122554858_2f4533fce2_o.jpg",
    "id_image": "Subaru_904892",
    "count_view": 0
  },
  {
    "link_thumb": "https://live.staticflickr.com/65535/48117775743_ef5e674e0c_n.jpg",
    "id_album": "249743491",
    "description": "HarleyDavidson_758498",
    "title": "HarleyDavidson_758498",
    "link_img": "https://live.staticflickr.com/65535/48117775743_a23af0595b_o.jpg",
    "id_image": "HarleyDavidson_758498",
    "count_view": 0
  },
  {
    "link_thumb": "https://live.staticflickr.com/65535/48121180246_a8e09683ea_n.jpg",
    "id_album": "-1178450892",
    "description": "Porsche_167470",
    "title": "Porsche_167470",
    "link_img": "https://live.staticflickr.com/65535/48121180246_56fcc7a129_o.jpg",
    "id_image": "Porsche_167470",
    "count_view": 0
  },
  {
    "link_thumb": "https://live.staticflickr.com/65535/49890444531_c7072cc0c8_n.jpg",
    "id_album": "284880556",
    "description": "2009_rv_Maserati_rv_Quattroporte_rv_Sport_rv_GT_rv_S_rv_V7_rv_1536",
    "title": "2009_rv_Maserati_rv_Quattroporte_rv_Sport_rv_GT_rv_S_rv_V7_rv_1536",
    "link_img": "https://live.staticflickr.com/65535/49890444531_4d03a346b0_o.jpg",
    "id_image": "2009_rv_Maserati_rv_Quattroporte_rv_Sport_rv_GT_rv_S_rv_V7_rv_1536",
    "count_view": 0
  },
  {
    "link_thumb": "https://live.staticflickr.com/65535/49890350307_0fa3dc20fb_n.jpg",
    "id_album": "-1314216515",
    "description": "2015_rv_Kia_rv_Novo_rv_Concept_rv_V3_rv_1600",
    "title": "2015_rv_Kia_rv_Novo_rv_Concept_rv_V3_rv_1600",
    "link_img": "https://live.staticflickr.com/65535/49890350307_656d7c80a2_o.jpg",
    "id_image": "2015_rv_Kia_rv_Novo_rv_Concept_rv_V3_rv_1600",
    "count_view": 0
  },
  {
    "link_thumb": "https://live.staticflickr.com/65535/48113476861_4b5eb0ae57_n.jpg",
    "id_album": "1246496342",
    "description": "Buick_397103",
    "title": "Buick_397103",
    "link_img": "https://live.staticflickr.com/65535/48113476861_cf0b0b1d3b_o.jpg",
    "id_image": "Buick_397103",
    "count_view": 0
  },
  {
    "link_thumb": "https://live.staticflickr.com/65535/49890898046_223a60e656_n.jpg",
    "id_album": "-376919707",
    "description": "2017_rv_Mercedes_rv_Benz_rv_SL63_rv_AMG_rv_V1_rv_2000",
    "title": "2017_rv_Mercedes_rv_Benz_rv_SL63_rv_AMG_rv_V1_rv_2000",
    "link_img": "https://live.staticflickr.com/65535/49890898046_924e90f4ed_o.jpg",
    "id_image": "2017_rv_Mercedes_rv_Benz_rv_SL63_rv_AMG_rv_V1_rv_2000",
    "count_view": 0
  },
  {
    "link_thumb": "https://live.staticflickr.com/65535/48112852952_a2e6eb0600_n.jpg",
    "id_album": "727633301",
    "description": "BMW_425732",
    "title": "BMW_425732",
    "link_img": "https://live.staticflickr.com/65535/48112852952_5ee16656d2_o.jpg",
    "id_image": "BMW_425732",
    "count_view": 0
  },
  {
    "link_thumb": "https://live.staticflickr.com/65535/49889116073_07b4e18bb1_n.jpg",
    "id_album": "1558646706",
    "description": "2013_rv_Chevrolet_rv_Camaro_rv_1LE_rv_V5_rv_1440",
    "title": "2013_rv_Chevrolet_rv_Camaro_rv_1LE_rv_V5_rv_1440",
    "link_img": "https://live.staticflickr.com/65535/49889116073_54df146ec3_o.jpg",
    "id_image": "2013_rv_Chevrolet_rv_Camaro_rv_1LE_rv_V5_rv_1440",
    "count_view": 0
  },
  {
    "link_thumb": "https://live.staticflickr.com/65535/49892407096_3dcda14fff_n.jpg",
    "id_album": "-1850816117",
    "description": "2020_rv_SSC_rv_Tuatara_rv_V4_rv_2160",
    "title": "2020_rv_SSC_rv_Tuatara_rv_V4_rv_2160",
    "link_img": "https://live.staticflickr.com/65535/49892407096_b4c8b5e15a_o.jpg",
    "id_image": "2020_rv_SSC_rv_Tuatara_rv_V4_rv_2160",
    "count_view": 0
  },
  {
    "link_thumb": "https://live.staticflickr.com/65535/48118913146_d165485e2a_n.jpg",
    "id_album": "446908717",
    "description": "Lexus_881146",
    "title": "Lexus_881146",
    "link_img": "https://live.staticflickr.com/65535/48118913146_9b199355ca_o.jpg",
    "id_image": "Lexus_881146",
    "count_view": 0
  },
  {
    "link_thumb": "https://live.staticflickr.com/65535/49892801842_01e617ae3c_n.jpg",
    "id_album": "-1642234658",
    "description": "1981_rv_Toyota_rv_Celica_rv_Coupe_rv_V2_rv_1536",
    "title": "1981_rv_Toyota_rv_Celica_rv_Coupe_rv_V2_rv_1536",
    "link_img": "https://live.staticflickr.com/65535/49892801842_06c114c17e_o.jpg",
    "id_image": "1981_rv_Toyota_rv_Celica_rv_Coupe_rv_V2_rv_1536",
    "count_view": 0
  },
  {
    "link_thumb": "https://live.staticflickr.com/65535/48112442552_bfe731aa63_n.jpg",
    "id_album": "-15119147",
    "description": "Audi_490947",
    "title": "Audi_490947",
    "link_img": "https://live.staticflickr.com/65535/48112442552_69638aa4fd_o.jpg",
    "id_image": "Audi_490947",
    "count_view": 0
  },
  {
    "link_thumb": "https://live.staticflickr.com/65535/48120439533_c46383cb97_n.jpg",
    "id_album": "810634050",
    "description": "Nissan_430131",
    "title": "Nissan_430131",
    "link_img": "https://live.staticflickr.com/65535/48120439533_ea3558c585_o.jpg",
    "id_image": "Nissan_430131",
    "count_view": 0
  },
  {
    "link_thumb": "https://live.staticflickr.com/65535/48119880653_26cd9681cb_n.jpg",
    "id_album": "-731054311",
    "description": "MercedesBenz_906658",
    "title": "MercedesBenz_906658",
    "link_img": "https://live.staticflickr.com/65535/48119880653_e1f097cacc_o.jpg",
    "id_image": "MercedesBenz_906658",
    "count_view": 0
  },
  {
    "link_thumb": "https://live.staticflickr.com/65535/48112391627_8f22612860_n.jpg",
    "id_album": "-15119147",
    "description": "Audi_401392",
    "title": "Audi_401392",
    "link_img": "https://live.staticflickr.com/65535/48112391627_a37656ec5a_o.jpg",
    "id_image": "Audi_401392",
    "count_view": 0
  },
  {
    "link_thumb": "https://live.staticflickr.com/65535/48122029593_bcdb93ea8f_n.jpg",
    "id_album": "-1217333387",
    "description": "Renault_319396",
    "title": "Renault_319396",
    "link_img": "https://live.staticflickr.com/65535/48122029593_e9863c38da_o.jpg",
    "id_image": "Renault_319396",
    "count_view": 0
  },
  {
    "link_thumb": "https://live.staticflickr.com/65535/49889687458_4c2296befd_n.jpg",
    "id_album": "1957300237",
    "description": "2019_rv_Novitec_rv_Lamborghini_rv_Aventador_rv_SVJ_rv_V4_rv_2160",
    "title": "2019_rv_Novitec_rv_Lamborghini_rv_Aventador_rv_SVJ_rv_V4_rv_2160",
    "link_img": "https://live.staticflickr.com/65535/49889687458_0512c5bc2f_o.jpg",
    "id_image": "2019_rv_Novitec_rv_Lamborghini_rv_Aventador_rv_SVJ_rv_V4_rv_2160",
    "count_view": 0
  },
  {
    "link_thumb": "https://live.staticflickr.com/65535/48118127788_a57e7f6ea8_n.jpg",
    "id_album": "-2009218697",
    "description": "Jeep_436067",
    "title": "Jeep_436067",
    "link_img": "https://live.staticflickr.com/65535/48118127788_68f2bb4237_o.jpg",
    "id_image": "Jeep_436067",
    "count_view": 0
  },
  {
    "link_thumb": "https://live.staticflickr.com/65535/49891224826_0f55427bf6_n.jpg",
    "id_album": "1600747842",
    "description": "2009_rv_Pagani_rv_Zonda_rv_Cinque_rv_Roadster_rv_V3_rv_2160",
    "title": "2009_rv_Pagani_rv_Zonda_rv_Cinque_rv_Roadster_rv_V3_rv_2160",
    "link_img": "https://live.staticflickr.com/65535/49891224826_265ee597a5_o.jpg",
    "id_image": "2009_rv_Pagani_rv_Zonda_rv_Cinque_rv_Roadster_rv_V3_rv_2160",
    "count_view": 0
  },
  {
    "link_thumb": "https://live.staticflickr.com/65535/48116949072_42bbba4d24_n.jpg",
    "id_album": "-1846404630",
    "description": "Ford_250893",
    "title": "Ford_250893",
    "link_img": "https://live.staticflickr.com/65535/48116949072_205fd1b536_o.jpg",
    "id_image": "Ford_250893",
    "count_view": 0
  },
  {
    "link_thumb": "https://live.staticflickr.com/65535/48119036478_9e143ebf2f_n.jpg",
    "id_album": "-1153253263",
    "description": "Lotus_253041",
    "title": "Lotus_253041",
    "link_img": "https://live.staticflickr.com/65535/48119036478_0ee3b1f271_o.jpg",
    "id_image": "Lotus_253041",
    "count_view": 0
  },
  {
    "link_thumb": "https://live.staticflickr.com/65535/48122151071_3e0a77b507_n.jpg",
    "id_album": "1536700661",
    "description": "RollsRoyce_886441",
    "title": "RollsRoyce_886441",
    "link_img": "https://live.staticflickr.com/65535/48122151071_0b7b3effc2_o.jpg",
    "id_image": "RollsRoyce_886441",
    "count_view": 0
  },
  {
    "link_thumb": "https://live.staticflickr.com/65535/48120464801_091847f89b_n.jpg",
    "id_album": "810634050",
    "description": "Nissan_479315",
    "title": "Nissan_479315",
    "link_img": "https://live.staticflickr.com/65535/48120464801_f85d11874d_o.jpg",
    "id_image": "Nissan_479315",
    "count_view": 0
  },
  {
    "link_thumb": "https://live.staticflickr.com/65535/49890419106_0d99235865_n.jpg",
    "id_album": "-544969959",
    "description": "2014_rv_Maserati_rv_Ghibli_rv_V2_rv_1600",
    "title": "2014_rv_Maserati_rv_Ghibli_rv_V2_rv_1600",
    "link_img": "https://live.staticflickr.com/65535/49890419106_83f36b6614_o.jpg",
    "id_image": "2014_rv_Maserati_rv_Ghibli_rv_V2_rv_1600",
    "count_view": 0
  },
  {
    "link_thumb": "https://live.staticflickr.com/65535/48119079547_dfb502d1ba_n.jpg",
    "id_album": "-120702461",
    "description": "Lincoln_511656",
    "title": "Lincoln_511656",
    "link_img": "https://live.staticflickr.com/65535/48119079547_8851c6061d_o.jpg",
    "id_image": "Lincoln_511656",
    "count_view": 0
  },
  {
    "link_thumb": "https://live.staticflickr.com/65535/48115320208_9482a102be_n.jpg",
    "id_album": "413141323",
    "description": "Dodge_472041",
    "title": "Dodge_472041",
    "link_img": "https://live.staticflickr.com/65535/48115320208_8e4379cd63_o.jpg",
    "id_image": "Dodge_472041",
    "count_view": 0
  },
  {
    "link_thumb": "https://live.staticflickr.com/65535/48113595683_1b09f9e007_n.jpg",
    "id_album": "-680120434",
    "description": "Cadillac_397116",
    "title": "Cadillac_397116",
    "link_img": "https://live.staticflickr.com/65535/48113595683_341619f128_o.jpg",
    "id_image": "Cadillac_397116",
    "count_view": 0
  },
  {
    "link_thumb": "https://live.staticflickr.com/65535/48122261737_9c03aa74fc_n.jpg",
    "id_album": "1536700661",
    "description": "RollsRoyce_942895",
    "title": "RollsRoyce_942895",
    "link_img": "https://live.staticflickr.com/65535/48122261737_64d64b5ab5_o.jpg",
    "id_image": "RollsRoyce_942895",
    "count_view": 0
  },
  {
    "link_thumb": "https://live.staticflickr.com/65535/48118231851_2fbcdef953_n.jpg",
    "id_album": "-2100339805",
    "description": "Lamborghini_174962",
    "title": "Lamborghini_174962",
    "link_img": "https://live.staticflickr.com/65535/48118231851_f530b4188a_o.jpg",
    "id_image": "Lamborghini_174962",
    "count_view": 0
  },
  {
    "link_thumb": "https://live.staticflickr.com/65535/48116523816_88a60a3930_n.jpg",
    "id_album": "-1846404630",
    "description": "Ford_125036",
    "title": "Ford_125036",
    "link_img": "https://live.staticflickr.com/65535/48116523816_66aaa2b936_o.jpg",
    "id_image": "Ford_125036",
    "count_view": 0
  },
  {
    "link_thumb": "https://live.staticflickr.com/65535/48120079543_83815304b5_n.jpg",
    "id_album": "-1116477526",
    "description": "Mitsubishi_450439",
    "title": "Mitsubishi_450439",
    "link_img": "https://live.staticflickr.com/65535/48120079543_8cf270fc90_o.jpg",
    "id_image": "Mitsubishi_450439",
    "count_view": 0
  },
  {
    "link_thumb": "https://live.staticflickr.com/65535/48118882838_f91a772192_n.jpg",
    "id_album": "446908717",
    "description": "Lexus_273585",
    "title": "Lexus_273585",
    "link_img": "https://live.staticflickr.com/65535/48118882838_39702cde2d_o.jpg",
    "id_image": "Lexus_273585",
    "count_view": 0
  },
  {
    "link_thumb": "https://live.staticflickr.com/65535/48115822203_af23e225d4_n.jpg",
    "id_album": "1364506720",
    "description": "Ferrari_317750",
    "title": "Ferrari_317750",
    "link_img": "https://live.staticflickr.com/65535/48115822203_9f1f103c83_o.jpg",
    "id_image": "Ferrari_317750",
    "count_view": 0
  },
  {
    "link_thumb": "https://live.staticflickr.com/65535/48113127211_53554a2983_n.jpg",
    "id_album": "727633301",
    "description": "BMW_880926",
    "title": "BMW_880926",
    "link_img": "https://live.staticflickr.com/65535/48113127211_d740a3de61_o.jpg",
    "id_image": "BMW_880926",
    "count_view": 0
  },
  {
    "link_thumb": "https://live.staticflickr.com/65535/48113577946_391c80733f_n.jpg",
    "id_album": "-680120434",
    "description": "Cadillac_498182",
    "title": "Cadillac_498182",
    "link_img": "https://live.staticflickr.com/65535/48113577946_160b839430_o.jpg",
    "id_image": "Cadillac_498182",
    "count_view": 0
  },
  {
    "link_thumb": "https://live.staticflickr.com/65535/49889165836_9d2d6e3ba2_n.jpg",
    "id_album": "-1839909978",
    "description": "2011_rv_BMW_rv_i8_rv_Concept_rv_V4_rv_1536",
    "title": "2011_rv_BMW_rv_i8_rv_Concept_rv_V4_rv_1536",
    "link_img": "https://live.staticflickr.com/65535/49889165836_9c0dab0c39_o.jpg",
    "id_image": "2011_rv_BMW_rv_i8_rv_Concept_rv_V4_rv_1536",
    "count_view": 0
  },
  {
    "link_thumb": "https://live.staticflickr.com/65535/48119088333_084870a67c_n.jpg",
    "id_album": "697984456",
    "description": "Maserati_251385",
    "title": "Maserati_251385",
    "link_img": "https://live.staticflickr.com/65535/48119088333_f3d3b20ebc_o.jpg",
    "id_image": "Maserati_251385",
    "count_view": 0
  },
  {
    "link_thumb": "https://live.staticflickr.com/65535/48121783383_068766d7e4_n.jpg",
    "id_album": "-1178450892",
    "description": "Porsche_930779",
    "title": "Porsche_930779",
    "link_img": "https://live.staticflickr.com/65535/48121783383_2d411cd9a6_o.jpg",
    "id_image": "Porsche_930779",
    "count_view": 0
  },
  {
    "link_thumb": "https://live.staticflickr.com/65535/48112521532_cd4cdc6a4d_n.jpg",
    "id_album": "-15119147",
    "description": "Audi_892533",
    "title": "Audi_892533",
    "link_img": "https://live.staticflickr.com/65535/48112521532_7411c2a8a8_o.jpg",
    "id_image": "Audi_892533",
    "count_view": 0
  },
  {
    "link_thumb": "https://live.staticflickr.com/65535/48113776158_25e0c13d22_n.jpg",
    "id_album": "-1721545051",
    "description": "Chevrolet_182909",
    "title": "Chevrolet_182909",
    "link_img": "https://live.staticflickr.com/65535/48113776158_0a54d58836_o.jpg",
    "id_image": "Chevrolet_182909",
    "count_view": 0
  },
  {
    "link_thumb": "https://live.staticflickr.com/65535/48113207516_04a9c6c758_n.jpg",
    "id_album": "727633301",
    "description": "BMW_919816",
    "title": "BMW_919816",
    "link_img": "https://live.staticflickr.com/65535/48113207516_c44e73dec3_o.jpg",
    "id_image": "BMW_919816",
    "count_view": 0
  },
  {
    "link_thumb": "https://live.staticflickr.com/65535/48114847157_bc11ae728d_n.jpg",
    "id_album": "939606447",
    "description": "Chrysler_420671",
    "title": "Chrysler_420671",
    "link_img": "https://live.staticflickr.com/65535/48114847157_7ac7289c99_o.jpg",
    "id_image": "Chrysler_420671",
    "count_view": 0
  },
  {
    "link_thumb": "https://live.staticflickr.com/65535/48118575677_a0d5933666_n.jpg",
    "id_album": "-2100339805",
    "description": "Lamborghini_462157",
    "title": "Lamborghini_462157",
    "link_img": "https://live.staticflickr.com/65535/48118575677_981c87a84e_o.jpg",
    "id_image": "Lamborghini_462157",
    "count_view": 0
  },
  {
    "link_thumb": "https://live.staticflickr.com/65535/49890087386_28657c7659_n.jpg",
    "id_album": "-59902933",
    "description": "2013_rv_Lamborghini_rv_Aventador_rv_LP720_rv_4_rv_50_rv_Anniversario_rv_V2_rv_1600",
    "title": "2013_rv_Lamborghini_rv_Aventador_rv_LP720_rv_4_rv_50_rv_Anniversario_rv_V2_rv_1600",
    "link_img": "https://live.staticflickr.com/65535/49890087386_9632bef8e1_o.jpg",
    "id_image": "2013_rv_Lamborghini_rv_Aventador_rv_LP720_rv_4_rv_50_rv_Anniversario_rv_V2_rv_1600",
    "count_view": 0
  },
  {
    "link_thumb": "https://live.staticflickr.com/65535/48113734578_00b35027ff_n.jpg",
    "id_album": "-1721545051",
    "description": "Chevrolet_165774",
    "title": "Chevrolet_165774",
    "link_img": "https://live.staticflickr.com/65535/48113734578_4db29bf862_o.jpg",
    "id_image": "Chevrolet_165774",
    "count_view": 0
  },
  {
    "link_thumb": "https://live.staticflickr.com/65535/49889044467_ba440842b4_n.jpg",
    "id_album": "643953885",
    "description": "2012_rv_Ugur_rv_Sahin_rv_Design_rv_Alfa_rv_Romeo_rv_12C_rv_GTS_rv_V5_rv_1440",
    "title": "2012_rv_Ugur_rv_Sahin_rv_Design_rv_Alfa_rv_Romeo_rv_12C_rv_GTS_rv_V5_rv_1440",
    "link_img": "https://live.staticflickr.com/65535/49889044467_1dbe7fc0d1_o.jpg",
    "id_image": "2012_rv_Ugur_rv_Sahin_rv_Design_rv_Alfa_rv_Romeo_rv_12C_rv_GTS_rv_V5_rv_1440",
    "count_view": 0
  },
  {
    "link_thumb": "https://live.staticflickr.com/65535/48118999883_6dfa0019d7_n.jpg",
    "id_album": "-120702461",
    "description": "Lincoln_188736",
    "title": "Lincoln_188736",
    "link_img": "https://live.staticflickr.com/65535/48118999883_4c57a9d0b6_o.jpg",
    "id_image": "Lincoln_188736",
    "count_view": 0
  },
  {
    "link_thumb": "https://live.staticflickr.com/65535/48112650151_865813e2d1_n.jpg",
    "id_album": "727633301",
    "description": "BMW_253973",
    "title": "BMW_253973",
    "link_img": "https://live.staticflickr.com/65535/48112650151_18fd20514f_o.jpg",
    "id_image": "BMW_253973",
    "count_view": 0
  },
  {
    "link_thumb": "https://live.staticflickr.com/65535/48120723286_ffd2986abb_n.jpg",
    "id_album": "1952909762",
    "description": "Packard_741136",
    "title": "Packard_741136",
    "link_img": "https://live.staticflickr.com/65535/48120723286_c141a59d9c_o.jpg",
    "id_image": "Packard_741136",
    "count_view": 0
  },
  {
    "link_thumb": "https://live.staticflickr.com/65535/48117439792_1669a2102c_n.jpg",
    "id_album": "-1846404630",
    "description": "Ford_631223",
    "title": "Ford_631223",
    "link_img": "https://live.staticflickr.com/65535/48117439792_bc239bcd98_o.jpg",
    "id_image": "Ford_631223",
    "count_view": 0
  },
  {
    "link_thumb": "https://live.staticflickr.com/65535/48112246817_9179a4aaa6_n.jpg",
    "id_album": "-1001854128",
    "description": "AstonMartin_471337",
    "title": "AstonMartin_471337",
    "link_img": "https://live.staticflickr.com/65535/48112246817_58149c6d0f_o.jpg",
    "id_image": "AstonMartin_471337",
    "count_view": 0
  },
  {
    "link_thumb": "https://live.staticflickr.com/65535/49889286281_93d109ffba_n.jpg",
    "id_album": "1016927281",
    "description": "2013_rv_Porsche_rv_911_rv_4S_rv_Coupe_rv_V4_rv_1440",
    "title": "2013_rv_Porsche_rv_911_rv_4S_rv_Coupe_rv_V4_rv_1440",
    "link_img": "https://live.staticflickr.com/65535/49889286281_6f85153673_o.jpg",
    "id_image": "2013_rv_Porsche_rv_911_rv_4S_rv_Coupe_rv_V4_rv_1440",
    "count_view": 0
  },
  {
    "link_thumb": "https://live.staticflickr.com/65535/49889751232_4c8b9e7211_n.jpg",
    "id_album": "1069273898",
    "description": "1966_rv_Ferrari_rv_275_rv_GTB4_rv_V10_rv_1600",
    "title": "1966_rv_Ferrari_rv_275_rv_GTB4_rv_V10_rv_1600",
    "link_img": "https://live.staticflickr.com/65535/49889751232_fb6ff8cf54_o.jpg",
    "id_image": "1966_rv_Ferrari_rv_275_rv_GTB4_rv_V10_rv_1600",
    "count_view": 0
  },
  {
    "link_thumb": "https://live.staticflickr.com/65535/49889772062_b5e31b303c_n.jpg",
    "id_album": "1069339433",
    "description": "1971_rv_Ferrari_rv_365_rv_GTB4_rv_Daytona_rv_V11_rv_1536",
    "title": "1971_rv_Ferrari_rv_365_rv_GTB4_rv_Daytona_rv_V11_rv_1536",
    "link_img": "https://live.staticflickr.com/65535/49889772062_03650f243d_o.jpg",
    "id_image": "1971_rv_Ferrari_rv_365_rv_GTB4_rv_Daytona_rv_V11_rv_1536",
    "count_view": 0
  },
  {
    "link_thumb": "https://live.staticflickr.com/65535/48113140351_2971f2f867_n.jpg",
    "id_album": "727633301",
    "description": "BMW_886059",
    "title": "BMW_886059",
    "link_img": "https://live.staticflickr.com/65535/48113140351_8e5ac70e29_o.jpg",
    "id_image": "BMW_886059",
    "count_view": 0
  },
  {
    "link_thumb": "https://live.staticflickr.com/65535/48117179488_9da2dac70c_n.jpg",
    "id_album": "-1846404630",
    "description": "Ford_417552",
    "title": "Ford_417552",
    "link_img": "https://live.staticflickr.com/65535/48117179488_311572ea5d_o.jpg",
    "id_image": "Ford_417552",
    "count_view": 0
  },
  {
    "link_thumb": "https://live.staticflickr.com/65535/49892592941_e0de1c2c33_n.jpg",
    "id_album": "-57589574",
    "description": "2015_rv_Aston_rv_Martin_rv_Vantage_rv_GT12_rv_V1_rv_1600",
    "title": "2015_rv_Aston_rv_Martin_rv_Vantage_rv_GT12_rv_V1_rv_1600",
    "link_img": "https://live.staticflickr.com/65535/49892592941_2e44698f50_o.jpg",
    "id_image": "2015_rv_Aston_rv_Martin_rv_Vantage_rv_GT12_rv_V1_rv_1600",
    "count_view": 0
  },
  {
    "link_thumb": "https://live.staticflickr.com/65535/48118475792_84b75b7283_n.jpg",
    "id_album": "-2100339805",
    "description": "Lamborghini_372201",
    "title": "Lamborghini_372201",
    "link_img": "https://live.staticflickr.com/65535/48118475792_04f4806a29_o.jpg",
    "id_image": "Lamborghini_372201",
    "count_view": 0
  },
  {
    "link_thumb": "https://live.staticflickr.com/65535/48120480201_e3c73eec4b_n.jpg",
    "id_album": "810634050",
    "description": "Nissan_485053",
    "title": "Nissan_485053",
    "link_img": "https://live.staticflickr.com/65535/48120480201_b61a77be88_o.jpg",
    "id_image": "Nissan_485053",
    "count_view": 0
  },
  {
    "link_thumb": "https://live.staticflickr.com/65535/49889012838_f233647a91_n.jpg",
    "id_album": "-2012649705",
    "description": "2015_rv_Ferrari_rv_F60America_rv_V1_rv_1600",
    "title": "2015_rv_Ferrari_rv_F60America_rv_V1_rv_1600",
    "link_img": "https://live.staticflickr.com/65535/49889012838_3bde20f02c_o.jpg",
    "id_image": "2015_rv_Ferrari_rv_F60America_rv_V1_rv_1600",
    "count_view": 0
  },
  {
    "link_thumb": "https://live.staticflickr.com/65535/49889400133_a3d8a5273a_n.jpg",
    "id_album": "-865647970",
    "description": "2017_rv_Honda_rv_NSX_rv_V8_rv_2000",
    "title": "2017_rv_Honda_rv_NSX_rv_V8_rv_2000",
    "link_img": "https://live.staticflickr.com/65535/49889400133_91b636bf00_o.jpg",
    "id_image": "2017_rv_Honda_rv_NSX_rv_V8_rv_2000",
    "count_view": 0
  },
  {
    "link_thumb": "https://live.staticflickr.com/65535/48118602578_cc88e3bafc_n.jpg",
    "id_album": "-2100339805",
    "description": "Lamborghini_697509",
    "title": "Lamborghini_697509",
    "link_img": "https://live.staticflickr.com/65535/48118602578_b9234183ef_o.jpg",
    "id_image": "Lamborghini_697509",
    "count_view": 0
  },
  {
    "link_thumb": "https://live.staticflickr.com/65535/49891733958_6eb90c8007_n.jpg",
    "id_album": "-2006372324",
    "description": "2015_rv_Renault_rv_Coupe_rv_C_rv_Concept_rv_V2_rv_1600",
    "title": "2015_rv_Renault_rv_Coupe_rv_C_rv_Concept_rv_V2_rv_1600",
    "link_img": "https://live.staticflickr.com/65535/49891733958_4a4cbd6ecb_o.jpg",
    "id_image": "2015_rv_Renault_rv_Coupe_rv_C_rv_Concept_rv_V2_rv_1600",
    "count_view": 0
  },
  {
    "link_thumb": "https://live.staticflickr.com/65535/49892791212_ddea90f74a_n.jpg",
    "id_album": "746165216",
    "description": "2016_rv_Toyota_rv_86_rv_Shooting_rv_Brake_rv_Concept_rv_V3_rv_2000",
    "title": "2016_rv_Toyota_rv_86_rv_Shooting_rv_Brake_rv_Concept_rv_V3_rv_2000",
    "link_img": "https://live.staticflickr.com/65535/49892791212_434fdd3160_o.jpg",
    "id_image": "2016_rv_Toyota_rv_86_rv_Shooting_rv_Brake_rv_Concept_rv_V3_rv_2000",
    "count_view": 0
  },
  {
    "link_thumb": "https://live.staticflickr.com/65535/48122156952_79553c5949_n.jpg",
    "id_album": "-1217333387",
    "description": "Renault_923252",
    "title": "Renault_923252",
    "link_img": "https://live.staticflickr.com/65535/48122156952_0f21970927_o.jpg",
    "id_image": "Renault_923252",
    "count_view": 0
  },
  {
    "link_thumb": "https://live.staticflickr.com/65535/48119177688_c4041d3546_n.jpg",
    "id_album": "697984456",
    "description": "Maserati_895923",
    "title": "Maserati_895923",
    "link_img": "https://live.staticflickr.com/65535/48119177688_6cf6b6003e_o.jpg",
    "id_image": "Maserati_895923",
    "count_view": 0
  },
  {
    "link_thumb": "https://live.staticflickr.com/65535/48119936241_7c31bea11a_n.jpg",
    "id_album": "-731054311",
    "description": "MercedesBenz_960767",
    "title": "MercedesBenz_960767",
    "link_img": "https://live.staticflickr.com/65535/48119936241_12f1bb12b4_o.jpg",
    "id_image": "MercedesBenz_960767",
    "count_view": 0
  }
]