[
  {
    "link_thumb": "https://live.staticflickr.com/65535/48112176866_df22f1e15c_n.jpg",
    "id_album": "1546790746",
    "description": "AstonMartin_878642",
    "title": "AstonMartin_878642",
    "link_img": "https://live.staticflickr.com/65535/48112176866_a4d47be2a0_o.jpg",
    "id_image": "AstonMartin_878642",
    "count_view": 0
  },
  {
    "link_thumb": "https://live.staticflickr.com/65535/49889046428_29d5c1544f_n.jpg",
    "id_album": "-1150105315",
    "description": "2000_rv_Formula1_rv_Ferrari_rv_F2000_rv_V3_rv_2000",
    "title": "2000_rv_Formula1_rv_Ferrari_rv_F2000_rv_V3_rv_2000",
    "link_img": "https://live.staticflickr.com/65535/49889046428_77208622b2_o.jpg",
    "id_image": "2000_rv_Formula1_rv_Ferrari_rv_F2000_rv_V3_rv_2000",
    "count_view": 0
  },
  {
    "link_thumb": "https://live.staticflickr.com/65535/49890387966_c9689fa651_n.jpg",
    "id_album": "-843792943",
    "description": "2013_rv_Lotus_rv_Exige_rv_S_rv_Roadster_rv_V6_rv_1440",
    "title": "2013_rv_Lotus_rv_Exige_rv_S_rv_Roadster_rv_V6_rv_1440",
    "link_img": "https://live.staticflickr.com/65535/49890387966_1843b9e0fa_o.jpg",
    "id_image": "2013_rv_Lotus_rv_Exige_rv_S_rv_Roadster_rv_V6_rv_1440",
    "count_view": 0
  },
  {
    "link_thumb": "https://live.staticflickr.com/65535/48113196678_21f1e22f08_n.jpg",
    "id_album": "727633301",
    "description": "BMW_897587",
    "title": "BMW_897587",
    "link_img": "https://live.staticflickr.com/65535/48113196678_f1e8c05438_o.jpg",
    "id_image": "BMW_897587",
    "count_view": 0
  },
  {
    "link_thumb": "https://live.staticflickr.com/65535/48113046617_3cec4eaf07_n.jpg",
    "id_album": "727633301",
    "description": "BMW_502994",
    "title": "BMW_502994",
    "link_img": "https://live.staticflickr.com/65535/48113046617_07ec57c598_o.jpg",
    "id_image": "BMW_502994",
    "count_view": 0
  },
  {
    "link_thumb": "https://live.staticflickr.com/65535/48118586671_c64873ae90_n.jpg",
    "id_album": "-2100339805",
    "description": "Lamborghini_718104",
    "title": "Lamborghini_718104",
    "link_img": "https://live.staticflickr.com/65535/48118586671_9ff6036cc7_o.jpg",
    "id_image": "Lamborghini_718104",
    "count_view": 0
  },
  {
    "link_thumb": "https://live.staticflickr.com/65535/49891269646_89c8f34c0b_n.jpg",
    "id_album": "-925276176",
    "description": "2017_rv_Peugeot_rv_L750_rv_R_rv_HYbrid_rv_Concept_rv_V6_rv_2000",
    "title": "2017_rv_Peugeot_rv_L750_rv_R_rv_HYbrid_rv_Concept_rv_V6_rv_2000",
    "link_img": "https://live.staticflickr.com/65535/49891269646_c4346fcefe_o.jpg",
    "id_image": "2017_rv_Peugeot_rv_L750_rv_R_rv_HYbrid_rv_Concept_rv_V6_rv_2000",
    "count_view": 0
  },
  {
    "link_thumb": "https://live.staticflickr.com/65535/49890245012_3ae163ab93_n.jpg",
    "id_album": "-1787274822",
    "description": "2020_rv_Hyundai_rv_Prophecy_rv_Concept_rv_V4_rv_2160",
    "title": "2020_rv_Hyundai_rv_Prophecy_rv_Concept_rv_V4_rv_2160",
    "link_img": "https://live.staticflickr.com/65535/49890245012_48881fe1b6_o.jpg",
    "id_image": "2020_rv_Hyundai_rv_Prophecy_rv_Concept_rv_V4_rv_2160",
    "count_view": 0
  },
  {
    "link_thumb": "https://live.staticflickr.com/65535/49889080568_540ecba404_n.jpg",
    "id_album": "1444834859",
    "description": "2018_rv_Ferrari_rv_Portofino_rv_V5_rv_2000",
    "title": "2018_rv_Ferrari_rv_Portofino_rv_V5_rv_2000",
    "link_img": "https://live.staticflickr.com/65535/49889080568_dc64f5a9cd_o.jpg",
    "id_image": "2018_rv_Ferrari_rv_Portofino_rv_V5_rv_2000",
    "count_view": 0
  },
  {
    "link_thumb": "https://live.staticflickr.com/65535/49891729583_9f3ceff971_n.jpg",
    "id_album": "-1040682979",
    "description": "2013_rv_Renault_rv_Clio_rv_RS_rv_200_rv_V2_rv_1440",
    "title": "2013_rv_Renault_rv_Clio_rv_RS_rv_200_rv_V2_rv_1440",
    "link_img": "https://live.staticflickr.com/65535/49891729583_78095337db_o.jpg",
    "id_image": "2013_rv_Renault_rv_Clio_rv_RS_rv_200_rv_V2_rv_1440",
    "count_view": 0
  },
  {
    "link_thumb": "https://live.staticflickr.com/65535/48120525222_bc6ff2a9d9_n.jpg",
    "id_album": "810634050",
    "description": "Nissan_454340",
    "title": "Nissan_454340",
    "link_img": "https://live.staticflickr.com/65535/48120525222_4382cd2c4c_o.jpg",
    "id_image": "Nissan_454340",
    "count_view": 0
  },
  {
    "link_thumb": "https://live.staticflickr.com/65535/48119670576_a1ab32ebb7_n.jpg",
    "id_album": "-731054311",
    "description": "MercedesBenz_447486",
    "title": "MercedesBenz_447486",
    "link_img": "https://live.staticflickr.com/65535/48119670576_9443a0ff9b_o.jpg",
    "id_image": "MercedesBenz_447486",
    "count_view": 0
  },
  {
    "link_thumb": "https://live.staticflickr.com/65535/49889796297_0c629a4684_n.jpg",
    "id_album": "1471706463",
    "description": "2016_rv_Ferrari_rv_488_rv_GTB_rv_V5_rv_1600",
    "title": "2016_rv_Ferrari_rv_488_rv_GTB_rv_V5_rv_1600",
    "link_img": "https://live.staticflickr.com/65535/49889796297_8b944c16e7_o.jpg",
    "id_image": "2016_rv_Ferrari_rv_488_rv_GTB_rv_V5_rv_1600",
    "count_view": 0
  },
  {
    "link_thumb": "https://live.staticflickr.com/65535/48112230881_6c5da01bc9_n.jpg",
    "id_album": "-15119147",
    "description": "Audi_208294",
    "title": "Audi_208294",
    "link_img": "https://live.staticflickr.com/65535/48112230881_f30c9de3af_o.jpg",
    "id_image": "Audi_208294",
    "count_view": 0
  },
  {
    "link_thumb": "https://live.staticflickr.com/65535/49889825377_cdeebb336a_n.jpg",
    "id_album": "665596159",
    "description": "2008_rv_Ferrari_rv_612_rv_Scaglietti_rv_V4_rv_1440",
    "title": "2008_rv_Ferrari_rv_612_rv_Scaglietti_rv_V4_rv_1440",
    "link_img": "https://live.staticflickr.com/65535/49889825377_5e80bae5ab_o.jpg",
    "id_image": "2008_rv_Ferrari_rv_612_rv_Scaglietti_rv_V4_rv_1440",
    "count_view": 0
  },
  {
    "link_thumb": "https://live.staticflickr.com/65535/48120290342_b898621e5a_n.jpg",
    "id_album": "666438681",
    "description": "Motorcycles_328294",
    "title": "Motorcycles_328294",
    "link_img": "https://live.staticflickr.com/65535/48120290342_db16f44c1e_o.jpg",
    "id_image": "Motorcycles_328294",
    "count_view": 0
  },
  {
    "link_thumb": "https://live.staticflickr.com/65535/48118454452_9c1cf0940a_n.jpg",
    "id_album": "-2100339805",
    "description": "Lamborghini_356115",
    "title": "Lamborghini_356115",
    "link_img": "https://live.staticflickr.com/65535/48118454452_a47acb8998_o.jpg",
    "id_image": "Lamborghini_356115",
    "count_view": 0
  },
  {
    "link_thumb": "https://live.staticflickr.com/65535/48112568158_f9e0092915_n.jpg",
    "id_album": "2097036181",
    "description": "Bentley_470759",
    "title": "Bentley_470759",
    "link_img": "https://live.staticflickr.com/65535/48112568158_58fb07f87c_o.jpg",
    "id_image": "Bentley_470759",
    "count_view": 0
  },
  {
    "link_thumb": "https://live.staticflickr.com/65535/49889525912_6ccd009007_n.jpg",
    "id_album": "-1678364421",
    "description": "2017_rv_Bugatti_rv_Chiron_rv_V8_rv_2000",
    "title": "2017_rv_Bugatti_rv_Chiron_rv_V8_rv_2000",
    "link_img": "https://live.staticflickr.com/65535/49889525912_a07be94d56_o.jpg",
    "id_image": "2017_rv_Bugatti_rv_Chiron_rv_V8_rv_2000",
    "count_view": 0
  },
  {
    "link_thumb": "https://live.staticflickr.com/65535/49890074442_78f1bffc06_n.jpg",
    "id_album": "1370790237",
    "description": "2014_rv_Dodge_rv_Challenger_rv_RT_rv_Shaker_rv_V3_rv_1600",
    "title": "2014_rv_Dodge_rv_Challenger_rv_RT_rv_Shaker_rv_V3_rv_1600",
    "link_img": "https://live.staticflickr.com/65535/49890074442_67cdeabe8c_o.jpg",
    "id_image": "2014_rv_Dodge_rv_Challenger_rv_RT_rv_Shaker_rv_V3_rv_1600",
    "count_view": 0
  },
  {
    "link_thumb": "https://live.staticflickr.com/65535/48115358807_43f310af40_n.jpg",
    "id_album": "413141323",
    "description": "Dodge_454668",
    "title": "Dodge_454668",
    "link_img": "https://live.staticflickr.com/65535/48115358807_52291e35d2_o.jpg",
    "id_image": "Dodge_454668",
    "count_view": 0
  },
  {
    "link_thumb": "https://live.staticflickr.com/65535/48121504192_bb671e3be9_n.jpg",
    "id_album": "-1178450892",
    "description": "Porsche_490794",
    "title": "Porsche_490794",
    "link_img": "https://live.staticflickr.com/65535/48121504192_c9fb9af3c9_o.jpg",
    "id_image": "Porsche_490794",
    "count_view": 0
  },
  {
    "link_thumb": "https://live.staticflickr.com/65535/48119101556_5093cf1554_n.jpg",
    "id_album": "697984456",
    "description": "Maserati_573261",
    "title": "Maserati_573261",
    "link_img": "https://live.staticflickr.com/65535/48119101556_7418a3db0e_o.jpg",
    "id_image": "Maserati_573261",
    "count_view": 0
  },
  {
    "link_thumb": "https://live.staticflickr.com/65535/48122648123_e5559b8680_n.jpg",
    "id_album": "1274920659",
    "description": "Toyota_176364",
    "title": "Toyota_176364",
    "link_img": "https://live.staticflickr.com/65535/48122648123_9c434db0de_o.jpg",
    "id_image": "Toyota_176364",
    "count_view": 0
  },
  {
    "link_thumb": "https://live.staticflickr.com/65535/48120425958_ae6960e383_n.jpg",
    "id_album": "810634050",
    "description": "Nissan_391824",
    "title": "Nissan_391824",
    "link_img": "https://live.staticflickr.com/65535/48120425958_0346727458_o.jpg",
    "id_image": "Nissan_391824",
    "count_view": 0
  },
  {
    "link_thumb": "https://live.staticflickr.com/65535/48120701697_146fd95429_n.jpg",
    "id_album": "810634050",
    "description": "Nissan_936497",
    "title": "Nissan_936497",
    "link_img": "https://live.staticflickr.com/65535/48120701697_119e67deb4_o.jpg",
    "id_image": "Nissan_936497",
    "count_view": 0
  },
  {
    "link_thumb": "https://live.staticflickr.com/65535/49888692978_01c9662d7c_n.jpg",
    "id_album": "6794735",
    "description": "2020_rv_Bugatti_rv_Centodieci_rv_V8_rv_2160",
    "title": "2020_rv_Bugatti_rv_Centodieci_rv_V8_rv_2160",
    "link_img": "https://live.staticflickr.com/65535/49888692978_d3b4b618d8_o.jpg",
    "id_image": "2020_rv_Bugatti_rv_Centodieci_rv_V8_rv_2160",
    "count_view": 0
  },
  {
    "link_thumb": "https://live.staticflickr.com/65535/48115161906_18d14d4d6b_n.jpg",
    "id_album": "413141323",
    "description": "Dodge_291200",
    "title": "Dodge_291200",
    "link_img": "https://live.staticflickr.com/65535/48115161906_13154fa31a_o.jpg",
    "id_image": "Dodge_291200",
    "count_view": 0
  },
  {
    "link_thumb": "https://live.staticflickr.com/65535/49893012432_9394df9bef_n.jpg",
    "id_album": "552106220",
    "description": "2013_rv_W_rv_Motors_rv_Lykan_rv_Hypersport_rv_V3_rv_1600",
    "title": "2013_rv_W_rv_Motors_rv_Lykan_rv_Hypersport_rv_V3_rv_1600",
    "link_img": "https://live.staticflickr.com/65535/49893012432_7f059330c9_o.jpg",
    "id_image": "2013_rv_W_rv_Motors_rv_Lykan_rv_Hypersport_rv_V3_rv_1600",
    "count_view": 0
  },
  {
    "link_thumb": "https://live.staticflickr.com/65535/49892086263_24a62d80bb_n.jpg",
    "id_album": "-842876950",
    "description": "2007_rv_Aston_rv_Martin_rv_V8_rv_Vantage_rv_V1_rv_1440",
    "title": "2007_rv_Aston_rv_Martin_rv_V8_rv_Vantage_rv_V1_rv_1440",
    "link_img": "https://live.staticflickr.com/65535/49892086263_0bf5d2fbba_o.jpg",
    "id_image": "2007_rv_Aston_rv_Martin_rv_V8_rv_Vantage_rv_V1_rv_1440",
    "count_view": 0
  },
  {
    "link_thumb": "https://live.staticflickr.com/65535/48117672277_9fceae5dd8_n.jpg",
    "id_album": "-1846404630",
    "description": "Ford_931855",
    "title": "Ford_931855",
    "link_img": "https://live.staticflickr.com/65535/48117672277_cf4e6dcae0_o.jpg",
    "id_image": "Ford_931855",
    "count_view": 0
  },
  {
    "link_thumb": "https://live.staticflickr.com/65535/48116068023_469f5156c5_n.jpg",
    "id_album": "1364506720",
    "description": "Ferrari_514384",
    "title": "Ferrari_514384",
    "link_img": "https://live.staticflickr.com/65535/48116068023_d7f971f55b_o.jpg",
    "id_image": "Ferrari_514384",
    "count_view": 0
  },
  {
    "link_thumb": "https://live.staticflickr.com/65535/49892176716_8e156f6357_n.jpg",
    "id_album": "1105078772",
    "description": "2001_rv_Nissan_rv_Skyline_rv_R34_rv_Nismo_rv_V3_rv_1440",
    "title": "2001_rv_Nissan_rv_Skyline_rv_R34_rv_Nismo_rv_V3_rv_1440",
    "link_img": "https://live.staticflickr.com/65535/49892176716_40ee39c1b1_o.jpg",
    "id_image": "2001_rv_Nissan_rv_Skyline_rv_R34_rv_Nismo_rv_V3_rv_1440",
    "count_view": 0
  },
  {
    "link_thumb": "https://live.staticflickr.com/65535/49889897142_0c3bbd4757_n.jpg",
    "id_album": "-290692475",
    "description": "2012_rv_Novitec_rv_Rosso_rv_Ferrari_rv_458_rv_Spider_rv_V2_rv_1440",
    "title": "2012_rv_Novitec_rv_Rosso_rv_Ferrari_rv_458_rv_Spider_rv_V2_rv_1440",
    "link_img": "https://live.staticflickr.com/65535/49889897142_c15d463b87_o.jpg",
    "id_image": "2012_rv_Novitec_rv_Rosso_rv_Ferrari_rv_458_rv_Spider_rv_V2_rv_1440",
    "count_view": 0
  },
  {
    "link_thumb": "https://live.staticflickr.com/65535/49889148802_9a68fbda44_n.jpg",
    "id_album": "1219359179",
    "description": "1965_rv_Aston_rv_Martin_rv_DB6_rv_V2_rv_1440",
    "title": "1965_rv_Aston_rv_Martin_rv_DB6_rv_V2_rv_1440",
    "link_img": "https://live.staticflickr.com/65535/49889148802_30488c9729_o.jpg",
    "id_image": "1965_rv_Aston_rv_Martin_rv_DB6_rv_V2_rv_1440",
    "count_view": 0
  },
  {
    "link_thumb": "https://live.staticflickr.com/65535/48123372607_250662e820_n.jpg",
    "id_album": "-360260466",
    "description": "Yamaha_907789",
    "title": "Yamaha_907789",
    "link_img": "https://live.staticflickr.com/65535/48123372607_57d34f4789_o.jpg",
    "id_image": "Yamaha_907789",
    "count_view": 0
  },
  {
    "link_thumb": "https://live.staticflickr.com/65535/48117041476_4994164a31_n.jpg",
    "id_album": "-1846404630",
    "description": "Ford_355365",
    "title": "Ford_355365",
    "link_img": "https://live.staticflickr.com/65535/48117041476_5db85128c4_o.jpg",
    "id_image": "Ford_355365",
    "count_view": 0
  },
  {
    "link_thumb": "https://live.staticflickr.com/65535/49892632506_a5c7a8d827_n.jpg",
    "id_album": "-1185886385",
    "description": "2013_rv_Vauxhall_rv_VXR8_rv_Tourer_rv_V1_rv_1600",
    "title": "2013_rv_Vauxhall_rv_VXR8_rv_Tourer_rv_V1_rv_1600",
    "link_img": "https://live.staticflickr.com/65535/49892632506_45e1941d38_o.jpg",
    "id_image": "2013_rv_Vauxhall_rv_VXR8_rv_Tourer_rv_V1_rv_1600",
    "count_view": 0
  },
  {
    "link_thumb": "https://live.staticflickr.com/65535/48118567387_01a6a5fa91_n.jpg",
    "id_album": "-2100339805",
    "description": "Lamborghini_453067",
    "title": "Lamborghini_453067",
    "link_img": "https://live.staticflickr.com/65535/48118567387_fca0c437ec_o.jpg",
    "id_image": "Lamborghini_453067",
    "count_view": 0
  },
  {
    "link_thumb": "https://live.staticflickr.com/65535/48121440043_1c61636ec1_n.jpg",
    "id_album": "-1178450892",
    "description": "Porsche_480039",
    "title": "Porsche_480039",
    "link_img": "https://live.staticflickr.com/65535/48121440043_d28df7b9c0_o.jpg",
    "id_image": "Porsche_480039",
    "count_view": 0
  },
  {
    "link_thumb": "https://live.staticflickr.com/65535/48112289573_f928ebf19e_n.jpg",
    "id_album": "-15119147",
    "description": "Audi_253654",
    "title": "Audi_253654",
    "link_img": "https://live.staticflickr.com/65535/48112289573_f5bbeb4692_o.jpg",
    "id_image": "Audi_253654",
    "count_view": 0
  },
  {
    "link_thumb": "https://live.staticflickr.com/65535/48116803198_856863b2f0_n.jpg",
    "id_album": "-1846404630",
    "description": "Ford_222741",
    "title": "Ford_222741",
    "link_img": "https://live.staticflickr.com/65535/48116803198_cbde4354c1_o.jpg",
    "id_image": "Ford_222741",
    "count_view": 0
  },
  {
    "link_thumb": "https://live.staticflickr.com/65535/49891733958_6eb90c8007_n.jpg",
    "id_album": "-2006372324",
    "description": "2015_rv_Renault_rv_Coupe_rv_C_rv_Concept_rv_V2_rv_1600",
    "title": "2015_rv_Renault_rv_Coupe_rv_C_rv_Concept_rv_V2_rv_1600",
    "link_img": "https://live.staticflickr.com/65535/49891733958_4a4cbd6ecb_o.jpg",
    "id_image": "2015_rv_Renault_rv_Coupe_rv_C_rv_Concept_rv_V2_rv_1600",
    "count_view": 0
  },
  {
    "link_thumb": "https://live.staticflickr.com/65535/49040905071_a10639d8db_n.jpg",
    "id_album": "-495894181",
    "description": "AlfaRomeo_253516",
    "title": "AlfaRomeo_253516",
    "link_img": "https://live.staticflickr.com/65535/49040905071_e1611fae39_o.jpg",
    "id_image": "AlfaRomeo_253516",
    "count_view": 0
  },
  {
    "link_thumb": "https://live.staticflickr.com/65535/49890807317_bd5872849c_n.jpg",
    "id_album": "653224008",
    "description": "2012_rv_Mazda_rv_RX_rv_8_rv_Spirit_rv_R_rv_V1_rv_1440",
    "title": "2012_rv_Mazda_rv_RX_rv_8_rv_Spirit_rv_R_rv_V1_rv_1440",
    "link_img": "https://live.staticflickr.com/65535/49890807317_fdfbb4323d_o.jpg",
    "id_image": "2012_rv_Mazda_rv_RX_rv_8_rv_Spirit_rv_R_rv_V1_rv_1440",
    "count_view": 0
  },
  {
    "link_thumb": "https://live.staticflickr.com/65535/48121629952_214a0da75f_n.jpg",
    "id_album": "-1178450892",
    "description": "Porsche_681913",
    "title": "Porsche_681913",
    "link_img": "https://live.staticflickr.com/65535/48121629952_e0185347ba_o.jpg",
    "id_image": "Porsche_681913",
    "count_view": 0
  },
  {
    "link_thumb": "https://live.staticflickr.com/65535/49892683021_ed3aef5312_n.jpg",
    "id_album": "-1595779521",
    "description": "2020_rv_Polestar_rv_1_rv_V1_rv_2160",
    "title": "2020_rv_Polestar_rv_1_rv_V1_rv_2160",
    "link_img": "https://live.staticflickr.com/65535/49892683021_486b159b91_o.jpg",
    "id_image": "2020_rv_Polestar_rv_1_rv_V1_rv_2160",
    "count_view": 0
  },
  {
    "link_thumb": "https://live.staticflickr.com/65535/48122838576_e166d39311_n.jpg",
    "id_album": "1274920659",
    "description": "Toyota_994666",
    "title": "Toyota_994666",
    "link_img": "https://live.staticflickr.com/65535/48122838576_3b66196797_o.jpg",
    "id_image": "Toyota_994666",
    "count_view": 0
  },
  {
    "link_thumb": "https://live.staticflickr.com/65535/49889335841_f6b6c1f023_n.jpg",
    "id_album": "-1814822237",
    "description": "2019_rv_De_rv_Tomaso_rv_P72_rv_V6_rv_2160",
    "title": "2019_rv_De_rv_Tomaso_rv_P72_rv_V6_rv_2160",
    "link_img": "https://live.staticflickr.com/65535/49889335841_45b0988669_o.jpg",
    "id_image": "2019_rv_De_rv_Tomaso_rv_P72_rv_V6_rv_2160",
    "count_view": 0
  },
  {
    "link_thumb": "https://live.staticflickr.com/65535/48121837022_86856b0c23_n.jpg",
    "id_album": "-1178450892",
    "description": "Porsche_929501",
    "title": "Porsche_929501",
    "link_img": "https://live.staticflickr.com/65535/48121837022_09fcdb6eb1_o.jpg",
    "id_image": "Porsche_929501",
    "count_view": 0
  },
  {
    "link_thumb": "https://live.staticflickr.com/65535/48118105942_3c94138fcd_n.jpg",
    "id_album": "-843028318",
    "description": "Jaguar_844437",
    "title": "Jaguar_844437",
    "link_img": "https://live.staticflickr.com/65535/48118105942_f9817aa517_o.jpg",
    "id_image": "Jaguar_844437",
    "count_view": 0
  },
  {
    "link_thumb": "https://live.staticflickr.com/65535/48119051802_93790b4a74_n.jpg",
    "id_album": "446908717",
    "description": "Lexus_962830",
    "title": "Lexus_962830",
    "link_img": "https://live.staticflickr.com/65535/48119051802_78e4343fd9_o.jpg",
    "id_image": "Lexus_962830",
    "count_view": 0
  },
  {
    "link_thumb": "https://live.staticflickr.com/65535/48113677587_273d03f59e_n.jpg",
    "id_album": "-680120434",
    "description": "Cadillac_498310",
    "title": "Cadillac_498310",
    "link_img": "https://live.staticflickr.com/65535/48113677587_15e153039d_o.jpg",
    "id_image": "Cadillac_498310",
    "count_view": 0
  },
  {
    "link_thumb": "https://live.staticflickr.com/65535/49889568282_95959eb4cf_n.jpg",
    "id_album": "-843860003",
    "description": "2015_rv_Chevrolet_rv_Corvette_rv_Z06_rv_Convertible_rv_V8_rv_1600",
    "title": "2015_rv_Chevrolet_rv_Corvette_rv_Z06_rv_Convertible_rv_V8_rv_1600",
    "link_img": "https://live.staticflickr.com/65535/49889568282_9ffa2a5dfb_o.jpg",
    "id_image": "2015_rv_Chevrolet_rv_Corvette_rv_Z06_rv_Convertible_rv_V8_rv_1600",
    "count_view": 0
  },
  {
    "link_thumb": "https://live.staticflickr.com/65535/48113176878_848f3d6e74_n.jpg",
    "id_album": "727633301",
    "description": "BMW_883210",
    "title": "BMW_883210",
    "link_img": "https://live.staticflickr.com/65535/48113176878_3919e23282_o.jpg",
    "id_image": "BMW_883210",
    "count_view": 0
  },
  {
    "link_thumb": "https://live.staticflickr.com/65535/49891093887_dc7a44251b_n.jpg",
    "id_album": "-1381089085",
    "description": "2018_rv_Formula1_rv_Mercedes_rv_AMG_rv_F1_rv_W09_rv_V5_rv_2000",
    "title": "2018_rv_Formula1_rv_Mercedes_rv_AMG_rv_F1_rv_W09_rv_V5_rv_2000",
    "link_img": "https://live.staticflickr.com/65535/49891093887_26840a9d03_o.jpg",
    "id_image": "2018_rv_Formula1_rv_Mercedes_rv_AMG_rv_F1_rv_W09_rv_V5_rv_2000",
    "count_view": 0
  },
  {
    "link_thumb": "https://live.staticflickr.com/65535/48121036911_31332f5803_n.jpg",
    "id_album": "-1123679742",
    "description": "Plymouth_805409",
    "title": "Plymouth_805409",
    "link_img": "https://live.staticflickr.com/65535/48121036911_3e6eb50a99_o.jpg",
    "id_image": "Plymouth_805409",
    "count_view": 0
  },
  {
    "link_thumb": "https://live.staticflickr.com/65535/48118812721_57890459c8_n.jpg",
    "id_album": "1234246491",
    "description": "LandRover_885623",
    "title": "LandRover_885623",
    "link_img": "https://live.staticflickr.com/65535/48118812721_ec2dcd47b2_o.jpg",
    "id_image": "LandRover_885623",
    "count_view": 0
  },
  {
    "link_thumb": "https://live.staticflickr.com/65535/49891711002_af9876c378_n.jpg",
    "id_album": "1795407418",
    "description": "2009_rv_Porsche_rv_Cayman_rv_S_rv_Sport_rv_V1_rv_1440",
    "title": "2009_rv_Porsche_rv_Cayman_rv_S_rv_Sport_rv_V1_rv_1440",
    "link_img": "https://live.staticflickr.com/65535/49891711002_45bc76371a_o.jpg",
    "id_image": "2009_rv_Porsche_rv_Cayman_rv_S_rv_Sport_rv_V1_rv_1440",
    "count_view": 0
  },
  {
    "link_thumb": "https://live.staticflickr.com/65535/49890298677_fddebbbb24_n.jpg",
    "id_album": "-1191355745",
    "description": "2017_rv_Jaguar_rv_F_rv_Type_rv_SVR_rv_V5_rv_2000",
    "title": "2017_rv_Jaguar_rv_F_rv_Type_rv_SVR_rv_V5_rv_2000",
    "link_img": "https://live.staticflickr.com/65535/49890298677_9ca5be4388_o.jpg",
    "id_image": "2017_rv_Jaguar_rv_F_rv_Type_rv_SVR_rv_V5_rv_2000",
    "count_view": 0
  },
  {
    "link_thumb": "https://live.staticflickr.com/65535/49889406383_0e3b56897c_n.jpg",
    "id_album": "-2000594684",
    "description": "2007_rv_Holden_rv_HSV_rv_E_rv_Series_rv_V6_rv_1536",
    "title": "2007_rv_Holden_rv_HSV_rv_E_rv_Series_rv_V6_rv_1536",
    "link_img": "https://live.staticflickr.com/65535/49889406383_20754e2506_o.jpg",
    "id_image": "2007_rv_Holden_rv_HSV_rv_E_rv_Series_rv_V6_rv_1536",
    "count_view": 0
  },
  {
    "link_thumb": "https://live.staticflickr.com/65535/48114078711_2aaf946061_n.jpg",
    "id_album": "-1721545051",
    "description": "Chevrolet_294898",
    "title": "Chevrolet_294898",
    "link_img": "https://live.staticflickr.com/65535/48114078711_7bca4955e7_o.jpg",
    "id_image": "Chevrolet_294898",
    "count_view": 0
  },
  {
    "link_thumb": "https://live.staticflickr.com/65535/49892723942_67449c7547_n.jpg",
    "id_album": "874272507",
    "description": "2013_rv_Subaru_rv_BRZ_rv_V3_rv_1440",
    "title": "2013_rv_Subaru_rv_BRZ_rv_V3_rv_1440",
    "link_img": "https://live.staticflickr.com/65535/49892723942_130c3d648c_o.jpg",
    "id_image": "2013_rv_Subaru_rv_BRZ_rv_V3_rv_1440",
    "count_view": 0
  },
  {
    "link_thumb": "https://live.staticflickr.com/65535/48119565148_c22646e355_n.jpg",
    "id_album": "-731054311",
    "description": "MercedesBenz_257261",
    "title": "MercedesBenz_257261",
    "link_img": "https://live.staticflickr.com/65535/48119565148_8dcf16d14b_o.jpg",
    "id_image": "MercedesBenz_257261",
    "count_view": 0
  },
  {
    "link_thumb": "https://live.staticflickr.com/65535/48119257332_6cf0b47b62_n.jpg",
    "id_album": "697984456",
    "description": "Maserati_970948",
    "title": "Maserati_970948",
    "link_img": "https://live.staticflickr.com/65535/48119257332_a400f4db59_o.jpg",
    "id_image": "Maserati_970948",
    "count_view": 0
  },
  {
    "link_thumb": "https://live.staticflickr.com/65535/48123101337_dba322fde2_n.jpg",
    "id_album": "-150952028",
    "description": "Volkswagen_630722",
    "title": "Volkswagen_630722",
    "link_img": "https://live.staticflickr.com/65535/48123101337_5cbbc93f92_o.jpg",
    "id_image": "Volkswagen_630722",
    "count_view": 0
  },
  {
    "link_thumb": "https://live.staticflickr.com/65535/48116408517_d99228b66d_n.jpg",
    "id_album": "1364506720",
    "description": "Ferrari_81511",
    "title": "Ferrari_81511",
    "link_img": "https://live.staticflickr.com/65535/48116408517_160470b7f0_o.jpg",
    "id_image": "Ferrari_81511",
    "count_view": 0
  },
  {
    "link_thumb": "https://live.staticflickr.com/65535/49889611258_b21a59f3d7_n.jpg",
    "id_album": "-1060727199",
    "description": "1990_rv_Lamborghini_rv_Diablo_rv_V3_rv_2160",
    "title": "1990_rv_Lamborghini_rv_Diablo_rv_V3_rv_2160",
    "link_img": "https://live.staticflickr.com/65535/49889611258_6a147e8530_o.jpg",
    "id_image": "1990_rv_Lamborghini_rv_Diablo_rv_V3_rv_2160",
    "count_view": 0
  },
  {
    "link_thumb": "https://live.staticflickr.com/65535/48118338637_0737ffe407_n.jpg",
    "id_album": "-2100339805",
    "description": "Lamborghini_230092",
    "title": "Lamborghini_230092",
    "link_img": "https://live.staticflickr.com/65535/48118338637_d9de7d023c_o.jpg",
    "id_image": "Lamborghini_230092",
    "count_view": 0
  },
  {
    "link_thumb": "https://live.staticflickr.com/65535/48114193633_53e1e0084e_n.jpg",
    "id_album": "-1721545051",
    "description": "Chevrolet_377422",
    "title": "Chevrolet_377422",
    "link_img": "https://live.staticflickr.com/65535/48114193633_2169cdacec_o.jpg",
    "id_image": "Chevrolet_377422",
    "count_view": 0
  },
  {
    "link_thumb": "https://live.staticflickr.com/65535/48115873628_1e592ac3fd_n.jpg",
    "id_album": "1364506720",
    "description": "Ferrari_317921",
    "title": "Ferrari_317921",
    "link_img": "https://live.staticflickr.com/65535/48115873628_1aae8a482b_o.jpg",
    "id_image": "Ferrari_317921",
    "count_view": 0
  },
  {
    "link_thumb": "https://live.staticflickr.com/65535/48112522521_ab5f16c528_n.jpg",
    "id_album": "2097036181",
    "description": "Bentley_454607",
    "title": "Bentley_454607",
    "link_img": "https://live.staticflickr.com/65535/48112522521_a04edd5950_o.jpg",
    "id_image": "Bentley_454607",
    "count_view": 0
  },
  {
    "link_thumb": "https://live.staticflickr.com/65535/49889405772_2fe44a2ebf_n.jpg",
    "id_album": "-1839907838",
    "description": "1995_rv_BMW_rv_M5_rv_V5_rv_1536",
    "title": "1995_rv_BMW_rv_M5_rv_V5_rv_1536",
    "link_img": "https://live.staticflickr.com/65535/49889405772_d13352c590_o.jpg",
    "id_image": "1995_rv_BMW_rv_M5_rv_V5_rv_1536",
    "count_view": 0
  },
  {
    "link_thumb": "https://live.staticflickr.com/65535/48118030317_55bb8b2073_n.jpg",
    "id_album": "427416146",
    "description": "Hummer_205663",
    "title": "Hummer_205663",
    "link_img": "https://live.staticflickr.com/65535/48118030317_2e7a22e3c0_o.jpg",
    "id_image": "Hummer_205663",
    "count_view": 0
  },
  {
    "link_thumb": "https://live.staticflickr.com/65535/48117302323_c31b8ca261_n.jpg",
    "id_album": "-1846404630",
    "description": "Ford_485691",
    "title": "Ford_485691",
    "link_img": "https://live.staticflickr.com/65535/48117302323_0ceebcb989_o.jpg",
    "id_image": "Ford_485691",
    "count_view": 0
  },
  {
    "link_thumb": "https://live.staticflickr.com/65535/49889808356_581101f5b8_n.jpg",
    "id_album": "-51494743",
    "description": "2019_rv_Porsche_rv_911_rv_GT2_rv_RS_rv_Clubsport_rv_V8_rv_2160",
    "title": "2019_rv_Porsche_rv_911_rv_GT2_rv_RS_rv_Clubsport_rv_V8_rv_2160",
    "link_img": "https://live.staticflickr.com/65535/49889808356_cf8a84282b_o.jpg",
    "id_image": "2019_rv_Porsche_rv_911_rv_GT2_rv_RS_rv_Clubsport_rv_V8_rv_2160",
    "count_view": 0
  },
  {
    "link_thumb": "https://live.staticflickr.com/65535/48116740652_67cc6db5d9_n.jpg",
    "id_album": "-1846404630",
    "description": "Ford_173270",
    "title": "Ford_173270",
    "link_img": "https://live.staticflickr.com/65535/48116740652_9deb497528_o.jpg",
    "id_image": "Ford_173270",
    "count_view": 0
  },
  {
    "link_thumb": "https://live.staticflickr.com/65535/48116979442_009aa8da72_n.jpg",
    "id_album": "-1846404630",
    "description": "Ford_255426",
    "title": "Ford_255426",
    "link_img": "https://live.staticflickr.com/65535/48116979442_8893483380_o.jpg",
    "id_image": "Ford_255426",
    "count_view": 0
  },
  {
    "link_thumb": "https://live.staticflickr.com/65535/48112218512_e4197b1f22_n.jpg",
    "id_album": "1546790746",
    "description": "AstonMartin_382135",
    "title": "AstonMartin_382135",
    "link_img": "https://live.staticflickr.com/65535/48112218512_50f6eedaef_o.jpg",
    "id_image": "AstonMartin_382135",
    "count_view": 0
  },
  {
    "link_thumb": "https://live.staticflickr.com/65535/48117867742_1ac5aa60d4_n.jpg",
    "id_album": "-354267407",
    "description": "Honda_318386",
    "title": "Honda_318386",
    "link_img": "https://live.staticflickr.com/65535/48117867742_14e37a7d6d_o.jpg",
    "id_image": "Honda_318386",
    "count_view": 0
  },
  {
    "link_thumb": "https://live.staticflickr.com/65535/48113925038_ed1a4c0069_n.jpg",
    "id_album": "-1721545051",
    "description": "Chevrolet_250799",
    "title": "Chevrolet_250799",
    "link_img": "https://live.staticflickr.com/65535/48113925038_7941d0e4c4_o.jpg",
    "id_image": "Chevrolet_250799",
    "count_view": 0
  },
  {
    "link_thumb": "https://live.staticflickr.com/65535/48121658612_b00d27c808_n.jpg",
    "id_album": "-1178450892",
    "description": "Porsche_697156",
    "title": "Porsche_697156",
    "link_img": "https://live.staticflickr.com/65535/48121658612_1bb6f75d56_o.jpg",
    "id_image": "Porsche_697156",
    "count_view": 0
  },
  {
    "link_thumb": "https://live.staticflickr.com/65535/48113630951_2feccf478f_n.jpg",
    "id_album": "-1721545051",
    "description": "Chevrolet_150401",
    "title": "Chevrolet_150401",
    "link_img": "https://live.staticflickr.com/65535/48113630951_3558cd56a8_o.jpg",
    "id_image": "Chevrolet_150401",
    "count_view": 0
  },
  {
    "link_thumb": "https://live.staticflickr.com/65535/48115894912_b2bd79f8eb_n.jpg",
    "id_album": "1364506720",
    "description": "Ferrari_317791",
    "title": "Ferrari_317791",
    "link_img": "https://live.staticflickr.com/65535/48115894912_25c0a4bc43_o.jpg",
    "id_image": "Ferrari_317791",
    "count_view": 0
  },
  {
    "link_thumb": "https://live.staticflickr.com/65535/48116188343_508eba694b_n.jpg",
    "id_album": "1364506720",
    "description": "Ferrari_697315",
    "title": "Ferrari_697315",
    "link_img": "https://live.staticflickr.com/65535/48116188343_3cccd8266e_o.jpg",
    "id_image": "Ferrari_697315",
    "count_view": 0
  },
  {
    "link_thumb": "https://live.staticflickr.com/65535/48113195131_0fd0cd806e_n.jpg",
    "id_album": "727633301",
    "description": "BMW_912846",
    "title": "BMW_912846",
    "link_img": "https://live.staticflickr.com/65535/48113195131_39c9836be3_o.jpg",
    "id_image": "BMW_912846",
    "count_view": 0
  },
  {
    "link_thumb": "https://live.staticflickr.com/65535/48114878752_ef0838a456_n.jpg",
    "id_album": "939606447",
    "description": "Chrysler_624549",
    "title": "Chrysler_624549",
    "link_img": "https://live.staticflickr.com/65535/48114878752_078f02f04c_o.jpg",
    "id_image": "Chrysler_624549",
    "count_view": 0
  },
  {
    "link_thumb": "https://live.staticflickr.com/65535/49892154696_b0ac49e2fb_n.jpg",
    "id_album": "-1890503075",
    "description": "2012_rv_Porsche_rv_Panamera_rv_Sport_rv_Turismo_rv_Concept_rv_V9_rv_1600",
    "title": "2012_rv_Porsche_rv_Panamera_rv_Sport_rv_Turismo_rv_Concept_rv_V9_rv_1600",
    "link_img": "https://live.staticflickr.com/65535/49892154696_6b31c91bcb_o.jpg",
    "id_image": "2012_rv_Porsche_rv_Panamera_rv_Sport_rv_Turismo_rv_Concept_rv_V9_rv_1600",
    "count_view": 0
  },
  {
    "link_thumb": "https://live.staticflickr.com/65535/48117218203_673cce2bc2_n.jpg",
    "id_album": "-1846404630",
    "description": "Ford_444638",
    "title": "Ford_444638",
    "link_img": "https://live.staticflickr.com/65535/48117218203_8a80424abf_o.jpg",
    "id_image": "Ford_444638",
    "count_view": 0
  },
  {
    "link_thumb": "https://live.staticflickr.com/65535/48123209156_727b02411e_n.jpg",
    "id_album": "1159292543",
    "description": "Volvo_990962",
    "title": "Volvo_990962",
    "link_img": "https://live.staticflickr.com/65535/48123209156_6543fa86c0_o.jpg",
    "id_image": "Volvo_990962",
    "count_view": 0
  },
  {
    "link_thumb": "https://live.staticflickr.com/65535/48119853947_a077c1e9f3_n.jpg",
    "id_album": "-731054311",
    "description": "MercedesBenz_736455",
    "title": "MercedesBenz_736455",
    "link_img": "https://live.staticflickr.com/65535/48119853947_955ce6ef76_o.jpg",
    "id_image": "MercedesBenz_736455",
    "count_view": 0
  },
  {
    "link_thumb": "https://live.staticflickr.com/65535/48120021766_4cf085cb94_n.jpg",
    "id_album": "-1116477526",
    "description": "Mitsubishi_257425",
    "title": "Mitsubishi_257425",
    "link_img": "https://live.staticflickr.com/65535/48120021766_519fd12c16_o.jpg",
    "id_image": "Mitsubishi_257425",
    "count_view": 0
  },
  {
    "link_thumb": "https://live.staticflickr.com/65535/49889767837_054cb81af6_n.jpg",
    "id_album": "1828854320",
    "description": "2003_rv_Ferrari_rv_360_rv_Challenge_rv_Stradale_rv_V12_rv_1600",
    "title": "2003_rv_Ferrari_rv_360_rv_Challenge_rv_Stradale_rv_V12_rv_1600",
    "link_img": "https://live.staticflickr.com/65535/49889767837_ff79932c8f_o.jpg",
    "id_image": "2003_rv_Ferrari_rv_360_rv_Challenge_rv_Stradale_rv_V12_rv_1600",
    "count_view": 0
  },
  {
    "link_thumb": "https://live.staticflickr.com/65535/49889269491_3dbbf71048_n.jpg",
    "id_album": "-10315880",
    "description": "2016_rv_Cadillac_rv_ATS_rv_V_rv_Coupe_rv_V7_rv_1600",
    "title": "2016_rv_Cadillac_rv_ATS_rv_V_rv_Coupe_rv_V7_rv_1600",
    "link_img": "https://live.staticflickr.com/65535/49889269491_120c4dc4ac_o.jpg",
    "id_image": "2016_rv_Cadillac_rv_ATS_rv_V_rv_Coupe_rv_V7_rv_1600",
    "count_view": 0
  },
  {
    "link_thumb": "https://live.staticflickr.com/65535/48122365851_1c09a5582a_n.jpg",
    "id_album": "422322641",
    "description": "Subaru_190888",
    "title": "Subaru_190888",
    "link_img": "https://live.staticflickr.com/65535/48122365851_1d3c6fc8a2_o.jpg",
    "id_image": "Subaru_190888",
    "count_view": 0
  },
  {
    "link_thumb": "https://live.staticflickr.com/65535/48115207071_5cacd31f4d_n.jpg",
    "id_album": "413141323",
    "description": "Dodge_397124",
    "title": "Dodge_397124",
    "link_img": "https://live.staticflickr.com/65535/48115207071_25d54b32ba_o.jpg",
    "id_image": "Dodge_397124",
    "count_view": 0
  },
  {
    "link_thumb": "https://live.staticflickr.com/65535/49888508363_68085e0a62_n.jpg",
    "id_album": "788591821",
    "description": "2007_rv_Bentley_rv_Arnage_rv_V1_rv_1536",
    "title": "2007_rv_Bentley_rv_Arnage_rv_V1_rv_1536",
    "link_img": "https://live.staticflickr.com/65535/49888508363_df72940336_o.jpg",
    "id_image": "2007_rv_Bentley_rv_Arnage_rv_V1_rv_1536",
    "count_view": 0
  },
  {
    "link_thumb": "https://live.staticflickr.com/65535/49892727617_7590e2f113_n.jpg",
    "id_album": "1968261195",
    "description": "2017_rv_Subaru_rv_Viziv_rv_Performance_rv_Concept_rv_V1_rv_2000",
    "title": "2017_rv_Subaru_rv_Viziv_rv_Performance_rv_Concept_rv_V1_rv_2000",
    "link_img": "https://live.staticflickr.com/65535/49892727617_ef4afced5b_o.jpg",
    "id_image": "2017_rv_Subaru_rv_Viziv_rv_Performance_rv_Concept_rv_V1_rv_2000",
    "count_view": 0
  },
  {
    "link_thumb": "https://live.staticflickr.com/65535/49890349286_2254e5c502_n.jpg",
    "id_album": "1503378901",
    "description": "2007_rv_Lotus_rv_2_rv_Eleven_rv_V2_rv_1440",
    "title": "2007_rv_Lotus_rv_2_rv_Eleven_rv_V2_rv_1440",
    "link_img": "https://live.staticflickr.com/65535/49890349286_1d704fa0c2_o.jpg",
    "id_image": "2007_rv_Lotus_rv_2_rv_Eleven_rv_V2_rv_1440",
    "count_view": 0
  },
  {
    "link_thumb": "https://live.staticflickr.com/65535/49892070583_5851835bac_n.jpg",
    "id_album": "-1220388988",
    "description": "2020_rv_Audi_rv_R8_rv_V10_rv_RWD_rv_V10_rv_2160",
    "title": "2020_rv_Audi_rv_R8_rv_V10_rv_RWD_rv_V10_rv_2160",
    "link_img": "https://live.staticflickr.com/65535/49892070583_e30bb5dec1_o.jpg",
    "id_image": "2020_rv_Audi_rv_R8_rv_V10_rv_RWD_rv_V10_rv_2160",
    "count_view": 0
  },
  {
    "link_thumb": "https://live.staticflickr.com/65535/48115263626_c0772c5752_n.jpg",
    "id_album": "413141323",
    "description": "Dodge_454019",
    "title": "Dodge_454019",
    "link_img": "https://live.staticflickr.com/65535/48115263626_4289baa0d1_o.jpg",
    "id_image": "Dodge_454019",
    "count_view": 0
  },
  {
    "link_thumb": "https://live.staticflickr.com/65535/48122922851_2e0dba9e6e_n.jpg",
    "id_album": "-150952028",
    "description": "Volkswagen_329521",
    "title": "Volkswagen_329521",
    "link_img": "https://live.staticflickr.com/65535/48122922851_37009e43ef_o.jpg",
    "id_image": "Volkswagen_329521",
    "count_view": 0
  },
  {
    "link_thumb": "https://live.staticflickr.com/65535/48115416953_e3f81d905c_n.jpg",
    "id_album": "413141323",
    "description": "Dodge_512413",
    "title": "Dodge_512413",
    "link_img": "https://live.staticflickr.com/65535/48115416953_f02dbdb8ef_o.jpg",
    "id_image": "Dodge_512413",
    "count_view": 0
  },
  {
    "link_thumb": "https://live.staticflickr.com/65535/49890768373_931472d736_n.jpg",
    "id_album": "-741950554",
    "description": "2013_rv_Peugeot_rv_RCZ_rv_V1_rv_1440",
    "title": "2013_rv_Peugeot_rv_RCZ_rv_V1_rv_1440",
    "link_img": "https://live.staticflickr.com/65535/49890768373_34bb160d20_o.jpg",
    "id_image": "2013_rv_Peugeot_rv_RCZ_rv_V1_rv_1440",
    "count_view": 0
  },
  {
    "link_thumb": "https://live.staticflickr.com/65535/48112136863_e847ded4f8_n.jpg",
    "id_album": "-1072797263",
    "description": "AstonMartin_253565",
    "title": "AstonMartin_253565",
    "link_img": "https://live.staticflickr.com/65535/48112136863_3c0b7ba20c_o.jpg",
    "id_image": "AstonMartin_253565",
    "count_view": 0
  },
  {
    "link_thumb": "https://live.staticflickr.com/65535/49892676546_76a2b99425_n.jpg",
    "id_album": "462363805",
    "description": "2018_rv_Volkswagen_rv_Up_rv_GTI_rv_V4_rv_2000",
    "title": "2018_rv_Volkswagen_rv_Up_rv_GTI_rv_V4_rv_2000",
    "link_img": "https://live.staticflickr.com/65535/49892676546_7c22bbbc9a_o.jpg",
    "id_image": "2018_rv_Volkswagen_rv_Up_rv_GTI_rv_V4_rv_2000",
    "count_view": 0
  },
  {
    "link_thumb": "https://live.staticflickr.com/65535/48118306602_95a92d0642_n.jpg",
    "id_album": "1911063798",
    "description": "Koenigsegg_844293",
    "title": "Koenigsegg_844293",
    "link_img": "https://live.staticflickr.com/65535/48118306602_fe659c991f_o.jpg",
    "id_image": "Koenigsegg_844293",
    "count_view": 0
  },
  {
    "link_thumb": "https://live.staticflickr.com/65535/48118213453_886391909e_n.jpg",
    "id_album": "-625217782",
    "description": "Kia_964842",
    "title": "Kia_964842",
    "link_img": "https://live.staticflickr.com/65535/48118213453_b4f95c00e7_o.jpg",
    "id_image": "Kia_964842",
    "count_view": 0
  },
  {
    "link_thumb": "https://live.staticflickr.com/65535/48118642138_36d8a02d09_n.jpg",
    "id_album": "-2100339805",
    "description": "Lamborghini_827574",
    "title": "Lamborghini_827574",
    "link_img": "https://live.staticflickr.com/65535/48118642138_425408aa1d_o.jpg",
    "id_image": "Lamborghini_827574",
    "count_view": 0
  },
  {
    "link_thumb": "https://live.staticflickr.com/65535/48122860596_7ac02d0e7c_n.jpg",
    "id_album": "-150952028",
    "description": "Volkswagen_220167",
    "title": "Volkswagen_220167",
    "link_img": "https://live.staticflickr.com/65535/48122860596_7cfd5a1bfd_o.jpg",
    "id_image": "Volkswagen_220167",
    "count_view": 0
  },
  {
    "link_thumb": "https://live.staticflickr.com/65535/48116596822_de0526ede9_n.jpg",
    "id_album": "-803737857",
    "description": "Fiat_948335",
    "title": "Fiat_948335",
    "link_img": "https://live.staticflickr.com/65535/48116596822_d98360869a_o.jpg",
    "id_image": "Fiat_948335",
    "count_view": 0
  },
  {
    "link_thumb": "https://live.staticflickr.com/65535/48117441951_b16d333ef8_n.jpg",
    "id_album": "-1846404630",
    "description": "Ford_742600",
    "title": "Ford_742600",
    "link_img": "https://live.staticflickr.com/65535/48117441951_09b6e22168_o.jpg",
    "id_image": "Ford_742600",
    "count_view": 0
  },
  {
    "link_thumb": "https://live.staticflickr.com/65535/48113103167_a0ba1cc0a7_n.jpg",
    "id_album": "727633301",
    "description": "BMW_684110",
    "title": "BMW_684110",
    "link_img": "https://live.staticflickr.com/65535/48113103167_412c39f443_o.jpg",
    "id_image": "BMW_684110",
    "count_view": 0
  },
  {
    "link_thumb": "https://live.staticflickr.com/65535/49890435488_4c305084b1_n.jpg",
    "id_album": "-353804760",
    "description": "2019_rv_Mini_rv_John_rv_Cooper_rv_Works_rv_V3_rv_2000",
    "title": "2019_rv_Mini_rv_John_rv_Cooper_rv_Works_rv_V3_rv_2000",
    "link_img": "https://live.staticflickr.com/65535/49890435488_c18dc8d36f_o.jpg",
    "id_image": "2019_rv_Mini_rv_John_rv_Cooper_rv_Works_rv_V3_rv_2000",
    "count_view": 0
  },
  {
    "link_thumb": "https://live.staticflickr.com/65535/48120759651_64aaf05930_n.jpg",
    "id_album": "1952909762",
    "description": "Packard_741852",
    "title": "Packard_741852",
    "link_img": "https://live.staticflickr.com/65535/48120759651_4a8cd4822f_o.jpg",
    "id_image": "Packard_741852",
    "count_view": 0
  },
  {
    "link_thumb": "https://live.staticflickr.com/65535/48113921317_282926ff06_n.jpg",
    "id_album": "-1721545051",
    "description": "Chevrolet_217879",
    "title": "Chevrolet_217879",
    "link_img": "https://live.staticflickr.com/65535/48113921317_515b84a7bd_o.jpg",
    "id_image": "Chevrolet_217879",
    "count_view": 0
  },
  {
    "link_thumb": "https://live.staticflickr.com/65535/49889147386_7490851e26_n.jpg",
    "id_album": "357418516",
    "description": "2019_rv_Alpina_rv_B3_rv_Touring_rv_V6_rv_2160",
    "title": "2019_rv_Alpina_rv_B3_rv_Touring_rv_V6_rv_2160",
    "link_img": "https://live.staticflickr.com/65535/49889147386_a7b6cf6e31_o.jpg",
    "id_image": "2019_rv_Alpina_rv_B3_rv_Touring_rv_V6_rv_2160",
    "count_view": 0
  },
  {
    "link_thumb": "https://live.staticflickr.com/65535/48112975611_552e257ee3_n.jpg",
    "id_album": "727633301",
    "description": "BMW_549544",
    "title": "BMW_549544",
    "link_img": "https://live.staticflickr.com/65535/48112975611_0af03bbe96_o.jpg",
    "id_image": "BMW_549544",
    "count_view": 0
  },
  {
    "link_thumb": "https://live.staticflickr.com/65535/49892502007_f50e3e6e71_n.jpg",
    "id_album": "-461005169",
    "description": "2015_rv_Nissan_rv_GT_rv_R_rv_Nismo_rv_V12_rv_1600",
    "title": "2015_rv_Nissan_rv_GT_rv_R_rv_Nismo_rv_V12_rv_1600",
    "link_img": "https://live.staticflickr.com/65535/49892502007_de08070c01_o.jpg",
    "id_image": "2015_rv_Nissan_rv_GT_rv_R_rv_Nismo_rv_V12_rv_1600",
    "count_view": 0
  },
  {
    "link_thumb": "https://live.staticflickr.com/65535/49890609072_03fbba1e77_n.jpg",
    "id_album": "-1227226245",
    "description": "2012_rv_Lexus_rv_LFA_rv_Nurburgring_rv_Edition_rv_V1_rv_1440",
    "title": "2012_rv_Lexus_rv_LFA_rv_Nurburgring_rv_Edition_rv_V1_rv_1440",
    "link_img": "https://live.staticflickr.com/65535/49890609072_f609bbffb1_o.jpg",
    "id_image": "2012_rv_Lexus_rv_LFA_rv_Nurburgring_rv_Edition_rv_V1_rv_1440",
    "count_view": 0
  },
  {
    "link_thumb": "https://live.staticflickr.com/65535/48112173138_7346cd3f2a_n.jpg",
    "id_album": "-1072797263",
    "description": "AstonMartin_469323",
    "title": "AstonMartin_469323",
    "link_img": "https://live.staticflickr.com/65535/48112173138_338610f0dc_o.jpg",
    "id_image": "AstonMartin_469323",
    "count_view": 0
  },
  {
    "link_thumb": "https://live.staticflickr.com/65535/48121738921_db164f1f9b_n.jpg",
    "id_album": "-1178450892",
    "description": "Porsche_929326",
    "title": "Porsche_929326",
    "link_img": "https://live.staticflickr.com/65535/48121738921_b958df7368_o.jpg",
    "id_image": "Porsche_929326",
    "count_view": 0
  },
  {
    "link_thumb": "https://live.staticflickr.com/65535/48120328383_07130d3815_n.jpg",
    "id_album": "666438681",
    "description": "Motorcycles_984270",
    "title": "Motorcycles_984270",
    "link_img": "https://live.staticflickr.com/65535/48120328383_96a5481d75_o.jpg",
    "id_image": "Motorcycles_984270",
    "count_view": 0
  },
  {
    "link_thumb": "https://live.staticflickr.com/65535/48121654792_c02bd1756b_n.jpg",
    "id_album": "-1178450892",
    "description": "Porsche_694415",
    "title": "Porsche_694415",
    "link_img": "https://live.staticflickr.com/65535/48121654792_6ae1b502d6_o.jpg",
    "id_image": "Porsche_694415",
    "count_view": 0
  },
  {
    "link_thumb": "https://live.staticflickr.com/65535/48122638132_5c3367f40e_n.jpg",
    "id_album": "1645818674",
    "description": "Suzuki_825114",
    "title": "Suzuki_825114",
    "link_img": "https://live.staticflickr.com/65535/48122638132_2f4c7ce1fa_o.jpg",
    "id_image": "Suzuki_825114",
    "count_view": 0
  },
  {
    "link_thumb": "https://live.staticflickr.com/65535/48120793807_dc1a0a2a4c_n.jpg",
    "id_album": "1952909762",
    "description": "Packard_402822",
    "title": "Packard_402822",
    "link_img": "https://live.staticflickr.com/65535/48120793807_705fabebf1_o.jpg",
    "id_image": "Packard_402822",
    "count_view": 0
  },
  {
    "link_thumb": "https://live.staticflickr.com/65535/49891229007_7f17155947_n.jpg",
    "id_album": "-2129417883",
    "description": "2013_rv_Mercedes_rv_Benz_rv_SLS_rv_AMG_rv_GT3_rv_45th_rv_Anniversary_rv_V10_rv_1440",
    "title": "2013_rv_Mercedes_rv_Benz_rv_SLS_rv_AMG_rv_GT3_rv_45th_rv_Anniversary_rv_V10_rv_1440",
    "link_img": "https://live.staticflickr.com/65535/49891229007_d73fd0e627_o.jpg",
    "id_image": "2013_rv_Mercedes_rv_Benz_rv_SLS_rv_AMG_rv_GT3_rv_45th_rv_Anniversary_rv_V10_rv_1440",
    "count_view": 0
  },
  {
    "link_thumb": "https://live.staticflickr.com/65535/48115255103_e23e094fc2_n.jpg",
    "id_album": "413141323",
    "description": "Dodge_417855",
    "title": "Dodge_417855",
    "link_img": "https://live.staticflickr.com/65535/48115255103_ae9bf20f5c_o.jpg",
    "id_image": "Dodge_417855",
    "count_view": 0
  },
  {
    "link_thumb": "https://live.staticflickr.com/65535/48122447193_f9c4f24315_n.jpg",
    "id_album": "422322641",
    "description": "Subaru_319301",
    "title": "Subaru_319301",
    "link_img": "https://live.staticflickr.com/65535/48122447193_fae9574f88_o.jpg",
    "id_image": "Subaru_319301",
    "count_view": 0
  },
  {
    "link_thumb": "https://live.staticflickr.com/65535/48121922052_d27c0fb63d_n.jpg",
    "id_album": "-1178450892",
    "description": "Porsche_989950",
    "title": "Porsche_989950",
    "link_img": "https://live.staticflickr.com/65535/48121922052_fb47b5f0cd_o.jpg",
    "id_image": "Porsche_989950",
    "count_view": 0
  },
  {
    "link_thumb": "https://live.staticflickr.com/65535/49891961233_f2984827b3_n.jpg",
    "id_album": "746165216",
    "description": "2015_rv_Toyota_rv_86_rv_Style_rv_Cb_rv_V3_rv_1600",
    "title": "2015_rv_Toyota_rv_86_rv_Style_rv_Cb_rv_V3_rv_1600",
    "link_img": "https://live.staticflickr.com/65535/49891961233_eb9b93dff5_o.jpg",
    "id_image": "2015_rv_Toyota_rv_86_rv_Style_rv_Cb_rv_V3_rv_1600",
    "count_view": 0
  },
  {
    "link_thumb": "https://live.staticflickr.com/65535/48115259102_a83f3e74d5_n.jpg",
    "id_album": "413141323",
    "description": "Dodge_317637",
    "title": "Dodge_317637",
    "link_img": "https://live.staticflickr.com/65535/48115259102_7f1a1c3f47_o.jpg",
    "id_image": "Dodge_317637",
    "count_view": 0
  },
  {
    "link_thumb": "https://live.staticflickr.com/65535/49888904116_0e524bb00a_n.jpg",
    "id_album": "1357324670",
    "description": "2011_rv_Aston_rv_Martin_rv_Virage_rv_V1_rv_1536",
    "title": "2011_rv_Aston_rv_Martin_rv_Virage_rv_V1_rv_1536",
    "link_img": "https://live.staticflickr.com/65535/49888904116_b781b755af_o.jpg",
    "id_image": "2011_rv_Aston_rv_Martin_rv_Virage_rv_V1_rv_1536",
    "count_view": 0
  },
  {
    "link_thumb": "https://live.staticflickr.com/65535/48121162133_51608b18d9_n.jpg",
    "id_album": "-2099496752",
    "description": "Pontiac_339927",
    "title": "Pontiac_339927",
    "link_img": "https://live.staticflickr.com/65535/48121162133_4d634819dd_o.jpg",
    "id_image": "Pontiac_339927",
    "count_view": 0
  },
  {
    "link_thumb": "https://live.staticflickr.com/65535/49889386491_58b7edf3b3_n.jpg",
    "id_album": "-1198813712",
    "description": "2017_rv_Formula1_rv_McLaren_rv_MCL32_rv_V3_rv_2000",
    "title": "2017_rv_Formula1_rv_McLaren_rv_MCL32_rv_V3_rv_2000",
    "link_img": "https://live.staticflickr.com/65535/49889386491_49930e518d_o.jpg",
    "id_image": "2017_rv_Formula1_rv_McLaren_rv_MCL32_rv_V3_rv_2000",
    "count_view": 0
  },
  {
    "link_thumb": "https://live.staticflickr.com/65535/48118789093_1676620bd0_n.jpg",
    "id_album": "-2100339805",
    "description": "Lamborghini_996443",
    "title": "Lamborghini_996443",
    "link_img": "https://live.staticflickr.com/65535/48118789093_2dc0de11d3_o.jpg",
    "id_image": "Lamborghini_996443",
    "count_view": 0
  },
  {
    "link_thumb": "https://live.staticflickr.com/65535/48121023153_8bc2d5ba74_n.jpg",
    "id_album": "-1123679742",
    "description": "Plymouth_293700",
    "title": "Plymouth_293700",
    "link_img": "https://live.staticflickr.com/65535/48121023153_d43ef54ca1_o.jpg",
    "id_image": "Plymouth_293700",
    "count_view": 0
  },
  {
    "link_thumb": "https://live.staticflickr.com/65535/48122068382_8d8fd862d7_n.jpg",
    "id_album": "-1217333387",
    "description": "Renault_250440",
    "title": "Renault_250440",
    "link_img": "https://live.staticflickr.com/65535/48122068382_4981968621_o.jpg",
    "id_image": "Renault_250440",
    "count_view": 0
  },
  {
    "link_thumb": "https://live.staticflickr.com/65535/48119551653_35f80ed6db_n.jpg",
    "id_album": "-731054311",
    "description": "MercedesBenz_257174",
    "title": "MercedesBenz_257174",
    "link_img": "https://live.staticflickr.com/65535/48119551653_c3e93a6b23_o.jpg",
    "id_image": "MercedesBenz_257174",
    "count_view": 0
  },
  {
    "link_thumb": "https://live.staticflickr.com/65535/48120174813_f3c0f84324_n.jpg",
    "id_album": "666438681",
    "description": "Motorcycles_187999",
    "title": "Motorcycles_187999",
    "link_img": "https://live.staticflickr.com/65535/48120174813_ebca92b32d_o.jpg",
    "id_image": "Motorcycles_187999",
    "count_view": 0
  },
  {
    "link_thumb": "https://live.staticflickr.com/65535/48121822821_903fc91eae_n.jpg",
    "id_album": "-1178450892",
    "description": "Porsche_984632",
    "title": "Porsche_984632",
    "link_img": "https://live.staticflickr.com/65535/48121822821_b98e196ab0_o.jpg",
    "id_image": "Porsche_984632",
    "count_view": 0
  },
  {
    "link_thumb": "https://live.staticflickr.com/65535/48121534037_b600a990d4_n.jpg",
    "id_album": "-1178450892",
    "description": "Porsche_550949",
    "title": "Porsche_550949",
    "link_img": "https://live.staticflickr.com/65535/48121534037_320b3b0eb7_o.jpg",
    "id_image": "Porsche_550949",
    "count_view": 0
  },
  {
    "link_thumb": "https://live.staticflickr.com/65535/49890428751_286e2a7109_n.jpg",
    "id_album": "-1470719774",
    "description": "2009_rv_Maserati_rv_Gran_rv_Turismo_rv_S_rv_V2_rv_1440",
    "title": "2009_rv_Maserati_rv_Gran_rv_Turismo_rv_S_rv_V2_rv_1440",
    "link_img": "https://live.staticflickr.com/65535/49890428751_8da3337c67_o.jpg",
    "id_image": "2009_rv_Maserati_rv_Gran_rv_Turismo_rv_S_rv_V2_rv_1440",
    "count_view": 0
  },
  {
    "link_thumb": "https://live.staticflickr.com/65535/48121442931_e252024ca5_n.jpg",
    "id_album": "-1178450892",
    "description": "Porsche_550936",
    "title": "Porsche_550936",
    "link_img": "https://live.staticflickr.com/65535/48121442931_02600dae8e_o.jpg",
    "id_image": "Porsche_550936",
    "count_view": 0
  },
  {
    "link_thumb": "https://live.staticflickr.com/65535/48116490203_07e4984126_n.jpg",
    "id_album": "-803737857",
    "description": "Fiat_255190",
    "title": "Fiat_255190",
    "link_img": "https://live.staticflickr.com/65535/48116490203_a49e89dfbc_o.jpg",
    "id_image": "Fiat_255190",
    "count_view": 0
  },
  {
    "link_thumb": "https://live.staticflickr.com/65535/48112636358_cdb23b2e16_n.jpg",
    "id_album": "727633301",
    "description": "BMW_107676",
    "title": "BMW_107676",
    "link_img": "https://live.staticflickr.com/65535/48112636358_570c30f586_o.jpg",
    "id_image": "BMW_107676",
    "count_view": 0
  },
  {
    "link_thumb": "https://live.staticflickr.com/65535/48122371076_f4d5b2e116_n.jpg",
    "id_album": "422322641",
    "description": "Subaru_200031",
    "title": "Subaru_200031",
    "link_img": "https://live.staticflickr.com/65535/48122371076_70fb02e53f_o.jpg",
    "id_image": "Subaru_200031",
    "count_view": 0
  },
  {
    "link_thumb": "https://live.staticflickr.com/65535/49892188886_194867f9e7_n.jpg",
    "id_album": "-461005169",
    "description": "2014_rv_Nissan_rv_GT_rv_R_rv_V9_rv_1600",
    "title": "2014_rv_Nissan_rv_GT_rv_R_rv_V9_rv_1600",
    "link_img": "https://live.staticflickr.com/65535/49892188886_d9beebe26b_o.jpg",
    "id_image": "2014_rv_Nissan_rv_GT_rv_R_rv_V9_rv_1600",
    "count_view": 0
  },
  {
    "link_thumb": "https://live.staticflickr.com/65535/48118849068_02d263309b_n.jpg",
    "id_album": "1234246491",
    "description": "LandRover_893191",
    "title": "LandRover_893191",
    "link_img": "https://live.staticflickr.com/65535/48118849068_0fa970a13c_o.jpg",
    "id_image": "LandRover_893191",
    "count_view": 0
  },
  {
    "link_thumb": "https://live.staticflickr.com/65535/48120684033_3fc90f0aee_n.jpg",
    "id_album": "-2131154733",
    "description": "Oldsmobile_631541",
    "title": "Oldsmobile_631541",
    "link_img": "https://live.staticflickr.com/65535/48120684033_e455b0b9d7_o.jpg",
    "id_image": "Oldsmobile_631541",
    "count_view": 0
  },
  {
    "link_thumb": "https://live.staticflickr.com/65535/48119448927_bcf60c590e_n.jpg",
    "id_album": "990865885",
    "description": "McLaren_864010",
    "title": "McLaren_864010",
    "link_img": "https://live.staticflickr.com/65535/48119448927_cb87710083_o.jpg",
    "id_image": "McLaren_864010",
    "count_view": 0
  },
  {
    "link_thumb": "https://live.staticflickr.com/65535/48118513312_8ecd71c95a_n.jpg",
    "id_album": "-2100339805",
    "description": "Lamborghini_399903",
    "title": "Lamborghini_399903",
    "link_img": "https://live.staticflickr.com/65535/48118513312_d576419224_o.jpg",
    "id_image": "Lamborghini_399903",
    "count_view": 0
  },
  {
    "link_thumb": "https://live.staticflickr.com/65535/49888263033_dc741fb03d_n.jpg",
    "id_album": "1627109540",
    "description": "2009_rv_Alfa_rv_Romeo_rv_MiTo_rv_V3_rv_1440",
    "title": "2009_rv_Alfa_rv_Romeo_rv_MiTo_rv_V3_rv_1440",
    "link_img": "https://live.staticflickr.com/65535/49888263033_a8ec653c71_o.jpg",
    "id_image": "2009_rv_Alfa_rv_Romeo_rv_MiTo_rv_V3_rv_1440",
    "count_view": 0
  },
  {
    "link_thumb": "https://live.staticflickr.com/65535/49890290873_8461a6db5c_n.jpg",
    "id_album": "-21475779",
    "description": "2015_rv_Mercedes_rv_Benz_rv_AMG_rv_GT3_rv_V1_rv_1600",
    "title": "2015_rv_Mercedes_rv_Benz_rv_AMG_rv_GT3_rv_V1_rv_1600",
    "link_img": "https://live.staticflickr.com/65535/49890290873_3c73a23a41_o.jpg",
    "id_image": "2015_rv_Mercedes_rv_Benz_rv_AMG_rv_GT3_rv_V1_rv_1600",
    "count_view": 0
  },
  {
    "link_thumb": "https://live.staticflickr.com/65535/48112881677_4d1e5510c1_n.jpg",
    "id_album": "727633301",
    "description": "BMW_451685",
    "title": "BMW_451685",
    "link_img": "https://live.staticflickr.com/65535/48112881677_db1529808c_o.jpg",
    "id_image": "BMW_451685",
    "count_view": 0
  },
  {
    "link_thumb": "https://live.staticflickr.com/65535/49890685718_53223ce70b_n.jpg",
    "id_album": "-420675233",
    "description": "2016_rv_Novitec_rv_Torado_rv_Lamborghini_rv_Huracan_rv_Spyder_rv_V2_rv_2000",
    "title": "2016_rv_Novitec_rv_Torado_rv_Lamborghini_rv_Huracan_rv_Spyder_rv_V2_rv_2000",
    "link_img": "https://live.staticflickr.com/65535/49890685718_b1eb17a618_o.jpg",
    "id_image": "2016_rv_Novitec_rv_Torado_rv_Lamborghini_rv_Huracan_rv_Spyder_rv_V2_rv_2000",
    "count_view": 0
  },
  {
    "link_thumb": "https://live.staticflickr.com/65535/48113362461_9366c412f2_n.jpg",
    "id_album": "1456070666",
    "description": "Bugatti_366017",
    "title": "Bugatti_366017",
    "link_img": "https://live.staticflickr.com/65535/48113362461_d2c037b27c_o.jpg",
    "id_image": "Bugatti_366017",
    "count_view": 0
  },
  {
    "link_thumb": "https://live.staticflickr.com/65535/49889774833_e60891977c_n.jpg",
    "id_album": "917675375",
    "description": "2017_rv_Lexus_rv_LC_rv_500h_rv_V2_rv_2000",
    "title": "2017_rv_Lexus_rv_LC_rv_500h_rv_V2_rv_2000",
    "link_img": "https://live.staticflickr.com/65535/49889774833_063b5ba11e_o.jpg",
    "id_image": "2017_rv_Lexus_rv_LC_rv_500h_rv_V2_rv_2000",
    "count_view": 0
  },
  {
    "link_thumb": "https://live.staticflickr.com/65535/48119200752_8e760fee12_n.jpg",
    "id_album": "697984456",
    "description": "Maserati_811933",
    "title": "Maserati_811933",
    "link_img": "https://live.staticflickr.com/65535/48119200752_c939709169_o.jpg",
    "id_image": "Maserati_811933",
    "count_view": 0
  },
  {
    "link_thumb": "https://live.staticflickr.com/65535/48114282042_c5e4722f94_n.jpg",
    "id_album": "-1721545051",
    "description": "Chevrolet_396751",
    "title": "Chevrolet_396751",
    "link_img": "https://live.staticflickr.com/65535/48114282042_ed832ce686_o.jpg",
    "id_image": "Chevrolet_396751",
    "count_view": 0
  },
  {
    "link_thumb": "https://live.staticflickr.com/65535/49890147361_c9509def22_n.jpg",
    "id_album": "-1393136211",
    "description": "1966_rv_Lamborghini_rv_400_rv_GT_rv_V5_rv_2160",
    "title": "1966_rv_Lamborghini_rv_400_rv_GT_rv_V5_rv_2160",
    "link_img": "https://live.staticflickr.com/65535/49890147361_41f398d2dd_o.jpg",
    "id_image": "1966_rv_Lamborghini_rv_400_rv_GT_rv_V5_rv_2160",
    "count_view": 0
  },
  {
    "link_thumb": "https://live.staticflickr.com/65535/48122735577_0951fe6b59_n.jpg",
    "id_album": "1274920659",
    "description": "Toyota_319431",
    "title": "Toyota_319431",
    "link_img": "https://live.staticflickr.com/65535/48122735577_f1dd690a31_o.jpg",
    "id_image": "Toyota_319431",
    "count_view": 0
  },
  {
    "link_thumb": "https://live.staticflickr.com/65535/48112362401_5e14705c7b_n.jpg",
    "id_album": "-15119147",
    "description": "Audi_615156",
    "title": "Audi_615156",
    "link_img": "https://live.staticflickr.com/65535/48112362401_9c93a5496f_o.jpg",
    "id_image": "Audi_615156",
    "count_view": 0
  },
  {
    "link_thumb": "https://live.staticflickr.com/65535/48119289627_59d8c9746f_n.jpg",
    "id_album": "898314866",
    "description": "Mazda_318812",
    "title": "Mazda_318812",
    "link_img": "https://live.staticflickr.com/65535/48119289627_7e49e0d108_o.jpg",
    "id_image": "Mazda_318812",
    "count_view": 0
  },
  {
    "link_thumb": "https://live.staticflickr.com/65535/48120775981_519800c583_n.jpg",
    "id_album": "1952909762",
    "description": "Packard_927888",
    "title": "Packard_927888",
    "link_img": "https://live.staticflickr.com/65535/48120775981_95a30a0929_o.jpg",
    "id_image": "Packard_927888",
    "count_view": 0
  },
  {
    "link_thumb": "https://live.staticflickr.com/65535/48120445342_efd2b00aab_n.jpg",
    "id_album": "810634050",
    "description": "Nissan_257531",
    "title": "Nissan_257531",
    "link_img": "https://live.staticflickr.com/65535/48120445342_c2fcfb68a0_o.jpg",
    "id_image": "Nissan_257531",
    "count_view": 0
  },
  {
    "link_thumb": "https://live.staticflickr.com/65535/48112854012_ff6792c46a_n.jpg",
    "id_album": "727633301",
    "description": "BMW_431936",
    "title": "BMW_431936",
    "link_img": "https://live.staticflickr.com/65535/48112854012_67d4ffdeda_o.jpg",
    "id_image": "BMW_431936",
    "count_view": 0
  },
  {
    "link_thumb": "https://live.staticflickr.com/65535/49891352071_2d862087f0_n.jpg",
    "id_album": "1817834186",
    "description": "1970_rv_Porsche_rv_914_rv_V7_rv_1536",
    "title": "1970_rv_Porsche_rv_914_rv_V7_rv_1536",
    "link_img": "https://live.staticflickr.com/65535/49891352071_bd5ec648fd_o.jpg",
    "id_image": "1970_rv_Porsche_rv_914_rv_V7_rv_1536",
    "count_view": 0
  },
  {
    "link_thumb": "https://live.staticflickr.com/65535/49888726596_a249eda91b_n.jpg",
    "id_album": "504832144",
    "description": "2016_rv_Acura_rv_NSX_rv_V10_rv_1600",
    "title": "2016_rv_Acura_rv_NSX_rv_V10_rv_1600",
    "link_img": "https://live.staticflickr.com/65535/49888726596_7b32b63860_o.jpg",
    "id_image": "2016_rv_Acura_rv_NSX_rv_V10_rv_1600",
    "count_view": 0
  },
  {
    "link_thumb": "https://live.staticflickr.com/65535/48113106851_e08f70d724_n.jpg",
    "id_album": "727633301",
    "description": "BMW_873941",
    "title": "BMW_873941",
    "link_img": "https://live.staticflickr.com/65535/48113106851_46c665a606_o.jpg",
    "id_image": "BMW_873941",
    "count_view": 0
  },
  {
    "link_thumb": "https://live.staticflickr.com/65535/48119452996_fac44cb243_n.jpg",
    "id_album": "-731054311",
    "description": "MercedesBenz_170404",
    "title": "MercedesBenz_170404",
    "link_img": "https://live.staticflickr.com/65535/48119452996_c31a8ef48d_o.jpg",
    "id_image": "MercedesBenz_170404",
    "count_view": 0
  },
  {
    "link_thumb": "https://live.staticflickr.com/65535/49890814283_b03df8d7f0_n.jpg",
    "id_album": "-783720337",
    "description": "1972_rv_Pontiac_rv_GTO_rv_Coupe_rv_V1_rv_1536",
    "title": "1972_rv_Pontiac_rv_GTO_rv_Coupe_rv_V1_rv_1536",
    "link_img": "https://live.staticflickr.com/65535/49890814283_5d48aa77ec_o.jpg",
    "id_image": "1972_rv_Pontiac_rv_GTO_rv_Coupe_rv_V1_rv_1536",
    "count_view": 0
  },
  {
    "link_thumb": "https://live.staticflickr.com/65535/49889702707_11a861b6bf_n.jpg",
    "id_album": "942478219",
    "description": "2018_rv_Formula1_rv_Red_rv_Bull_rv_Racing_rv_RB14_rv_V1_rv_2000",
    "title": "2018_rv_Formula1_rv_Red_rv_Bull_rv_Racing_rv_RB14_rv_V1_rv_2000",
    "link_img": "https://live.staticflickr.com/65535/49889702707_101c41afc2_o.jpg",
    "id_image": "2018_rv_Formula1_rv_Red_rv_Bull_rv_Racing_rv_RB14_rv_V1_rv_2000",
    "count_view": 0
  },
  {
    "link_thumb": "https://live.staticflickr.com/65535/49890152031_9692dd1312_n.jpg",
    "id_album": "-936716449",
    "description": "2015_rv_Lamborghini_rv_Huracan_rv_LP610_rv_4_rv_V3_rv_2160",
    "title": "2015_rv_Lamborghini_rv_Huracan_rv_LP610_rv_4_rv_V3_rv_2160",
    "link_img": "https://live.staticflickr.com/65535/49890152031_a0eb5d5735_o.jpg",
    "id_image": "2015_rv_Lamborghini_rv_Huracan_rv_LP610_rv_4_rv_V3_rv_2160",
    "count_view": 0
  },
  {
    "link_thumb": "https://live.staticflickr.com/65535/48118456086_5f65a8082c_n.jpg",
    "id_album": "-2100339805",
    "description": "Lamborghini_440100",
    "title": "Lamborghini_440100",
    "link_img": "https://live.staticflickr.com/65535/48118456086_ed03ef9ce2_o.jpg",
    "id_image": "Lamborghini_440100",
    "count_view": 0
  },
  {
    "link_thumb": "https://live.staticflickr.com/65535/49889235303_36b82e0751_n.jpg",
    "id_album": "-559101122",
    "description": "2002_rv_Chevrolet_rv_Camaro_rv_SS_rv_V2_rv_1440",
    "title": "2002_rv_Chevrolet_rv_Camaro_rv_SS_rv_V2_rv_1440",
    "link_img": "https://live.staticflickr.com/65535/49889235303_7d57b27084_o.jpg",
    "id_image": "2002_rv_Chevrolet_rv_Camaro_rv_SS_rv_V2_rv_1440",
    "count_view": 0
  },
  {
    "link_thumb": "https://live.staticflickr.com/65535/48116877306_b0caa374f8_n.jpg",
    "id_album": "-1846404630",
    "description": "Ford_255357",
    "title": "Ford_255357",
    "link_img": "https://live.staticflickr.com/65535/48116877306_eab0362701_o.jpg",
    "id_image": "Ford_255357",
    "count_view": 0
  },
  {
    "link_thumb": "https://live.staticflickr.com/65535/49889980068_f3ba70af9f_n.jpg",
    "id_album": "653224008",
    "description": "2006_rv_Mazda_rv_RX_rv_8_rv_V1_rv_1440",
    "title": "2006_rv_Mazda_rv_RX_rv_8_rv_V1_rv_1440",
    "link_img": "https://live.staticflickr.com/65535/49889980068_6916f4cbc4_o.jpg",
    "id_image": "2006_rv_Mazda_rv_RX_rv_8_rv_V1_rv_1440",
    "count_view": 0
  },
  {
    "link_thumb": "https://live.staticflickr.com/65535/48119158618_042b1e81f5_n.jpg",
    "id_album": "697984456",
    "description": "Maserati_891918",
    "title": "Maserati_891918",
    "link_img": "https://live.staticflickr.com/65535/48119158618_a179a02456_o.jpg",
    "id_image": "Maserati_891918",
    "count_view": 0
  },
  {
    "link_thumb": "https://live.staticflickr.com/65535/48123148473_8d1e07f2d6_n.jpg",
    "id_album": "1159292543",
    "description": "Volvo_296783",
    "title": "Volvo_296783",
    "link_img": "https://live.staticflickr.com/65535/48123148473_1b388f788a_o.jpg",
    "id_image": "Volvo_296783",
    "count_view": 0
  },
  {
    "link_thumb": "https://live.staticflickr.com/65535/48122713006_6da570f922_n.jpg",
    "id_album": "1274920659",
    "description": "Toyota_504128",
    "title": "Toyota_504128",
    "link_img": "https://live.staticflickr.com/65535/48122713006_c403813f51_o.jpg",
    "id_image": "Toyota_504128",
    "count_view": 0
  },
  {
    "link_thumb": "https://live.staticflickr.com/65535/48113540866_9e9c763dca_n.jpg",
    "id_album": "-680120434",
    "description": "Cadillac_350435",
    "title": "Cadillac_350435",
    "link_img": "https://live.staticflickr.com/65535/48113540866_c0220c53bb_o.jpg",
    "id_image": "Cadillac_350435",
    "count_view": 0
  },
  {
    "link_thumb": "https://live.staticflickr.com/65535/48120986256_f5a7762967_n.jpg",
    "id_album": "-1123679742",
    "description": "Plymouth_289068",
    "title": "Plymouth_289068",
    "link_img": "https://live.staticflickr.com/65535/48120986256_90a87d2e84_o.jpg",
    "id_image": "Plymouth_289068",
    "count_view": 0
  },
  {
    "link_thumb": "https://live.staticflickr.com/65535/48117568848_65774823fa_n.jpg",
    "id_album": "-1846404630",
    "description": "Ford_926087",
    "title": "Ford_926087",
    "link_img": "https://live.staticflickr.com/65535/48117568848_f171eaf15a_o.jpg",
    "id_image": "Ford_926087",
    "count_view": 0
  },
  {
    "link_thumb": "https://live.staticflickr.com/65535/49891133042_5d2033f3a8_n.jpg",
    "id_album": "-21475779",
    "description": "2016_rv_Mercedes_rv_Benz_rv_AMG_rv_GT_rv_V15_rv_1600",
    "title": "2016_rv_Mercedes_rv_Benz_rv_AMG_rv_GT_rv_V15_rv_1600",
    "link_img": "https://live.staticflickr.com/65535/49891133042_98c46f26c7_o.jpg",
    "id_image": "2016_rv_Mercedes_rv_Benz_rv_AMG_rv_GT_rv_V15_rv_1600",
    "count_view": 0
  },
  {
    "link_thumb": "https://live.staticflickr.com/65535/48112520581_6682a3a888_n.jpg",
    "id_album": "2097036181",
    "description": "Bentley_436050",
    "title": "Bentley_436050",
    "link_img": "https://live.staticflickr.com/65535/48112520581_85d9af4bf1_o.jpg",
    "id_image": "Bentley_436050",
    "count_view": 0
  },
  {
    "link_thumb": "https://live.staticflickr.com/65535/48117172048_7dfed985f2_n.jpg",
    "id_album": "-1846404630",
    "description": "Ford_416702",
    "title": "Ford_416702",
    "link_img": "https://live.staticflickr.com/65535/48117172048_f0f55fe8ed_o.jpg",
    "id_image": "Ford_416702",
    "count_view": 0
  },
  {
    "link_thumb": "https://live.staticflickr.com/65535/48121948362_1d745fa00b_n.jpg",
    "id_album": "-1377335499",
    "description": "RangeRover_251326",
    "title": "RangeRover_251326",
    "link_img": "https://live.staticflickr.com/65535/48121948362_7f008dc202_o.jpg",
    "id_image": "RangeRover_251326",
    "count_view": 0
  },
  {
    "link_thumb": "https://live.staticflickr.com/65535/49888655608_e51a97545a_n.jpg",
    "id_album": "-1839909978",
    "description": "2018_rv_BMW_rv_i8_rv_Protonic_rv_Frozen_rv_Yellow_rv_V2_rv_2000",
    "title": "2018_rv_BMW_rv_i8_rv_Protonic_rv_Frozen_rv_Yellow_rv_V2_rv_2000",
    "link_img": "https://live.staticflickr.com/65535/49888655608_d1468a13a6_o.jpg",
    "id_image": "2018_rv_BMW_rv_i8_rv_Protonic_rv_Frozen_rv_Yellow_rv_V2_rv_2000",
    "count_view": 0
  },
  {
    "link_thumb": "https://live.staticflickr.com/65535/49040441538_9d450f4ebf_n.jpg",
    "id_album": "-1428556500",
    "description": "AlfaRomeo_467450",
    "title": "AlfaRomeo_467450",
    "link_img": "https://live.staticflickr.com/65535/49040441538_69e686fb28_o.jpg",
    "id_image": "AlfaRomeo_467450",
    "count_view": 0
  },
  {
    "link_thumb": "https://live.staticflickr.com/65535/48113908798_a8b04a8e01_n.jpg",
    "id_album": "-1721545051",
    "description": "Chevrolet_244020",
    "title": "Chevrolet_244020",
    "link_img": "https://live.staticflickr.com/65535/48113908798_b993a4f6b6_o.jpg",
    "id_image": "Chevrolet_244020",
    "count_view": 0
  },
  {
    "link_thumb": "https://live.staticflickr.com/65535/48115228031_6c2296c1eb_n.jpg",
    "id_album": "413141323",
    "description": "Dodge_430811",
    "title": "Dodge_430811",
    "link_img": "https://live.staticflickr.com/65535/48115228031_387367e95a_o.jpg",
    "id_image": "Dodge_430811",
    "count_view": 0
  },
  {
    "link_thumb": "https://live.staticflickr.com/65535/48116343237_766ccc6854_n.jpg",
    "id_album": "1364506720",
    "description": "Ferrari_758194",
    "title": "Ferrari_758194",
    "link_img": "https://live.staticflickr.com/65535/48116343237_36452c97e6_o.jpg",
    "id_image": "Ferrari_758194",
    "count_view": 0
  },
  {
    "link_thumb": "https://live.staticflickr.com/65535/48121715041_488fc7d2e3_n.jpg",
    "id_album": "-1178450892",
    "description": "Porsche_893023",
    "title": "Porsche_893023",
    "link_img": "https://live.staticflickr.com/65535/48121715041_1895f07a4b_o.jpg",
    "id_image": "Porsche_893023",
    "count_view": 0
  },
  {
    "link_thumb": "https://live.staticflickr.com/65535/48118970653_1d3e10e994_n.jpg",
    "id_album": "446908717",
    "description": "Lexus_920598",
    "title": "Lexus_920598",
    "link_img": "https://live.staticflickr.com/65535/48118970653_0619a78acc_o.jpg",
    "id_image": "Lexus_920598",
    "count_view": 0
  },
  {
    "link_thumb": "https://live.staticflickr.com/65535/48116996496_c10be08627_n.jpg",
    "id_album": "-1846404630",
    "description": "Ford_318057",
    "title": "Ford_318057",
    "link_img": "https://live.staticflickr.com/65535/48116996496_8419ca15ba_o.jpg",
    "id_image": "Ford_318057",
    "count_view": 0
  },
  {
    "link_thumb": "https://live.staticflickr.com/65535/48116992101_ec33a3a79a_n.jpg",
    "id_album": "-1846404630",
    "description": "Ford_311780",
    "title": "Ford_311780",
    "link_img": "https://live.staticflickr.com/65535/48116992101_d9121f7db1_o.jpg",
    "id_image": "Ford_311780",
    "count_view": 0
  },
  {
    "link_thumb": "https://live.staticflickr.com/65535/49889476388_5caa2e1406_n.jpg",
    "id_album": "-1030469337",
    "description": "2019_rv_Jaguar_rv_I_rv_Pace_rv_V4_rv_2000",
    "title": "2019_rv_Jaguar_rv_I_rv_Pace_rv_V4_rv_2000",
    "link_img": "https://live.staticflickr.com/65535/49889476388_cc708d1362_o.jpg",
    "id_image": "2019_rv_Jaguar_rv_I_rv_Pace_rv_V4_rv_2000",
    "count_view": 0
  },
  {
    "link_thumb": "https://live.staticflickr.com/65535/48117693697_dc5c506d93_n.jpg",
    "id_album": "-1846404630",
    "description": "Ford_936251",
    "title": "Ford_936251",
    "link_img": "https://live.staticflickr.com/65535/48117693697_724468f2c6_o.jpg",
    "id_image": "Ford_936251",
    "count_view": 0
  },
  {
    "link_thumb": "https://live.staticflickr.com/65535/49890090596_4d0f60f3c0_n.jpg",
    "id_album": "-59902933",
    "description": "2015_rv_Lamborghini_rv_Aventador_rv_LP700_rv_4_rv_Pirelli_rv_Edition_rv_V2_rv_1600",
    "title": "2015_rv_Lamborghini_rv_Aventador_rv_LP700_rv_4_rv_Pirelli_rv_Edition_rv_V2_rv_1600",
    "link_img": "https://live.staticflickr.com/65535/49890090596_174556fbb3_o.jpg",
    "id_image": "2015_rv_Lamborghini_rv_Aventador_rv_LP700_rv_4_rv_Pirelli_rv_Edition_rv_V2_rv_1600",
    "count_view": 0
  },
  {
    "link_thumb": "https://live.staticflickr.com/65535/49888950683_46387e4c9a_n.jpg",
    "id_album": "1828526647",
    "description": "2005_rv_Ferrari_rv_F430_rv_Spider_rv_V1_rv_1440",
    "title": "2005_rv_Ferrari_rv_F430_rv_Spider_rv_V1_rv_1440",
    "link_img": "https://live.staticflickr.com/65535/49888950683_80dfa161ed_o.jpg",
    "id_image": "2005_rv_Ferrari_rv_F430_rv_Spider_rv_V1_rv_1440",
    "count_view": 0
  },
  {
    "link_thumb": "https://live.staticflickr.com/65535/49889477607_6e1a966182_n.jpg",
    "id_album": "-1839909978",
    "description": "2013_rv_BMW_rv_i8_rv_Spyder_rv_Concept_rv_V6_rv_1440",
    "title": "2013_rv_BMW_rv_i8_rv_Spyder_rv_Concept_rv_V6_rv_1440",
    "link_img": "https://live.staticflickr.com/65535/49889477607_470f15ddb4_o.jpg",
    "id_image": "2013_rv_BMW_rv_i8_rv_Spyder_rv_Concept_rv_V6_rv_1440",
    "count_view": 0
  },
  {
    "link_thumb": "https://live.staticflickr.com/65535/48114419018_12b62a9f07_n.jpg",
    "id_album": "-1721545051",
    "description": "Chevrolet_507756",
    "title": "Chevrolet_507756",
    "link_img": "https://live.staticflickr.com/65535/48114419018_f1004dfa07_o.jpg",
    "id_image": "Chevrolet_507756",
    "count_view": 0
  },
  {
    "link_thumb": "https://live.staticflickr.com/65535/48115325412_577209f392_n.jpg",
    "id_album": "413141323",
    "description": "Dodge_445767",
    "title": "Dodge_445767",
    "link_img": "https://live.staticflickr.com/65535/48115325412_9469ddc56c_o.jpg",
    "id_image": "Dodge_445767",
    "count_view": 0
  },
  {
    "link_thumb": "https://live.staticflickr.com/65535/48120510187_88b262c20f_n.jpg",
    "id_album": "810634050",
    "description": "Nissan_447696",
    "title": "Nissan_447696",
    "link_img": "https://live.staticflickr.com/65535/48120510187_24aebaf921_o.jpg",
    "id_image": "Nissan_447696",
    "count_view": 0
  },
  {
    "link_thumb": "https://live.staticflickr.com/65535/49888782851_43eb18b330_n.jpg",
    "id_album": "734590267",
    "description": "1983_rv_Alfa_rv_Romeo_rv_GTV6_rv_V7_rv_1536",
    "title": "1983_rv_Alfa_rv_Romeo_rv_GTV6_rv_V7_rv_1536",
    "link_img": "https://live.staticflickr.com/65535/49888782851_b3e4b32fe5_o.jpg",
    "id_image": "1983_rv_Alfa_rv_Romeo_rv_GTV6_rv_V7_rv_1536",
    "count_view": 0
  },
  {
    "link_thumb": "https://live.staticflickr.com/65535/48116522116_6e9cb96574_n.jpg",
    "id_album": "-1846404630",
    "description": "Ford_125012",
    "title": "Ford_125012",
    "link_img": "https://live.staticflickr.com/65535/48116522116_63e9f3f891_o.jpg",
    "id_image": "Ford_125012",
    "count_view": 0
  },
  {
    "link_thumb": "https://live.staticflickr.com/65535/48121891362_5f65c0f3ee_n.jpg",
    "id_album": "-1178450892",
    "description": "Porsche_956894",
    "title": "Porsche_956894",
    "link_img": "https://live.staticflickr.com/65535/48121891362_5a74c6bc32_o.jpg",
    "id_image": "Porsche_956894",
    "count_view": 0
  },
  {
    "link_thumb": "https://live.staticflickr.com/65535/48119466732_7afa3fc19b_n.jpg",
    "id_album": "990865885",
    "description": "McLaren_896851",
    "title": "McLaren_896851",
    "link_img": "https://live.staticflickr.com/65535/48119466732_7f63496fce_o.jpg",
    "id_image": "McLaren_896851",
    "count_view": 0
  },
  {
    "link_thumb": "https://live.staticflickr.com/65535/49889742901_994ecee19a_n.jpg",
    "id_album": "697195276",
    "description": "1985_rv_Ford_rv_RS200_rv_Evolution_rv_V2_rv_1440",
    "title": "1985_rv_Ford_rv_RS200_rv_Evolution_rv_V2_rv_1440",
    "link_img": "https://live.staticflickr.com/65535/49889742901_f6102dbd23_o.jpg",
    "id_image": "1985_rv_Ford_rv_RS200_rv_Evolution_rv_V2_rv_1440",
    "count_view": 0
  },
  {
    "link_thumb": "https://live.staticflickr.com/65535/48119482767_a00735347d_n.jpg",
    "id_album": "990865885",
    "description": "McLaren_928778",
    "title": "McLaren_928778",
    "link_img": "https://live.staticflickr.com/65535/48119482767_83d9be3732_o.jpg",
    "id_image": "McLaren_928778",
    "count_view": 0
  },
  {
    "link_thumb": "https://live.staticflickr.com/65535/48112795656_5b90aee084_n.jpg",
    "id_album": "727633301",
    "description": "BMW_459260",
    "title": "BMW_459260",
    "link_img": "https://live.staticflickr.com/65535/48112795656_df0ca5e0a7_o.jpg",
    "id_image": "BMW_459260",
    "count_view": 0
  },
  {
    "link_thumb": "https://live.staticflickr.com/65535/48119240757_16fd045c09_n.jpg",
    "id_album": "697984456",
    "description": "Maserati_895942",
    "title": "Maserati_895942",
    "link_img": "https://live.staticflickr.com/65535/48119240757_4f38847513_o.jpg",
    "id_image": "Maserati_895942",
    "count_view": 0
  },
  {
    "link_thumb": "https://live.staticflickr.com/65535/48112330417_40c2a43a4b_n.jpg",
    "id_album": "-15119147",
    "description": "Audi_144336",
    "title": "Audi_144336",
    "link_img": "https://live.staticflickr.com/65535/48112330417_f30f447381_o.jpg",
    "id_image": "Audi_144336",
    "count_view": 0
  },
  {
    "link_thumb": "https://live.staticflickr.com/65535/48117633508_78330baa2e_n.jpg",
    "id_album": "-1846404630",
    "description": "Ford_936238",
    "title": "Ford_936238",
    "link_img": "https://live.staticflickr.com/65535/48117633508_5cf16496b0_o.jpg",
    "id_image": "Ford_936238",
    "count_view": 0
  },
  {
    "link_thumb": "https://live.staticflickr.com/65535/48123004052_4d0fdc2dd7_n.jpg",
    "id_album": "-150952028",
    "description": "Volkswagen_283790",
    "title": "Volkswagen_283790",
    "link_img": "https://live.staticflickr.com/65535/48123004052_0740cfc401_o.jpg",
    "id_image": "Volkswagen_283790",
    "count_view": 0
  },
  {
    "link_thumb": "https://live.staticflickr.com/65535/48119962148_7446db37d2_n.jpg",
    "id_album": "-731054311",
    "description": "MercedesBenz_953046",
    "title": "MercedesBenz_953046",
    "link_img": "https://live.staticflickr.com/65535/48119962148_abebb8a26b_o.jpg",
    "id_image": "MercedesBenz_953046",
    "count_view": 0
  },
  {
    "link_thumb": "https://live.staticflickr.com/65535/48119579843_2b75edffac_n.jpg",
    "id_album": "-731054311",
    "description": "MercedesBenz_257352",
    "title": "MercedesBenz_257352",
    "link_img": "https://live.staticflickr.com/65535/48119579843_88c77ba92b_o.jpg",
    "id_image": "MercedesBenz_257352",
    "count_view": 0
  },
  {
    "link_thumb": "https://live.staticflickr.com/65535/49892636077_0c5f55b1ac_n.jpg",
    "id_album": "-283016394",
    "description": "1969_rv_Dodge_rv_Charger_rv_RT_rv_V4_rv_1536",
    "title": "1969_rv_Dodge_rv_Charger_rv_RT_rv_V4_rv_1536",
    "link_img": "https://live.staticflickr.com/65535/49892636077_e089e99e1d_o.jpg",
    "id_image": "1969_rv_Dodge_rv_Charger_rv_RT_rv_V4_rv_1536",
    "count_view": 0
  },
  {
    "link_thumb": "https://live.staticflickr.com/65535/48118653867_a9246fdaaa_n.jpg",
    "id_album": "-2100339805",
    "description": "Lamborghini_685711",
    "title": "Lamborghini_685711",
    "link_img": "https://live.staticflickr.com/65535/48118653867_31736412c5_o.jpg",
    "id_image": "Lamborghini_685711",
    "count_view": 0
  },
  {
    "link_thumb": "https://live.staticflickr.com/65535/48118521317_4edbf10e84_n.jpg",
    "id_album": "-2100339805",
    "description": "Lamborghini_405458",
    "title": "Lamborghini_405458",
    "link_img": "https://live.staticflickr.com/65535/48118521317_b40d11b991_o.jpg",
    "id_image": "Lamborghini_405458",
    "count_view": 0
  },
  {
    "link_thumb": "https://live.staticflickr.com/65535/48116927256_58131a3c5a_n.jpg",
    "id_album": "-1846404630",
    "description": "Ford_273077",
    "title": "Ford_273077",
    "link_img": "https://live.staticflickr.com/65535/48116927256_0329c70fe2_o.jpg",
    "id_image": "Ford_273077",
    "count_view": 0
  },
  {
    "link_thumb": "https://live.staticflickr.com/65535/48118672643_4af662fbb4_n.jpg",
    "id_album": "-2100339805",
    "description": "Lamborghini_882711",
    "title": "Lamborghini_882711",
    "link_img": "https://live.staticflickr.com/65535/48118672643_b01337e92d_o.jpg",
    "id_image": "Lamborghini_882711",
    "count_view": 0
  },
  {
    "link_thumb": "https://live.staticflickr.com/65535/48112577768_94a6d3b342_n.jpg",
    "id_album": "2097036181",
    "description": "Bentley_481271",
    "title": "Bentley_481271",
    "link_img": "https://live.staticflickr.com/65535/48112577768_c76ae7baf5_o.jpg",
    "id_image": "Bentley_481271",
    "count_view": 0
  },
  {
    "link_thumb": "https://live.staticflickr.com/65535/48119031152_e4f266619b_n.jpg",
    "id_album": "446908717",
    "description": "Lexus_921374",
    "title": "Lexus_921374",
    "link_img": "https://live.staticflickr.com/65535/48119031152_fb4aa6a334_o.jpg",
    "id_image": "Lexus_921374",
    "count_view": 0
  },
  {
    "link_thumb": "https://live.staticflickr.com/65535/48121803208_b6935fd94a_n.jpg",
    "id_album": "-1178450892",
    "description": "Porsche_941763",
    "title": "Porsche_941763",
    "link_img": "https://live.staticflickr.com/65535/48121803208_3d1b5ba35d_o.jpg",
    "id_image": "Porsche_941763",
    "count_view": 0
  },
  {
    "link_thumb": "https://live.staticflickr.com/65535/48122859316_60779cb602_n.jpg",
    "id_album": "-150952028",
    "description": "Volkswagen_216259",
    "title": "Volkswagen_216259",
    "link_img": "https://live.staticflickr.com/65535/48122859316_cf319d9d98_o.jpg",
    "id_image": "Volkswagen_216259",
    "count_view": 0
  },
  {
    "link_thumb": "https://live.staticflickr.com/65535/48118588791_ddeaa25f95_n.jpg",
    "id_album": "-2100339805",
    "description": "Lamborghini_724794",
    "title": "Lamborghini_724794",
    "link_img": "https://live.staticflickr.com/65535/48118588791_4db557219b_o.jpg",
    "id_image": "Lamborghini_724794",
    "count_view": 0
  },
  {
    "link_thumb": "https://live.staticflickr.com/65535/49889436646_eb28aa6b4f_n.jpg",
    "id_album": "1828657713",
    "description": "1962_rv_Ferrari_rv_250_rv_GTO_rv_V7_rv_1440",
    "title": "1962_rv_Ferrari_rv_250_rv_GTO_rv_V7_rv_1440",
    "link_img": "https://live.staticflickr.com/65535/49889436646_2e3dbb4b8f_o.jpg",
    "id_image": "1962_rv_Ferrari_rv_250_rv_GTO_rv_V7_rv_1440",
    "count_view": 0
  },
  {
    "link_thumb": "https://live.staticflickr.com/65535/48118139116_b0a2d96708_n.jpg",
    "id_album": "-625217782",
    "description": "Kia_256237",
    "title": "Kia_256237",
    "link_img": "https://live.staticflickr.com/65535/48118139116_3784105a5e_o.jpg",
    "id_image": "Kia_256237",
    "count_view": 0
  },
  {
    "link_thumb": "https://live.staticflickr.com/65535/48121594708_ef97575029_n.jpg",
    "id_album": "-1178450892",
    "description": "Porsche_692473",
    "title": "Porsche_692473",
    "link_img": "https://live.staticflickr.com/65535/48121594708_41f770c308_o.jpg",
    "id_image": "Porsche_692473",
    "count_view": 0
  },
  {
    "link_thumb": "https://live.staticflickr.com/65535/48118298533_fb3531718a_n.jpg",
    "id_album": "-2100339805",
    "description": "Lamborghini_256293",
    "title": "Lamborghini_256293",
    "link_img": "https://live.staticflickr.com/65535/48118298533_e4c305b45c_o.jpg",
    "id_image": "Lamborghini_256293",
    "count_view": 0
  },
  {
    "link_thumb": "https://live.staticflickr.com/65535/48119181223_261c405caa_n.jpg",
    "id_album": "697984456",
    "description": "Maserati_895941",
    "title": "Maserati_895941",
    "link_img": "https://live.staticflickr.com/65535/48119181223_c23b5b50c6_o.jpg",
    "id_image": "Maserati_895941",
    "count_view": 0
  },
  {
    "link_thumb": "https://live.staticflickr.com/65535/49888849766_f49aabf3bf_n.jpg",
    "id_album": "410055115",
    "description": "2009_rv_Aston_rv_Martin_rv_DB9_rv_Volante_rv_V1_rv_2160",
    "title": "2009_rv_Aston_rv_Martin_rv_DB9_rv_Volante_rv_V1_rv_2160",
    "link_img": "https://live.staticflickr.com/65535/49888849766_626d75e87c_o.jpg",
    "id_image": "2009_rv_Aston_rv_Martin_rv_DB9_rv_Volante_rv_V1_rv_2160",
    "count_view": 0
  },
  {
    "link_thumb": "https://live.staticflickr.com/65535/49890001892_ae04a006bd_n.jpg",
    "id_album": "-1810562756",
    "description": "2020_rv_Ford_rv_Explorer_rv_ST_rv_V3_rv_2160",
    "title": "2020_rv_Ford_rv_Explorer_rv_ST_rv_V3_rv_2160",
    "link_img": "https://live.staticflickr.com/65535/49890001892_1239f96e45_o.jpg",
    "id_image": "2020_rv_Ford_rv_Explorer_rv_ST_rv_V3_rv_2160",
    "count_view": 0
  },
  {
    "link_thumb": "https://live.staticflickr.com/65535/49888485853_645d431c61_n.jpg",
    "id_album": "857589277",
    "description": "2009_rv_Audi_rv_TT_rv_RS_rv_Roadster_rv_V2_rv_1440",
    "title": "2009_rv_Audi_rv_TT_rv_RS_rv_Roadster_rv_V2_rv_1440",
    "link_img": "https://live.staticflickr.com/65535/49888485853_da0ae746c0_o.jpg",
    "id_image": "2009_rv_Audi_rv_TT_rv_RS_rv_Roadster_rv_V2_rv_1440",
    "count_view": 0
  },
  {
    "link_thumb": "https://live.staticflickr.com/65535/49889684322_128fb87456_n.jpg",
    "id_album": "-1276282568",
    "description": "2017_rv_Formula1_rv_Ferrari_rv_SF70H_rv_V1_rv_2000",
    "title": "2017_rv_Formula1_rv_Ferrari_rv_SF70H_rv_V1_rv_2000",
    "link_img": "https://live.staticflickr.com/65535/49889684322_ca7ae42b5c_o.jpg",
    "id_image": "2017_rv_Formula1_rv_Ferrari_rv_SF70H_rv_V1_rv_2000",
    "count_view": 0
  },
  {
    "link_thumb": "https://live.staticflickr.com/65535/48114170571_e9eca68e1e_n.jpg",
    "id_album": "-1721545051",
    "description": "Chevrolet_381943",
    "title": "Chevrolet_381943",
    "link_img": "https://live.staticflickr.com/65535/48114170571_828dc4f7a0_o.jpg",
    "id_image": "Chevrolet_381943",
    "count_view": 0
  },
  {
    "link_thumb": "https://live.staticflickr.com/65535/48119235462_4d0f0f265c_n.jpg",
    "id_album": "697984456",
    "description": "Maserati_895915",
    "title": "Maserati_895915",
    "link_img": "https://live.staticflickr.com/65535/48119235462_94c7c7fb59_o.jpg",
    "id_image": "Maserati_895915",
    "count_view": 0
  },
  {
    "link_thumb": "https://live.staticflickr.com/65535/48118721087_b8b08257c6_n.jpg",
    "id_album": "-2100339805",
    "description": "Lamborghini_86645",
    "title": "Lamborghini_86645",
    "link_img": "https://live.staticflickr.com/65535/48118721087_e2ce8ce6b5_o.jpg",
    "id_image": "Lamborghini_86645",
    "count_view": 0
  },
  {
    "link_thumb": "https://live.staticflickr.com/65535/48118489713_d39ce59d85_n.jpg",
    "id_album": "-2100339805",
    "description": "Lamborghini_444483",
    "title": "Lamborghini_444483",
    "link_img": "https://live.staticflickr.com/65535/48118489713_88f2fb9c72_o.jpg",
    "id_image": "Lamborghini_444483",
    "count_view": 0
  },
  {
    "link_thumb": "https://live.staticflickr.com/65535/49889221576_8112f265d8_n.jpg",
    "id_album": "1218390043",
    "description": "2019_rv_Bugatti_rv_Divo_rv_V12_rv_2000",
    "title": "2019_rv_Bugatti_rv_Divo_rv_V12_rv_2000",
    "link_img": "https://live.staticflickr.com/65535/49889221576_32bbb406e9_o.jpg",
    "id_image": "2019_rv_Bugatti_rv_Divo_rv_V12_rv_2000",
    "count_view": 0
  },
  {
    "link_thumb": "https://live.staticflickr.com/65535/48119877981_76d428736f_n.jpg",
    "id_album": "-731054311",
    "description": "MercedesBenz_923770",
    "title": "MercedesBenz_923770",
    "link_img": "https://live.staticflickr.com/65535/48119877981_a1834314b4_o.jpg",
    "id_image": "MercedesBenz_923770",
    "count_view": 0
  },
  {
    "link_thumb": "https://live.staticflickr.com/65535/48116439432_803b8bf5e5_n.jpg",
    "id_album": "1364506720",
    "description": "Ferrari_844383",
    "title": "Ferrari_844383",
    "link_img": "https://live.staticflickr.com/65535/48116439432_eb96de7b60_o.jpg",
    "id_image": "Ferrari_844383",
    "count_view": 0
  },
  {
    "link_thumb": "https://live.staticflickr.com/65535/48114148953_74e5cc073f_n.jpg",
    "id_album": "-1721545051",
    "description": "Chevrolet_320176",
    "title": "Chevrolet_320176",
    "link_img": "https://live.staticflickr.com/65535/48114148953_5259903b66_o.jpg",
    "id_image": "Chevrolet_320176",
    "count_view": 0
  },
  {
    "link_thumb": "https://live.staticflickr.com/65535/49892673956_fa201862ab_n.jpg",
    "id_album": "-687661891",
    "description": "1972_rv_Volkswagen_rv_SP2_rv_V3_rv_2160",
    "title": "1972_rv_Volkswagen_rv_SP2_rv_V3_rv_2160",
    "link_img": "https://live.staticflickr.com/65535/49892673956_687228b639_o.jpg",
    "id_image": "1972_rv_Volkswagen_rv_SP2_rv_V3_rv_2160",
    "count_view": 0
  },
  {
    "link_thumb": "https://live.staticflickr.com/65535/48117223136_abca1fda20_n.jpg",
    "id_album": "-1846404630",
    "description": "Ford_453175",
    "title": "Ford_453175",
    "link_img": "https://live.staticflickr.com/65535/48117223136_87b35e2de1_o.jpg",
    "id_image": "Ford_453175",
    "count_view": 0
  },
  {
    "link_thumb": "https://live.staticflickr.com/65535/48115704778_ee6e39f70e_n.jpg",
    "id_album": "1364506720",
    "description": "Ferrari_248817",
    "title": "Ferrari_248817",
    "link_img": "https://live.staticflickr.com/65535/48115704778_28c6818b03_o.jpg",
    "id_image": "Ferrari_248817",
    "count_view": 0
  },
  {
    "link_thumb": "https://live.staticflickr.com/65535/48113546141_748cde7c72_n.jpg",
    "id_album": "-680120434",
    "description": "Cadillac_358297",
    "title": "Cadillac_358297",
    "link_img": "https://live.staticflickr.com/65535/48113546141_2647285b94_o.jpg",
    "id_image": "Cadillac_358297",
    "count_view": 0
  },
  {
    "link_thumb": "https://live.staticflickr.com/65535/48123174173_f3bf845acd_n.jpg",
    "id_album": "1159292543",
    "description": "Volvo_505684",
    "title": "Volvo_505684",
    "link_img": "https://live.staticflickr.com/65535/48123174173_2db4ff7ce0_o.jpg",
    "id_image": "Volvo_505684",
    "count_view": 0
  }
]