[
  {
    "link_thumb": "https://live.staticflickr.com/65535/49890728623_a3c2d6a7c9_n.jpg",
    "id_album": "-1991583903",
    "description": "1997_rv_Peugeot_rv_306_rv_GTi_rv_6_rv_V1_rv_1600",
    "title": "1997_rv_Peugeot_rv_306_rv_GTi_rv_6_rv_V1_rv_1600",
    "link_img": "https://live.staticflickr.com/65535/49890728623_bcd0738bbd_o.jpg",
    "id_image": "1997_rv_Peugeot_rv_306_rv_GTi_rv_6_rv_V1_rv_1600",
    "count_view": 0
  },
  {
    "link_thumb": "https://live.staticflickr.com/65535/49891553752_03e8b135c4_n.jpg",
    "id_album": "-1991583903",
    "description": "1997_rv_Peugeot_rv_306_rv_GTi_rv_6_rv_V2_rv_1600",
    "title": "1997_rv_Peugeot_rv_306_rv_GTi_rv_6_rv_V2_rv_1600",
    "link_img": "https://live.staticflickr.com/65535/49891553752_2ee24a9077_o.jpg",
    "id_image": "1997_rv_Peugeot_rv_306_rv_GTi_rv_6_rv_V2_rv_1600",
    "count_view": 0
  },
  {
    "link_thumb": "https://live.staticflickr.com/65535/49891554002_56790d0c2f_n.jpg",
    "id_album": "-1991583903",
    "description": "1997_rv_Peugeot_rv_306_rv_GTi_rv_6_rv_V3_rv_1600",
    "title": "1997_rv_Peugeot_rv_306_rv_GTi_rv_6_rv_V3_rv_1600",
    "link_img": "https://live.staticflickr.com/65535/49891554002_6ca67ef672_o.jpg",
    "id_image": "1997_rv_Peugeot_rv_306_rv_GTi_rv_6_rv_V3_rv_1600",
    "count_view": 0
  },
  {
    "link_thumb": "https://live.staticflickr.com/65535/49890729308_51e7090921_n.jpg",
    "id_album": "-1991583903",
    "description": "1997_rv_Peugeot_rv_306_rv_GTi_rv_6_rv_V4_rv_1600",
    "title": "1997_rv_Peugeot_rv_306_rv_GTi_rv_6_rv_V4_rv_1600",
    "link_img": "https://live.staticflickr.com/65535/49890729308_5a4f5554d7_o.jpg",
    "id_image": "1997_rv_Peugeot_rv_306_rv_GTi_rv_6_rv_V4_rv_1600",
    "count_view": 0
  },
  {
    "link_thumb": "https://live.staticflickr.com/65535/49891554497_a52a7baca1_n.jpg",
    "id_album": "-1991583903",
    "description": "1997_rv_Peugeot_rv_306_rv_GTi_rv_6_rv_V5_rv_1600",
    "title": "1997_rv_Peugeot_rv_306_rv_GTi_rv_6_rv_V5_rv_1600",
    "link_img": "https://live.staticflickr.com/65535/49891554497_bcf51a5389_o.jpg",
    "id_image": "1997_rv_Peugeot_rv_306_rv_GTi_rv_6_rv_V5_rv_1600",
    "count_view": 0
  },
  {
    "link_thumb": "https://live.staticflickr.com/65535/49891243926_7290896be5_n.jpg",
    "id_album": "-1991583903",
    "description": "1997_rv_Peugeot_rv_306_rv_GTi_rv_6_rv_V6_rv_1600",
    "title": "1997_rv_Peugeot_rv_306_rv_GTi_rv_6_rv_V6_rv_1600",
    "link_img": "https://live.staticflickr.com/65535/49891243926_e622afb57a_o.jpg",
    "id_image": "1997_rv_Peugeot_rv_306_rv_GTi_rv_6_rv_V6_rv_1600",
    "count_view": 0
  }
]