[
  {
    "link_thumb": "https://live.staticflickr.com/65535/49892413236_f3cd7a3035_n.jpg",
    "id_album": "1968261195",
    "description": "2015_rv_Subaru_rv_Impreza_rv_5_rv_Door_rv_Concept_rv_V1_rv_1600",
    "title": "2015_rv_Subaru_rv_Impreza_rv_5_rv_Door_rv_Concept_rv_V1_rv_1600",
    "link_img": "https://live.staticflickr.com/65535/49892413236_33605b1477_o.jpg",
    "id_image": "2015_rv_Subaru_rv_Impreza_rv_5_rv_Door_rv_Concept_rv_V1_rv_1600",
    "count_view": 0
  },
  {
    "link_thumb": "https://live.staticflickr.com/65535/49891899623_3a42507aa3_n.jpg",
    "id_album": "1968261195",
    "description": "2015_rv_Subaru_rv_Impreza_rv_5_rv_Door_rv_Concept_rv_V2_rv_1600",
    "title": "2015_rv_Subaru_rv_Impreza_rv_5_rv_Door_rv_Concept_rv_V2_rv_1600",
    "link_img": "https://live.staticflickr.com/65535/49891899623_8eb1d6e353_o.jpg",
    "id_image": "2015_rv_Subaru_rv_Impreza_rv_5_rv_Door_rv_Concept_rv_V2_rv_1600",
    "count_view": 0
  },
  {
    "link_thumb": "https://live.staticflickr.com/65535/49892413501_6227e0ab72_n.jpg",
    "id_album": "1968261195",
    "description": "2015_rv_Subaru_rv_Impreza_rv_Sedan_rv_Concept_rv_V1_rv_2000",
    "title": "2015_rv_Subaru_rv_Impreza_rv_Sedan_rv_Concept_rv_V1_rv_2000",
    "link_img": "https://live.staticflickr.com/65535/49892413501_c5c21e2622_o.jpg",
    "id_image": "2015_rv_Subaru_rv_Impreza_rv_Sedan_rv_Concept_rv_V1_rv_2000",
    "count_view": 0
  },
  {
    "link_thumb": "https://live.staticflickr.com/65535/49891899868_3a3455d337_n.jpg",
    "id_album": "1968261195",
    "description": "2015_rv_Subaru_rv_Impreza_rv_Sedan_rv_Concept_rv_V2_rv_2000",
    "title": "2015_rv_Subaru_rv_Impreza_rv_Sedan_rv_Concept_rv_V2_rv_2000",
    "link_img": "https://live.staticflickr.com/65535/49891899868_22ac7f5eb0_o.jpg",
    "id_image": "2015_rv_Subaru_rv_Impreza_rv_Sedan_rv_Concept_rv_V2_rv_2000",
    "count_view": 0
  },
  {
    "link_thumb": "https://live.staticflickr.com/65535/49891899998_beb8aa78bb_n.jpg",
    "id_album": "1968261195",
    "description": "2015_rv_Subaru_rv_Impreza_rv_Sedan_rv_Concept_rv_V3_rv_2000",
    "title": "2015_rv_Subaru_rv_Impreza_rv_Sedan_rv_Concept_rv_V3_rv_2000",
    "link_img": "https://live.staticflickr.com/65535/49891899998_82b73eeab0_o.jpg",
    "id_image": "2015_rv_Subaru_rv_Impreza_rv_Sedan_rv_Concept_rv_V3_rv_2000",
    "count_view": 0
  },
  {
    "link_thumb": "https://live.staticflickr.com/65535/49892727617_7590e2f113_n.jpg",
    "id_album": "1968261195",
    "description": "2017_rv_Subaru_rv_Viziv_rv_Performance_rv_Concept_rv_V1_rv_2000",
    "title": "2017_rv_Subaru_rv_Viziv_rv_Performance_rv_Concept_rv_V1_rv_2000",
    "link_img": "https://live.staticflickr.com/65535/49892727617_ef4afced5b_o.jpg",
    "id_image": "2017_rv_Subaru_rv_Viziv_rv_Performance_rv_Concept_rv_V1_rv_2000",
    "count_view": 0
  },
  {
    "link_thumb": "https://live.staticflickr.com/65535/49892414046_e2da6c210c_n.jpg",
    "id_album": "1968261195",
    "description": "2017_rv_Subaru_rv_Viziv_rv_Performance_rv_Concept_rv_V2_rv_2000",
    "title": "2017_rv_Subaru_rv_Viziv_rv_Performance_rv_Concept_rv_V2_rv_2000",
    "link_img": "https://live.staticflickr.com/65535/49892414046_95475d1c67_o.jpg",
    "id_image": "2017_rv_Subaru_rv_Viziv_rv_Performance_rv_Concept_rv_V2_rv_2000",
    "count_view": 0
  },
  {
    "link_thumb": "https://live.staticflickr.com/65535/49891900403_3be9e079ba_n.jpg",
    "id_album": "1968261195",
    "description": "2017_rv_Subaru_rv_Viziv_rv_Performance_rv_Concept_rv_V3_rv_2000",
    "title": "2017_rv_Subaru_rv_Viziv_rv_Performance_rv_Concept_rv_V3_rv_2000",
    "link_img": "https://live.staticflickr.com/65535/49891900403_0722d4114b_o.jpg",
    "id_image": "2017_rv_Subaru_rv_Viziv_rv_Performance_rv_Concept_rv_V3_rv_2000",
    "count_view": 0
  }
]