[
  {
    "total_img": 0,
    "number_page": 0,
    "title": "Ford RS200",
    "tag": "Ford RS200,",
    "description": "Ford RS200",
    "link_thumb": "https://live.staticflickr.com/65535/49889741201_b87a014701_n.jpg",
    "id_album": "697195276",
    "total_view": 16
  }
]