[
  {
    "link_thumb": "https://live.staticflickr.com/65535/48118732452_d88bd261ba_n.jpg",
    "id_album": "-2100339805",
    "description": "Lamborghini_885313",
    "title": "Lamborghini_885313",
    "link_img": "https://live.staticflickr.com/65535/48118732452_11b6ca358d_o.jpg",
    "id_image": "Lamborghini_885313",
    "count_view": 0
  },
  {
    "link_thumb": "https://live.staticflickr.com/65535/48118642671_5fa61b2da3_n.jpg",
    "id_album": "-2100339805",
    "description": "Lamborghini_885314",
    "title": "Lamborghini_885314",
    "link_img": "https://live.staticflickr.com/65535/48118642671_22632caedd_o.jpg",
    "id_image": "Lamborghini_885314",
    "count_view": 0
  },
  {
    "link_thumb": "https://live.staticflickr.com/65535/48118674798_92d7c0d799_n.jpg",
    "id_album": "-2100339805",
    "description": "Lamborghini_886866",
    "title": "Lamborghini_886866",
    "link_img": "https://live.staticflickr.com/65535/48118674798_eefb970306_o.jpg",
    "id_image": "Lamborghini_886866",
    "count_view": 0
  },
  {
    "link_thumb": "https://live.staticflickr.com/65535/48118733272_dd477854a4_n.jpg",
    "id_album": "-2100339805",
    "description": "Lamborghini_887519",
    "title": "Lamborghini_887519",
    "link_img": "https://live.staticflickr.com/65535/48118733272_2d798bd91b_o.jpg",
    "id_image": "Lamborghini_887519",
    "count_view": 0
  },
  {
    "link_thumb": "https://live.staticflickr.com/65535/48118643636_06e22a53cb_n.jpg",
    "id_album": "-2100339805",
    "description": "Lamborghini_887950",
    "title": "Lamborghini_887950",
    "link_img": "https://live.staticflickr.com/65535/48118643636_d80ca3a935_o.jpg",
    "id_image": "Lamborghini_887950",
    "count_view": 0
  },
  {
    "link_thumb": "https://live.staticflickr.com/65535/48118675603_b96fae0205_n.jpg",
    "id_album": "-2100339805",
    "description": "Lamborghini_887954",
    "title": "Lamborghini_887954",
    "link_img": "https://live.staticflickr.com/65535/48118675603_a1ded691c3_o.jpg",
    "id_image": "Lamborghini_887954",
    "count_view": 0
  },
  {
    "link_thumb": "https://live.staticflickr.com/65535/48118644041_b7d36c6444_n.jpg",
    "id_album": "-2100339805",
    "description": "Lamborghini_887957",
    "title": "Lamborghini_887957",
    "link_img": "https://live.staticflickr.com/65535/48118644041_9bc26ed418_o.jpg",
    "id_image": "Lamborghini_887957",
    "count_view": 0
  },
  {
    "link_thumb": "https://live.staticflickr.com/65535/48118676023_e39ca749f0_n.jpg",
    "id_album": "-2100339805",
    "description": "Lamborghini_888174",
    "title": "Lamborghini_888174",
    "link_img": "https://live.staticflickr.com/65535/48118676023_5b941ba1f1_o.jpg",
    "id_image": "Lamborghini_888174",
    "count_view": 0
  },
  {
    "link_thumb": "https://live.staticflickr.com/65535/48118734342_f8488fd7ef_n.jpg",
    "id_album": "-2100339805",
    "description": "Lamborghini_888824",
    "title": "Lamborghini_888824",
    "link_img": "https://live.staticflickr.com/65535/48118734342_04725b088a_o.jpg",
    "id_image": "Lamborghini_888824",
    "count_view": 0
  },
  {
    "link_thumb": "https://live.staticflickr.com/65535/48118644671_43bed202be_n.jpg",
    "id_album": "-2100339805",
    "description": "Lamborghini_88891",
    "title": "Lamborghini_88891",
    "link_img": "https://live.staticflickr.com/65535/48118644671_63ff6b7390_o.jpg",
    "id_image": "Lamborghini_88891",
    "count_view": 0
  },
  {
    "link_thumb": "https://live.staticflickr.com/65535/48118734697_372732b748_n.jpg",
    "id_album": "-2100339805",
    "description": "Lamborghini_889079",
    "title": "Lamborghini_889079",
    "link_img": "https://live.staticflickr.com/65535/48118734697_1c383c9fea_o.jpg",
    "id_image": "Lamborghini_889079",
    "count_view": 0
  },
  {
    "link_thumb": "https://live.staticflickr.com/65535/48118645086_5c27ddc6a9_n.jpg",
    "id_album": "-2100339805",
    "description": "Lamborghini_88914",
    "title": "Lamborghini_88914",
    "link_img": "https://live.staticflickr.com/65535/48118645086_6eab139a61_o.jpg",
    "id_image": "Lamborghini_88914",
    "count_view": 0
  },
  {
    "link_thumb": "https://live.staticflickr.com/65535/48118735162_7a6e13ac53_n.jpg",
    "id_album": "-2100339805",
    "description": "Lamborghini_89300",
    "title": "Lamborghini_89300",
    "link_img": "https://live.staticflickr.com/65535/48118735162_eb560b2fff_o.jpg",
    "id_image": "Lamborghini_89300",
    "count_view": 0
  },
  {
    "link_thumb": "https://live.staticflickr.com/65535/48118645491_798f564582_n.jpg",
    "id_album": "-2100339805",
    "description": "Lamborghini_89309",
    "title": "Lamborghini_89309",
    "link_img": "https://live.staticflickr.com/65535/48118645491_3f6fcb2a2c_o.jpg",
    "id_image": "Lamborghini_89309",
    "count_view": 0
  },
  {
    "link_thumb": "https://live.staticflickr.com/65535/48118677333_5b7e9804e9_n.jpg",
    "id_album": "-2100339805",
    "description": "Lamborghini_89333",
    "title": "Lamborghini_89333",
    "link_img": "https://live.staticflickr.com/65535/48118677333_66e08981f7_o.jpg",
    "id_image": "Lamborghini_89333",
    "count_view": 0
  },
  {
    "link_thumb": "https://live.staticflickr.com/65535/48118646006_57c5fb900f_n.jpg",
    "id_album": "-2100339805",
    "description": "Lamborghini_895549",
    "title": "Lamborghini_895549",
    "link_img": "https://live.staticflickr.com/65535/48118646006_2b9f617ce3_o.jpg",
    "id_image": "Lamborghini_895549",
    "count_view": 0
  },
  {
    "link_thumb": "https://live.staticflickr.com/65535/48118677823_712702baca_n.jpg",
    "id_album": "-2100339805",
    "description": "Lamborghini_895864",
    "title": "Lamborghini_895864",
    "link_img": "https://live.staticflickr.com/65535/48118677823_5bb61e06aa_o.jpg",
    "id_image": "Lamborghini_895864",
    "count_view": 0
  },
  {
    "link_thumb": "https://live.staticflickr.com/65535/48118678033_ee762e32cd_n.jpg",
    "id_album": "-2100339805",
    "description": "Lamborghini_895868",
    "title": "Lamborghini_895868",
    "link_img": "https://live.staticflickr.com/65535/48118678033_34168607d8_o.jpg",
    "id_image": "Lamborghini_895868",
    "count_view": 0
  },
  {
    "link_thumb": "https://live.staticflickr.com/65535/48118646666_4ecb272672_n.jpg",
    "id_album": "-2100339805",
    "description": "Lamborghini_895871",
    "title": "Lamborghini_895871",
    "link_img": "https://live.staticflickr.com/65535/48118646666_b240afc7bd_o.jpg",
    "id_image": "Lamborghini_895871",
    "count_view": 0
  },
  {
    "link_thumb": "https://live.staticflickr.com/65535/48118646886_fd9a232c18_n.jpg",
    "id_album": "-2100339805",
    "description": "Lamborghini_895872",
    "title": "Lamborghini_895872",
    "link_img": "https://live.staticflickr.com/65535/48118646886_d92f4186f1_o.jpg",
    "id_image": "Lamborghini_895872",
    "count_view": 0
  },
  {
    "link_thumb": "https://live.staticflickr.com/65535/48118736982_dc2c6b66d8_n.jpg",
    "id_album": "-2100339805",
    "description": "Lamborghini_895876",
    "title": "Lamborghini_895876",
    "link_img": "https://live.staticflickr.com/65535/48118736982_c457eb60a8_o.jpg",
    "id_image": "Lamborghini_895876",
    "count_view": 0
  },
  {
    "link_thumb": "https://live.staticflickr.com/65535/48118647196_ffa0a10a23_n.jpg",
    "id_album": "-2100339805",
    "description": "Lamborghini_895883",
    "title": "Lamborghini_895883",
    "link_img": "https://live.staticflickr.com/65535/48118647196_f05898e806_o.jpg",
    "id_image": "Lamborghini_895883",
    "count_view": 0
  },
  {
    "link_thumb": "https://live.staticflickr.com/65535/48118647436_7f7ca87c48_n.jpg",
    "id_album": "-2100339805",
    "description": "Lamborghini_896445",
    "title": "Lamborghini_896445",
    "link_img": "https://live.staticflickr.com/65535/48118647436_5662990e5d_o.jpg",
    "id_image": "Lamborghini_896445",
    "count_view": 0
  },
  {
    "link_thumb": "https://live.staticflickr.com/65535/48118647656_6ef4038eca_n.jpg",
    "id_album": "-2100339805",
    "description": "Lamborghini_896447",
    "title": "Lamborghini_896447",
    "link_img": "https://live.staticflickr.com/65535/48118647656_d203861507_o.jpg",
    "id_image": "Lamborghini_896447",
    "count_view": 0
  },
  {
    "link_thumb": "https://live.staticflickr.com/65535/48118679338_02b3009de0_n.jpg",
    "id_album": "-2100339805",
    "description": "Lamborghini_897099",
    "title": "Lamborghini_897099",
    "link_img": "https://live.staticflickr.com/65535/48118679338_fdb956e849_o.jpg",
    "id_image": "Lamborghini_897099",
    "count_view": 0
  },
  {
    "link_thumb": "https://live.staticflickr.com/65535/48118679553_4fb09250e8_n.jpg",
    "id_album": "-2100339805",
    "description": "Lamborghini_898813",
    "title": "Lamborghini_898813",
    "link_img": "https://live.staticflickr.com/65535/48118679553_96a257ff53_o.jpg",
    "id_image": "Lamborghini_898813",
    "count_view": 0
  },
  {
    "link_thumb": "https://live.staticflickr.com/65535/48118738192_5d7e7c26b3_n.jpg",
    "id_album": "-2100339805",
    "description": "Lamborghini_899001",
    "title": "Lamborghini_899001",
    "link_img": "https://live.staticflickr.com/65535/48118738192_b7f64358fb_o.jpg",
    "id_image": "Lamborghini_899001",
    "count_view": 0
  },
  {
    "link_thumb": "https://live.staticflickr.com/65535/48118648821_b27089d6e7_n.jpg",
    "id_album": "-2100339805",
    "description": "Lamborghini_899590",
    "title": "Lamborghini_899590",
    "link_img": "https://live.staticflickr.com/65535/48118648821_2bc3224c6a_o.jpg",
    "id_image": "Lamborghini_899590",
    "count_view": 0
  },
  {
    "link_thumb": "https://live.staticflickr.com/65535/48118680533_5210fa3b21_n.jpg",
    "id_album": "-2100339805",
    "description": "Lamborghini_899591",
    "title": "Lamborghini_899591",
    "link_img": "https://live.staticflickr.com/65535/48118680533_9f30858fba_o.jpg",
    "id_image": "Lamborghini_899591",
    "count_view": 0
  },
  {
    "link_thumb": "https://live.staticflickr.com/65535/48118649281_265948364b_n.jpg",
    "id_album": "-2100339805",
    "description": "Lamborghini_899592",
    "title": "Lamborghini_899592",
    "link_img": "https://live.staticflickr.com/65535/48118649281_18240f50e4_o.jpg",
    "id_image": "Lamborghini_899592",
    "count_view": 0
  },
  {
    "link_thumb": "https://live.staticflickr.com/65535/48118649591_88047cc0c9_n.jpg",
    "id_album": "-2100339805",
    "description": "Lamborghini_899593",
    "title": "Lamborghini_899593",
    "link_img": "https://live.staticflickr.com/65535/48118649591_c8fe7979a7_o.jpg",
    "id_image": "Lamborghini_899593",
    "count_view": 0
  },
  {
    "link_thumb": "https://live.staticflickr.com/65535/48118681368_cfffe116d2_n.jpg",
    "id_album": "-2100339805",
    "description": "Lamborghini_899594",
    "title": "Lamborghini_899594",
    "link_img": "https://live.staticflickr.com/65535/48118681368_c7c32bf0da_o.jpg",
    "id_image": "Lamborghini_899594",
    "count_view": 0
  },
  {
    "link_thumb": "https://live.staticflickr.com/65535/48118681623_0175e7d91e_n.jpg",
    "id_album": "-2100339805",
    "description": "Lamborghini_899596",
    "title": "Lamborghini_899596",
    "link_img": "https://live.staticflickr.com/65535/48118681623_e1d4d03f42_o.jpg",
    "id_image": "Lamborghini_899596",
    "count_view": 0
  },
  {
    "link_thumb": "https://live.staticflickr.com/65535/48118681843_e76ebea5fe_n.jpg",
    "id_album": "-2100339805",
    "description": "Lamborghini_903744",
    "title": "Lamborghini_903744",
    "link_img": "https://live.staticflickr.com/65535/48118681843_2d4c65d4ec_o.jpg",
    "id_image": "Lamborghini_903744",
    "count_view": 0
  },
  {
    "link_thumb": "https://live.staticflickr.com/65535/48118740387_de46f85b2f_n.jpg",
    "id_album": "-2100339805",
    "description": "Lamborghini_905537",
    "title": "Lamborghini_905537",
    "link_img": "https://live.staticflickr.com/65535/48118740387_884817be67_o.jpg",
    "id_image": "Lamborghini_905537",
    "count_view": 0
  },
  {
    "link_thumb": "https://live.staticflickr.com/65535/48118740652_626957c8ab_n.jpg",
    "id_album": "-2100339805",
    "description": "Lamborghini_905681",
    "title": "Lamborghini_905681",
    "link_img": "https://live.staticflickr.com/65535/48118740652_5b7e23ee09_o.jpg",
    "id_image": "Lamborghini_905681",
    "count_view": 0
  },
  {
    "link_thumb": "https://live.staticflickr.com/65535/48118682513_f3a97f751f_n.jpg",
    "id_album": "-2100339805",
    "description": "Lamborghini_905861",
    "title": "Lamborghini_905861",
    "link_img": "https://live.staticflickr.com/65535/48118682513_44352a3dc4_o.jpg",
    "id_image": "Lamborghini_905861",
    "count_view": 0
  },
  {
    "link_thumb": "https://live.staticflickr.com/65535/48118651331_6aefce1fc2_n.jpg",
    "id_album": "-2100339805",
    "description": "Lamborghini_905998",
    "title": "Lamborghini_905998",
    "link_img": "https://live.staticflickr.com/65535/48118651331_b2e228d70b_o.jpg",
    "id_image": "Lamborghini_905998",
    "count_view": 0
  },
  {
    "link_thumb": "https://live.staticflickr.com/65535/48118683028_a163c03163_n.jpg",
    "id_album": "-2100339805",
    "description": "Lamborghini_905999",
    "title": "Lamborghini_905999",
    "link_img": "https://live.staticflickr.com/65535/48118683028_1d7f4ce914_o.jpg",
    "id_image": "Lamborghini_905999",
    "count_view": 0
  },
  {
    "link_thumb": "https://live.staticflickr.com/65535/48118651651_4520538011_n.jpg",
    "id_album": "-2100339805",
    "description": "Lamborghini_906000",
    "title": "Lamborghini_906000",
    "link_img": "https://live.staticflickr.com/65535/48118651651_6b38ddf555_o.jpg",
    "id_image": "Lamborghini_906000",
    "count_view": 0
  },
  {
    "link_thumb": "https://live.staticflickr.com/65535/48118651831_28d5e37481_n.jpg",
    "id_album": "-2100339805",
    "description": "Lamborghini_906001",
    "title": "Lamborghini_906001",
    "link_img": "https://live.staticflickr.com/65535/48118651831_60446af56e_o.jpg",
    "id_image": "Lamborghini_906001",
    "count_view": 0
  },
  {
    "link_thumb": "https://live.staticflickr.com/65535/48118741977_939396f497_n.jpg",
    "id_album": "-2100339805",
    "description": "Lamborghini_906041",
    "title": "Lamborghini_906041",
    "link_img": "https://live.staticflickr.com/65535/48118741977_eaf3f79d60_o.jpg",
    "id_image": "Lamborghini_906041",
    "count_view": 0
  },
  {
    "link_thumb": "https://live.staticflickr.com/65535/48118652266_a1352537c1_n.jpg",
    "id_album": "-2100339805",
    "description": "Lamborghini_906205",
    "title": "Lamborghini_906205",
    "link_img": "https://live.staticflickr.com/65535/48118652266_75ce59a6cf_o.jpg",
    "id_image": "Lamborghini_906205",
    "count_view": 0
  },
  {
    "link_thumb": "https://live.staticflickr.com/65535/48118684073_7178a128c5_n.jpg",
    "id_album": "-2100339805",
    "description": "Lamborghini_906684",
    "title": "Lamborghini_906684",
    "link_img": "https://live.staticflickr.com/65535/48118684073_26ffc0a688_o.jpg",
    "id_image": "Lamborghini_906684",
    "count_view": 0
  },
  {
    "link_thumb": "https://live.staticflickr.com/65535/48118742902_8db2844887_n.jpg",
    "id_album": "-2100339805",
    "description": "Lamborghini_907111",
    "title": "Lamborghini_907111",
    "link_img": "https://live.staticflickr.com/65535/48118742902_f6fcfcccc4_o.jpg",
    "id_image": "Lamborghini_907111",
    "count_view": 0
  },
  {
    "link_thumb": "https://live.staticflickr.com/65535/48118743092_cd65224610_n.jpg",
    "id_album": "-2100339805",
    "description": "Lamborghini_908140",
    "title": "Lamborghini_908140",
    "link_img": "https://live.staticflickr.com/65535/48118743092_878dcc8ebc_o.jpg",
    "id_image": "Lamborghini_908140",
    "count_view": 0
  },
  {
    "link_thumb": "https://live.staticflickr.com/65535/48118743557_cc8d45d44c_n.jpg",
    "id_album": "-2100339805",
    "description": "Lamborghini_908709",
    "title": "Lamborghini_908709",
    "link_img": "https://live.staticflickr.com/65535/48118743557_6b412be79e_o.jpg",
    "id_image": "Lamborghini_908709",
    "count_view": 0
  },
  {
    "link_thumb": "https://live.staticflickr.com/65535/48118685383_49476f956f_n.jpg",
    "id_album": "-2100339805",
    "description": "Lamborghini_908944",
    "title": "Lamborghini_908944",
    "link_img": "https://live.staticflickr.com/65535/48118685383_435e1d1989_o.jpg",
    "id_image": "Lamborghini_908944",
    "count_view": 0
  },
  {
    "link_thumb": "https://live.staticflickr.com/65535/48118685758_7542a6e64e_n.jpg",
    "id_album": "-2100339805",
    "description": "Lamborghini_909371",
    "title": "Lamborghini_909371",
    "link_img": "https://live.staticflickr.com/65535/48118685758_f01d24c6f5_o.jpg",
    "id_image": "Lamborghini_909371",
    "count_view": 0
  },
  {
    "link_thumb": "https://live.staticflickr.com/65535/48118654891_ce487b8bd5_n.jpg",
    "id_album": "-2100339805",
    "description": "Lamborghini_911208",
    "title": "Lamborghini_911208",
    "link_img": "https://live.staticflickr.com/65535/48118654891_d61b947e85_o.jpg",
    "id_image": "Lamborghini_911208",
    "count_view": 0
  },
  {
    "link_thumb": "https://live.staticflickr.com/65535/48118686588_378aefe6cc_n.jpg",
    "id_album": "-2100339805",
    "description": "Lamborghini_911473",
    "title": "Lamborghini_911473",
    "link_img": "https://live.staticflickr.com/65535/48118686588_334bf7c1b7_o.jpg",
    "id_image": "Lamborghini_911473",
    "count_view": 0
  },
  {
    "link_thumb": "https://live.staticflickr.com/65535/48118745367_a3268de72c_n.jpg",
    "id_album": "-2100339805",
    "description": "Lamborghini_911768",
    "title": "Lamborghini_911768",
    "link_img": "https://live.staticflickr.com/65535/48118745367_2c25c932a2_o.jpg",
    "id_image": "Lamborghini_911768",
    "count_view": 0
  },
  {
    "link_thumb": "https://live.staticflickr.com/65535/48118687148_bf9d75434b_n.jpg",
    "id_album": "-2100339805",
    "description": "Lamborghini_912226",
    "title": "Lamborghini_912226",
    "link_img": "https://live.staticflickr.com/65535/48118687148_d413e77d77_o.jpg",
    "id_image": "Lamborghini_912226",
    "count_view": 0
  },
  {
    "link_thumb": "https://live.staticflickr.com/65535/48118687323_028c12e2ff_n.jpg",
    "id_album": "-2100339805",
    "description": "Lamborghini_912279",
    "title": "Lamborghini_912279",
    "link_img": "https://live.staticflickr.com/65535/48118687323_451c0ef589_o.jpg",
    "id_image": "Lamborghini_912279",
    "count_view": 0
  },
  {
    "link_thumb": "https://live.staticflickr.com/65535/48118687618_7ec2597b72_n.jpg",
    "id_album": "-2100339805",
    "description": "Lamborghini_914840",
    "title": "Lamborghini_914840",
    "link_img": "https://live.staticflickr.com/65535/48118687618_e32c48b88d_o.jpg",
    "id_image": "Lamborghini_914840",
    "count_view": 0
  },
  {
    "link_thumb": "https://live.staticflickr.com/65535/48118687838_8cab0a3940_n.jpg",
    "id_album": "-2100339805",
    "description": "Lamborghini_918571",
    "title": "Lamborghini_918571",
    "link_img": "https://live.staticflickr.com/65535/48118687838_e7e6a1c4cc_o.jpg",
    "id_image": "Lamborghini_918571",
    "count_view": 0
  },
  {
    "link_thumb": "https://live.staticflickr.com/65535/48118747362_9eeb05ea2b_n.jpg",
    "id_album": "-2100339805",
    "description": "Lamborghini_918607",
    "title": "Lamborghini_918607",
    "link_img": "https://live.staticflickr.com/65535/48118747362_4aa6e4d9d6_o.jpg",
    "id_image": "Lamborghini_918607",
    "count_view": 0
  },
  {
    "link_thumb": "https://live.staticflickr.com/65535/48118658031_205a8c1b3a_n.jpg",
    "id_album": "-2100339805",
    "description": "Lamborghini_918608",
    "title": "Lamborghini_918608",
    "link_img": "https://live.staticflickr.com/65535/48118658031_feba443320_o.jpg",
    "id_image": "Lamborghini_918608",
    "count_view": 0
  },
  {
    "link_thumb": "https://live.staticflickr.com/65535/48118748107_fe07bfde03_n.jpg",
    "id_album": "-2100339805",
    "description": "Lamborghini_918782",
    "title": "Lamborghini_918782",
    "link_img": "https://live.staticflickr.com/65535/48118748107_ab14835211_o.jpg",
    "id_image": "Lamborghini_918782",
    "count_view": 0
  },
  {
    "link_thumb": "https://live.staticflickr.com/65535/48118748417_e7fa23d9f9_n.jpg",
    "id_album": "-2100339805",
    "description": "Lamborghini_924952",
    "title": "Lamborghini_924952",
    "link_img": "https://live.staticflickr.com/65535/48118748417_72d15b459a_o.jpg",
    "id_image": "Lamborghini_924952",
    "count_view": 0
  },
  {
    "link_thumb": "https://live.staticflickr.com/65535/48118748687_256a7f6c0d_n.jpg",
    "id_album": "-2100339805",
    "description": "Lamborghini_927635",
    "title": "Lamborghini_927635",
    "link_img": "https://live.staticflickr.com/65535/48118748687_c89d74a220_o.jpg",
    "id_image": "Lamborghini_927635",
    "count_view": 0
  },
  {
    "link_thumb": "https://live.staticflickr.com/65535/48118749057_da99a3edb7_n.jpg",
    "id_album": "-2100339805",
    "description": "Lamborghini_928074",
    "title": "Lamborghini_928074",
    "link_img": "https://live.staticflickr.com/65535/48118749057_aa2bafe2a7_o.jpg",
    "id_image": "Lamborghini_928074",
    "count_view": 0
  },
  {
    "link_thumb": "https://live.staticflickr.com/65535/48118691303_99d7260e04_n.jpg",
    "id_album": "-2100339805",
    "description": "Lamborghini_928076",
    "title": "Lamborghini_928076",
    "link_img": "https://live.staticflickr.com/65535/48118691303_8796dec4ec_o.jpg",
    "id_image": "Lamborghini_928076",
    "count_view": 0
  },
  {
    "link_thumb": "https://live.staticflickr.com/65535/48118660666_97dee92031_n.jpg",
    "id_album": "-2100339805",
    "description": "Lamborghini_928077",
    "title": "Lamborghini_928077",
    "link_img": "https://live.staticflickr.com/65535/48118660666_4949868d06_o.jpg",
    "id_image": "Lamborghini_928077",
    "count_view": 0
  },
  {
    "link_thumb": "https://live.staticflickr.com/65535/48118752067_65fa279d9d_n.jpg",
    "id_album": "-2100339805",
    "description": "Lamborghini_928078",
    "title": "Lamborghini_928078",
    "link_img": "https://live.staticflickr.com/65535/48118752067_6b29e83c3e_o.jpg",
    "id_image": "Lamborghini_928078",
    "count_view": 0
  },
  {
    "link_thumb": "https://live.staticflickr.com/65535/48118662641_0a3fa309fa_n.jpg",
    "id_album": "-2100339805",
    "description": "Lamborghini_928079",
    "title": "Lamborghini_928079",
    "link_img": "https://live.staticflickr.com/65535/48118662641_0de1f0098d_o.jpg",
    "id_image": "Lamborghini_928079",
    "count_view": 0
  },
  {
    "link_thumb": "https://live.staticflickr.com/65535/48118694238_7097e21463_n.jpg",
    "id_album": "-2100339805",
    "description": "Lamborghini_928080",
    "title": "Lamborghini_928080",
    "link_img": "https://live.staticflickr.com/65535/48118694238_9c09dd4813_o.jpg",
    "id_image": "Lamborghini_928080",
    "count_view": 0
  },
  {
    "link_thumb": "https://live.staticflickr.com/65535/48118663201_a4bdfe0a09_n.jpg",
    "id_album": "-2100339805",
    "description": "Lamborghini_928082",
    "title": "Lamborghini_928082",
    "link_img": "https://live.staticflickr.com/65535/48118663201_11dae083fb_o.jpg",
    "id_image": "Lamborghini_928082",
    "count_view": 0
  },
  {
    "link_thumb": "https://live.staticflickr.com/65535/48118663491_1dc3eca9d4_n.jpg",
    "id_album": "-2100339805",
    "description": "Lamborghini_928083",
    "title": "Lamborghini_928083",
    "link_img": "https://live.staticflickr.com/65535/48118663491_1fe2f9896e_o.jpg",
    "id_image": "Lamborghini_928083",
    "count_view": 0
  },
  {
    "link_thumb": "https://live.staticflickr.com/65535/48118753662_fbdd9cec2f_n.jpg",
    "id_album": "-2100339805",
    "description": "Lamborghini_928320",
    "title": "Lamborghini_928320",
    "link_img": "https://live.staticflickr.com/65535/48118753662_2a8a3eb6c8_o.jpg",
    "id_image": "Lamborghini_928320",
    "count_view": 0
  },
  {
    "link_thumb": "https://live.staticflickr.com/65535/48118695443_a4877dc400_n.jpg",
    "id_album": "-2100339805",
    "description": "Lamborghini_928569",
    "title": "Lamborghini_928569",
    "link_img": "https://live.staticflickr.com/65535/48118695443_6ba45e6c43_o.jpg",
    "id_image": "Lamborghini_928569",
    "count_view": 0
  },
  {
    "link_thumb": "https://live.staticflickr.com/65535/48118664296_ff2c65f053_n.jpg",
    "id_album": "-2100339805",
    "description": "Lamborghini_928570",
    "title": "Lamborghini_928570",
    "link_img": "https://live.staticflickr.com/65535/48118664296_6140d03008_o.jpg",
    "id_image": "Lamborghini_928570",
    "count_view": 0
  },
  {
    "link_thumb": "https://live.staticflickr.com/65535/48118696083_b200baed28_n.jpg",
    "id_album": "-2100339805",
    "description": "Lamborghini_928571",
    "title": "Lamborghini_928571",
    "link_img": "https://live.staticflickr.com/65535/48118696083_ca4a84c231_o.jpg",
    "id_image": "Lamborghini_928571",
    "count_view": 0
  },
  {
    "link_thumb": "https://live.staticflickr.com/65535/48118665146_e77713802c_n.jpg",
    "id_album": "-2100339805",
    "description": "Lamborghini_928593",
    "title": "Lamborghini_928593",
    "link_img": "https://live.staticflickr.com/65535/48118665146_1296f967d9_o.jpg",
    "id_image": "Lamborghini_928593",
    "count_view": 0
  },
  {
    "link_thumb": "https://live.staticflickr.com/65535/48118755802_d12ef42711_n.jpg",
    "id_album": "-2100339805",
    "description": "Lamborghini_928594",
    "title": "Lamborghini_928594",
    "link_img": "https://live.staticflickr.com/65535/48118755802_f0b04f8e1c_o.jpg",
    "id_image": "Lamborghini_928594",
    "count_view": 0
  },
  {
    "link_thumb": "https://live.staticflickr.com/65535/48118697933_d10ea24f89_n.jpg",
    "id_album": "-2100339805",
    "description": "Lamborghini_928595",
    "title": "Lamborghini_928595",
    "link_img": "https://live.staticflickr.com/65535/48118697933_aef8b68b8e_o.jpg",
    "id_image": "Lamborghini_928595",
    "count_view": 0
  },
  {
    "link_thumb": "https://live.staticflickr.com/65535/48118698583_9f5ebc9d9c_n.jpg",
    "id_album": "-2100339805",
    "description": "Lamborghini_928596",
    "title": "Lamborghini_928596",
    "link_img": "https://live.staticflickr.com/65535/48118698583_ccb4cab4fe_o.jpg",
    "id_image": "Lamborghini_928596",
    "count_view": 0
  },
  {
    "link_thumb": "https://live.staticflickr.com/65535/48118699178_6456338aca_n.jpg",
    "id_album": "-2100339805",
    "description": "Lamborghini_928597",
    "title": "Lamborghini_928597",
    "link_img": "https://live.staticflickr.com/65535/48118699178_8a4800d9fd_o.jpg",
    "id_image": "Lamborghini_928597",
    "count_view": 0
  },
  {
    "link_thumb": "https://live.staticflickr.com/65535/48118699613_6956d2db42_n.jpg",
    "id_album": "-2100339805",
    "description": "Lamborghini_928598",
    "title": "Lamborghini_928598",
    "link_img": "https://live.staticflickr.com/65535/48118699613_2d7c33a495_o.jpg",
    "id_image": "Lamborghini_928598",
    "count_view": 0
  },
  {
    "link_thumb": "https://live.staticflickr.com/65535/48118758997_ae56afcabf_n.jpg",
    "id_album": "-2100339805",
    "description": "Lamborghini_928601",
    "title": "Lamborghini_928601",
    "link_img": "https://live.staticflickr.com/65535/48118758997_b89750afc9_o.jpg",
    "id_image": "Lamborghini_928601",
    "count_view": 0
  },
  {
    "link_thumb": "https://live.staticflickr.com/65535/48118759727_d92d199a80_n.jpg",
    "id_album": "-2100339805",
    "description": "Lamborghini_928602",
    "title": "Lamborghini_928602",
    "link_img": "https://live.staticflickr.com/65535/48118759727_92293bc5e4_o.jpg",
    "id_image": "Lamborghini_928602",
    "count_view": 0
  },
  {
    "link_thumb": "https://live.staticflickr.com/65535/48118702048_d282861015_n.jpg",
    "id_album": "-2100339805",
    "description": "Lamborghini_928603",
    "title": "Lamborghini_928603",
    "link_img": "https://live.staticflickr.com/65535/48118702048_3d40193c9a_o.jpg",
    "id_image": "Lamborghini_928603",
    "count_view": 0
  },
  {
    "link_thumb": "https://live.staticflickr.com/65535/48118760862_af465c8e64_n.jpg",
    "id_album": "-2100339805",
    "description": "Lamborghini_928604",
    "title": "Lamborghini_928604",
    "link_img": "https://live.staticflickr.com/65535/48118760862_c017fc7f3d_o.jpg",
    "id_image": "Lamborghini_928604",
    "count_view": 0
  },
  {
    "link_thumb": "https://live.staticflickr.com/65535/48118671491_d050a15ff6_n.jpg",
    "id_album": "-2100339805",
    "description": "Lamborghini_928605",
    "title": "Lamborghini_928605",
    "link_img": "https://live.staticflickr.com/65535/48118671491_c931ef811a_o.jpg",
    "id_image": "Lamborghini_928605",
    "count_view": 0
  },
  {
    "link_thumb": "https://live.staticflickr.com/65535/48118762037_554399ba98_n.jpg",
    "id_album": "-2100339805",
    "description": "Lamborghini_928606",
    "title": "Lamborghini_928606",
    "link_img": "https://live.staticflickr.com/65535/48118762037_571e0cc1a4_o.jpg",
    "id_image": "Lamborghini_928606",
    "count_view": 0
  },
  {
    "link_thumb": "https://live.staticflickr.com/65535/48118704663_8aff182e98_n.jpg",
    "id_album": "-2100339805",
    "description": "Lamborghini_928608",
    "title": "Lamborghini_928608",
    "link_img": "https://live.staticflickr.com/65535/48118704663_9ff9f1aee9_o.jpg",
    "id_image": "Lamborghini_928608",
    "count_view": 0
  },
  {
    "link_thumb": "https://live.staticflickr.com/65535/48118673716_e6a0111021_n.jpg",
    "id_album": "-2100339805",
    "description": "Lamborghini_928609",
    "title": "Lamborghini_928609",
    "link_img": "https://live.staticflickr.com/65535/48118673716_71c1477cdd_o.jpg",
    "id_image": "Lamborghini_928609",
    "count_view": 0
  },
  {
    "link_thumb": "https://live.staticflickr.com/65535/48118764567_f1f362b8e4_n.jpg",
    "id_album": "-2100339805",
    "description": "Lamborghini_928615",
    "title": "Lamborghini_928615",
    "link_img": "https://live.staticflickr.com/65535/48118764567_23f7655552_o.jpg",
    "id_image": "Lamborghini_928615",
    "count_view": 0
  },
  {
    "link_thumb": "https://live.staticflickr.com/65535/48118765752_4ccb8d766b_n.jpg",
    "id_album": "-2100339805",
    "description": "Lamborghini_928616",
    "title": "Lamborghini_928616",
    "link_img": "https://live.staticflickr.com/65535/48118765752_44ac8b18bb_o.jpg",
    "id_image": "Lamborghini_928616",
    "count_view": 0
  },
  {
    "link_thumb": "https://live.staticflickr.com/65535/48118766937_4aa032ecc0_n.jpg",
    "id_album": "-2100339805",
    "description": "Lamborghini_928618",
    "title": "Lamborghini_928618",
    "link_img": "https://live.staticflickr.com/65535/48118766937_e3059cb2ff_o.jpg",
    "id_image": "Lamborghini_928618",
    "count_view": 0
  },
  {
    "link_thumb": "https://live.staticflickr.com/65535/48118768492_3233346298_n.jpg",
    "id_album": "-2100339805",
    "description": "Lamborghini_928620",
    "title": "Lamborghini_928620",
    "link_img": "https://live.staticflickr.com/65535/48118768492_2bc80e777b_o.jpg",
    "id_image": "Lamborghini_928620",
    "count_view": 0
  },
  {
    "link_thumb": "https://live.staticflickr.com/65535/48118768937_520a12bd32_n.jpg",
    "id_album": "-2100339805",
    "description": "Lamborghini_928621",
    "title": "Lamborghini_928621",
    "link_img": "https://live.staticflickr.com/65535/48118768937_63e3e66b37_o.jpg",
    "id_image": "Lamborghini_928621",
    "count_view": 0
  },
  {
    "link_thumb": "https://live.staticflickr.com/65535/48118769562_7f710ddf60_n.jpg",
    "id_album": "-2100339805",
    "description": "Lamborghini_928622",
    "title": "Lamborghini_928622",
    "link_img": "https://live.staticflickr.com/65535/48118769562_ef489be64c_o.jpg",
    "id_image": "Lamborghini_928622",
    "count_view": 0
  },
  {
    "link_thumb": "https://live.staticflickr.com/65535/48118769987_d2c3d7df49_n.jpg",
    "id_album": "-2100339805",
    "description": "Lamborghini_928774",
    "title": "Lamborghini_928774",
    "link_img": "https://live.staticflickr.com/65535/48118769987_673e9955d2_o.jpg",
    "id_image": "Lamborghini_928774",
    "count_view": 0
  },
  {
    "link_thumb": "https://live.staticflickr.com/65535/48118680576_906521c60b_n.jpg",
    "id_album": "-2100339805",
    "description": "Lamborghini_929495",
    "title": "Lamborghini_929495",
    "link_img": "https://live.staticflickr.com/65535/48118680576_1f288c1c6e_o.jpg",
    "id_image": "Lamborghini_929495",
    "count_view": 0
  },
  {
    "link_thumb": "https://live.staticflickr.com/65535/48118712313_b8180815e5_n.jpg",
    "id_album": "-2100339805",
    "description": "Lamborghini_929496",
    "title": "Lamborghini_929496",
    "link_img": "https://live.staticflickr.com/65535/48118712313_98c541e336_o.jpg",
    "id_image": "Lamborghini_929496",
    "count_view": 0
  },
  {
    "link_thumb": "https://live.staticflickr.com/65535/48118712548_3abf7f0004_n.jpg",
    "id_album": "-2100339805",
    "description": "Lamborghini_929497",
    "title": "Lamborghini_929497",
    "link_img": "https://live.staticflickr.com/65535/48118712548_9a3376025f_o.jpg",
    "id_image": "Lamborghini_929497",
    "count_view": 0
  },
  {
    "link_thumb": "https://live.staticflickr.com/65535/48118712953_e933db1080_n.jpg",
    "id_album": "-2100339805",
    "description": "Lamborghini_930187",
    "title": "Lamborghini_930187",
    "link_img": "https://live.staticflickr.com/65535/48118712953_50842ccb10_o.jpg",
    "id_image": "Lamborghini_930187",
    "count_view": 0
  },
  {
    "link_thumb": "https://live.staticflickr.com/65535/48118681731_ea755a4bf4_n.jpg",
    "id_album": "-2100339805",
    "description": "Lamborghini_930188",
    "title": "Lamborghini_930188",
    "link_img": "https://live.staticflickr.com/65535/48118681731_43ec1728c6_o.jpg",
    "id_image": "Lamborghini_930188",
    "count_view": 0
  },
  {
    "link_thumb": "https://live.staticflickr.com/65535/48118772492_b647762e15_n.jpg",
    "id_album": "-2100339805",
    "description": "Lamborghini_930189",
    "title": "Lamborghini_930189",
    "link_img": "https://live.staticflickr.com/65535/48118772492_b15dfea6c1_o.jpg",
    "id_image": "Lamborghini_930189",
    "count_view": 0
  },
  {
    "link_thumb": "https://live.staticflickr.com/65535/48118772757_8605c77869_n.jpg",
    "id_album": "-2100339805",
    "description": "Lamborghini_930199",
    "title": "Lamborghini_930199",
    "link_img": "https://live.staticflickr.com/65535/48118772757_e9c118149e_o.jpg",
    "id_image": "Lamborghini_930199",
    "count_view": 0
  },
  {
    "link_thumb": "https://live.staticflickr.com/65535/48118773237_921a514565_n.jpg",
    "id_album": "-2100339805",
    "description": "Lamborghini_930200",
    "title": "Lamborghini_930200",
    "link_img": "https://live.staticflickr.com/65535/48118773237_ca5a31dd99_o.jpg",
    "id_image": "Lamborghini_930200",
    "count_view": 0
  },
  {
    "link_thumb": "https://live.staticflickr.com/65535/48118773532_b0bdf61894_n.jpg",
    "id_album": "-2100339805",
    "description": "Lamborghini_930204",
    "title": "Lamborghini_930204",
    "link_img": "https://live.staticflickr.com/65535/48118773532_d2c7dd9411_o.jpg",
    "id_image": "Lamborghini_930204",
    "count_view": 0
  },
  {
    "link_thumb": "https://live.staticflickr.com/65535/48118715498_50bb1a3e93_n.jpg",
    "id_album": "-2100339805",
    "description": "Lamborghini_931786",
    "title": "Lamborghini_931786",
    "link_img": "https://live.staticflickr.com/65535/48118715498_cbb9b39aff_o.jpg",
    "id_image": "Lamborghini_931786",
    "count_view": 0
  },
  {
    "link_thumb": "https://live.staticflickr.com/65535/48118684116_fe7ded9c4c_n.jpg",
    "id_album": "-2100339805",
    "description": "Lamborghini_931787",
    "title": "Lamborghini_931787",
    "link_img": "https://live.staticflickr.com/65535/48118684116_a4c6b7a64e_o.jpg",
    "id_image": "Lamborghini_931787",
    "count_view": 0
  },
  {
    "link_thumb": "https://live.staticflickr.com/65535/48118774287_af5b38bb3a_n.jpg",
    "id_album": "-2100339805",
    "description": "Lamborghini_931788",
    "title": "Lamborghini_931788",
    "link_img": "https://live.staticflickr.com/65535/48118774287_99b033a658_o.jpg",
    "id_image": "Lamborghini_931788",
    "count_view": 0
  },
  {
    "link_thumb": "https://live.staticflickr.com/65535/48118684571_66706e662c_n.jpg",
    "id_album": "-2100339805",
    "description": "Lamborghini_931789",
    "title": "Lamborghini_931789",
    "link_img": "https://live.staticflickr.com/65535/48118684571_1eb29767da_o.jpg",
    "id_image": "Lamborghini_931789",
    "count_view": 0
  },
  {
    "link_thumb": "https://live.staticflickr.com/65535/48118716598_6a50778862_n.jpg",
    "id_album": "-2100339805",
    "description": "Lamborghini_931790",
    "title": "Lamborghini_931790",
    "link_img": "https://live.staticflickr.com/65535/48118716598_fccb5f3690_o.jpg",
    "id_image": "Lamborghini_931790",
    "count_view": 0
  },
  {
    "link_thumb": "https://live.staticflickr.com/65535/48118775017_1cd7397c37_n.jpg",
    "id_album": "-2100339805",
    "description": "Lamborghini_931791",
    "title": "Lamborghini_931791",
    "link_img": "https://live.staticflickr.com/65535/48118775017_5d29fd0874_o.jpg",
    "id_image": "Lamborghini_931791",
    "count_view": 0
  },
  {
    "link_thumb": "https://live.staticflickr.com/65535/48118775232_0f5355ff05_n.jpg",
    "id_album": "-2100339805",
    "description": "Lamborghini_932755",
    "title": "Lamborghini_932755",
    "link_img": "https://live.staticflickr.com/65535/48118775232_e4f5b7574d_o.jpg",
    "id_image": "Lamborghini_932755",
    "count_view": 0
  },
  {
    "link_thumb": "https://live.staticflickr.com/65535/48118717293_dbaf138e7f_n.jpg",
    "id_album": "-2100339805",
    "description": "Lamborghini_933135",
    "title": "Lamborghini_933135",
    "link_img": "https://live.staticflickr.com/65535/48118717293_05db7f9829_o.jpg",
    "id_image": "Lamborghini_933135",
    "count_view": 0
  },
  {
    "link_thumb": "https://live.staticflickr.com/65535/48118717733_f6426e23a9_n.jpg",
    "id_album": "-2100339805",
    "description": "Lamborghini_936207",
    "title": "Lamborghini_936207",
    "link_img": "https://live.staticflickr.com/65535/48118717733_8d1ca3a117_o.jpg",
    "id_image": "Lamborghini_936207",
    "count_view": 0
  },
  {
    "link_thumb": "https://live.staticflickr.com/65535/48118686286_7fd72f7ba7_n.jpg",
    "id_album": "-2100339805",
    "description": "Lamborghini_936447",
    "title": "Lamborghini_936447",
    "link_img": "https://live.staticflickr.com/65535/48118686286_7e2701af3e_o.jpg",
    "id_image": "Lamborghini_936447",
    "count_view": 0
  },
  {
    "link_thumb": "https://live.staticflickr.com/65535/48118686446_b1efbb6303_n.jpg",
    "id_album": "-2100339805",
    "description": "Lamborghini_936770",
    "title": "Lamborghini_936770",
    "link_img": "https://live.staticflickr.com/65535/48118686446_448a1cc95e_o.jpg",
    "id_image": "Lamborghini_936770",
    "count_view": 0
  },
  {
    "link_thumb": "https://live.staticflickr.com/65535/48118686716_96ea843244_n.jpg",
    "id_album": "-2100339805",
    "description": "Lamborghini_936911",
    "title": "Lamborghini_936911",
    "link_img": "https://live.staticflickr.com/65535/48118686716_102bc1b4a3_o.jpg",
    "id_image": "Lamborghini_936911",
    "count_view": 0
  },
  {
    "link_thumb": "https://live.staticflickr.com/65535/48118718853_b79309aa02_n.jpg",
    "id_album": "-2100339805",
    "description": "Lamborghini_937785",
    "title": "Lamborghini_937785",
    "link_img": "https://live.staticflickr.com/65535/48118718853_3d10ec8aca_o.jpg",
    "id_image": "Lamborghini_937785",
    "count_view": 0
  },
  {
    "link_thumb": "https://live.staticflickr.com/65535/48118777357_ca055f4261_n.jpg",
    "id_album": "-2100339805",
    "description": "Lamborghini_937786",
    "title": "Lamborghini_937786",
    "link_img": "https://live.staticflickr.com/65535/48118777357_93c6e8eeaa_o.jpg",
    "id_image": "Lamborghini_937786",
    "count_view": 0
  },
  {
    "link_thumb": "https://live.staticflickr.com/65535/48118777672_139d8bc68f_n.jpg",
    "id_album": "-2100339805",
    "description": "Lamborghini_937787",
    "title": "Lamborghini_937787",
    "link_img": "https://live.staticflickr.com/65535/48118777672_122a237c6c_o.jpg",
    "id_image": "Lamborghini_937787",
    "count_view": 0
  },
  {
    "link_thumb": "https://live.staticflickr.com/65535/48118720193_6330ffbf8e_n.jpg",
    "id_album": "-2100339805",
    "description": "Lamborghini_938138",
    "title": "Lamborghini_938138",
    "link_img": "https://live.staticflickr.com/65535/48118720193_40cec370db_o.jpg",
    "id_image": "Lamborghini_938138",
    "count_view": 0
  },
  {
    "link_thumb": "https://live.staticflickr.com/65535/48118689141_64ee32dee4_n.jpg",
    "id_album": "-2100339805",
    "description": "Lamborghini_938139",
    "title": "Lamborghini_938139",
    "link_img": "https://live.staticflickr.com/65535/48118689141_d3e024a336_o.jpg",
    "id_image": "Lamborghini_938139",
    "count_view": 0
  },
  {
    "link_thumb": "https://live.staticflickr.com/65535/48118720993_07aee2780e_n.jpg",
    "id_album": "-2100339805",
    "description": "Lamborghini_938315",
    "title": "Lamborghini_938315",
    "link_img": "https://live.staticflickr.com/65535/48118720993_383298ff53_o.jpg",
    "id_image": "Lamborghini_938315",
    "count_view": 0
  },
  {
    "link_thumb": "https://live.staticflickr.com/65535/48118779232_e843559bf1_n.jpg",
    "id_album": "-2100339805",
    "description": "Lamborghini_939620",
    "title": "Lamborghini_939620",
    "link_img": "https://live.staticflickr.com/65535/48118779232_ed23be4f9b_o.jpg",
    "id_image": "Lamborghini_939620",
    "count_view": 0
  },
  {
    "link_thumb": "https://live.staticflickr.com/65535/48118689846_74d4079bb5_n.jpg",
    "id_album": "-2100339805",
    "description": "Lamborghini_940231",
    "title": "Lamborghini_940231",
    "link_img": "https://live.staticflickr.com/65535/48118689846_e03e602605_o.jpg",
    "id_image": "Lamborghini_940231",
    "count_view": 0
  },
  {
    "link_thumb": "https://live.staticflickr.com/65535/48118721663_25e75096fb_n.jpg",
    "id_album": "-2100339805",
    "description": "Lamborghini_941083",
    "title": "Lamborghini_941083",
    "link_img": "https://live.staticflickr.com/65535/48118721663_afc62dd635_o.jpg",
    "id_image": "Lamborghini_941083",
    "count_view": 0
  },
  {
    "link_thumb": "https://live.staticflickr.com/65535/48118779902_93c94becb4_n.jpg",
    "id_album": "-2100339805",
    "description": "Lamborghini_941273",
    "title": "Lamborghini_941273",
    "link_img": "https://live.staticflickr.com/65535/48118779902_bdf16f4365_o.jpg",
    "id_image": "Lamborghini_941273",
    "count_view": 0
  },
  {
    "link_thumb": "https://live.staticflickr.com/65535/48118690686_ced034f737_n.jpg",
    "id_album": "-2100339805",
    "description": "Lamborghini_941274",
    "title": "Lamborghini_941274",
    "link_img": "https://live.staticflickr.com/65535/48118690686_8f3a1f3647_o.jpg",
    "id_image": "Lamborghini_941274",
    "count_view": 0
  },
  {
    "link_thumb": "https://live.staticflickr.com/65535/48118780287_4bcbebb624_n.jpg",
    "id_album": "-2100339805",
    "description": "Lamborghini_941530",
    "title": "Lamborghini_941530",
    "link_img": "https://live.staticflickr.com/65535/48118780287_6366f7eb9f_o.jpg",
    "id_image": "Lamborghini_941530",
    "count_view": 0
  },
  {
    "link_thumb": "https://live.staticflickr.com/65535/48118691166_8b38daff92_n.jpg",
    "id_album": "-2100339805",
    "description": "Lamborghini_941531",
    "title": "Lamborghini_941531",
    "link_img": "https://live.staticflickr.com/65535/48118691166_0d5fb5dc98_o.jpg",
    "id_image": "Lamborghini_941531",
    "count_view": 0
  },
  {
    "link_thumb": "https://live.staticflickr.com/65535/48118722773_0e5fa38a9a_n.jpg",
    "id_album": "-2100339805",
    "description": "Lamborghini_941532",
    "title": "Lamborghini_941532",
    "link_img": "https://live.staticflickr.com/65535/48118722773_8fb1a902fb_o.jpg",
    "id_image": "Lamborghini_941532",
    "count_view": 0
  },
  {
    "link_thumb": "https://live.staticflickr.com/65535/48118723028_7299c994a6_n.jpg",
    "id_album": "-2100339805",
    "description": "Lamborghini_941533",
    "title": "Lamborghini_941533",
    "link_img": "https://live.staticflickr.com/65535/48118723028_aec578a1c2_o.jpg",
    "id_image": "Lamborghini_941533",
    "count_view": 0
  },
  {
    "link_thumb": "https://live.staticflickr.com/65535/48118723158_31c98e75ff_n.jpg",
    "id_album": "-2100339805",
    "description": "Lamborghini_941534",
    "title": "Lamborghini_941534",
    "link_img": "https://live.staticflickr.com/65535/48118723158_d7c2bc5a05_o.jpg",
    "id_image": "Lamborghini_941534",
    "count_view": 0
  },
  {
    "link_thumb": "https://live.staticflickr.com/65535/48118723358_e316006126_n.jpg",
    "id_album": "-2100339805",
    "description": "Lamborghini_941535",
    "title": "Lamborghini_941535",
    "link_img": "https://live.staticflickr.com/65535/48118723358_1b5cb648a1_o.jpg",
    "id_image": "Lamborghini_941535",
    "count_view": 0
  },
  {
    "link_thumb": "https://live.staticflickr.com/65535/48118723878_2fb8149f48_n.jpg",
    "id_album": "-2100339805",
    "description": "Lamborghini_941536",
    "title": "Lamborghini_941536",
    "link_img": "https://live.staticflickr.com/65535/48118723878_2964bcbf35_o.jpg",
    "id_image": "Lamborghini_941536",
    "count_view": 0
  },
  {
    "link_thumb": "https://live.staticflickr.com/65535/48118692711_41107e91dd_n.jpg",
    "id_album": "-2100339805",
    "description": "Lamborghini_941537",
    "title": "Lamborghini_941537",
    "link_img": "https://live.staticflickr.com/65535/48118692711_5b7e52fd25_o.jpg",
    "id_image": "Lamborghini_941537",
    "count_view": 0
  },
  {
    "link_thumb": "https://live.staticflickr.com/65535/48118692911_046dae5843_n.jpg",
    "id_album": "-2100339805",
    "description": "Lamborghini_941538",
    "title": "Lamborghini_941538",
    "link_img": "https://live.staticflickr.com/65535/48118692911_71efc23c6b_o.jpg",
    "id_image": "Lamborghini_941538",
    "count_view": 0
  },
  {
    "link_thumb": "https://live.staticflickr.com/65535/48118693146_0e74b6d13e_n.jpg",
    "id_album": "-2100339805",
    "description": "Lamborghini_941824",
    "title": "Lamborghini_941824",
    "link_img": "https://live.staticflickr.com/65535/48118693146_58f0b6f499_o.jpg",
    "id_image": "Lamborghini_941824",
    "count_view": 0
  },
  {
    "link_thumb": "https://live.staticflickr.com/65535/48118783067_743cc35276_n.jpg",
    "id_album": "-2100339805",
    "description": "Lamborghini_941918",
    "title": "Lamborghini_941918",
    "link_img": "https://live.staticflickr.com/65535/48118783067_f7f69f1080_o.jpg",
    "id_image": "Lamborghini_941918",
    "count_view": 0
  },
  {
    "link_thumb": "https://live.staticflickr.com/65535/48118783357_42de073228_n.jpg",
    "id_album": "-2100339805",
    "description": "Lamborghini_942329",
    "title": "Lamborghini_942329",
    "link_img": "https://live.staticflickr.com/65535/48118783357_464ed73d02_o.jpg",
    "id_image": "Lamborghini_942329",
    "count_view": 0
  },
  {
    "link_thumb": "https://live.staticflickr.com/65535/48118693981_05262e6c83_n.jpg",
    "id_album": "-2100339805",
    "description": "Lamborghini_943511",
    "title": "Lamborghini_943511",
    "link_img": "https://live.staticflickr.com/65535/48118693981_6ed7da9a59_o.jpg",
    "id_image": "Lamborghini_943511",
    "count_view": 0
  },
  {
    "link_thumb": "https://live.staticflickr.com/65535/48118694296_2e9e7ed502_n.jpg",
    "id_album": "-2100339805",
    "description": "Lamborghini_943512",
    "title": "Lamborghini_943512",
    "link_img": "https://live.staticflickr.com/65535/48118694296_cc80018c3f_o.jpg",
    "id_image": "Lamborghini_943512",
    "count_view": 0
  },
  {
    "link_thumb": "https://live.staticflickr.com/65535/48118784107_57f58d1257_n.jpg",
    "id_album": "-2100339805",
    "description": "Lamborghini_943513",
    "title": "Lamborghini_943513",
    "link_img": "https://live.staticflickr.com/65535/48118784107_f561f65c2a_o.jpg",
    "id_image": "Lamborghini_943513",
    "count_view": 0
  },
  {
    "link_thumb": "https://live.staticflickr.com/65535/48118694816_7723c2025a_n.jpg",
    "id_album": "-2100339805",
    "description": "Lamborghini_945677",
    "title": "Lamborghini_945677",
    "link_img": "https://live.staticflickr.com/65535/48118694816_5444f06165_o.jpg",
    "id_image": "Lamborghini_945677",
    "count_view": 0
  },
  {
    "link_thumb": "https://live.staticflickr.com/65535/48118726243_ce735e2394_n.jpg",
    "id_album": "-2100339805",
    "description": "Lamborghini_947174",
    "title": "Lamborghini_947174",
    "link_img": "https://live.staticflickr.com/65535/48118726243_4a9237a48e_o.jpg",
    "id_image": "Lamborghini_947174",
    "count_view": 0
  },
  {
    "link_thumb": "https://live.staticflickr.com/65535/48118785092_499efd69b0_n.jpg",
    "id_album": "-2100339805",
    "description": "Lamborghini_947175",
    "title": "Lamborghini_947175",
    "link_img": "https://live.staticflickr.com/65535/48118785092_c506bd77e1_o.jpg",
    "id_image": "Lamborghini_947175",
    "count_view": 0
  },
  {
    "link_thumb": "https://live.staticflickr.com/65535/48118785352_66b4faba26_n.jpg",
    "id_album": "-2100339805",
    "description": "Lamborghini_947815",
    "title": "Lamborghini_947815",
    "link_img": "https://live.staticflickr.com/65535/48118785352_ef4b8b860f_o.jpg",
    "id_image": "Lamborghini_947815",
    "count_view": 0
  },
  {
    "link_thumb": "https://live.staticflickr.com/65535/48118728038_947612d8f7_n.jpg",
    "id_album": "-2100339805",
    "description": "Lamborghini_947963",
    "title": "Lamborghini_947963",
    "link_img": "https://live.staticflickr.com/65535/48118728038_5b0f52f554_o.jpg",
    "id_image": "Lamborghini_947963",
    "count_view": 0
  },
  {
    "link_thumb": "https://live.staticflickr.com/65535/48118786662_644fc2e7e5_n.jpg",
    "id_album": "-2100339805",
    "description": "Lamborghini_948153",
    "title": "Lamborghini_948153",
    "link_img": "https://live.staticflickr.com/65535/48118786662_89fcd10b19_o.jpg",
    "id_image": "Lamborghini_948153",
    "count_view": 0
  },
  {
    "link_thumb": "https://live.staticflickr.com/65535/48118697351_96cb036360_n.jpg",
    "id_album": "-2100339805",
    "description": "Lamborghini_948413",
    "title": "Lamborghini_948413",
    "link_img": "https://live.staticflickr.com/65535/48118697351_0c5fea1a88_o.jpg",
    "id_image": "Lamborghini_948413",
    "count_view": 0
  },
  {
    "link_thumb": "https://live.staticflickr.com/65535/48118787127_2601390714_n.jpg",
    "id_album": "-2100339805",
    "description": "Lamborghini_948607",
    "title": "Lamborghini_948607",
    "link_img": "https://live.staticflickr.com/65535/48118787127_a03f107c1b_o.jpg",
    "id_image": "Lamborghini_948607",
    "count_view": 0
  },
  {
    "link_thumb": "https://live.staticflickr.com/65535/48118729068_5360be0fa7_n.jpg",
    "id_album": "-2100339805",
    "description": "Lamborghini_948609",
    "title": "Lamborghini_948609",
    "link_img": "https://live.staticflickr.com/65535/48118729068_a0e6ed8596_o.jpg",
    "id_image": "Lamborghini_948609",
    "count_view": 0
  },
  {
    "link_thumb": "https://live.staticflickr.com/65535/48118729413_d9d75f0e18_n.jpg",
    "id_album": "-2100339805",
    "description": "Lamborghini_948610",
    "title": "Lamborghini_948610",
    "link_img": "https://live.staticflickr.com/65535/48118729413_e1c1aa3384_o.jpg",
    "id_image": "Lamborghini_948610",
    "count_view": 0
  },
  {
    "link_thumb": "https://live.staticflickr.com/65535/48118729618_beb33fab4c_n.jpg",
    "id_album": "-2100339805",
    "description": "Lamborghini_948611",
    "title": "Lamborghini_948611",
    "link_img": "https://live.staticflickr.com/65535/48118729618_391a1ae57f_o.jpg",
    "id_image": "Lamborghini_948611",
    "count_view": 0
  },
  {
    "link_thumb": "https://live.staticflickr.com/65535/48118729893_b5ccf48cd0_n.jpg",
    "id_album": "-2100339805",
    "description": "Lamborghini_948613",
    "title": "Lamborghini_948613",
    "link_img": "https://live.staticflickr.com/65535/48118729893_f15a7a7dcc_o.jpg",
    "id_image": "Lamborghini_948613",
    "count_view": 0
  },
  {
    "link_thumb": "https://live.staticflickr.com/65535/48118698911_c93151188c_n.jpg",
    "id_album": "-2100339805",
    "description": "Lamborghini_948614",
    "title": "Lamborghini_948614",
    "link_img": "https://live.staticflickr.com/65535/48118698911_a4384f4c28_o.jpg",
    "id_image": "Lamborghini_948614",
    "count_view": 0
  },
  {
    "link_thumb": "https://live.staticflickr.com/65535/48118730383_6a8dcd57e0_n.jpg",
    "id_album": "-2100339805",
    "description": "Lamborghini_948991",
    "title": "Lamborghini_948991",
    "link_img": "https://live.staticflickr.com/65535/48118730383_0273524a0f_o.jpg",
    "id_image": "Lamborghini_948991",
    "count_view": 0
  },
  {
    "link_thumb": "https://live.staticflickr.com/65535/48118730583_b37b8171c8_n.jpg",
    "id_album": "-2100339805",
    "description": "Lamborghini_948993",
    "title": "Lamborghini_948993",
    "link_img": "https://live.staticflickr.com/65535/48118730583_52c25b7f3f_o.jpg",
    "id_image": "Lamborghini_948993",
    "count_view": 0
  },
  {
    "link_thumb": "https://live.staticflickr.com/65535/48118730983_a08e327615_n.jpg",
    "id_album": "-2100339805",
    "description": "Lamborghini_949009",
    "title": "Lamborghini_949009",
    "link_img": "https://live.staticflickr.com/65535/48118730983_42cdb6006a_o.jpg",
    "id_image": "Lamborghini_949009",
    "count_view": 0
  },
  {
    "link_thumb": "https://live.staticflickr.com/65535/48118699961_55694340f1_n.jpg",
    "id_album": "-2100339805",
    "description": "Lamborghini_950582",
    "title": "Lamborghini_950582",
    "link_img": "https://live.staticflickr.com/65535/48118699961_dbe0c9c6da_o.jpg",
    "id_image": "Lamborghini_950582",
    "count_view": 0
  },
  {
    "link_thumb": "https://live.staticflickr.com/65535/48118731573_1d99edf0c9_n.jpg",
    "id_album": "-2100339805",
    "description": "Lamborghini_951646",
    "title": "Lamborghini_951646",
    "link_img": "https://live.staticflickr.com/65535/48118731573_7671aabb24_o.jpg",
    "id_image": "Lamborghini_951646",
    "count_view": 0
  },
  {
    "link_thumb": "https://live.staticflickr.com/65535/48118790152_90b470bb64_n.jpg",
    "id_album": "-2100339805",
    "description": "Lamborghini_951647",
    "title": "Lamborghini_951647",
    "link_img": "https://live.staticflickr.com/65535/48118790152_8754f560cf_o.jpg",
    "id_image": "Lamborghini_951647",
    "count_view": 0
  },
  {
    "link_thumb": "https://live.staticflickr.com/65535/48118701026_87dbd7c863_n.jpg",
    "id_album": "-2100339805",
    "description": "Lamborghini_955061",
    "title": "Lamborghini_955061",
    "link_img": "https://live.staticflickr.com/65535/48118701026_8ca11c5208_o.jpg",
    "id_image": "Lamborghini_955061",
    "count_view": 0
  },
  {
    "link_thumb": "https://live.staticflickr.com/65535/48118732748_79f1fa0ac7_n.jpg",
    "id_album": "-2100339805",
    "description": "Lamborghini_955566",
    "title": "Lamborghini_955566",
    "link_img": "https://live.staticflickr.com/65535/48118732748_2fa36471d8_o.jpg",
    "id_image": "Lamborghini_955566",
    "count_view": 0
  },
  {
    "link_thumb": "https://live.staticflickr.com/65535/48118791107_3cd34d1dbd_n.jpg",
    "id_album": "-2100339805",
    "description": "Lamborghini_955809",
    "title": "Lamborghini_955809",
    "link_img": "https://live.staticflickr.com/65535/48118791107_1c4dfbb6b5_o.jpg",
    "id_image": "Lamborghini_955809",
    "count_view": 0
  },
  {
    "link_thumb": "https://live.staticflickr.com/65535/48118702116_94cfc16d29_n.jpg",
    "id_album": "-2100339805",
    "description": "Lamborghini_957119",
    "title": "Lamborghini_957119",
    "link_img": "https://live.staticflickr.com/65535/48118702116_56d49b80c9_o.jpg",
    "id_image": "Lamborghini_957119",
    "count_view": 0
  },
  {
    "link_thumb": "https://live.staticflickr.com/65535/48118792047_9fd342ca1a_n.jpg",
    "id_album": "-2100339805",
    "description": "Lamborghini_959159",
    "title": "Lamborghini_959159",
    "link_img": "https://live.staticflickr.com/65535/48118792047_1c7176541c_o.jpg",
    "id_image": "Lamborghini_959159",
    "count_view": 0
  },
  {
    "link_thumb": "https://live.staticflickr.com/65535/48118703081_0339b96e64_n.jpg",
    "id_album": "-2100339805",
    "description": "Lamborghini_959313",
    "title": "Lamborghini_959313",
    "link_img": "https://live.staticflickr.com/65535/48118703081_c854a936f0_o.jpg",
    "id_image": "Lamborghini_959313",
    "count_view": 0
  },
  {
    "link_thumb": "https://live.staticflickr.com/65535/48118703386_c6996789f2_n.jpg",
    "id_album": "-2100339805",
    "description": "Lamborghini_959315",
    "title": "Lamborghini_959315",
    "link_img": "https://live.staticflickr.com/65535/48118703386_278f6a13de_o.jpg",
    "id_image": "Lamborghini_959315",
    "count_view": 0
  },
  {
    "link_thumb": "https://live.staticflickr.com/65535/48118734998_a2015d2e91_n.jpg",
    "id_album": "-2100339805",
    "description": "Lamborghini_959345",
    "title": "Lamborghini_959345",
    "link_img": "https://live.staticflickr.com/65535/48118734998_f9c99f044b_o.jpg",
    "id_image": "Lamborghini_959345",
    "count_view": 0
  },
  {
    "link_thumb": "https://live.staticflickr.com/65535/48118793272_0933f6be8d_n.jpg",
    "id_album": "-2100339805",
    "description": "Lamborghini_959346",
    "title": "Lamborghini_959346",
    "link_img": "https://live.staticflickr.com/65535/48118793272_f751cfc9e4_o.jpg",
    "id_image": "Lamborghini_959346",
    "count_view": 0
  },
  {
    "link_thumb": "https://live.staticflickr.com/65535/48118735603_ff31264c29_n.jpg",
    "id_album": "-2100339805",
    "description": "Lamborghini_960232",
    "title": "Lamborghini_960232",
    "link_img": "https://live.staticflickr.com/65535/48118735603_939e1ba4ce_o.jpg",
    "id_image": "Lamborghini_960232",
    "count_view": 0
  },
  {
    "link_thumb": "https://live.staticflickr.com/65535/48118735953_f6c4ffb6f3_n.jpg",
    "id_album": "-2100339805",
    "description": "Lamborghini_962062",
    "title": "Lamborghini_962062",
    "link_img": "https://live.staticflickr.com/65535/48118735953_478015ef93_o.jpg",
    "id_image": "Lamborghini_962062",
    "count_view": 0
  },
  {
    "link_thumb": "https://live.staticflickr.com/65535/48118794507_3c2049fa85_n.jpg",
    "id_album": "-2100339805",
    "description": "Lamborghini_962133",
    "title": "Lamborghini_962133",
    "link_img": "https://live.staticflickr.com/65535/48118794507_83204264ea_o.jpg",
    "id_image": "Lamborghini_962133",
    "count_view": 0
  },
  {
    "link_thumb": "https://live.staticflickr.com/65535/48118705271_38c91a82d8_n.jpg",
    "id_album": "-2100339805",
    "description": "Lamborghini_962134",
    "title": "Lamborghini_962134",
    "link_img": "https://live.staticflickr.com/65535/48118705271_18fa91e92c_o.jpg",
    "id_image": "Lamborghini_962134",
    "count_view": 0
  },
  {
    "link_thumb": "https://live.staticflickr.com/65535/48118795022_083e499544_n.jpg",
    "id_album": "-2100339805",
    "description": "Lamborghini_962516",
    "title": "Lamborghini_962516",
    "link_img": "https://live.staticflickr.com/65535/48118795022_b11695486a_o.jpg",
    "id_image": "Lamborghini_962516",
    "count_view": 0
  },
  {
    "link_thumb": "https://live.staticflickr.com/65535/48118706081_7af99fb312_n.jpg",
    "id_album": "-2100339805",
    "description": "Lamborghini_962517",
    "title": "Lamborghini_962517",
    "link_img": "https://live.staticflickr.com/65535/48118706081_a9c7a48af1_o.jpg",
    "id_image": "Lamborghini_962517",
    "count_view": 0
  },
  {
    "link_thumb": "https://live.staticflickr.com/65535/48118737523_4ce6d0be79_n.jpg",
    "id_album": "-2100339805",
    "description": "Lamborghini_962519",
    "title": "Lamborghini_962519",
    "link_img": "https://live.staticflickr.com/65535/48118737523_b5e853b9ca_o.jpg",
    "id_image": "Lamborghini_962519",
    "count_view": 0
  },
  {
    "link_thumb": "https://live.staticflickr.com/65535/48118796082_0ba66e4660_n.jpg",
    "id_album": "-2100339805",
    "description": "Lamborghini_962520",
    "title": "Lamborghini_962520",
    "link_img": "https://live.staticflickr.com/65535/48118796082_ee00e93dbc_o.jpg",
    "id_image": "Lamborghini_962520",
    "count_view": 0
  },
  {
    "link_thumb": "https://live.staticflickr.com/65535/48118706916_181d1a315f_n.jpg",
    "id_album": "-2100339805",
    "description": "Lamborghini_962521",
    "title": "Lamborghini_962521",
    "link_img": "https://live.staticflickr.com/65535/48118706916_54b38f2f3a_o.jpg",
    "id_image": "Lamborghini_962521",
    "count_view": 0
  },
  {
    "link_thumb": "https://live.staticflickr.com/65535/48118796622_c5bf86b061_n.jpg",
    "id_album": "-2100339805",
    "description": "Lamborghini_963713",
    "title": "Lamborghini_963713",
    "link_img": "https://live.staticflickr.com/65535/48118796622_6abfa8f99b_o.jpg",
    "id_image": "Lamborghini_963713",
    "count_view": 0
  },
  {
    "link_thumb": "https://live.staticflickr.com/65535/48118738593_8fbc07b7b2_n.jpg",
    "id_album": "-2100339805",
    "description": "Lamborghini_963942",
    "title": "Lamborghini_963942",
    "link_img": "https://live.staticflickr.com/65535/48118738593_c15330e494_o.jpg",
    "id_image": "Lamborghini_963942",
    "count_view": 0
  },
  {
    "link_thumb": "https://live.staticflickr.com/65535/48118798062_6c7203bd04_n.jpg",
    "id_album": "-2100339805",
    "description": "Lamborghini_964041",
    "title": "Lamborghini_964041",
    "link_img": "https://live.staticflickr.com/65535/48118798062_06d3d8020b_o.jpg",
    "id_image": "Lamborghini_964041",
    "count_view": 0
  },
  {
    "link_thumb": "https://live.staticflickr.com/65535/48118708926_6f8ddff95c_n.jpg",
    "id_album": "-2100339805",
    "description": "Lamborghini_964042",
    "title": "Lamborghini_964042",
    "link_img": "https://live.staticflickr.com/65535/48118708926_3126e40a5f_o.jpg",
    "id_image": "Lamborghini_964042",
    "count_view": 0
  },
  {
    "link_thumb": "https://live.staticflickr.com/65535/48118798532_3f3c8325e4_n.jpg",
    "id_album": "-2100339805",
    "description": "Lamborghini_964043",
    "title": "Lamborghini_964043",
    "link_img": "https://live.staticflickr.com/65535/48118798532_5c5e38f861_o.jpg",
    "id_image": "Lamborghini_964043",
    "count_view": 0
  },
  {
    "link_thumb": "https://live.staticflickr.com/65535/48118709361_64415db89c_n.jpg",
    "id_album": "-2100339805",
    "description": "Lamborghini_964044",
    "title": "Lamborghini_964044",
    "link_img": "https://live.staticflickr.com/65535/48118709361_f73313e398_o.jpg",
    "id_image": "Lamborghini_964044",
    "count_view": 0
  },
  {
    "link_thumb": "https://live.staticflickr.com/65535/48118709681_88a6603646_n.jpg",
    "id_album": "-2100339805",
    "description": "Lamborghini_964045",
    "title": "Lamborghini_964045",
    "link_img": "https://live.staticflickr.com/65535/48118709681_0052d575b2_o.jpg",
    "id_image": "Lamborghini_964045",
    "count_view": 0
  },
  {
    "link_thumb": "https://live.staticflickr.com/65535/48118741073_c6486fd6fb_n.jpg",
    "id_album": "-2100339805",
    "description": "Lamborghini_964046",
    "title": "Lamborghini_964046",
    "link_img": "https://live.staticflickr.com/65535/48118741073_a73cd4c722_o.jpg",
    "id_image": "Lamborghini_964046",
    "count_view": 0
  },
  {
    "link_thumb": "https://live.staticflickr.com/65535/48118799442_40c3286f4b_n.jpg",
    "id_album": "-2100339805",
    "description": "Lamborghini_964047",
    "title": "Lamborghini_964047",
    "link_img": "https://live.staticflickr.com/65535/48118799442_21d8e3d011_o.jpg",
    "id_image": "Lamborghini_964047",
    "count_view": 0
  },
  {
    "link_thumb": "https://live.staticflickr.com/65535/48118710286_bcbe7c5d7d_n.jpg",
    "id_album": "-2100339805",
    "description": "Lamborghini_964048",
    "title": "Lamborghini_964048",
    "link_img": "https://live.staticflickr.com/65535/48118710286_5ba8b0d07c_o.jpg",
    "id_image": "Lamborghini_964048",
    "count_view": 0
  },
  {
    "link_thumb": "https://live.staticflickr.com/65535/48118799847_a95645a6f0_n.jpg",
    "id_album": "-2100339805",
    "description": "Lamborghini_964049",
    "title": "Lamborghini_964049",
    "link_img": "https://live.staticflickr.com/65535/48118799847_93166de809_o.jpg",
    "id_image": "Lamborghini_964049",
    "count_view": 0
  },
  {
    "link_thumb": "https://live.staticflickr.com/65535/48118741923_067daf1362_n.jpg",
    "id_album": "-2100339805",
    "description": "Lamborghini_964051",
    "title": "Lamborghini_964051",
    "link_img": "https://live.staticflickr.com/65535/48118741923_9e2831de7c_o.jpg",
    "id_image": "Lamborghini_964051",
    "count_view": 0
  },
  {
    "link_thumb": "https://live.staticflickr.com/65535/48118742148_8c30300e40_n.jpg",
    "id_album": "-2100339805",
    "description": "Lamborghini_964052",
    "title": "Lamborghini_964052",
    "link_img": "https://live.staticflickr.com/65535/48118742148_47e6207c56_o.jpg",
    "id_image": "Lamborghini_964052",
    "count_view": 0
  },
  {
    "link_thumb": "https://live.staticflickr.com/65535/48118742318_62d786116b_n.jpg",
    "id_album": "-2100339805",
    "description": "Lamborghini_964053",
    "title": "Lamborghini_964053",
    "link_img": "https://live.staticflickr.com/65535/48118742318_54c9086739_o.jpg",
    "id_image": "Lamborghini_964053",
    "count_view": 0
  },
  {
    "link_thumb": "https://live.staticflickr.com/65535/48118711311_e90b9775b4_n.jpg",
    "id_album": "-2100339805",
    "description": "Lamborghini_964589",
    "title": "Lamborghini_964589",
    "link_img": "https://live.staticflickr.com/65535/48118711311_329a00f42b_o.jpg",
    "id_image": "Lamborghini_964589",
    "count_view": 0
  },
  {
    "link_thumb": "https://live.staticflickr.com/65535/48118801142_d627953815_n.jpg",
    "id_album": "-2100339805",
    "description": "Lamborghini_965739",
    "title": "Lamborghini_965739",
    "link_img": "https://live.staticflickr.com/65535/48118801142_4b9b98e303_o.jpg",
    "id_image": "Lamborghini_965739",
    "count_view": 0
  },
  {
    "link_thumb": "https://live.staticflickr.com/65535/48118801612_3caac81ce1_n.jpg",
    "id_album": "-2100339805",
    "description": "Lamborghini_967093",
    "title": "Lamborghini_967093",
    "link_img": "https://live.staticflickr.com/65535/48118801612_97c963ec79_o.jpg",
    "id_image": "Lamborghini_967093",
    "count_view": 0
  },
  {
    "link_thumb": "https://live.staticflickr.com/65535/48118743408_4c1733b947_n.jpg",
    "id_album": "-2100339805",
    "description": "Lamborghini_967095",
    "title": "Lamborghini_967095",
    "link_img": "https://live.staticflickr.com/65535/48118743408_b0a168d96b_o.jpg",
    "id_image": "Lamborghini_967095",
    "count_view": 0
  },
  {
    "link_thumb": "https://live.staticflickr.com/65535/48118802137_308555afc6_n.jpg",
    "id_album": "-2100339805",
    "description": "Lamborghini_969351",
    "title": "Lamborghini_969351",
    "link_img": "https://live.staticflickr.com/65535/48118802137_1c436f6204_o.jpg",
    "id_image": "Lamborghini_969351",
    "count_view": 0
  },
  {
    "link_thumb": "https://live.staticflickr.com/65535/48118743993_00d742793b_n.jpg",
    "id_album": "-2100339805",
    "description": "Lamborghini_969596",
    "title": "Lamborghini_969596",
    "link_img": "https://live.staticflickr.com/65535/48118743993_42f5fe3553_o.jpg",
    "id_image": "Lamborghini_969596",
    "count_view": 0
  },
  {
    "link_thumb": "https://live.staticflickr.com/65535/48118802887_ef5801fbb8_n.jpg",
    "id_album": "-2100339805",
    "description": "Lamborghini_969605",
    "title": "Lamborghini_969605",
    "link_img": "https://live.staticflickr.com/65535/48118802887_8899fd9771_o.jpg",
    "id_image": "Lamborghini_969605",
    "count_view": 0
  },
  {
    "link_thumb": "https://live.staticflickr.com/65535/48118803162_ea3c81f0f4_n.jpg",
    "id_album": "-2100339805",
    "description": "Lamborghini_971267",
    "title": "Lamborghini_971267",
    "link_img": "https://live.staticflickr.com/65535/48118803162_2a4ffec0c2_o.jpg",
    "id_image": "Lamborghini_971267",
    "count_view": 0
  }
]