[
  {
    "link_thumb": "https://live.staticflickr.com/65535/49890213131_e96f8680a9_n.jpg",
    "id_album": "178458492",
    "description": "2019_rv_Lamborghini_rv_SC18_rv_V1_rv_2000",
    "title": "2019_rv_Lamborghini_rv_SC18_rv_V1_rv_2000",
    "link_img": "https://live.staticflickr.com/65535/49890213131_75e4ec083a_o.jpg",
    "id_image": "2019_rv_Lamborghini_rv_SC18_rv_V1_rv_2000",
    "count_view": 0
  },
  {
    "link_thumb": "https://live.staticflickr.com/65535/49890522117_59e15be504_n.jpg",
    "id_album": "178458492",
    "description": "2019_rv_Lamborghini_rv_SC18_rv_V2_rv_2000",
    "title": "2019_rv_Lamborghini_rv_SC18_rv_V2_rv_2000",
    "link_img": "https://live.staticflickr.com/65535/49890522117_9391da704d_o.jpg",
    "id_image": "2019_rv_Lamborghini_rv_SC18_rv_V2_rv_2000",
    "count_view": 0
  },
  {
    "link_thumb": "https://live.staticflickr.com/65535/49890522407_90b1a679aa_n.jpg",
    "id_album": "178458492",
    "description": "2019_rv_Lamborghini_rv_SC18_rv_V3_rv_2000",
    "title": "2019_rv_Lamborghini_rv_SC18_rv_V3_rv_2000",
    "link_img": "https://live.staticflickr.com/65535/49890522407_71d7aae7f0_o.jpg",
    "id_image": "2019_rv_Lamborghini_rv_SC18_rv_V3_rv_2000",
    "count_view": 0
  },
  {
    "link_thumb": "https://live.staticflickr.com/65535/49890522612_624ae613cc_n.jpg",
    "id_album": "178458492",
    "description": "2019_rv_Lamborghini_rv_SC18_rv_V4_rv_2000",
    "title": "2019_rv_Lamborghini_rv_SC18_rv_V4_rv_2000",
    "link_img": "https://live.staticflickr.com/65535/49890522612_aed350b6a2_o.jpg",
    "id_image": "2019_rv_Lamborghini_rv_SC18_rv_V4_rv_2000",
    "count_view": 0
  },
  {
    "link_thumb": "https://live.staticflickr.com/65535/49890522787_45d9687a9c_n.jpg",
    "id_album": "178458492",
    "description": "2019_rv_Lamborghini_rv_SC18_rv_V5_rv_2000",
    "title": "2019_rv_Lamborghini_rv_SC18_rv_V5_rv_2000",
    "link_img": "https://live.staticflickr.com/65535/49890522787_36ab54dae5_o.jpg",
    "id_image": "2019_rv_Lamborghini_rv_SC18_rv_V5_rv_2000",
    "count_view": 0
  },
  {
    "link_thumb": "https://live.staticflickr.com/65535/49890214356_4a67cf3100_n.jpg",
    "id_album": "178458492",
    "description": "2019_rv_Lamborghini_rv_SC18_rv_V6_rv_2000",
    "title": "2019_rv_Lamborghini_rv_SC18_rv_V6_rv_2000",
    "link_img": "https://live.staticflickr.com/65535/49890214356_2f7fcf4a06_o.jpg",
    "id_image": "2019_rv_Lamborghini_rv_SC18_rv_V6_rv_2000",
    "count_view": 0
  },
  {
    "link_thumb": "https://live.staticflickr.com/65535/49889696893_187e26527a_n.jpg",
    "id_album": "178458492",
    "description": "2019_rv_Lamborghini_rv_SC18_rv_V7_rv_2000",
    "title": "2019_rv_Lamborghini_rv_SC18_rv_V7_rv_2000",
    "link_img": "https://live.staticflickr.com/65535/49889696893_8698c8edaa_o.jpg",
    "id_image": "2019_rv_Lamborghini_rv_SC18_rv_V7_rv_2000",
    "count_view": 0
  },
  {
    "link_thumb": "https://live.staticflickr.com/65535/49890214736_eb4695a171_n.jpg",
    "id_album": "178458492",
    "description": "2019_rv_Lamborghini_rv_SC18_rv_V8_rv_2000",
    "title": "2019_rv_Lamborghini_rv_SC18_rv_V8_rv_2000",
    "link_img": "https://live.staticflickr.com/65535/49890214736_0fcca3fb47_o.jpg",
    "id_image": "2019_rv_Lamborghini_rv_SC18_rv_V8_rv_2000",
    "count_view": 0
  },
  {
    "link_thumb": "https://live.staticflickr.com/65535/49890214911_208d183465_n.jpg",
    "id_album": "178458492",
    "description": "2019_rv_Lamborghini_rv_SC18_rv_V9_rv_2000",
    "title": "2019_rv_Lamborghini_rv_SC18_rv_V9_rv_2000",
    "link_img": "https://live.staticflickr.com/65535/49890214911_e0778bf18e_o.jpg",
    "id_image": "2019_rv_Lamborghini_rv_SC18_rv_V9_rv_2000",
    "count_view": 0
  }
]