[
  {
    "link_thumb": "https://live.staticflickr.com/65535/48117043191_2fcb7c834d_n.jpg",
    "id_album": "-1846404630",
    "description": "Ford_355563",
    "title": "Ford_355563",
    "link_img": "https://live.staticflickr.com/65535/48117043191_73bf58d6a9_o.jpg",
    "id_image": "Ford_355563",
    "count_view": 0
  },
  {
    "link_thumb": "https://live.staticflickr.com/65535/48113051391_9ec5e22ba3_n.jpg",
    "id_album": "727633301",
    "description": "BMW_758619",
    "title": "BMW_758619",
    "link_img": "https://live.staticflickr.com/65535/48113051391_2aec7210f9_o.jpg",
    "id_image": "BMW_758619",
    "count_view": 0
  },
  {
    "link_thumb": "https://live.staticflickr.com/65535/48113475986_0de71994bc_n.jpg",
    "id_album": "1246496342",
    "description": "Buick_382181",
    "title": "Buick_382181",
    "link_img": "https://live.staticflickr.com/65535/48113475986_7d36a22628_o.jpg",
    "id_image": "Buick_382181",
    "count_view": 0
  },
  {
    "link_thumb": "https://live.staticflickr.com/65535/49889445523_e520ac4be1_n.jpg",
    "id_album": "796949652",
    "description": "2012_rv_Italdesign_rv_Brivido_rv_Concept_rv_V3_rv_1440",
    "title": "2012_rv_Italdesign_rv_Brivido_rv_Concept_rv_V3_rv_1440",
    "link_img": "https://live.staticflickr.com/65535/49889445523_913860a082_o.jpg",
    "id_image": "2012_rv_Italdesign_rv_Brivido_rv_Concept_rv_V3_rv_1440",
    "count_view": 0
  },
  {
    "link_thumb": "https://live.staticflickr.com/65535/48122877563_cf0c910d60_n.jpg",
    "id_album": "-150952028",
    "description": "Volkswagen_142691",
    "title": "Volkswagen_142691",
    "link_img": "https://live.staticflickr.com/65535/48122877563_f4fb2b8302_o.jpg",
    "id_image": "Volkswagen_142691",
    "count_view": 0
  },
  {
    "link_thumb": "https://live.staticflickr.com/65535/49890224312_773ac438fd_n.jpg",
    "id_album": "-865647970",
    "description": "1992_rv_Honda_rv_NSX_rv_R_rv_V2_rv_1440",
    "title": "1992_rv_Honda_rv_NSX_rv_R_rv_V2_rv_1440",
    "link_img": "https://live.staticflickr.com/65535/49890224312_f92d79ac20_o.jpg",
    "id_image": "1992_rv_Honda_rv_NSX_rv_R_rv_V2_rv_1440",
    "count_view": 0
  },
  {
    "link_thumb": "https://live.staticflickr.com/65535/49890415377_c4c407e8b4_n.jpg",
    "id_album": "-59902933",
    "description": "2019_rv_Lamborghini_rv_Aventador_rv_SVJ_rv_V28_rv_1600",
    "title": "2019_rv_Lamborghini_rv_Aventador_rv_SVJ_rv_V28_rv_1600",
    "link_img": "https://live.staticflickr.com/65535/49890415377_cc8976bb00_o.jpg",
    "id_image": "2019_rv_Lamborghini_rv_Aventador_rv_SVJ_rv_V28_rv_1600",
    "count_view": 0
  },
  {
    "link_thumb": "https://live.staticflickr.com/65535/48116228848_4392dd0920_n.jpg",
    "id_album": "1364506720",
    "description": "Ferrari_748086",
    "title": "Ferrari_748086",
    "link_img": "https://live.staticflickr.com/65535/48116228848_9cf18ca4bb_o.jpg",
    "id_image": "Ferrari_748086",
    "count_view": 0
  },
  {
    "link_thumb": "https://live.staticflickr.com/65535/48118100593_019ac3feb4_n.jpg",
    "id_album": "-2009218697",
    "description": "Jeep_217164",
    "title": "Jeep_217164",
    "link_img": "https://live.staticflickr.com/65535/48118100593_9c54936908_o.jpg",
    "id_image": "Jeep_217164",
    "count_view": 0
  },
  {
    "link_thumb": "https://live.staticflickr.com/65535/49889161378_d9a7e226f6_n.jpg",
    "id_album": "-1221805240",
    "description": "2010_rv_Ford_rv_Shelby_rv_GT500_rv_V3_rv_1440",
    "title": "2010_rv_Ford_rv_Shelby_rv_GT500_rv_V3_rv_1440",
    "link_img": "https://live.staticflickr.com/65535/49889161378_8a74ece538_o.jpg",
    "id_image": "2010_rv_Ford_rv_Shelby_rv_GT500_rv_V3_rv_1440",
    "count_view": 0
  },
  {
    "link_thumb": "https://live.staticflickr.com/65535/48121283433_bbf186ed87_n.jpg",
    "id_album": "-1178450892",
    "description": "Porsche_257632",
    "title": "Porsche_257632",
    "link_img": "https://live.staticflickr.com/65535/48121283433_19b4ec61df_o.jpg",
    "id_image": "Porsche_257632",
    "count_view": 0
  },
  {
    "link_thumb": "https://live.staticflickr.com/65535/48112452567_73d428d697_n.jpg",
    "id_album": "-15119147",
    "description": "Audi_498721",
    "title": "Audi_498721",
    "link_img": "https://live.staticflickr.com/65535/48112452567_105268e9a9_o.jpg",
    "id_image": "Audi_498721",
    "count_view": 0
  },
  {
    "link_thumb": "https://live.staticflickr.com/65535/48112196921_fecf436587_n.jpg",
    "id_album": "548548524",
    "description": "AstonMartin_898098",
    "title": "AstonMartin_898098",
    "link_img": "https://live.staticflickr.com/65535/48112196921_dff4ae3968_o.jpg",
    "id_image": "AstonMartin_898098",
    "count_view": 0
  },
  {
    "link_thumb": "https://live.staticflickr.com/65535/48123225311_f640a88221_n.jpg",
    "id_album": "-360260466",
    "description": "Yamaha_351954",
    "title": "Yamaha_351954",
    "link_img": "https://live.staticflickr.com/65535/48123225311_40625f36d7_o.jpg",
    "id_image": "Yamaha_351954",
    "count_view": 0
  },
  {
    "link_thumb": "https://live.staticflickr.com/65535/48121773717_8ac4b353cd_n.jpg",
    "id_album": "-1178450892",
    "description": "Porsche_870930",
    "title": "Porsche_870930",
    "link_img": "https://live.staticflickr.com/65535/48121773717_6af7597757_o.jpg",
    "id_image": "Porsche_870930",
    "count_view": 0
  },
  {
    "link_thumb": "https://live.staticflickr.com/65535/49889315363_ecfd9b2a36_n.jpg",
    "id_album": "-289181366",
    "description": "1966_rv_Shelby_rv_GT350H_rv_V1_rv_1536",
    "title": "1966_rv_Shelby_rv_GT350H_rv_V1_rv_1536",
    "link_img": "https://live.staticflickr.com/65535/49889315363_e6bb1523ea_o.jpg",
    "id_image": "1966_rv_Shelby_rv_GT350H_rv_V1_rv_1536",
    "count_view": 0
  },
  {
    "link_thumb": "https://live.staticflickr.com/65535/49889936971_1e7dae7d5b_n.jpg",
    "id_album": "1127325547",
    "description": "2013_rv_Hyundai_rv_Genesis_rv_Coupe_rv_V5_rv_1440",
    "title": "2013_rv_Hyundai_rv_Genesis_rv_Coupe_rv_V5_rv_1440",
    "link_img": "https://live.staticflickr.com/65535/49889936971_b24ebf979b_o.jpg",
    "id_image": "2013_rv_Hyundai_rv_Genesis_rv_Coupe_rv_V5_rv_1440",
    "count_view": 0
  },
  {
    "link_thumb": "https://live.staticflickr.com/65535/48113942837_3b9ee73fc6_n.jpg",
    "id_album": "-1721545051",
    "description": "Chevrolet_234953",
    "title": "Chevrolet_234953",
    "link_img": "https://live.staticflickr.com/65535/48113942837_c197ae6d15_o.jpg",
    "id_image": "Chevrolet_234953",
    "count_view": 0
  },
  {
    "link_thumb": "https://live.staticflickr.com/65535/48117467276_3ab7a14815_n.jpg",
    "id_album": "-1846404630",
    "description": "Ford_819733",
    "title": "Ford_819733",
    "link_img": "https://live.staticflickr.com/65535/48117467276_12f3408a39_o.jpg",
    "id_image": "Ford_819733",
    "count_view": 0
  },
  {
    "link_thumb": "https://live.staticflickr.com/65535/49890435488_4c305084b1_n.jpg",
    "id_album": "-353804760",
    "description": "2019_rv_Mini_rv_John_rv_Cooper_rv_Works_rv_V3_rv_2000",
    "title": "2019_rv_Mini_rv_John_rv_Cooper_rv_Works_rv_V3_rv_2000",
    "link_img": "https://live.staticflickr.com/65535/49890435488_c18dc8d36f_o.jpg",
    "id_image": "2019_rv_Mini_rv_John_rv_Cooper_rv_Works_rv_V3_rv_2000",
    "count_view": 0
  },
  {
    "link_thumb": "https://live.staticflickr.com/65535/48117532237_512bf4a48b_n.jpg",
    "id_album": "-1846404630",
    "description": "Ford_742595",
    "title": "Ford_742595",
    "link_img": "https://live.staticflickr.com/65535/48117532237_7847ac3e50_o.jpg",
    "id_image": "Ford_742595",
    "count_view": 0
  },
  {
    "link_thumb": "https://live.staticflickr.com/65535/48112782748_21c06702c4_n.jpg",
    "id_album": "727633301",
    "description": "BMW_401196",
    "title": "BMW_401196",
    "link_img": "https://live.staticflickr.com/65535/48112782748_8742913818_o.jpg",
    "id_image": "BMW_401196",
    "count_view": 0
  },
  {
    "link_thumb": "https://live.staticflickr.com/65535/48120854737_364e1ffd30_n.jpg",
    "id_album": "1952909762",
    "description": "Packard_741866",
    "title": "Packard_741866",
    "link_img": "https://live.staticflickr.com/65535/48120854737_4859c6e912_o.jpg",
    "id_image": "Packard_741866",
    "count_view": 0
  },
  {
    "link_thumb": "https://live.staticflickr.com/65535/48114582682_2013eb77a4_n.jpg",
    "id_album": "-1721545051",
    "description": "Chevrolet_741700",
    "title": "Chevrolet_741700",
    "link_img": "https://live.staticflickr.com/65535/48114582682_1b150feefb_o.jpg",
    "id_image": "Chevrolet_741700",
    "count_view": 0
  },
  {
    "link_thumb": "https://live.staticflickr.com/65535/48117748303_9ca199d054_n.jpg",
    "id_album": "249743491",
    "description": "HarleyDavidson_541775",
    "title": "HarleyDavidson_541775",
    "link_img": "https://live.staticflickr.com/65535/48117748303_185345daa2_o.jpg",
    "id_image": "HarleyDavidson_541775",
    "count_view": 0
  },
  {
    "link_thumb": "https://live.staticflickr.com/65535/48117892647_a232301131_n.jpg",
    "id_album": "-354267407",
    "description": "Honda_446957",
    "title": "Honda_446957",
    "link_img": "https://live.staticflickr.com/65535/48117892647_4fc760f9ef_o.jpg",
    "id_image": "Honda_446957",
    "count_view": 0
  },
  {
    "link_thumb": "https://live.staticflickr.com/65535/48113010908_bfafa06e8e_n.jpg",
    "id_album": "727633301",
    "description": "BMW_529478",
    "title": "BMW_529478",
    "link_img": "https://live.staticflickr.com/65535/48113010908_0064f74b08_o.jpg",
    "id_image": "BMW_529478",
    "count_view": 0
  },
  {
    "link_thumb": "https://live.staticflickr.com/65535/48119047021_62fd18ec92_n.jpg",
    "id_album": "697984456",
    "description": "Maserati_188785",
    "title": "Maserati_188785",
    "link_img": "https://live.staticflickr.com/65535/48119047021_f3eecc34bd_o.jpg",
    "id_image": "Maserati_188785",
    "count_view": 0
  },
  {
    "link_thumb": "https://live.staticflickr.com/65535/48113615496_00e04c4f9c_n.jpg",
    "id_album": "-1721545051",
    "description": "Chevrolet_107720",
    "title": "Chevrolet_107720",
    "link_img": "https://live.staticflickr.com/65535/48113615496_860e790386_o.jpg",
    "id_image": "Chevrolet_107720",
    "count_view": 0
  },
  {
    "link_thumb": "https://live.staticflickr.com/65535/48113876828_fc3db3b482_n.jpg",
    "id_album": "-1721545051",
    "description": "Chevrolet_226055",
    "title": "Chevrolet_226055",
    "link_img": "https://live.staticflickr.com/65535/48113876828_47aef90acf_o.jpg",
    "id_image": "Chevrolet_226055",
    "count_view": 0
  },
  {
    "link_thumb": "https://live.staticflickr.com/65535/49889814327_6e928f9bda_n.jpg",
    "id_album": "1069273903",
    "description": "2005_rv_Ferrari_rv_575M_rv_Superamerica_rv_V11_rv_2160",
    "title": "2005_rv_Ferrari_rv_575M_rv_Superamerica_rv_V11_rv_2160",
    "link_img": "https://live.staticflickr.com/65535/49889814327_29b476dd07_o.jpg",
    "id_image": "2005_rv_Ferrari_rv_575M_rv_Superamerica_rv_V11_rv_2160",
    "count_view": 0
  },
  {
    "link_thumb": "https://live.staticflickr.com/65535/49889921377_e09daaea48_n.jpg",
    "id_album": "-807323181",
    "description": "2010_rv_Fiat_rv_Abarth_rv_500_rv_R3T_rv_V1_rv_1440",
    "title": "2010_rv_Fiat_rv_Abarth_rv_500_rv_R3T_rv_V1_rv_1440",
    "link_img": "https://live.staticflickr.com/65535/49889921377_e6a2a788e7_o.jpg",
    "id_image": "2010_rv_Fiat_rv_Abarth_rv_500_rv_R3T_rv_V1_rv_1440",
    "count_view": 0
  },
  {
    "link_thumb": "https://live.staticflickr.com/65535/49891213772_5889b62cff_n.jpg",
    "id_album": "-1836340891",
    "description": "2012_rv_Mercedes_rv_Benz_rv_SLK_rv_55_rv_AMG_rv_V4_rv_2000",
    "title": "2012_rv_Mercedes_rv_Benz_rv_SLK_rv_55_rv_AMG_rv_V4_rv_2000",
    "link_img": "https://live.staticflickr.com/65535/49891213772_00fbfa02b0_o.jpg",
    "id_image": "2012_rv_Mercedes_rv_Benz_rv_SLK_rv_55_rv_AMG_rv_V4_rv_2000",
    "count_view": 0
  },
  {
    "link_thumb": "https://live.staticflickr.com/65535/48112607886_2710bd89cb_n.jpg",
    "id_album": "727633301",
    "description": "BMW_210081",
    "title": "BMW_210081",
    "link_img": "https://live.staticflickr.com/65535/48112607886_ba70f45784_o.jpg",
    "id_image": "BMW_210081",
    "count_view": 0
  },
  {
    "link_thumb": "https://live.staticflickr.com/65535/48113029158_ccee2798ae_n.jpg",
    "id_album": "727633301",
    "description": "BMW_594270",
    "title": "BMW_594270",
    "link_img": "https://live.staticflickr.com/65535/48113029158_fb275688a9_o.jpg",
    "id_image": "BMW_594270",
    "count_view": 0
  },
  {
    "link_thumb": "https://live.staticflickr.com/65535/48116249743_2449b2e2fa_n.jpg",
    "id_album": "1364506720",
    "description": "Ferrari_757624",
    "title": "Ferrari_757624",
    "link_img": "https://live.staticflickr.com/65535/48116249743_02a951dc12_o.jpg",
    "id_image": "Ferrari_757624",
    "count_view": 0
  },
  {
    "link_thumb": "https://live.staticflickr.com/65535/48119796772_ef3f65d5e9_n.jpg",
    "id_album": "-731054311",
    "description": "MercedesBenz_552275",
    "title": "MercedesBenz_552275",
    "link_img": "https://live.staticflickr.com/65535/48119796772_143fc1456a_o.jpg",
    "id_image": "MercedesBenz_552275",
    "count_view": 0
  },
  {
    "link_thumb": "https://live.staticflickr.com/65535/48115733823_082eeb3ef9_n.jpg",
    "id_album": "1364506720",
    "description": "Ferrari_265834",
    "title": "Ferrari_265834",
    "link_img": "https://live.staticflickr.com/65535/48115733823_261cfb794b_o.jpg",
    "id_image": "Ferrari_265834",
    "count_view": 0
  },
  {
    "link_thumb": "https://live.staticflickr.com/65535/48112703987_0db439dbf2_n.jpg",
    "id_album": "727633301",
    "description": "BMW_152538",
    "title": "BMW_152538",
    "link_img": "https://live.staticflickr.com/65535/48112703987_72b76eb80f_o.jpg",
    "id_image": "BMW_152538",
    "count_view": 0
  },
  {
    "link_thumb": "https://live.staticflickr.com/65535/48112571093_8851debdc9_n.jpg",
    "id_album": "2097036181",
    "description": "Bentley_470787",
    "title": "Bentley_470787",
    "link_img": "https://live.staticflickr.com/65535/48112571093_ebc1c1f948_o.jpg",
    "id_image": "Bentley_470787",
    "count_view": 0
  },
  {
    "link_thumb": "https://live.staticflickr.com/65535/48118723207_a5d4382709_n.jpg",
    "id_album": "-2100339805",
    "description": "Lamborghini_870330",
    "title": "Lamborghini_870330",
    "link_img": "https://live.staticflickr.com/65535/48118723207_768c6be39b_o.jpg",
    "id_image": "Lamborghini_870330",
    "count_view": 0
  },
  {
    "link_thumb": "https://live.staticflickr.com/65535/48116820458_616e785379_n.jpg",
    "id_album": "-1846404630",
    "description": "Ford_237142",
    "title": "Ford_237142",
    "link_img": "https://live.staticflickr.com/65535/48116820458_cb54c4557e_o.jpg",
    "id_image": "Ford_237142",
    "count_view": 0
  },
  {
    "link_thumb": "https://live.staticflickr.com/65535/48118594961_6036330b2e_n.jpg",
    "id_album": "-2100339805",
    "description": "Lamborghini_731492",
    "title": "Lamborghini_731492",
    "link_img": "https://live.staticflickr.com/65535/48118594961_d331ba8fb7_o.jpg",
    "id_image": "Lamborghini_731492",
    "count_view": 0
  },
  {
    "link_thumb": "https://live.staticflickr.com/65535/48112796511_8dbb911511_n.jpg",
    "id_album": "727633301",
    "description": "BMW_459643",
    "title": "BMW_459643",
    "link_img": "https://live.staticflickr.com/65535/48112796511_9bc2bb0e9e_o.jpg",
    "id_image": "BMW_459643",
    "count_view": 0
  },
  {
    "link_thumb": "https://live.staticflickr.com/65535/48111695453_02c94df31f_n.jpg",
    "id_album": "1482519782",
    "description": "Hyundai_256079",
    "title": "Hyundai_256079",
    "link_img": "https://live.staticflickr.com/65535/48111695453_32ff3e2d37_o.jpg",
    "id_image": "Hyundai_256079",
    "count_view": 0
  },
  {
    "link_thumb": "https://live.staticflickr.com/65535/48117062262_56d0260bac_n.jpg",
    "id_album": "-1846404630",
    "description": "Ford_291449",
    "title": "Ford_291449",
    "link_img": "https://live.staticflickr.com/65535/48117062262_d20fdf23eb_o.jpg",
    "id_image": "Ford_291449",
    "count_view": 0
  },
  {
    "link_thumb": "https://live.staticflickr.com/65535/48118115922_8ca75f7cf5_n.jpg",
    "id_album": "-843028318",
    "description": "Jaguar_885780",
    "title": "Jaguar_885780",
    "link_img": "https://live.staticflickr.com/65535/48118115922_c4e8985f1a_o.jpg",
    "id_image": "Jaguar_885780",
    "count_view": 0
  },
  {
    "link_thumb": "https://live.staticflickr.com/65535/49890075467_e5097f641d_n.jpg",
    "id_album": "1370790237",
    "description": "2015_rv_Dodge_rv_Challenger_rv_SRT_rv_Hellcat_rv_V10_rv_1600",
    "title": "2015_rv_Dodge_rv_Challenger_rv_SRT_rv_Hellcat_rv_V10_rv_1600",
    "link_img": "https://live.staticflickr.com/65535/49890075467_afdecb34b8_o.jpg",
    "id_image": "2015_rv_Dodge_rv_Challenger_rv_SRT_rv_Hellcat_rv_V10_rv_1600",
    "count_view": 0
  },
  {
    "link_thumb": "https://live.staticflickr.com/65535/48120958532_1cba0713fb_n.jpg",
    "id_album": "1965631892",
    "description": "Peugeot_450543",
    "title": "Peugeot_450543",
    "link_img": "https://live.staticflickr.com/65535/48120958532_657899f3dc_o.jpg",
    "id_image": "Peugeot_450543",
    "count_view": 0
  },
  {
    "link_thumb": "https://live.staticflickr.com/65535/49890636508_f5ccd0c6f0_n.jpg",
    "id_album": "-1746133601",
    "description": "2019_rv_Novitec_rv_Ferrari_rv_812_rv_Superfast_rv_N_rv_Largo_rv_V1_rv_2160",
    "title": "2019_rv_Novitec_rv_Ferrari_rv_812_rv_Superfast_rv_N_rv_Largo_rv_V1_rv_2160",
    "link_img": "https://live.staticflickr.com/65535/49890636508_88125689a8_o.jpg",
    "id_image": "2019_rv_Novitec_rv_Ferrari_rv_812_rv_Superfast_rv_N_rv_Largo_rv_V1_rv_2160",
    "count_view": 0
  },
  {
    "link_thumb": "https://live.staticflickr.com/65535/49889416227_60b697fc94_n.jpg",
    "id_album": "-1839907838",
    "description": "2019_rv_BMW_rv_M5_rv_Edition_rv_35_rv_V1_rv_2160",
    "title": "2019_rv_BMW_rv_M5_rv_Edition_rv_35_rv_V1_rv_2160",
    "link_img": "https://live.staticflickr.com/65535/49889416227_64e0bf0796_o.jpg",
    "id_image": "2019_rv_BMW_rv_M5_rv_Edition_rv_35_rv_V1_rv_2160",
    "count_view": 0
  },
  {
    "link_thumb": "https://live.staticflickr.com/65535/48117514883_783711047e_n.jpg",
    "id_album": "-1846404630",
    "description": "Ford_844316",
    "title": "Ford_844316",
    "link_img": "https://live.staticflickr.com/65535/48117514883_981e515b92_o.jpg",
    "id_image": "Ford_844316",
    "count_view": 0
  },
  {
    "link_thumb": "https://live.staticflickr.com/65535/49888982176_df7629214e_n.jpg",
    "id_album": "1119514695",
    "description": "2013_rv_Audi_rv_A6_rv_Black_rv_Edition_rv_V1_rv_1600",
    "title": "2013_rv_Audi_rv_A6_rv_Black_rv_Edition_rv_V1_rv_1600",
    "link_img": "https://live.staticflickr.com/65535/49888982176_963ed98d09_o.jpg",
    "id_image": "2013_rv_Audi_rv_A6_rv_Black_rv_Edition_rv_V1_rv_1600",
    "count_view": 0
  },
  {
    "link_thumb": "https://live.staticflickr.com/65535/49889884996_45e9c9e721_n.jpg",
    "id_album": "-659575064",
    "description": "2019_rv_Hennessey_rv_Venom_rv_F5_rv_V1_rv_2000",
    "title": "2019_rv_Hennessey_rv_Venom_rv_F5_rv_V1_rv_2000",
    "link_img": "https://live.staticflickr.com/65535/49889884996_d9cd47a95d_o.jpg",
    "id_image": "2019_rv_Hennessey_rv_Venom_rv_F5_rv_V1_rv_2000",
    "count_view": 0
  },
  {
    "link_thumb": "https://live.staticflickr.com/65535/48118521741_e3661fc73a_n.jpg",
    "id_album": "-2100339805",
    "description": "Lamborghini_534701",
    "title": "Lamborghini_534701",
    "link_img": "https://live.staticflickr.com/65535/48118521741_8ac06bcaaa_o.jpg",
    "id_image": "Lamborghini_534701",
    "count_view": 0
  },
  {
    "link_thumb": "https://live.staticflickr.com/65535/49889385353_9fc69a25a7_n.jpg",
    "id_album": "-582009282",
    "description": "2007_rv_Holden_rv_VE_rv_UTE_rv_SSV_rv_V6_rv_1440",
    "title": "2007_rv_Holden_rv_VE_rv_UTE_rv_SSV_rv_V6_rv_1440",
    "link_img": "https://live.staticflickr.com/65535/49889385353_b25739c5ed_o.jpg",
    "id_image": "2007_rv_Holden_rv_VE_rv_UTE_rv_SSV_rv_V6_rv_1440",
    "count_view": 0
  },
  {
    "link_thumb": "https://live.staticflickr.com/65535/49888878023_f1d86c820b_n.jpg",
    "id_album": "-835450558",
    "description": "2006_rv_Formula1_rv_Renault_rv_R26_rv_V2_rv_1536",
    "title": "2006_rv_Formula1_rv_Renault_rv_R26_rv_V2_rv_1536",
    "link_img": "https://live.staticflickr.com/65535/49888878023_af193ff959_o.jpg",
    "id_image": "2006_rv_Formula1_rv_Renault_rv_R26_rv_V2_rv_1536",
    "count_view": 0
  },
  {
    "link_thumb": "https://live.staticflickr.com/65535/49892471267_6e9483f608_n.jpg",
    "id_album": "-1890503075",
    "description": "2019_rv_Porsche_rv_Panamera_rv_GTS_rv_V1_rv_2000",
    "title": "2019_rv_Porsche_rv_Panamera_rv_GTS_rv_V1_rv_2000",
    "link_img": "https://live.staticflickr.com/65535/49892471267_1b2242c829_o.jpg",
    "id_image": "2019_rv_Porsche_rv_Panamera_rv_GTS_rv_V1_rv_2000",
    "count_view": 0
  },
  {
    "link_thumb": "https://live.staticflickr.com/65535/49890980692_a2cb246547_n.jpg",
    "id_album": "-542802656",
    "description": "2020_rv_Mercedes_rv_AMG_rv_A45_rv_V6_rv_2160",
    "title": "2020_rv_Mercedes_rv_AMG_rv_A45_rv_V6_rv_2160",
    "link_img": "https://live.staticflickr.com/65535/49890980692_d43327c7a3_o.jpg",
    "id_image": "2020_rv_Mercedes_rv_AMG_rv_A45_rv_V6_rv_2160",
    "count_view": 0
  },
  {
    "link_thumb": "https://live.staticflickr.com/65535/49889761893_27dc0d1dba_n.jpg",
    "id_album": "84688798",
    "description": "2009_rv_Lexus_rv_IS_rv_F_rv_V1_rv_1440",
    "title": "2009_rv_Lexus_rv_IS_rv_F_rv_V1_rv_1440",
    "link_img": "https://live.staticflickr.com/65535/49889761893_ccbb997114_o.jpg",
    "id_image": "2009_rv_Lexus_rv_IS_rv_F_rv_V1_rv_1440",
    "count_view": 0
  },
  {
    "link_thumb": "https://live.staticflickr.com/65535/48112060518_fd77791573_n.jpg",
    "id_album": "-843028318",
    "description": "Jaguar_331777",
    "title": "Jaguar_331777",
    "link_img": "https://live.staticflickr.com/65535/48112060518_b718690c85_o.jpg",
    "id_image": "Jaguar_331777",
    "count_view": 0
  },
  {
    "link_thumb": "https://live.staticflickr.com/65535/48118985906_168c4c8886_n.jpg",
    "id_album": "-120702461",
    "description": "Lincoln_480744",
    "title": "Lincoln_480744",
    "link_img": "https://live.staticflickr.com/65535/48118985906_19d4d217e8_o.jpg",
    "id_image": "Lincoln_480744",
    "count_view": 0
  },
  {
    "link_thumb": "https://live.staticflickr.com/65535/48120035317_0c6b616e92_n.jpg",
    "id_album": "-731054311",
    "description": "MercedesBenz_974411",
    "title": "MercedesBenz_974411",
    "link_img": "https://live.staticflickr.com/65535/48120035317_6709559b97_o.jpg",
    "id_image": "MercedesBenz_974411",
    "count_view": 0
  },
  {
    "link_thumb": "https://live.staticflickr.com/65535/48115486578_706bbb8efc_n.jpg",
    "id_album": "413141323",
    "description": "Dodge_744359",
    "title": "Dodge_744359",
    "link_img": "https://live.staticflickr.com/65535/48115486578_2a9c5f8a6b_o.jpg",
    "id_image": "Dodge_744359",
    "count_view": 0
  },
  {
    "link_thumb": "https://live.staticflickr.com/65535/48119235757_323a5e30d0_n.jpg",
    "id_album": "697984456",
    "description": "Maserati_895916",
    "title": "Maserati_895916",
    "link_img": "https://live.staticflickr.com/65535/48119235757_9c5cb7fcc4_o.jpg",
    "id_image": "Maserati_895916",
    "count_view": 0
  },
  {
    "link_thumb": "https://live.staticflickr.com/65535/48112469782_b338a921e8_n.jpg",
    "id_album": "-15119147",
    "description": "Audi_644379",
    "title": "Audi_644379",
    "link_img": "https://live.staticflickr.com/65535/48112469782_56ae436c63_o.jpg",
    "id_image": "Audi_644379",
    "count_view": 0
  },
  {
    "link_thumb": "https://live.staticflickr.com/65535/49889906348_ecf2712912_n.jpg",
    "id_album": "1020660035",
    "description": "2013_rv_Maserati_rv_GranCabrio_rv_Sport_rv_V2_rv_2160",
    "title": "2013_rv_Maserati_rv_GranCabrio_rv_Sport_rv_V2_rv_2160",
    "link_img": "https://live.staticflickr.com/65535/49889906348_5870f5aed0_o.jpg",
    "id_image": "2013_rv_Maserati_rv_GranCabrio_rv_Sport_rv_V2_rv_2160",
    "count_view": 0
  },
  {
    "link_thumb": "https://live.staticflickr.com/65535/48119824082_5825220c98_n.jpg",
    "id_album": "-731054311",
    "description": "MercedesBenz_681275",
    "title": "MercedesBenz_681275",
    "link_img": "https://live.staticflickr.com/65535/48119824082_2f996b725f_o.jpg",
    "id_image": "MercedesBenz_681275",
    "count_view": 0
  },
  {
    "link_thumb": "https://live.staticflickr.com/65535/48119568883_839a6cafde_n.jpg",
    "id_album": "-731054311",
    "description": "MercedesBenz_257287",
    "title": "MercedesBenz_257287",
    "link_img": "https://live.staticflickr.com/65535/48119568883_81b2029a5e_o.jpg",
    "id_image": "MercedesBenz_257287",
    "count_view": 0
  },
  {
    "link_thumb": "https://live.staticflickr.com/65535/48116243772_6c5b9b4d51_n.jpg",
    "id_album": "1364506720",
    "description": "Ferrari_685335",
    "title": "Ferrari_685335",
    "link_img": "https://live.staticflickr.com/65535/48116243772_6e99cdb8d9_o.jpg",
    "id_image": "Ferrari_685335",
    "count_view": 0
  },
  {
    "link_thumb": "https://live.staticflickr.com/65535/48119159248_ab8abfd716_n.jpg",
    "id_album": "697984456",
    "description": "Maserati_891921",
    "title": "Maserati_891921",
    "link_img": "https://live.staticflickr.com/65535/48119159248_d578e66740_o.jpg",
    "id_image": "Maserati_891921",
    "count_view": 0
  },
  {
    "link_thumb": "https://live.staticflickr.com/65535/48118294423_961112b463_n.jpg",
    "id_album": "-2100339805",
    "description": "Lamborghini_256262",
    "title": "Lamborghini_256262",
    "link_img": "https://live.staticflickr.com/65535/48118294423_ee1ac17f99_o.jpg",
    "id_image": "Lamborghini_256262",
    "count_view": 0
  },
  {
    "link_thumb": "https://live.staticflickr.com/65535/49889641133_561d408bb9_n.jpg",
    "id_album": "-936716449",
    "description": "2018_rv_Lamborghini_rv_Huracan_rv_Performante_rv_V1_rv_2000",
    "title": "2018_rv_Lamborghini_rv_Huracan_rv_Performante_rv_V1_rv_2000",
    "link_img": "https://live.staticflickr.com/65535/49889641133_b5574a7184_o.jpg",
    "id_image": "2018_rv_Lamborghini_rv_Huracan_rv_Performante_rv_V1_rv_2000",
    "count_view": 0
  },
  {
    "link_thumb": "https://live.staticflickr.com/65535/48116668437_2cee7d004e_n.jpg",
    "id_album": "-1846404630",
    "description": "Ford_150612",
    "title": "Ford_150612",
    "link_img": "https://live.staticflickr.com/65535/48116668437_8c8eb583e1_o.jpg",
    "id_image": "Ford_150612",
    "count_view": 0
  },
  {
    "link_thumb": "https://live.staticflickr.com/65535/49889349352_64c5e69245_n.jpg",
    "id_album": "-1649828898",
    "description": "2017_rv_Bentley_rv_Mulsanne_rv_Speed_rv_V3_rv_2000",
    "title": "2017_rv_Bentley_rv_Mulsanne_rv_Speed_rv_V3_rv_2000",
    "link_img": "https://live.staticflickr.com/65535/49889349352_1847d059bb_o.jpg",
    "id_image": "2017_rv_Bentley_rv_Mulsanne_rv_Speed_rv_V3_rv_2000",
    "count_view": 0
  },
  {
    "link_thumb": "https://live.staticflickr.com/65535/48119723592_3067e8637a_n.jpg",
    "id_album": "-731054311",
    "description": "MercedesBenz_353027",
    "title": "MercedesBenz_353027",
    "link_img": "https://live.staticflickr.com/65535/48119723592_55fb27780e_o.jpg",
    "id_image": "MercedesBenz_353027",
    "count_view": 0
  },
  {
    "link_thumb": "https://live.staticflickr.com/65535/48118671013_b540df3955_n.jpg",
    "id_album": "-2100339805",
    "description": "Lamborghini_882675",
    "title": "Lamborghini_882675",
    "link_img": "https://live.staticflickr.com/65535/48118671013_08010fb325_o.jpg",
    "id_image": "Lamborghini_882675",
    "count_view": 0
  },
  {
    "link_thumb": "https://live.staticflickr.com/65535/49891731888_5877317d97_n.jpg",
    "id_album": "-2006372324",
    "description": "2013_rv_Renault_rv_Twin_rv_Run_rv_Concept_rv_V3_rv_1600",
    "title": "2013_rv_Renault_rv_Twin_rv_Run_rv_Concept_rv_V3_rv_1600",
    "link_img": "https://live.staticflickr.com/65535/49891731888_a852d81abf_o.jpg",
    "id_image": "2013_rv_Renault_rv_Twin_rv_Run_rv_Concept_rv_V3_rv_1600",
    "count_view": 0
  },
  {
    "link_thumb": "https://live.staticflickr.com/65535/48117530636_ac7460f449_n.jpg",
    "id_album": "-1846404630",
    "description": "Ford_926046",
    "title": "Ford_926046",
    "link_img": "https://live.staticflickr.com/65535/48117530636_dc15985322_o.jpg",
    "id_image": "Ford_926046",
    "count_view": 0
  },
  {
    "link_thumb": "https://live.staticflickr.com/65535/49890615561_5e2244756f_n.jpg",
    "id_album": "-664878344",
    "description": "2020_rv_Novitec_rv_McLaren_rv_720S_rv_Spider_rv_N_rv_Largo_rv_V2_rv_2160",
    "title": "2020_rv_Novitec_rv_McLaren_rv_720S_rv_Spider_rv_N_rv_Largo_rv_V2_rv_2160",
    "link_img": "https://live.staticflickr.com/65535/49890615561_e80b94d533_o.jpg",
    "id_image": "2020_rv_Novitec_rv_McLaren_rv_720S_rv_Spider_rv_N_rv_Largo_rv_V2_rv_2160",
    "count_view": 0
  },
  {
    "link_thumb": "https://live.staticflickr.com/65535/48123127537_02f2b51b0f_n.jpg",
    "id_album": "-150952028",
    "description": "Volkswagen_883928",
    "title": "Volkswagen_883928",
    "link_img": "https://live.staticflickr.com/65535/48123127537_5ac9cfafc3_o.jpg",
    "id_image": "Volkswagen_883928",
    "count_view": 0
  },
  {
    "link_thumb": "https://live.staticflickr.com/65535/48113382256_29005d1e0f_n.jpg",
    "id_album": "1456070666",
    "description": "Bugatti_398333",
    "title": "Bugatti_398333",
    "link_img": "https://live.staticflickr.com/65535/48113382256_7a33bb0cc3_o.jpg",
    "id_image": "Bugatti_398333",
    "count_view": 0
  },
  {
    "link_thumb": "https://live.staticflickr.com/65535/49040430673_c201a6d1b9_n.jpg",
    "id_album": "-1428556500",
    "description": "AlfaRomeo_250070",
    "title": "AlfaRomeo_250070",
    "link_img": "https://live.staticflickr.com/65535/49040430673_04a191aa70_o.jpg",
    "id_image": "AlfaRomeo_250070",
    "count_view": 0
  },
  {
    "link_thumb": "https://live.staticflickr.com/65535/49890342352_ef007dc957_n.jpg",
    "id_album": "1617817050",
    "description": "2012_rv_Kepler_rv_Motion_rv_V6_rv_1440",
    "title": "2012_rv_Kepler_rv_Motion_rv_V6_rv_1440",
    "link_img": "https://live.staticflickr.com/65535/49890342352_35f7e9ba56_o.jpg",
    "id_image": "2012_rv_Kepler_rv_Motion_rv_V6_rv_1440",
    "count_view": 0
  },
  {
    "link_thumb": "https://live.staticflickr.com/65535/48117873473_78f41e9867_n.jpg",
    "id_album": "-354267407",
    "description": "Honda_666538",
    "title": "Honda_666538",
    "link_img": "https://live.staticflickr.com/65535/48117873473_38fbbc1aed_o.jpg",
    "id_image": "Honda_666538",
    "count_view": 0
  },
  {
    "link_thumb": "https://live.staticflickr.com/65535/49890036168_2ed003c49e_n.jpg",
    "id_album": "1806856197",
    "description": "2017_rv_McLaren_rv_MSO_rv_R_rv_V3_rv_2000",
    "title": "2017_rv_McLaren_rv_MSO_rv_R_rv_V3_rv_2000",
    "link_img": "https://live.staticflickr.com/65535/49890036168_8dfa6a397b_o.jpg",
    "id_image": "2017_rv_McLaren_rv_MSO_rv_R_rv_V3_rv_2000",
    "count_view": 0
  },
  {
    "link_thumb": "https://live.staticflickr.com/65535/48117591188_74b8ab0011_n.jpg",
    "id_album": "-1846404630",
    "description": "Ford_931214",
    "title": "Ford_931214",
    "link_img": "https://live.staticflickr.com/65535/48117591188_96bff335c4_o.jpg",
    "id_image": "Ford_931214",
    "count_view": 0
  },
  {
    "link_thumb": "https://live.staticflickr.com/65535/48112454291_551e0ba57b_n.jpg",
    "id_album": "-15119147",
    "description": "Audi_938618",
    "title": "Audi_938618",
    "link_img": "https://live.staticflickr.com/65535/48112454291_a57ff7b8b7_o.jpg",
    "id_image": "Audi_938618",
    "count_view": 0
  },
  {
    "link_thumb": "https://live.staticflickr.com/65535/48121434556_a29454bc71_n.jpg",
    "id_album": "-1178450892",
    "description": "Porsche_526352",
    "title": "Porsche_526352",
    "link_img": "https://live.staticflickr.com/65535/48121434556_f941a54a2b_o.jpg",
    "id_image": "Porsche_526352",
    "count_view": 0
  },
  {
    "link_thumb": "https://live.staticflickr.com/65535/48114903973_94d4d53fd3_n.jpg",
    "id_album": "2072464184",
    "description": "Citroen_420689",
    "title": "Citroen_420689",
    "link_img": "https://live.staticflickr.com/65535/48114903973_08f52bba04_o.jpg",
    "id_image": "Citroen_420689",
    "count_view": 0
  },
  {
    "link_thumb": "https://live.staticflickr.com/65535/49889476948_58129b9847_n.jpg",
    "id_album": "-526213488",
    "description": "1988_rv_Jaguar_rv_XJR9_rv_V3_rv_1600",
    "title": "1988_rv_Jaguar_rv_XJR9_rv_V3_rv_1600",
    "link_img": "https://live.staticflickr.com/65535/49889476948_eee0856967_o.jpg",
    "id_image": "1988_rv_Jaguar_rv_XJR9_rv_V3_rv_1600",
    "count_view": 0
  },
  {
    "link_thumb": "https://live.staticflickr.com/65535/48123311167_2b4d23e8cc_n.jpg",
    "id_album": "-360260466",
    "description": "Yamaha_221853",
    "title": "Yamaha_221853",
    "link_img": "https://live.staticflickr.com/65535/48123311167_697f5a9803_o.jpg",
    "id_image": "Yamaha_221853",
    "count_view": 0
  },
  {
    "link_thumb": "https://live.staticflickr.com/65535/48121060436_e1f7e81719_n.jpg",
    "id_album": "-2099496752",
    "description": "Pontiac_170666",
    "title": "Pontiac_170666",
    "link_img": "https://live.staticflickr.com/65535/48121060436_c80624e048_o.jpg",
    "id_image": "Pontiac_170666",
    "count_view": 0
  },
  {
    "link_thumb": "https://live.staticflickr.com/65535/48112444893_fc4f5a4d79_n.jpg",
    "id_album": "-15119147",
    "description": "Audi_831667",
    "title": "Audi_831667",
    "link_img": "https://live.staticflickr.com/65535/48112444893_6eee6ec187_o.jpg",
    "id_image": "Audi_831667",
    "count_view": 0
  },
  {
    "link_thumb": "https://live.staticflickr.com/65535/48115531737_4f1819d844_n.jpg",
    "id_album": "413141323",
    "description": "Dodge_6359",
    "title": "Dodge_6359",
    "link_img": "https://live.staticflickr.com/65535/48115531737_edee355893_o.jpg",
    "id_image": "Dodge_6359",
    "count_view": 0
  },
  {
    "link_thumb": "https://live.staticflickr.com/65535/48119674486_64824022e6_n.jpg",
    "id_album": "-731054311",
    "description": "MercedesBenz_449718",
    "title": "MercedesBenz_449718",
    "link_img": "https://live.staticflickr.com/65535/48119674486_28040621d1_o.jpg",
    "id_image": "MercedesBenz_449718",
    "count_view": 0
  },
  {
    "link_thumb": "https://live.staticflickr.com/65535/49890871441_6128db3877_n.jpg",
    "id_album": "-504136416",
    "description": "2014_rv_Mercedes_rv_Benz_rv_S65_rv_AMG_rv_V2_rv_1600",
    "title": "2014_rv_Mercedes_rv_Benz_rv_S65_rv_AMG_rv_V2_rv_1600",
    "link_img": "https://live.staticflickr.com/65535/49890871441_6de7875701_o.jpg",
    "id_image": "2014_rv_Mercedes_rv_Benz_rv_S65_rv_AMG_rv_V2_rv_1600",
    "count_view": 0
  },
  {
    "link_thumb": "https://live.staticflickr.com/65535/48115045673_a45940b585_n.jpg",
    "id_album": "413141323",
    "description": "Dodge_155712",
    "title": "Dodge_155712",
    "link_img": "https://live.staticflickr.com/65535/48115045673_75f75c8af9_o.jpg",
    "id_image": "Dodge_155712",
    "count_view": 0
  },
  {
    "link_thumb": "https://live.staticflickr.com/65535/49892564821_618ced4aeb_n.jpg",
    "id_album": "2103242556",
    "description": "2018_rv_Honda_rv_Civic_rv_Type_rv_R_rv_V9_rv_2000",
    "title": "2018_rv_Honda_rv_Civic_rv_Type_rv_R_rv_V9_rv_2000",
    "link_img": "https://live.staticflickr.com/65535/49892564821_6f8788d579_o.jpg",
    "id_image": "2018_rv_Honda_rv_Civic_rv_Type_rv_R_rv_V9_rv_2000",
    "count_view": 0
  },
  {
    "link_thumb": "https://live.staticflickr.com/65535/49889263833_3d99d9152f_n.jpg",
    "id_album": "-2000398090",
    "description": "2006_rv_Ford_rv_FPV_rv_BFII_rv_V4_rv_1600",
    "title": "2006_rv_Ford_rv_FPV_rv_BFII_rv_V4_rv_1600",
    "link_img": "https://live.staticflickr.com/65535/49889263833_64f5dca94f_o.jpg",
    "id_image": "2006_rv_Ford_rv_FPV_rv_BFII_rv_V4_rv_1600",
    "count_view": 0
  },
  {
    "link_thumb": "https://live.staticflickr.com/65535/48122823353_7ccc903dbf_n.jpg",
    "id_album": "1274920659",
    "description": "Toyota_882695",
    "title": "Toyota_882695",
    "link_img": "https://live.staticflickr.com/65535/48122823353_73c7915fcb_o.jpg",
    "id_image": "Toyota_882695",
    "count_view": 0
  },
  {
    "link_thumb": "https://live.staticflickr.com/65535/48113617586_a22a9ca250_n.jpg",
    "id_album": "-1721545051",
    "description": "Chevrolet_124831",
    "title": "Chevrolet_124831",
    "link_img": "https://live.staticflickr.com/65535/48113617586_3878d3e876_o.jpg",
    "id_image": "Chevrolet_124831",
    "count_view": 0
  },
  {
    "link_thumb": "https://live.staticflickr.com/65535/48112505803_8750b69f95_n.jpg",
    "id_album": "-15119147",
    "description": "Audi_960694",
    "title": "Audi_960694",
    "link_img": "https://live.staticflickr.com/65535/48112505803_a9b99516ce_o.jpg",
    "id_image": "Audi_960694",
    "count_view": 0
  },
  {
    "link_thumb": "https://live.staticflickr.com/65535/48118600568_257c4aab59_n.jpg",
    "id_album": "-2100339805",
    "description": "Lamborghini_690982",
    "title": "Lamborghini_690982",
    "link_img": "https://live.staticflickr.com/65535/48118600568_612dc9fc86_o.jpg",
    "id_image": "Lamborghini_690982",
    "count_view": 0
  },
  {
    "link_thumb": "https://live.staticflickr.com/65535/48114124997_d20325e58b_n.jpg",
    "id_album": "-1721545051",
    "description": "Chevrolet_289126",
    "title": "Chevrolet_289126",
    "link_img": "https://live.staticflickr.com/65535/48114124997_98e99f13ba_o.jpg",
    "id_image": "Chevrolet_289126",
    "count_view": 0
  },
  {
    "link_thumb": "https://live.staticflickr.com/65535/49891171166_6cf27d518f_n.jpg",
    "id_album": "-1127516857",
    "description": "2011_rv_Novitec_rv_Rosso_rv_Ferrari_rv_599_rv_GTO_rv_V3_rv_1440",
    "title": "2011_rv_Novitec_rv_Rosso_rv_Ferrari_rv_599_rv_GTO_rv_V3_rv_1440",
    "link_img": "https://live.staticflickr.com/65535/49891171166_fd23820a97_o.jpg",
    "id_image": "2011_rv_Novitec_rv_Rosso_rv_Ferrari_rv_599_rv_GTO_rv_V3_rv_1440",
    "count_view": 0
  },
  {
    "link_thumb": "https://live.staticflickr.com/65535/49889959147_5274e17510_n.jpg",
    "id_album": "1558646706",
    "description": "2016_rv_Dodge_rv_Viper_rv_ACR_rv_V1_rv_1600",
    "title": "2016_rv_Dodge_rv_Viper_rv_ACR_rv_V1_rv_1600",
    "link_img": "https://live.staticflickr.com/65535/49889959147_8e1c5c68ed_o.jpg",
    "id_image": "2016_rv_Dodge_rv_Viper_rv_ACR_rv_V1_rv_1600",
    "count_view": 0
  },
  {
    "link_thumb": "https://live.staticflickr.com/65535/48112526743_1df4b07dc7_n.jpg",
    "id_album": "2097036181",
    "description": "Bentley_187374",
    "title": "Bentley_187374",
    "link_img": "https://live.staticflickr.com/65535/48112526743_ea8b61593b_o.jpg",
    "id_image": "Bentley_187374",
    "count_view": 0
  },
  {
    "link_thumb": "https://live.staticflickr.com/65535/49889439533_40045b7c31_n.jpg",
    "id_album": "-1041728304",
    "description": "2014_rv_Infiniti_rv_Q50_rv_Eau_rv_Rouge_rv_Concept_rv_V3_rv_1600",
    "title": "2014_rv_Infiniti_rv_Q50_rv_Eau_rv_Rouge_rv_Concept_rv_V3_rv_1600",
    "link_img": "https://live.staticflickr.com/65535/49889439533_dfcf559cfb_o.jpg",
    "id_image": "2014_rv_Infiniti_rv_Q50_rv_Eau_rv_Rouge_rv_Concept_rv_V3_rv_1600",
    "count_view": 0
  },
  {
    "link_thumb": "https://live.staticflickr.com/65535/48113260471_5d8526fbbb_n.jpg",
    "id_album": "727633301",
    "description": "BMW_951233",
    "title": "BMW_951233",
    "link_img": "https://live.staticflickr.com/65535/48113260471_a7bcf0f77b_o.jpg",
    "id_image": "BMW_951233",
    "count_view": 0
  },
  {
    "link_thumb": "https://live.staticflickr.com/65535/49888775391_a5f406210e_n.jpg",
    "id_album": "921059289",
    "description": "2020_rv_Alfa_rv_Romeo_rv_Giulia_rv_Quadrifoglio_rv_V7_rv_2160",
    "title": "2020_rv_Alfa_rv_Romeo_rv_Giulia_rv_Quadrifoglio_rv_V7_rv_2160",
    "link_img": "https://live.staticflickr.com/65535/49888775391_90aa168159_o.jpg",
    "id_image": "2020_rv_Alfa_rv_Romeo_rv_Giulia_rv_Quadrifoglio_rv_V7_rv_2160",
    "count_view": 0
  },
  {
    "link_thumb": "https://live.staticflickr.com/65535/48117034821_37c6310109_n.jpg",
    "id_album": "-1846404630",
    "description": "Ford_348635",
    "title": "Ford_348635",
    "link_img": "https://live.staticflickr.com/65535/48117034821_dbaf1bd48c_o.jpg",
    "id_image": "Ford_348635",
    "count_view": 0
  },
  {
    "link_thumb": "https://live.staticflickr.com/65535/48115326813_49968380bc_n.jpg",
    "id_album": "413141323",
    "description": "Dodge_472065",
    "title": "Dodge_472065",
    "link_img": "https://live.staticflickr.com/65535/48115326813_528337727c_o.jpg",
    "id_image": "Dodge_472065",
    "count_view": 0
  },
  {
    "link_thumb": "https://live.staticflickr.com/65535/49889460148_7e5285678a_n.jpg",
    "id_album": "988367143",
    "description": "2017_rv_Jaguar_rv_F_rv_Pace_rv_V1_rv_1600",
    "title": "2017_rv_Jaguar_rv_F_rv_Pace_rv_V1_rv_1600",
    "link_img": "https://live.staticflickr.com/65535/49889460148_59e70dcfa2_o.jpg",
    "id_image": "2017_rv_Jaguar_rv_F_rv_Pace_rv_V1_rv_1600",
    "count_view": 0
  },
  {
    "link_thumb": "https://live.staticflickr.com/65535/48119723558_f3b4ca046f_n.jpg",
    "id_album": "-731054311",
    "description": "MercedesBenz_498629",
    "title": "MercedesBenz_498629",
    "link_img": "https://live.staticflickr.com/65535/48119723558_ba6c937243_o.jpg",
    "id_image": "MercedesBenz_498629",
    "count_view": 0
  },
  {
    "link_thumb": "https://live.staticflickr.com/65535/48115244232_58d7ffca53_n.jpg",
    "id_album": "413141323",
    "description": "Dodge_288451",
    "title": "Dodge_288451",
    "link_img": "https://live.staticflickr.com/65535/48115244232_af56cc810f_o.jpg",
    "id_image": "Dodge_288451",
    "count_view": 0
  },
  {
    "link_thumb": "https://live.staticflickr.com/65535/49890256692_9b8a7e58a9_n.jpg",
    "id_album": "-629377110",
    "description": "2019_rv_Hyundai_rv_Veloster_rv_N_rv_V5_rv_2000",
    "title": "2019_rv_Hyundai_rv_Veloster_rv_N_rv_V5_rv_2000",
    "link_img": "https://live.staticflickr.com/65535/49890256692_4a3a3d8b33_o.jpg",
    "id_image": "2019_rv_Hyundai_rv_Veloster_rv_N_rv_V5_rv_2000",
    "count_view": 0
  },
  {
    "link_thumb": "https://live.staticflickr.com/65535/49891938858_b91e5907b0_n.jpg",
    "id_album": "1717130925",
    "description": "2012_rv_Tesla_rv_Roadster_rv_V4_rv_1600",
    "title": "2012_rv_Tesla_rv_Roadster_rv_V4_rv_1600",
    "link_img": "https://live.staticflickr.com/65535/49891938858_e6ea558e15_o.jpg",
    "id_image": "2012_rv_Tesla_rv_Roadster_rv_V4_rv_1600",
    "count_view": 0
  },
  {
    "link_thumb": "https://live.staticflickr.com/65535/49889316507_25735bd19c_n.jpg",
    "id_album": "857589277",
    "description": "2014_rv_Audi_rv_TT_rv_Sportback_rv_Concept_rv_V2_rv_1600",
    "title": "2014_rv_Audi_rv_TT_rv_Sportback_rv_Concept_rv_V2_rv_1600",
    "link_img": "https://live.staticflickr.com/65535/49889316507_d8c7a7d5bb_o.jpg",
    "id_image": "2014_rv_Audi_rv_TT_rv_Sportback_rv_Concept_rv_V2_rv_1600",
    "count_view": 0
  },
  {
    "link_thumb": "https://live.staticflickr.com/65535/49889998292_9113ece240_n.jpg",
    "id_album": "423753153",
    "description": "2012_rv_Ford_rv_Evos_rv_Concept_rv_V5_rv_1536",
    "title": "2012_rv_Ford_rv_Evos_rv_Concept_rv_V5_rv_1536",
    "link_img": "https://live.staticflickr.com/65535/49889998292_5a78d5633b_o.jpg",
    "id_image": "2012_rv_Ford_rv_Evos_rv_Concept_rv_V5_rv_1536",
    "count_view": 0
  },
  {
    "link_thumb": "https://live.staticflickr.com/65535/48115911818_ea1a8c165f_n.jpg",
    "id_album": "1364506720",
    "description": "Ferrari_366062",
    "title": "Ferrari_366062",
    "link_img": "https://live.staticflickr.com/65535/48115911818_63121886e0_o.jpg",
    "id_image": "Ferrari_366062",
    "count_view": 0
  },
  {
    "link_thumb": "https://live.staticflickr.com/65535/49889920317_6d98552a2b_n.jpg",
    "id_album": "-1205186403",
    "description": "2018_rv_Fiat_rv_124_rv_GT_rv_Abarth_rv_V6_rv_2000",
    "title": "2018_rv_Fiat_rv_124_rv_GT_rv_Abarth_rv_V6_rv_2000",
    "link_img": "https://live.staticflickr.com/65535/49889920317_dd657c676e_o.jpg",
    "id_image": "2018_rv_Fiat_rv_124_rv_GT_rv_Abarth_rv_V6_rv_2000",
    "count_view": 0
  },
  {
    "link_thumb": "https://live.staticflickr.com/65535/49888365643_3f0c634c53_n.jpg",
    "id_album": "-1398775009",
    "description": "2001_rv_Aston_rv_Martin_rv_V12_rv_Vanquish_rv_V1_rv_1600",
    "title": "2001_rv_Aston_rv_Martin_rv_V12_rv_Vanquish_rv_V1_rv_1600",
    "link_img": "https://live.staticflickr.com/65535/49888365643_d760a84c71_o.jpg",
    "id_image": "2001_rv_Aston_rv_Martin_rv_V12_rv_Vanquish_rv_V1_rv_1600",
    "count_view": 0
  },
  {
    "link_thumb": "https://live.staticflickr.com/65535/49889448083_4947b7814c_n.jpg",
    "id_album": "-836585497",
    "description": "2005_rv_Mitsubishi_rv_Lancer_rv_Evolution_rv_IX_rv_V3_rv_1440",
    "title": "2005_rv_Mitsubishi_rv_Lancer_rv_Evolution_rv_IX_rv_V3_rv_1440",
    "link_img": "https://live.staticflickr.com/65535/49889448083_d68ea310b0_o.jpg",
    "id_image": "2005_rv_Mitsubishi_rv_Lancer_rv_Evolution_rv_IX_rv_V3_rv_1440",
    "count_view": 0
  },
  {
    "link_thumb": "https://live.staticflickr.com/65535/49889233348_0e3e5db092_n.jpg",
    "id_album": "-559101122",
    "description": "1996_rv_Chevrolet_rv_Camaro_rv_SS_rv_V6_rv_1536",
    "title": "1996_rv_Chevrolet_rv_Camaro_rv_SS_rv_V6_rv_1536",
    "link_img": "https://live.staticflickr.com/65535/49889233348_6aa29f1e05_o.jpg",
    "id_image": "1996_rv_Chevrolet_rv_Camaro_rv_SS_rv_V6_rv_1536",
    "count_view": 0
  },
  {
    "link_thumb": "https://live.staticflickr.com/65535/49889831226_bfaf7c789f_n.jpg",
    "id_album": "-289181366",
    "description": "1966_rv_Shelby_rv_GT350_rv_V5_rv_2000",
    "title": "1966_rv_Shelby_rv_GT350_rv_V5_rv_2000",
    "link_img": "https://live.staticflickr.com/65535/49889831226_a373fede1e_o.jpg",
    "id_image": "1966_rv_Shelby_rv_GT350_rv_V5_rv_2000",
    "count_view": 0
  },
  {
    "link_thumb": "https://live.staticflickr.com/65535/48115642317_b198f1dbd7_n.jpg",
    "id_album": "413141323",
    "description": "Dodge_989540",
    "title": "Dodge_989540",
    "link_img": "https://live.staticflickr.com/65535/48115642317_452daa68cb_o.jpg",
    "id_image": "Dodge_989540",
    "count_view": 0
  },
  {
    "link_thumb": "https://live.staticflickr.com/65535/48113379786_ffd194a770_n.jpg",
    "id_album": "1456070666",
    "description": "Bugatti_390254",
    "title": "Bugatti_390254",
    "link_img": "https://live.staticflickr.com/65535/48113379786_6fc483fd44_o.jpg",
    "id_image": "Bugatti_390254",
    "count_view": 0
  },
  {
    "link_thumb": "https://live.staticflickr.com/65535/48111753153_fcde36ae92_n.jpg",
    "id_album": "1906325017",
    "description": "Infiniti_226344",
    "title": "Infiniti_226344",
    "link_img": "https://live.staticflickr.com/65535/48111753153_cd2fe64b95_o.jpg",
    "id_image": "Infiniti_226344",
    "count_view": 0
  },
  {
    "link_thumb": "https://live.staticflickr.com/65535/49888229093_fdb78c9b9d_n.jpg",
    "id_album": "1831597390",
    "description": "2015_rv_Alfa_rv_Romeo_rv_4C_rv_V4_rv_1600",
    "title": "2015_rv_Alfa_rv_Romeo_rv_4C_rv_V4_rv_1600",
    "link_img": "https://live.staticflickr.com/65535/49888229093_06e1f0ff4a_o.jpg",
    "id_image": "2015_rv_Alfa_rv_Romeo_rv_4C_rv_V4_rv_1600",
    "count_view": 0
  },
  {
    "link_thumb": "https://live.staticflickr.com/65535/48118967957_e249668ee8_n.jpg",
    "id_album": "446908717",
    "description": "Lexus_549757",
    "title": "Lexus_549757",
    "link_img": "https://live.staticflickr.com/65535/48118967957_9392eac208_o.jpg",
    "id_image": "Lexus_549757",
    "count_view": 0
  },
  {
    "link_thumb": "https://live.staticflickr.com/65535/49040429583_fd1137fd77_n.jpg",
    "id_album": "-1428556500",
    "description": "AlfaRomeo_243496",
    "title": "AlfaRomeo_243496",
    "link_img": "https://live.staticflickr.com/65535/49040429583_85874d09c0_o.jpg",
    "id_image": "AlfaRomeo_243496",
    "count_view": 0
  },
  {
    "link_thumb": "https://live.staticflickr.com/65535/48120431413_1dddc52a2d_n.jpg",
    "id_album": "810634050",
    "description": "Nissan_400192",
    "title": "Nissan_400192",
    "link_img": "https://live.staticflickr.com/65535/48120431413_0029f13dd9_o.jpg",
    "id_image": "Nissan_400192",
    "count_view": 0
  },
  {
    "link_thumb": "https://live.staticflickr.com/65535/48118631208_b776f665cb_n.jpg",
    "id_album": "-2100339805",
    "description": "Lamborghini_764048",
    "title": "Lamborghini_764048",
    "link_img": "https://live.staticflickr.com/65535/48118631208_f5a41e91ec_o.jpg",
    "id_image": "Lamborghini_764048",
    "count_view": 0
  },
  {
    "link_thumb": "https://live.staticflickr.com/65535/49888985233_c3c27be7a5_n.jpg",
    "id_album": "1828657718",
    "description": "2001_rv_Ferrari_rv_550_rv_Barchetta_rv_V4_rv_2160",
    "title": "2001_rv_Ferrari_rv_550_rv_Barchetta_rv_V4_rv_2160",
    "link_img": "https://live.staticflickr.com/65535/49888985233_66c96d1c98_o.jpg",
    "id_image": "2001_rv_Ferrari_rv_550_rv_Barchetta_rv_V4_rv_2160",
    "count_view": 0
  },
  {
    "link_thumb": "https://live.staticflickr.com/65535/48123159512_8793c950aa_n.jpg",
    "id_album": "-150952028",
    "description": "Volkswagen_924095",
    "title": "Volkswagen_924095",
    "link_img": "https://live.staticflickr.com/65535/48123159512_6da47bb2f0_o.jpg",
    "id_image": "Volkswagen_924095",
    "count_view": 0
  },
  {
    "link_thumb": "https://live.staticflickr.com/65535/49890398727_a44edf0cca_n.jpg",
    "id_album": "-59902933",
    "description": "2014_rv_Lamborghini_rv_Aventador_rv_LP_rv_700_rv_4_rv_Roadster_rv_V10_rv_1600",
    "title": "2014_rv_Lamborghini_rv_Aventador_rv_LP_rv_700_rv_4_rv_Roadster_rv_V10_rv_1600",
    "link_img": "https://live.staticflickr.com/65535/49890398727_5eca79b5f7_o.jpg",
    "id_image": "2014_rv_Lamborghini_rv_Aventador_rv_LP_rv_700_rv_4_rv_Roadster_rv_V10_rv_1600",
    "count_view": 0
  },
  {
    "link_thumb": "https://live.staticflickr.com/65535/48118853788_32209419c7_n.jpg",
    "id_album": "1234246491",
    "description": "LandRover_912941",
    "title": "LandRover_912941",
    "link_img": "https://live.staticflickr.com/65535/48118853788_515acc8c0b_o.jpg",
    "id_image": "LandRover_912941",
    "count_view": 0
  },
  {
    "link_thumb": "https://live.staticflickr.com/65535/49889943718_b6fd706264_n.jpg",
    "id_album": "-168734079",
    "description": "2006_rv_Mazda_rv_3_rv_MPS_rv_V4_rv_1440",
    "title": "2006_rv_Mazda_rv_3_rv_MPS_rv_V4_rv_1440",
    "link_img": "https://live.staticflickr.com/65535/49889943718_315c7b7e69_o.jpg",
    "id_image": "2006_rv_Mazda_rv_3_rv_MPS_rv_V4_rv_1440",
    "count_view": 0
  },
  {
    "link_thumb": "https://live.staticflickr.com/65535/48119313636_8050771c52_n.jpg",
    "id_album": "990865885",
    "description": "McLaren_614639",
    "title": "McLaren_614639",
    "link_img": "https://live.staticflickr.com/65535/48119313636_418cab378a_o.jpg",
    "id_image": "McLaren_614639",
    "count_view": 0
  },
  {
    "link_thumb": "https://live.staticflickr.com/65535/48117630206_e3ac241217_n.jpg",
    "id_album": "-1846404630",
    "description": "Ford_959969",
    "title": "Ford_959969",
    "link_img": "https://live.staticflickr.com/65535/48117630206_c0c0ea3eee_o.jpg",
    "id_image": "Ford_959969",
    "count_view": 0
  },
  {
    "link_thumb": "https://live.staticflickr.com/65535/48123122407_98b0a9e888_n.jpg",
    "id_album": "-150952028",
    "description": "Volkswagen_830368",
    "title": "Volkswagen_830368",
    "link_img": "https://live.staticflickr.com/65535/48123122407_2e94b1fc4a_o.jpg",
    "id_image": "Volkswagen_830368",
    "count_view": 0
  },
  {
    "link_thumb": "https://live.staticflickr.com/65535/49888662598_050dbb1f34_n.jpg",
    "id_album": "-1839909257",
    "description": "2016_rv_BMW_rv_X2_rv_Concept_rv_V2_rv_2000",
    "title": "2016_rv_BMW_rv_X2_rv_Concept_rv_V2_rv_2000",
    "link_img": "https://live.staticflickr.com/65535/49888662598_f9c936c933_o.jpg",
    "id_image": "2016_rv_BMW_rv_X2_rv_Concept_rv_V2_rv_2000",
    "count_view": 0
  },
  {
    "link_thumb": "https://live.staticflickr.com/65535/49890865073_75b52c5b48_n.jpg",
    "id_album": "-857328710",
    "description": "2009_rv_Porsche_rv_Boxster_rv_S_rv_V1_rv_1440",
    "title": "2009_rv_Porsche_rv_Boxster_rv_S_rv_V1_rv_1440",
    "link_img": "https://live.staticflickr.com/65535/49890865073_aae95d138d_o.jpg",
    "id_image": "2009_rv_Porsche_rv_Boxster_rv_S_rv_V1_rv_1440",
    "count_view": 0
  },
  {
    "link_thumb": "https://live.staticflickr.com/65535/49889883837_86f23eac35_n.jpg",
    "id_album": "1445211981",
    "description": "2015_rv_Ferrari_rv_FXX_rv_K_rv_V6_rv_2000",
    "title": "2015_rv_Ferrari_rv_FXX_rv_K_rv_V6_rv_2000",
    "link_img": "https://live.staticflickr.com/65535/49889883837_98c6cf65b1_o.jpg",
    "id_image": "2015_rv_Ferrari_rv_FXX_rv_K_rv_V6_rv_2000",
    "count_view": 0
  },
  {
    "link_thumb": "https://live.staticflickr.com/65535/48115922491_0d6c16fbfe_n.jpg",
    "id_album": "1364506720",
    "description": "Ferrari_390246",
    "title": "Ferrari_390246",
    "link_img": "https://live.staticflickr.com/65535/48115922491_8b735a271d_o.jpg",
    "id_image": "Ferrari_390246",
    "count_view": 0
  },
  {
    "link_thumb": "https://live.staticflickr.com/65535/48119382978_921ea45fdd_n.jpg",
    "id_album": "990865885",
    "description": "McLaren_844337",
    "title": "McLaren_844337",
    "link_img": "https://live.staticflickr.com/65535/48119382978_2a3e153f7d_o.jpg",
    "id_image": "McLaren_844337",
    "count_view": 0
  },
  {
    "link_thumb": "https://live.staticflickr.com/65535/49891823163_e6e5072047_n.jpg",
    "id_album": "1479345904",
    "description": "2013_rv_Dodge_rv_Charger_rv_Daytona_rv_V6_rv_1600",
    "title": "2013_rv_Dodge_rv_Charger_rv_Daytona_rv_V6_rv_1600",
    "link_img": "https://live.staticflickr.com/65535/49891823163_eaf6a0e081_o.jpg",
    "id_image": "2013_rv_Dodge_rv_Charger_rv_Daytona_rv_V6_rv_1600",
    "count_view": 0
  },
  {
    "link_thumb": "https://live.staticflickr.com/65535/48119554596_8a12aab663_n.jpg",
    "id_album": "-731054311",
    "description": "MercedesBenz_264928",
    "title": "MercedesBenz_264928",
    "link_img": "https://live.staticflickr.com/65535/48119554596_883f75d54b_o.jpg",
    "id_image": "MercedesBenz_264928",
    "count_view": 0
  },
  {
    "link_thumb": "https://live.staticflickr.com/65535/48119358562_f5bc668a5d_n.jpg",
    "id_album": "990865885",
    "description": "McLaren_318882",
    "title": "McLaren_318882",
    "link_img": "https://live.staticflickr.com/65535/48119358562_53b3e09991_o.jpg",
    "id_image": "McLaren_318882",
    "count_view": 0
  },
  {
    "link_thumb": "https://live.staticflickr.com/65535/48118634893_d5489539fe_n.jpg",
    "id_album": "-2100339805",
    "description": "Lamborghini_809604",
    "title": "Lamborghini_809604",
    "link_img": "https://live.staticflickr.com/65535/48118634893_e3fae77ab4_o.jpg",
    "id_image": "Lamborghini_809604",
    "count_view": 0
  },
  {
    "link_thumb": "https://live.staticflickr.com/65535/48118061783_2b131ced07_n.jpg",
    "id_album": "-843028318",
    "description": "Jaguar_893708",
    "title": "Jaguar_893708",
    "link_img": "https://live.staticflickr.com/65535/48118061783_4e405ec8cb_o.jpg",
    "id_image": "Jaguar_893708",
    "count_view": 0
  },
  {
    "link_thumb": "https://live.staticflickr.com/65535/48119721831_3206677dc5_n.jpg",
    "id_album": "-731054311",
    "description": "MercedesBenz_644098",
    "title": "MercedesBenz_644098",
    "link_img": "https://live.staticflickr.com/65535/48119721831_4d5ef28c3d_o.jpg",
    "id_image": "MercedesBenz_644098",
    "count_view": 0
  },
  {
    "link_thumb": "https://live.staticflickr.com/65535/48115746551_6563aa901f_n.jpg",
    "id_album": "1364506720",
    "description": "Ferrari_289166",
    "title": "Ferrari_289166",
    "link_img": "https://live.staticflickr.com/65535/48115746551_9c3b2e525b_o.jpg",
    "id_image": "Ferrari_289166",
    "count_view": 0
  },
  {
    "link_thumb": "https://live.staticflickr.com/65535/48115192013_8541e371aa_n.jpg",
    "id_album": "413141323",
    "description": "Dodge_290652",
    "title": "Dodge_290652",
    "link_img": "https://live.staticflickr.com/65535/48115192013_0bbe7f3169_o.jpg",
    "id_image": "Dodge_290652",
    "count_view": 0
  },
  {
    "link_thumb": "https://live.staticflickr.com/65535/49890498947_f63d1af7fc_n.jpg",
    "id_album": "-1888261940",
    "description": "2003_rv_Lamborghini_rv_Murcielago_rv_RGT_rv_V1_rv_1440",
    "title": "2003_rv_Lamborghini_rv_Murcielago_rv_RGT_rv_V1_rv_1440",
    "link_img": "https://live.staticflickr.com/65535/49890498947_a9fa5b325f_o.jpg",
    "id_image": "2003_rv_Lamborghini_rv_Murcielago_rv_RGT_rv_V1_rv_1440",
    "count_view": 0
  },
  {
    "link_thumb": "https://live.staticflickr.com/65535/49888880423_91cf031f2d_n.jpg",
    "id_album": "-835450558",
    "description": "2013_rv_Formula1_rv_Lotus_rv_Renault_rv_E21_rv_V3_rv_1600",
    "title": "2013_rv_Formula1_rv_Lotus_rv_Renault_rv_E21_rv_V3_rv_1600",
    "link_img": "https://live.staticflickr.com/65535/49888880423_dbe1bf15a8_o.jpg",
    "id_image": "2013_rv_Formula1_rv_Lotus_rv_Renault_rv_E21_rv_V3_rv_1600",
    "count_view": 0
  },
  {
    "link_thumb": "https://live.staticflickr.com/65535/48114849703_9b53eb07c0_n.jpg",
    "id_album": "2072464184",
    "description": "Citroen_187938",
    "title": "Citroen_187938",
    "link_img": "https://live.staticflickr.com/65535/48114849703_ecd96e850e_o.jpg",
    "id_image": "Citroen_187938",
    "count_view": 0
  },
  {
    "link_thumb": "https://live.staticflickr.com/65535/48112722633_dfda8eb3e8_n.jpg",
    "id_album": "727633301",
    "description": "BMW_274951",
    "title": "BMW_274951",
    "link_img": "https://live.staticflickr.com/65535/48112722633_bd896ecb79_o.jpg",
    "id_image": "BMW_274951",
    "count_view": 0
  },
  {
    "link_thumb": "https://live.staticflickr.com/65535/48114606577_54ddfc5434_n.jpg",
    "id_album": "-1721545051",
    "description": "Chevrolet_743071",
    "title": "Chevrolet_743071",
    "link_img": "https://live.staticflickr.com/65535/48114606577_8b201e0507_o.jpg",
    "id_image": "Chevrolet_743071",
    "count_view": 0
  },
  {
    "link_thumb": "https://live.staticflickr.com/65535/48113568393_9bbb6fa779_n.jpg",
    "id_album": "-680120434",
    "description": "Cadillac_263095",
    "title": "Cadillac_263095",
    "link_img": "https://live.staticflickr.com/65535/48113568393_af3271cac8_o.jpg",
    "id_image": "Cadillac_263095",
    "count_view": 0
  },
  {
    "link_thumb": "https://live.staticflickr.com/65535/48119854396_baefeba65e_n.jpg",
    "id_album": "-731054311",
    "description": "MercedesBenz_908249",
    "title": "MercedesBenz_908249",
    "link_img": "https://live.staticflickr.com/65535/48119854396_28c9c36592_o.jpg",
    "id_image": "MercedesBenz_908249",
    "count_view": 0
  },
  {
    "link_thumb": "https://live.staticflickr.com/65535/48120233736_4e52c64417_n.jpg",
    "id_album": "666438681",
    "description": "Motorcycles_541771",
    "title": "Motorcycles_541771",
    "link_img": "https://live.staticflickr.com/65535/48120233736_c5f161b2f3_o.jpg",
    "id_image": "Motorcycles_541771",
    "count_view": 0
  },
  {
    "link_thumb": "https://live.staticflickr.com/65535/49890976082_c17e42574c_n.jpg",
    "id_album": "-542802656",
    "description": "2016_rv_Mercedes_rv_Benz_rv_A45_rv_AMG_rv_4Matic_rv_V2_rv_1600",
    "title": "2016_rv_Mercedes_rv_Benz_rv_A45_rv_AMG_rv_4Matic_rv_V2_rv_1600",
    "link_img": "https://live.staticflickr.com/65535/49890976082_acbf15402f_o.jpg",
    "id_image": "2016_rv_Mercedes_rv_Benz_rv_A45_rv_AMG_rv_4Matic_rv_V2_rv_1600",
    "count_view": 0
  },
  {
    "link_thumb": "https://live.staticflickr.com/65535/49892613802_c7f84f60ff_n.jpg",
    "id_album": "1695482377",
    "description": "1999_rv_Saleen_rv_S281_rv_SC_rv_V3_rv_1440",
    "title": "1999_rv_Saleen_rv_S281_rv_SC_rv_V3_rv_1440",
    "link_img": "https://live.staticflickr.com/65535/49892613802_2f1816f354_o.jpg",
    "id_image": "1999_rv_Saleen_rv_S281_rv_SC_rv_V3_rv_1440",
    "count_view": 0
  },
  {
    "link_thumb": "https://live.staticflickr.com/65535/48116915613_be9a18e77b_n.jpg",
    "id_album": "-1846404630",
    "description": "Ford_255422",
    "title": "Ford_255422",
    "link_img": "https://live.staticflickr.com/65535/48116915613_bd373f62f6_o.jpg",
    "id_image": "Ford_255422",
    "count_view": 0
  },
  {
    "link_thumb": "https://live.staticflickr.com/65535/48120171381_69a28acb0c_n.jpg",
    "id_album": "666438681",
    "description": "Motorcycles_249657",
    "title": "Motorcycles_249657",
    "link_img": "https://live.staticflickr.com/65535/48120171381_01a9307ffc_o.jpg",
    "id_image": "Motorcycles_249657",
    "count_view": 0
  },
  {
    "link_thumb": "https://live.staticflickr.com/65535/49889660271_b51b21e898_n.jpg",
    "id_album": "-135411974",
    "description": "1967_rv_Shelby_rv_GT500_rv_V7_rv_2000",
    "title": "1967_rv_Shelby_rv_GT500_rv_V7_rv_2000",
    "link_img": "https://live.staticflickr.com/65535/49889660271_eef5516836_o.jpg",
    "id_image": "1967_rv_Shelby_rv_GT500_rv_V7_rv_2000",
    "count_view": 0
  },
  {
    "link_thumb": "https://live.staticflickr.com/65535/48116431261_f8140e69f3_n.jpg",
    "id_album": "1364506720",
    "description": "Ferrari_961143",
    "title": "Ferrari_961143",
    "link_img": "https://live.staticflickr.com/65535/48116431261_2198743de0_o.jpg",
    "id_image": "Ferrari_961143",
    "count_view": 0
  },
  {
    "link_thumb": "https://live.staticflickr.com/65535/48120603781_1f9f828db3_n.jpg",
    "id_album": "810634050",
    "description": "Nissan_925094",
    "title": "Nissan_925094",
    "link_img": "https://live.staticflickr.com/65535/48120603781_0d4ac90da2_o.jpg",
    "id_image": "Nissan_925094",
    "count_view": 0
  },
  {
    "link_thumb": "https://live.staticflickr.com/65535/48115098751_0058f89f9b_n.jpg",
    "id_album": "413141323",
    "description": "Dodge_250892",
    "title": "Dodge_250892",
    "link_img": "https://live.staticflickr.com/65535/48115098751_6a4f69f379_o.jpg",
    "id_image": "Dodge_250892",
    "count_view": 0
  },
  {
    "link_thumb": "https://live.staticflickr.com/65535/48118244696_095f81dbe9_n.jpg",
    "id_album": "-2100339805",
    "description": "Lamborghini_221666",
    "title": "Lamborghini_221666",
    "link_img": "https://live.staticflickr.com/65535/48118244696_ea1c8c19c2_o.jpg",
    "id_image": "Lamborghini_221666",
    "count_view": 0
  },
  {
    "link_thumb": "https://live.staticflickr.com/65535/48119015297_83091b3cbe_n.jpg",
    "id_album": "446908717",
    "description": "Lexus_908234",
    "title": "Lexus_908234",
    "link_img": "https://live.staticflickr.com/65535/48119015297_4422fabbcc_o.jpg",
    "id_image": "Lexus_908234",
    "count_view": 0
  },
  {
    "link_thumb": "https://live.staticflickr.com/65535/49888855778_3f167239fa_n.jpg",
    "id_album": "-1276282568",
    "description": "2013_rv_Formula1_rv_Ferrari_rv_F138_rv_V3_rv_1600",
    "title": "2013_rv_Formula1_rv_Ferrari_rv_F138_rv_V3_rv_1600",
    "link_img": "https://live.staticflickr.com/65535/49888855778_dbdea6d2c2_o.jpg",
    "id_image": "2013_rv_Formula1_rv_Ferrari_rv_F138_rv_V3_rv_1600",
    "count_view": 0
  },
  {
    "link_thumb": "https://live.staticflickr.com/65535/48111721848_158362a66f_n.jpg",
    "id_album": "1482519782",
    "description": "Hyundai_887217",
    "title": "Hyundai_887217",
    "link_img": "https://live.staticflickr.com/65535/48111721848_a2aa3f06ec_o.jpg",
    "id_image": "Hyundai_887217",
    "count_view": 0
  },
  {
    "link_thumb": "https://live.staticflickr.com/65535/49889330072_d439a02250_n.jpg",
    "id_album": "-885766951",
    "description": "2021_rv_BAC_rv_Mono_rv_V6_rv_2160",
    "title": "2021_rv_BAC_rv_Mono_rv_V6_rv_2160",
    "link_img": "https://live.staticflickr.com/65535/49889330072_d0c4857585_o.jpg",
    "id_image": "2021_rv_BAC_rv_Mono_rv_V6_rv_2160",
    "count_view": 0
  },
  {
    "link_thumb": "https://live.staticflickr.com/65535/48117792003_a78e585b64_n.jpg",
    "id_album": "-354267407",
    "description": "Honda_207760",
    "title": "Honda_207760",
    "link_img": "https://live.staticflickr.com/65535/48117792003_db01692451_o.jpg",
    "id_image": "Honda_207760",
    "count_view": 0
  },
  {
    "link_thumb": "https://live.staticflickr.com/65535/48120748381_eeb1fb8818_n.jpg",
    "id_album": "1952909762",
    "description": "Packard_741806",
    "title": "Packard_741806",
    "link_img": "https://live.staticflickr.com/65535/48120748381_e98b994708_o.jpg",
    "id_image": "Packard_741806",
    "count_view": 0
  },
  {
    "link_thumb": "https://live.staticflickr.com/65535/48112939601_9c6b787303_n.jpg",
    "id_album": "727633301",
    "description": "BMW_499537",
    "title": "BMW_499537",
    "link_img": "https://live.staticflickr.com/65535/48112939601_a8e9e692cb_o.jpg",
    "id_image": "BMW_499537",
    "count_view": 0
  },
  {
    "link_thumb": "https://live.staticflickr.com/65535/49889128037_201d8c0695_n.jpg",
    "id_album": "2068783385",
    "description": "2019_rv_Aston_rv_Martin_rv_AM_rv_RB_rv_003_rv_Concept_rv_V6_rv_2160",
    "title": "2019_rv_Aston_rv_Martin_rv_AM_rv_RB_rv_003_rv_Concept_rv_V6_rv_2160",
    "link_img": "https://live.staticflickr.com/65535/49889128037_5849d36ee5_o.jpg",
    "id_image": "2019_rv_Aston_rv_Martin_rv_AM_rv_RB_rv_003_rv_Concept_rv_V6_rv_2160",
    "count_view": 0
  },
  {
    "link_thumb": "https://live.staticflickr.com/65535/48118366908_2f15387025_n.jpg",
    "id_album": "-2100339805",
    "description": "Lamborghini_318615",
    "title": "Lamborghini_318615",
    "link_img": "https://live.staticflickr.com/65535/48118366908_e862c702f9_o.jpg",
    "id_image": "Lamborghini_318615",
    "count_view": 0
  },
  {
    "link_thumb": "https://live.staticflickr.com/65535/48120651488_bb25c44c9e_n.jpg",
    "id_album": "810634050",
    "description": "Nissan_976248",
    "title": "Nissan_976248",
    "link_img": "https://live.staticflickr.com/65535/48120651488_2366de1750_o.jpg",
    "id_image": "Nissan_976248",
    "count_view": 0
  },
  {
    "link_thumb": "https://live.staticflickr.com/65535/49890005102_4f865b7278_n.jpg",
    "id_album": "924535588",
    "description": "2011_rv_Ford_rv_Falcon_rv_XR6_rv_Turbo_rv_V3_rv_1440",
    "title": "2011_rv_Ford_rv_Falcon_rv_XR6_rv_Turbo_rv_V3_rv_1440",
    "link_img": "https://live.staticflickr.com/65535/49890005102_5082e4d9f8_o.jpg",
    "id_image": "2011_rv_Ford_rv_Falcon_rv_XR6_rv_Turbo_rv_V3_rv_1440",
    "count_view": 0
  },
  {
    "link_thumb": "https://live.staticflickr.com/65535/49890452681_c5ed9283f3_n.jpg",
    "id_album": "-1422593953",
    "description": "2015_rv_Maserati_rv_Mostro_rv_Zagato_rv_Coupe_rv_V5_rv_1600",
    "title": "2015_rv_Maserati_rv_Mostro_rv_Zagato_rv_Coupe_rv_V5_rv_1600",
    "link_img": "https://live.staticflickr.com/65535/49890452681_d5913ecaff_o.jpg",
    "id_image": "2015_rv_Maserati_rv_Mostro_rv_Zagato_rv_Coupe_rv_V5_rv_1600",
    "count_view": 0
  },
  {
    "link_thumb": "https://live.staticflickr.com/65535/48120521608_b3f9255c70_n.jpg",
    "id_album": "810634050",
    "description": "Nissan_502136",
    "title": "Nissan_502136",
    "link_img": "https://live.staticflickr.com/65535/48120521608_83e6422321_o.jpg",
    "id_image": "Nissan_502136",
    "count_view": 0
  },
  {
    "link_thumb": "https://live.staticflickr.com/65535/49889645197_bd2bf94b9c_n.jpg",
    "id_album": "-1814822237",
    "description": "2019_rv_De_rv_Tomaso_rv_P72_rv_V2_rv_2160",
    "title": "2019_rv_De_rv_Tomaso_rv_P72_rv_V2_rv_2160",
    "link_img": "https://live.staticflickr.com/65535/49889645197_1c8613d88d_o.jpg",
    "id_image": "2019_rv_De_rv_Tomaso_rv_P72_rv_V2_rv_2160",
    "count_view": 0
  },
  {
    "link_thumb": "https://live.staticflickr.com/65535/48118615898_9bbc088728_n.jpg",
    "id_album": "-2100339805",
    "description": "Lamborghini_717009",
    "title": "Lamborghini_717009",
    "link_img": "https://live.staticflickr.com/65535/48118615898_038a283d86_o.jpg",
    "id_image": "Lamborghini_717009",
    "count_view": 0
  },
  {
    "link_thumb": "https://live.staticflickr.com/65535/48118247683_8f61be6b40_n.jpg",
    "id_album": "1911063798",
    "description": "Koenigsegg_746438",
    "title": "Koenigsegg_746438",
    "link_img": "https://live.staticflickr.com/65535/48118247683_02b912efbf_o.jpg",
    "id_image": "Koenigsegg_746438",
    "count_view": 0
  },
  {
    "link_thumb": "https://live.staticflickr.com/65535/49889071958_0d172ec823_n.jpg",
    "id_album": "-290692475",
    "description": "2015_rv_Novitec_rv_Rosso_rv_Ferrari_rv_California_rv_T_rv_N_rv_Largo_rv_V6_rv_1600",
    "title": "2015_rv_Novitec_rv_Rosso_rv_Ferrari_rv_California_rv_T_rv_N_rv_Largo_rv_V6_rv_1600",
    "link_img": "https://live.staticflickr.com/65535/49889071958_69661e0ec5_o.jpg",
    "id_image": "2015_rv_Novitec_rv_Rosso_rv_Ferrari_rv_California_rv_T_rv_N_rv_Largo_rv_V6_rv_1600",
    "count_view": 0
  },
  {
    "link_thumb": "https://live.staticflickr.com/65535/49892564146_36b9b03ba5_n.jpg",
    "id_album": "2103242556",
    "description": "2018_rv_Honda_rv_Civic_rv_Type_rv_R_rv_V3_rv_2000",
    "title": "2018_rv_Honda_rv_Civic_rv_Type_rv_R_rv_V3_rv_2000",
    "link_img": "https://live.staticflickr.com/65535/49892564146_28d43a2780_o.jpg",
    "id_image": "2018_rv_Honda_rv_Civic_rv_Type_rv_R_rv_V3_rv_2000",
    "count_view": 0
  },
  {
    "link_thumb": "https://live.staticflickr.com/65535/49892025273_7a9709b5fe_n.jpg",
    "id_album": "1662834735",
    "description": "2010_rv_Porsche_rv_911_rv_Turbo_rv_S_rv_V4_rv_1440",
    "title": "2010_rv_Porsche_rv_911_rv_Turbo_rv_S_rv_V4_rv_1440",
    "link_img": "https://live.staticflickr.com/65535/49892025273_e51dd618a6_o.jpg",
    "id_image": "2010_rv_Porsche_rv_911_rv_Turbo_rv_S_rv_V4_rv_1440",
    "count_view": 0
  },
  {
    "link_thumb": "https://live.staticflickr.com/65535/48122374826_be423c0d4a_n.jpg",
    "id_album": "422322641",
    "description": "Subaru_216650",
    "title": "Subaru_216650",
    "link_img": "https://live.staticflickr.com/65535/48122374826_c570e5b0f6_o.jpg",
    "id_image": "Subaru_216650",
    "count_view": 0
  },
  {
    "link_thumb": "https://live.staticflickr.com/65535/48112987682_8954ef2ec2_n.jpg",
    "id_album": "727633301",
    "description": "BMW_487285",
    "title": "BMW_487285",
    "link_img": "https://live.staticflickr.com/65535/48112987682_fee74b8012_o.jpg",
    "id_image": "BMW_487285",
    "count_view": 0
  },
  {
    "link_thumb": "https://live.staticflickr.com/65535/48113448876_c3007b8690_n.jpg",
    "id_album": "1456070666",
    "description": "Bugatti_944236",
    "title": "Bugatti_944236",
    "link_img": "https://live.staticflickr.com/65535/48113448876_2761271c01_o.jpg",
    "id_image": "Bugatti_944236",
    "count_view": 0
  },
  {
    "link_thumb": "https://live.staticflickr.com/65535/48119303752_f6e8014157_n.jpg",
    "id_album": "898314866",
    "description": "Mazda_533446",
    "title": "Mazda_533446",
    "link_img": "https://live.staticflickr.com/65535/48119303752_559eee5bfb_o.jpg",
    "id_image": "Mazda_533446",
    "count_view": 0
  },
  {
    "link_thumb": "https://live.staticflickr.com/65535/48123194357_145cf86b47_n.jpg",
    "id_album": "1159292543",
    "description": "Volvo_251639",
    "title": "Volvo_251639",
    "link_img": "https://live.staticflickr.com/65535/48123194357_42d3444dfd_o.jpg",
    "id_image": "Volvo_251639",
    "count_view": 0
  },
  {
    "link_thumb": "https://live.staticflickr.com/65535/48117681481_453abc00a5_n.jpg",
    "id_album": "-1846404630",
    "description": "Ford_993321",
    "title": "Ford_993321",
    "link_img": "https://live.staticflickr.com/65535/48117681481_106bea5393_o.jpg",
    "id_image": "Ford_993321",
    "count_view": 0
  },
  {
    "link_thumb": "https://live.staticflickr.com/65535/48119344018_3a3d069f2c_n.jpg",
    "id_album": "990865885",
    "description": "McLaren_600148",
    "title": "McLaren_600148",
    "link_img": "https://live.staticflickr.com/65535/48119344018_b9573faac8_o.jpg",
    "id_image": "McLaren_600148",
    "count_view": 0
  },
  {
    "link_thumb": "https://live.staticflickr.com/65535/48117972267_01be5ab4b3_n.jpg",
    "id_album": "-354267407",
    "description": "Honda_684434",
    "title": "Honda_684434",
    "link_img": "https://live.staticflickr.com/65535/48117972267_60c5678865_o.jpg",
    "id_image": "Honda_684434",
    "count_view": 0
  },
  {
    "link_thumb": "https://live.staticflickr.com/65535/49888798686_a1e47bc208_n.jpg",
    "id_album": "55897541",
    "description": "2013_rv_Alpina_rv_B6_rv_Biturbo_rv_V3_rv_1600",
    "title": "2013_rv_Alpina_rv_B6_rv_Biturbo_rv_V3_rv_1600",
    "link_img": "https://live.staticflickr.com/65535/49888798686_b91ec430a7_o.jpg",
    "id_image": "2013_rv_Alpina_rv_B6_rv_Biturbo_rv_V3_rv_1600",
    "count_view": 0
  },
  {
    "link_thumb": "https://live.staticflickr.com/65535/49890061207_fc9c8a20f8_n.jpg",
    "id_album": "-559101122",
    "description": "2001_rv_Ford_rv_Mustang_rv_GT_rv_V6_rv_1536",
    "title": "2001_rv_Ford_rv_Mustang_rv_GT_rv_V6_rv_1536",
    "link_img": "https://live.staticflickr.com/65535/49890061207_4af95c61e4_o.jpg",
    "id_image": "2001_rv_Ford_rv_Mustang_rv_GT_rv_V6_rv_1536",
    "count_view": 0
  },
  {
    "link_thumb": "https://live.staticflickr.com/65535/49892452277_f162b42094_n.jpg",
    "id_album": "-1227226245",
    "description": "2011_rv_Lexus_rv_LFA_rv_V1_rv_1440",
    "title": "2011_rv_Lexus_rv_LFA_rv_V1_rv_1440",
    "link_img": "https://live.staticflickr.com/65535/49892452277_580b137a68_o.jpg",
    "id_image": "2011_rv_Lexus_rv_LFA_rv_V1_rv_1440",
    "count_view": 0
  },
  {
    "link_thumb": "https://live.staticflickr.com/65535/49888203703_c812db78e5_n.jpg",
    "id_album": "504832144",
    "description": "2016_rv_Acura_rv_NSX_rv_EV_rv_Concept_rv_V1_rv_2000",
    "title": "2016_rv_Acura_rv_NSX_rv_EV_rv_Concept_rv_V1_rv_2000",
    "link_img": "https://live.staticflickr.com/65535/49888203703_a148754bfd_o.jpg",
    "id_image": "2016_rv_Acura_rv_NSX_rv_EV_rv_Concept_rv_V1_rv_2000",
    "count_view": 0
  },
  {
    "link_thumb": "https://live.staticflickr.com/65535/48118065078_a2c5d6eed4_n.jpg",
    "id_album": "-843028318",
    "description": "Jaguar_914678",
    "title": "Jaguar_914678",
    "link_img": "https://live.staticflickr.com/65535/48118065078_ffd7475664_o.jpg",
    "id_image": "Jaguar_914678",
    "count_view": 0
  },
  {
    "link_thumb": "https://live.staticflickr.com/65535/48114127266_63ef7ac32b_n.jpg",
    "id_album": "-1721545051",
    "description": "Chevrolet_333401",
    "title": "Chevrolet_333401",
    "link_img": "https://live.staticflickr.com/65535/48114127266_94d89bd7be_o.jpg",
    "id_image": "Chevrolet_333401",
    "count_view": 0
  },
  {
    "link_thumb": "https://live.staticflickr.com/65535/49889781942_8a2d40f929_n.jpg",
    "id_album": "-1659740523",
    "description": "2001_rv_Ferrari_rv_456M_rv_GT_rv_V2_rv_1440",
    "title": "2001_rv_Ferrari_rv_456M_rv_GT_rv_V2_rv_1440",
    "link_img": "https://live.staticflickr.com/65535/49889781942_7c70ca2362_o.jpg",
    "id_image": "2001_rv_Ferrari_rv_456M_rv_GT_rv_V2_rv_1440",
    "count_view": 0
  },
  {
    "link_thumb": "https://live.staticflickr.com/65535/48123215393_b559502699_n.jpg",
    "id_album": "1159292543",
    "description": "Volvo_879852",
    "title": "Volvo_879852",
    "link_img": "https://live.staticflickr.com/65535/48123215393_38d5f4c69d_o.jpg",
    "id_image": "Volvo_879852",
    "count_view": 0
  },
  {
    "link_thumb": "https://live.staticflickr.com/65535/48117243861_7d2da1d67b_n.jpg",
    "id_album": "-1846404630",
    "description": "Ford_472801",
    "title": "Ford_472801",
    "link_img": "https://live.staticflickr.com/65535/48117243861_006be42cd0_o.jpg",
    "id_image": "Ford_472801",
    "count_view": 0
  },
  {
    "link_thumb": "https://live.staticflickr.com/65535/49888740588_6a5d138348_n.jpg",
    "id_album": "-843860003",
    "description": "2015_rv_Chevrolet_rv_Corvette_rv_Z06_rv_Convertible_rv_V5_rv_1600",
    "title": "2015_rv_Chevrolet_rv_Corvette_rv_Z06_rv_Convertible_rv_V5_rv_1600",
    "link_img": "https://live.staticflickr.com/65535/49888740588_6f1c05402f_o.jpg",
    "id_image": "2015_rv_Chevrolet_rv_Corvette_rv_Z06_rv_Convertible_rv_V5_rv_1600",
    "count_view": 0
  },
  {
    "link_thumb": "https://live.staticflickr.com/65535/48115735617_28080aaac5_n.jpg",
    "id_album": "1364506720",
    "description": "Ferrari_207444",
    "title": "Ferrari_207444",
    "link_img": "https://live.staticflickr.com/65535/48115735617_8285e36292_o.jpg",
    "id_image": "Ferrari_207444",
    "count_view": 0
  },
  {
    "link_thumb": "https://live.staticflickr.com/65535/48119358173_06554374f6_n.jpg",
    "id_album": "990865885",
    "description": "McLaren_694421",
    "title": "McLaren_694421",
    "link_img": "https://live.staticflickr.com/65535/48119358173_cce0f16209_o.jpg",
    "id_image": "McLaren_694421",
    "count_view": 0
  },
  {
    "link_thumb": "https://live.staticflickr.com/65535/49889323977_a2bf6f735d_n.jpg",
    "id_album": "857589277",
    "description": "2017_rv_Audi_rv_TT_rv_RS_rv_V6_rv_2000",
    "title": "2017_rv_Audi_rv_TT_rv_RS_rv_V6_rv_2000",
    "link_img": "https://live.staticflickr.com/65535/49889323977_8226a87a3e_o.jpg",
    "id_image": "2017_rv_Audi_rv_TT_rv_RS_rv_V6_rv_2000",
    "count_view": 0
  },
  {
    "link_thumb": "https://live.staticflickr.com/65535/48112459876_5288189048_n.jpg",
    "id_album": "-15119147",
    "description": "Audi_959431",
    "title": "Audi_959431",
    "link_img": "https://live.staticflickr.com/65535/48112459876_a76eb4805b_o.jpg",
    "id_image": "Audi_959431",
    "count_view": 0
  },
  {
    "link_thumb": "https://live.staticflickr.com/65535/48112755241_7bc41d5cf2_n.jpg",
    "id_album": "727633301",
    "description": "BMW_444934",
    "title": "BMW_444934",
    "link_img": "https://live.staticflickr.com/65535/48112755241_ebbbb5e3f0_o.jpg",
    "id_image": "BMW_444934",
    "count_view": 0
  },
  {
    "link_thumb": "https://live.staticflickr.com/65535/48118429088_5f459e85ba_n.jpg",
    "id_album": "-2100339805",
    "description": "Lamborghini_378543",
    "title": "Lamborghini_378543",
    "link_img": "https://live.staticflickr.com/65535/48118429088_02c6821e10_o.jpg",
    "id_image": "Lamborghini_378543",
    "count_view": 0
  },
  {
    "link_thumb": "https://live.staticflickr.com/65535/49892212806_9ff1e9c821_n.jpg",
    "id_album": "-461005169",
    "description": "2020_rv_Nissan_rv_GT_rv_R_rv_Nismo_rv_V3_rv_2160",
    "title": "2020_rv_Nissan_rv_GT_rv_R_rv_Nismo_rv_V3_rv_2160",
    "link_img": "https://live.staticflickr.com/65535/49892212806_ed1c93be0e_o.jpg",
    "id_image": "2020_rv_Nissan_rv_GT_rv_R_rv_Nismo_rv_V3_rv_2160",
    "count_view": 0
  },
  {
    "link_thumb": "https://live.staticflickr.com/65535/48113363498_aaaef1a5e8_n.jpg",
    "id_album": "1456070666",
    "description": "Bugatti_234002",
    "title": "Bugatti_234002",
    "link_img": "https://live.staticflickr.com/65535/48113363498_37618077e5_o.jpg",
    "id_image": "Bugatti_234002",
    "count_view": 0
  },
  {
    "link_thumb": "https://live.staticflickr.com/65535/48123044777_e18fb279a1_n.jpg",
    "id_album": "-150952028",
    "description": "Volkswagen_410157",
    "title": "Volkswagen_410157",
    "link_img": "https://live.staticflickr.com/65535/48123044777_22b5e7e786_o.jpg",
    "id_image": "Volkswagen_410157",
    "count_view": 0
  },
  {
    "link_thumb": "https://live.staticflickr.com/65535/48111694088_eaa57f6c10_n.jpg",
    "id_album": "1482519782",
    "description": "Hyundai_256072",
    "title": "Hyundai_256072",
    "link_img": "https://live.staticflickr.com/65535/48111694088_5104f221e7_o.jpg",
    "id_image": "Hyundai_256072",
    "count_view": 0
  },
  {
    "link_thumb": "https://live.staticflickr.com/65535/48121864027_13212a73d1_n.jpg",
    "id_album": "-1178450892",
    "description": "Porsche_941765",
    "title": "Porsche_941765",
    "link_img": "https://live.staticflickr.com/65535/48121864027_1bd5537450_o.jpg",
    "id_image": "Porsche_941765",
    "count_view": 0
  },
  {
    "link_thumb": "https://live.staticflickr.com/65535/48115198528_e95b643f13_n.jpg",
    "id_album": "413141323",
    "description": "Dodge_313636",
    "title": "Dodge_313636",
    "link_img": "https://live.staticflickr.com/65535/48115198528_6913ac57d3_o.jpg",
    "id_image": "Dodge_313636",
    "count_view": 0
  },
  {
    "link_thumb": "https://live.staticflickr.com/65535/48114465437_58eaaff8d1_n.jpg",
    "id_album": "-1721545051",
    "description": "Chevrolet_506719",
    "title": "Chevrolet_506719",
    "link_img": "https://live.staticflickr.com/65535/48114465437_cda0fc4cab_o.jpg",
    "id_image": "Chevrolet_506719",
    "count_view": 0
  },
  {
    "link_thumb": "https://live.staticflickr.com/65535/48113270637_cacf78969e_n.jpg",
    "id_album": "727633301",
    "description": "BMW_907430",
    "title": "BMW_907430",
    "link_img": "https://live.staticflickr.com/65535/48113270637_9c6841ac26_o.jpg",
    "id_image": "BMW_907430",
    "count_view": 0
  },
  {
    "link_thumb": "https://live.staticflickr.com/65535/48120048053_38774b3601_n.jpg",
    "id_album": "-1116477526",
    "description": "Mitsubishi_257410",
    "title": "Mitsubishi_257410",
    "link_img": "https://live.staticflickr.com/65535/48120048053_21cd874da5_o.jpg",
    "id_image": "Mitsubishi_257410",
    "count_view": 0
  },
  {
    "link_thumb": "https://live.staticflickr.com/65535/49888275058_bdb73f9124_n.jpg",
    "id_album": "-1465206620",
    "description": "1968_rv_Alfa_rv_Romeo_rv_Tipo_rv_33_rv_Stradale_rv_V5_rv_1200",
    "title": "1968_rv_Alfa_rv_Romeo_rv_Tipo_rv_33_rv_Stradale_rv_V5_rv_1200",
    "link_img": "https://live.staticflickr.com/65535/49888275058_4795f85708_o.jpg",
    "id_image": "1968_rv_Alfa_rv_Romeo_rv_Tipo_rv_33_rv_Stradale_rv_V5_rv_1200",
    "count_view": 0
  },
  {
    "link_thumb": "https://live.staticflickr.com/65535/49954394661_3b86453e81_n.jpg",
    "id_album": "-1077631613",
    "description": "2015_rv_BMW_rv_3.0_rv_CSL_rv_Hommage_rv_Concept_rv_V1_rv_1600",
    "title": "2015_rv_BMW_rv_3.0_rv_CSL_rv_Hommage_rv_Concept_rv_V1_rv_1600",
    "link_img": "https://live.staticflickr.com/65535/49954394661_44d2ab27f2_o.jpg",
    "id_image": "2015_rv_BMW_rv_3.0_rv_CSL_rv_Hommage_rv_Concept_rv_V1_rv_1600",
    "count_view": 0
  },
  {
    "link_thumb": "https://live.staticflickr.com/65535/49889962486_8819a79d6b_n.jpg",
    "id_album": "796949652",
    "description": "2012_rv_Italdesign_rv_Brivido_rv_Concept_rv_V1_rv_1440",
    "title": "2012_rv_Italdesign_rv_Brivido_rv_Concept_rv_V1_rv_1440",
    "link_img": "https://live.staticflickr.com/65535/49889962486_f50af54757_o.jpg",
    "id_image": "2012_rv_Italdesign_rv_Brivido_rv_Concept_rv_V1_rv_1440",
    "count_view": 0
  },
  {
    "link_thumb": "https://live.staticflickr.com/65535/48114684546_07dfd56086_n.jpg",
    "id_album": "-1721545051",
    "description": "Chevrolet_950802",
    "title": "Chevrolet_950802",
    "link_img": "https://live.staticflickr.com/65535/48114684546_8da55cbff1_o.jpg",
    "id_image": "Chevrolet_950802",
    "count_view": 0
  },
  {
    "link_thumb": "https://live.staticflickr.com/65535/48122068766_582c6e1832_n.jpg",
    "id_album": "-1217333387",
    "description": "Renault_992728",
    "title": "Renault_992728",
    "link_img": "https://live.staticflickr.com/65535/48122068766_1cb71901ab_o.jpg",
    "id_image": "Renault_992728",
    "count_view": 0
  },
  {
    "link_thumb": "https://live.staticflickr.com/65535/48115230108_0a5bac2566_n.jpg",
    "id_album": "413141323",
    "description": "Dodge_379093",
    "title": "Dodge_379093",
    "link_img": "https://live.staticflickr.com/65535/48115230108_6ff81a7bbc_o.jpg",
    "id_image": "Dodge_379093",
    "count_view": 0
  },
  {
    "link_thumb": "https://live.staticflickr.com/65535/49892192333_e0b33d5c72_n.jpg",
    "id_album": "103614530",
    "description": "2009_rv_Wiesmann_rv_GT_rv_MF5_rv_20th_rv_Anniversary_rv_V2_rv_1440",
    "title": "2009_rv_Wiesmann_rv_GT_rv_MF5_rv_20th_rv_Anniversary_rv_V2_rv_1440",
    "link_img": "https://live.staticflickr.com/65535/49892192333_b244247d90_o.jpg",
    "id_image": "2009_rv_Wiesmann_rv_GT_rv_MF5_rv_20th_rv_Anniversary_rv_V2_rv_1440",
    "count_view": 0
  },
  {
    "link_thumb": "https://live.staticflickr.com/65535/48118500698_84560d4c05_n.jpg",
    "id_album": "-2100339805",
    "description": "Lamborghini_449982",
    "title": "Lamborghini_449982",
    "link_img": "https://live.staticflickr.com/65535/48118500698_84a353ac77_o.jpg",
    "id_image": "Lamborghini_449982",
    "count_view": 0
  },
  {
    "link_thumb": "https://live.staticflickr.com/65535/49889258101_e8ce9a9b21_n.jpg",
    "id_album": "-843860003",
    "description": "2015_rv_Chevrolet_rv_Corvette_rv_Z06_rv_Convertible_rv_V3_rv_1600",
    "title": "2015_rv_Chevrolet_rv_Corvette_rv_Z06_rv_Convertible_rv_V3_rv_1600",
    "link_img": "https://live.staticflickr.com/65535/49889258101_d7caf9b76e_o.jpg",
    "id_image": "2015_rv_Chevrolet_rv_Corvette_rv_Z06_rv_Convertible_rv_V3_rv_1600",
    "count_view": 0
  },
  {
    "link_thumb": "https://live.staticflickr.com/65535/48118103796_aabdd29194_n.jpg",
    "id_album": "-2009218697",
    "description": "Jeep_500175",
    "title": "Jeep_500175",
    "link_img": "https://live.staticflickr.com/65535/48118103796_0b411f71c7_o.jpg",
    "id_image": "Jeep_500175",
    "count_view": 0
  },
  {
    "link_thumb": "https://live.staticflickr.com/65535/49891297621_db26cbd88a_n.jpg",
    "id_album": "2122916111",
    "description": "1970_rv_Plymouth_rv_AAR_rv_Barracuda_rv_V2_rv_1536",
    "title": "1970_rv_Plymouth_rv_AAR_rv_Barracuda_rv_V2_rv_1536",
    "link_img": "https://live.staticflickr.com/65535/49891297621_5ee3b62014_o.jpg",
    "id_image": "1970_rv_Plymouth_rv_AAR_rv_Barracuda_rv_V2_rv_1536",
    "count_view": 0
  },
  {
    "link_thumb": "https://live.staticflickr.com/65535/48122474732_a2d18bd959_n.jpg",
    "id_album": "422322641",
    "description": "Subaru_251580",
    "title": "Subaru_251580",
    "link_img": "https://live.staticflickr.com/65535/48122474732_82f7f36bbb_o.jpg",
    "id_image": "Subaru_251580",
    "count_view": 0
  },
  {
    "link_thumb": "https://live.staticflickr.com/65535/48118072946_282a2b12d9_n.jpg",
    "id_album": "-2009218697",
    "description": "Jeep_256180",
    "title": "Jeep_256180",
    "link_img": "https://live.staticflickr.com/65535/48118072946_bcf78afb89_o.jpg",
    "id_image": "Jeep_256180",
    "count_view": 0
  },
  {
    "link_thumb": "https://live.staticflickr.com/65535/49891049367_867902c212_n.jpg",
    "id_album": "-1036470022",
    "description": "2012_rv_Mercedes_rv_Benz_rv_Ener_rv_G_rv_Force_rv_Concept_rv_V6_rv_1440",
    "title": "2012_rv_Mercedes_rv_Benz_rv_Ener_rv_G_rv_Force_rv_Concept_rv_V6_rv_1440",
    "link_img": "https://live.staticflickr.com/65535/49891049367_bd0ab85535_o.jpg",
    "id_image": "2012_rv_Mercedes_rv_Benz_rv_Ener_rv_G_rv_Force_rv_Concept_rv_V6_rv_1440",
    "count_view": 0
  },
  {
    "link_thumb": "https://live.staticflickr.com/65535/49892330091_9fa71e527c_n.jpg",
    "id_album": "-283016394",
    "description": "2004_rv_Subaru_rv_Impreza_rv_WRX_rv_V2_rv_1536",
    "title": "2004_rv_Subaru_rv_Impreza_rv_WRX_rv_V2_rv_1536",
    "link_img": "https://live.staticflickr.com/65535/49892330091_22ca71bed5_o.jpg",
    "id_image": "2004_rv_Subaru_rv_Impreza_rv_WRX_rv_V2_rv_1536",
    "count_view": 0
  },
  {
    "link_thumb": "https://live.staticflickr.com/65535/48112448052_ef1d71b09b_n.jpg",
    "id_album": "-15119147",
    "description": "Audi_496420",
    "title": "Audi_496420",
    "link_img": "https://live.staticflickr.com/65535/48112448052_3265f8b5e7_o.jpg",
    "id_image": "Audi_496420",
    "count_view": 0
  },
  {
    "link_thumb": "https://live.staticflickr.com/65535/48114885326_b33039472a_n.jpg",
    "id_album": "2072464184",
    "description": "Citroen_471934",
    "title": "Citroen_471934",
    "link_img": "https://live.staticflickr.com/65535/48114885326_eb32f6fac0_o.jpg",
    "id_image": "Citroen_471934",
    "count_view": 0
  },
  {
    "link_thumb": "https://live.staticflickr.com/65535/48116322977_699e803071_n.jpg",
    "id_album": "1364506720",
    "description": "Ferrari_757642",
    "title": "Ferrari_757642",
    "link_img": "https://live.staticflickr.com/65535/48116322977_65e1cb523e_o.jpg",
    "id_image": "Ferrari_757642",
    "count_view": 0
  },
  {
    "link_thumb": "https://live.staticflickr.com/65535/48122880193_95f4486a32_n.jpg",
    "id_album": "-150952028",
    "description": "Volkswagen_161977",
    "title": "Volkswagen_161977",
    "link_img": "https://live.staticflickr.com/65535/48122880193_d96a236c8f_o.jpg",
    "id_image": "Volkswagen_161977",
    "count_view": 0
  },
  {
    "link_thumb": "https://live.staticflickr.com/65535/48113140111_6d148c3948_n.jpg",
    "id_album": "727633301",
    "description": "BMW_885644",
    "title": "BMW_885644",
    "link_img": "https://live.staticflickr.com/65535/48113140111_0c3e18bdb2_o.jpg",
    "id_image": "BMW_885644",
    "count_view": 0
  },
  {
    "link_thumb": "https://live.staticflickr.com/65535/49889658913_0bf771104f_n.jpg",
    "id_album": "-936716449",
    "description": "2021_rv_Lamborghini_rv_Huracan_rv_EVO_rv_RWD_rv_V1_rv_2160",
    "title": "2021_rv_Lamborghini_rv_Huracan_rv_EVO_rv_RWD_rv_V1_rv_2160",
    "link_img": "https://live.staticflickr.com/65535/49889658913_0e4cc69787_o.jpg",
    "id_image": "2021_rv_Lamborghini_rv_Huracan_rv_EVO_rv_RWD_rv_V1_rv_2160",
    "count_view": 0
  },
  {
    "link_thumb": "https://live.staticflickr.com/65535/48112481477_675de4fa01_n.jpg",
    "id_album": "-15119147",
    "description": "Audi_700634",
    "title": "Audi_700634",
    "link_img": "https://live.staticflickr.com/65535/48112481477_f1d9ef94f2_o.jpg",
    "id_image": "Audi_700634",
    "count_view": 0
  },
  {
    "link_thumb": "https://live.staticflickr.com/65535/48115099151_e49ea04359_n.jpg",
    "id_album": "413141323",
    "description": "Dodge_251035",
    "title": "Dodge_251035",
    "link_img": "https://live.staticflickr.com/65535/48115099151_4e62d7695b_o.jpg",
    "id_image": "Dodge_251035",
    "count_view": 0
  },
  {
    "link_thumb": "https://live.staticflickr.com/65535/48120626203_53b9e1c7d4_n.jpg",
    "id_album": "810634050",
    "description": "Nissan_911783",
    "title": "Nissan_911783",
    "link_img": "https://live.staticflickr.com/65535/48120626203_19d78f93bf_o.jpg",
    "id_image": "Nissan_911783",
    "count_view": 0
  },
  {
    "link_thumb": "https://live.staticflickr.com/65535/48119032298_41eeb2560a_n.jpg",
    "id_album": "-1153253263",
    "description": "Lotus_211662",
    "title": "Lotus_211662",
    "link_img": "https://live.staticflickr.com/65535/48119032298_7a00f954d7_o.jpg",
    "id_image": "Lotus_211662",
    "count_view": 0
  },
  {
    "link_thumb": "https://live.staticflickr.com/65535/49890707813_33344498e1_n.jpg",
    "id_album": "1600747842",
    "description": "2005_rv_Pagani_rv_Zonda_rv_F_rv_V11_rv_2000",
    "title": "2005_rv_Pagani_rv_Zonda_rv_F_rv_V11_rv_2000",
    "link_img": "https://live.staticflickr.com/65535/49890707813_ebf73c687f_o.jpg",
    "id_image": "2005_rv_Pagani_rv_Zonda_rv_F_rv_V11_rv_2000",
    "count_view": 0
  }
]