[
  {
    "total_img": 0,
    "number_page": 0,
    "title": "Vauxhall Astra",
    "tag": "Vauxhall Astra,",
    "description": "Vauxhall Astra",
    "link_thumb": "https://live.staticflickr.com/65535/49892934742_b21414b73c_n.jpg",
    "id_album": "1199209564",
    "total_view": 12
  }
]