[
  {
    "link_thumb": "https://live.staticflickr.com/65535/49892277596_45d4d68a83_n.jpg",
    "id_album": "-1977273812",
    "description": "2015_rv_Rezvani_rv_Beast_rv_V1_rv_1600",
    "title": "2015_rv_Rezvani_rv_Beast_rv_V1_rv_1600",
    "link_img": "https://live.staticflickr.com/65535/49892277596_66cb2e9122_o.jpg",
    "id_image": "2015_rv_Rezvani_rv_Beast_rv_V1_rv_1600",
    "count_view": 0
  },
  {
    "link_thumb": "https://live.staticflickr.com/65535/49891764158_002c2ced3d_n.jpg",
    "id_album": "-1977273812",
    "description": "2015_rv_Rezvani_rv_Beast_rv_V2_rv_1440",
    "title": "2015_rv_Rezvani_rv_Beast_rv_V2_rv_1440",
    "link_img": "https://live.staticflickr.com/65535/49891764158_313e54716d_o.jpg",
    "id_image": "2015_rv_Rezvani_rv_Beast_rv_V2_rv_1440",
    "count_view": 0
  },
  {
    "link_thumb": "https://live.staticflickr.com/65535/49892277936_da9cbf3600_n.jpg",
    "id_album": "-1977273812",
    "description": "2015_rv_Rezvani_rv_Beast_rv_V3_rv_1600",
    "title": "2015_rv_Rezvani_rv_Beast_rv_V3_rv_1600",
    "link_img": "https://live.staticflickr.com/65535/49892277936_846114e9d5_o.jpg",
    "id_image": "2015_rv_Rezvani_rv_Beast_rv_V3_rv_1600",
    "count_view": 0
  },
  {
    "link_thumb": "https://live.staticflickr.com/65535/49891764493_6fedc89072_n.jpg",
    "id_album": "-1977273812",
    "description": "2015_rv_Rezvani_rv_Beast_rv_V4_rv_1600",
    "title": "2015_rv_Rezvani_rv_Beast_rv_V4_rv_1600",
    "link_img": "https://live.staticflickr.com/65535/49891764493_a98d804bec_o.jpg",
    "id_image": "2015_rv_Rezvani_rv_Beast_rv_V4_rv_1600",
    "count_view": 0
  },
  {
    "link_thumb": "https://live.staticflickr.com/65535/49891764668_7e8807e982_n.jpg",
    "id_album": "-1977273812",
    "description": "2015_rv_Rezvani_rv_Beast_rv_V5_rv_1600",
    "title": "2015_rv_Rezvani_rv_Beast_rv_V5_rv_1600",
    "link_img": "https://live.staticflickr.com/65535/49891764668_70e078d4e0_o.jpg",
    "id_image": "2015_rv_Rezvani_rv_Beast_rv_V5_rv_1600",
    "count_view": 0
  },
  {
    "link_thumb": "https://live.staticflickr.com/65535/49892591377_b9d2ab4d23_n.jpg",
    "id_album": "-1977273812",
    "description": "2015_rv_Rezvani_rv_Beast_rv_V6_rv_1600",
    "title": "2015_rv_Rezvani_rv_Beast_rv_V6_rv_1600",
    "link_img": "https://live.staticflickr.com/65535/49892591377_1b4a2ef822_o.jpg",
    "id_image": "2015_rv_Rezvani_rv_Beast_rv_V6_rv_1600",
    "count_view": 0
  },
  {
    "link_thumb": "https://live.staticflickr.com/65535/49892591487_f4dee92201_n.jpg",
    "id_album": "-1977273812",
    "description": "2017_rv_Rezvani_rv_Beast_rv_Alpha_rv_V1_rv_2000",
    "title": "2017_rv_Rezvani_rv_Beast_rv_Alpha_rv_V1_rv_2000",
    "link_img": "https://live.staticflickr.com/65535/49892591487_b5ea09255b_o.jpg",
    "id_image": "2017_rv_Rezvani_rv_Beast_rv_Alpha_rv_V1_rv_2000",
    "count_view": 0
  },
  {
    "link_thumb": "https://live.staticflickr.com/65535/49892591627_f0ebfdc24b_n.jpg",
    "id_album": "-1977273812",
    "description": "2017_rv_Rezvani_rv_Beast_rv_Alpha_rv_V2_rv_2000",
    "title": "2017_rv_Rezvani_rv_Beast_rv_Alpha_rv_V2_rv_2000",
    "link_img": "https://live.staticflickr.com/65535/49892591627_539b672702_o.jpg",
    "id_image": "2017_rv_Rezvani_rv_Beast_rv_Alpha_rv_V2_rv_2000",
    "count_view": 0
  },
  {
    "link_thumb": "https://live.staticflickr.com/65535/49892591787_e05370dd7c_n.jpg",
    "id_album": "-1977273812",
    "description": "2017_rv_Rezvani_rv_Beast_rv_Alpha_rv_V3_rv_2000",
    "title": "2017_rv_Rezvani_rv_Beast_rv_Alpha_rv_V3_rv_2000",
    "link_img": "https://live.staticflickr.com/65535/49892591787_51470539cc_o.jpg",
    "id_image": "2017_rv_Rezvani_rv_Beast_rv_Alpha_rv_V3_rv_2000",
    "count_view": 0
  },
  {
    "link_thumb": "https://live.staticflickr.com/65535/49892279006_f3eda375f3_n.jpg",
    "id_album": "-1977273812",
    "description": "2017_rv_Rezvani_rv_Beast_rv_Alpha_rv_V4_rv_2000",
    "title": "2017_rv_Rezvani_rv_Beast_rv_Alpha_rv_V4_rv_2000",
    "link_img": "https://live.staticflickr.com/65535/49892279006_47e53b9034_o.jpg",
    "id_image": "2017_rv_Rezvani_rv_Beast_rv_Alpha_rv_V4_rv_2000",
    "count_view": 0
  },
  {
    "link_thumb": "https://live.staticflickr.com/65535/49892592102_ac443dcd5c_n.jpg",
    "id_album": "-1977273812",
    "description": "2017_rv_Rezvani_rv_Beast_rv_Alpha_rv_V5_rv_2000",
    "title": "2017_rv_Rezvani_rv_Beast_rv_Alpha_rv_V5_rv_2000",
    "link_img": "https://live.staticflickr.com/65535/49892592102_293649ebe8_o.jpg",
    "id_image": "2017_rv_Rezvani_rv_Beast_rv_Alpha_rv_V5_rv_2000",
    "count_view": 0
  },
  {
    "link_thumb": "https://live.staticflickr.com/65535/49891765688_4318261959_n.jpg",
    "id_album": "-1977273812",
    "description": "2017_rv_Rezvani_rv_Beast_rv_Alpha_rv_V6_rv_2000",
    "title": "2017_rv_Rezvani_rv_Beast_rv_Alpha_rv_V6_rv_2000",
    "link_img": "https://live.staticflickr.com/65535/49891765688_44bddb9aa0_o.jpg",
    "id_image": "2017_rv_Rezvani_rv_Beast_rv_Alpha_rv_V6_rv_2000",
    "count_view": 0
  },
  {
    "link_thumb": "https://live.staticflickr.com/65535/49892279516_4e6c24dcc4_n.jpg",
    "id_album": "-1977273812",
    "description": "2017_rv_Rezvani_rv_Beast_rv_Alpha_rv_V7_rv_2000",
    "title": "2017_rv_Rezvani_rv_Beast_rv_Alpha_rv_V7_rv_2000",
    "link_img": "https://live.staticflickr.com/65535/49892279516_e9d8c8d33d_o.jpg",
    "id_image": "2017_rv_Rezvani_rv_Beast_rv_Alpha_rv_V7_rv_2000",
    "count_view": 0
  },
  {
    "link_thumb": "https://live.staticflickr.com/65535/49892279701_fce553e5dd_n.jpg",
    "id_album": "-1977273812",
    "description": "2017_rv_Rezvani_rv_Beast_rv_Alpha_rv_V8_rv_2000",
    "title": "2017_rv_Rezvani_rv_Beast_rv_Alpha_rv_V8_rv_2000",
    "link_img": "https://live.staticflickr.com/65535/49892279701_00c2a593c9_o.jpg",
    "id_image": "2017_rv_Rezvani_rv_Beast_rv_Alpha_rv_V8_rv_2000",
    "count_view": 0
  },
  {
    "link_thumb": "https://live.staticflickr.com/65535/49892592802_48e0d61d11_n.jpg",
    "id_album": "-1977273812",
    "description": "2017_rv_Rezvani_rv_Beast_rv_Alpha_rv_V9_rv_2000",
    "title": "2017_rv_Rezvani_rv_Beast_rv_Alpha_rv_V9_rv_2000",
    "link_img": "https://live.staticflickr.com/65535/49892592802_8cce79ce2c_o.jpg",
    "id_image": "2017_rv_Rezvani_rv_Beast_rv_Alpha_rv_V9_rv_2000",
    "count_view": 0
  }
]