[
  {
    "total_img": 0,
    "number_page": 0,
    "title": "Morgan Plus Four",
    "tag": "Morgan Plus Four,",
    "description": "Morgan Plus Four",
    "link_thumb": "https://live.staticflickr.com/65535/49890477518_b87ae5afe2_n.jpg",
    "id_album": "535324403",
    "total_view": 5
  }
]