[
  {
    "total_img": 0,
    "number_page": 0,
    "title": "Tushek",
    "tag": "Tushek,",
    "description": "Tushek",
    "link_thumb": "https://live.staticflickr.com/65535/49892861682_63dcfdc296_n.jpg",
    "id_album": "2010074320",
    "total_view": 8
  }
]