[
  {
    "total_img": 0,
    "number_page": 0,
    "title": "Aspid",
    "tag": "Aspid,",
    "description": "Aspid",
    "link_thumb": "https://live.staticflickr.com/65535/49888289718_b2fc12c1dd_n.jpg",
    "id_album": "77393355",
    "total_view": 3
  }
]