[
  {
    "link_thumb": "https://live.staticflickr.com/65535/48122531743_0ca43a1804_n.jpg",
    "id_album": "422322641",
    "description": "Subaru_593305",
    "title": "Subaru_593305",
    "link_img": "https://live.staticflickr.com/65535/48122531743_58494056a8_o.jpg",
    "id_image": "Subaru_593305",
    "count_view": 0
  },
  {
    "link_thumb": "https://live.staticflickr.com/65535/49889863723_5da3be6b49_n.jpg",
    "id_album": "-391278537",
    "description": "2020_rv_Lotus_rv_Evora_rv_GT_rv_V4_rv_2160",
    "title": "2020_rv_Lotus_rv_Evora_rv_GT_rv_V4_rv_2160",
    "link_img": "https://live.staticflickr.com/65535/49889863723_99f32b6fa1_o.jpg",
    "id_image": "2020_rv_Lotus_rv_Evora_rv_GT_rv_V4_rv_2160",
    "count_view": 0
  },
  {
    "link_thumb": "https://live.staticflickr.com/65535/48117982563_5674015661_n.jpg",
    "id_album": "427416146",
    "description": "Hummer_355390",
    "title": "Hummer_355390",
    "link_img": "https://live.staticflickr.com/65535/48117982563_1fcdb6f0e2_o.jpg",
    "id_image": "Hummer_355390",
    "count_view": 0
  },
  {
    "link_thumb": "https://live.staticflickr.com/65535/49889604481_f7e91da043_n.jpg",
    "id_album": "-1205186403",
    "description": "2017_rv_Fiat_rv_124_rv_Spider_rv_Abarth_rv_V2_rv_2000",
    "title": "2017_rv_Fiat_rv_124_rv_Spider_rv_Abarth_rv_V2_rv_2000",
    "link_img": "https://live.staticflickr.com/65535/49889604481_180549412c_o.jpg",
    "id_image": "2017_rv_Fiat_rv_124_rv_Spider_rv_Abarth_rv_V2_rv_2000",
    "count_view": 0
  },
  {
    "link_thumb": "https://live.staticflickr.com/65535/48113167487_58cf4480bd_n.jpg",
    "id_album": "727633301",
    "description": "BMW_800784",
    "title": "BMW_800784",
    "link_img": "https://live.staticflickr.com/65535/48113167487_aa7fa7cf5f_o.jpg",
    "id_image": "BMW_800784",
    "count_view": 0
  },
  {
    "link_thumb": "https://live.staticflickr.com/65535/49888935953_c8c964c63e_n.jpg",
    "id_album": "1069142825",
    "description": "1995_rv_Ferrari_rv_F355_rv_Spider_rv_V5_rv_1440",
    "title": "1995_rv_Ferrari_rv_F355_rv_Spider_rv_V5_rv_1440",
    "link_img": "https://live.staticflickr.com/65535/49888935953_986fbb58ed_o.jpg",
    "id_image": "1995_rv_Ferrari_rv_F355_rv_Spider_rv_V5_rv_1440",
    "count_view": 0
  },
  {
    "link_thumb": "https://live.staticflickr.com/65535/48123152297_ca796cd2db_n.jpg",
    "id_album": "-150952028",
    "description": "Volkswagen_920623",
    "title": "Volkswagen_920623",
    "link_img": "https://live.staticflickr.com/65535/48123152297_6f1aae4cea_o.jpg",
    "id_image": "Volkswagen_920623",
    "count_view": 0
  },
  {
    "link_thumb": "https://live.staticflickr.com/65535/49889842932_7b7c56eee4_n.jpg",
    "id_album": "-2012649705",
    "description": "2016_rv_Ferrari_rv_SP275_rv_RW_rv_Competizione_rv_V3_rv_1536",
    "title": "2016_rv_Ferrari_rv_SP275_rv_RW_rv_Competizione_rv_V3_rv_1536",
    "link_img": "https://live.staticflickr.com/65535/49889842932_b82703afc6_o.jpg",
    "id_image": "2016_rv_Ferrari_rv_SP275_rv_RW_rv_Competizione_rv_V3_rv_1536",
    "count_view": 0
  },
  {
    "link_thumb": "https://live.staticflickr.com/65535/49890185881_00f29e37c9_n.jpg",
    "id_album": "-1038321311",
    "description": "1971_rv_Lamborghini_rv_Miura_rv_SV_rv_V10_rv_1536",
    "title": "1971_rv_Lamborghini_rv_Miura_rv_SV_rv_V10_rv_1536",
    "link_img": "https://live.staticflickr.com/65535/49890185881_2062ee969e_o.jpg",
    "id_image": "1971_rv_Lamborghini_rv_Miura_rv_SV_rv_V10_rv_1536",
    "count_view": 0
  },
  {
    "link_thumb": "https://live.staticflickr.com/65535/48113461366_c4e9f55af9_n.jpg",
    "id_album": "1246496342",
    "description": "Buick_173725",
    "title": "Buick_173725",
    "link_img": "https://live.staticflickr.com/65535/48113461366_39a2c22e33_o.jpg",
    "id_image": "Buick_173725",
    "count_view": 0
  },
  {
    "link_thumb": "https://live.staticflickr.com/65535/48119422168_d4421b91eb_n.jpg",
    "id_album": "990865885",
    "description": "McLaren_918187",
    "title": "McLaren_918187",
    "link_img": "https://live.staticflickr.com/65535/48119422168_b8c7612216_o.jpg",
    "id_image": "McLaren_918187",
    "count_view": 0
  },
  {
    "link_thumb": "https://live.staticflickr.com/65535/48120450147_d3262970ff_n.jpg",
    "id_album": "810634050",
    "description": "Nissan_271576",
    "title": "Nissan_271576",
    "link_img": "https://live.staticflickr.com/65535/48120450147_3f441b8205_o.jpg",
    "id_image": "Nissan_271576",
    "count_view": 0
  },
  {
    "link_thumb": "https://live.staticflickr.com/65535/48114637628_e8fb08369e_n.jpg",
    "id_album": "-1721545051",
    "description": "Chevrolet_882233",
    "title": "Chevrolet_882233",
    "link_img": "https://live.staticflickr.com/65535/48114637628_17471304fb_o.jpg",
    "id_image": "Chevrolet_882233",
    "count_view": 0
  },
  {
    "link_thumb": "https://live.staticflickr.com/65535/48114261733_dce74b604d_n.jpg",
    "id_album": "-1721545051",
    "description": "Chevrolet_427961",
    "title": "Chevrolet_427961",
    "link_img": "https://live.staticflickr.com/65535/48114261733_10c69b14ed_o.jpg",
    "id_image": "Chevrolet_427961",
    "count_view": 0
  },
  {
    "link_thumb": "https://live.staticflickr.com/65535/48117065747_134a4e9e1c_n.jpg",
    "id_album": "-1846404630",
    "description": "Ford_294877",
    "title": "Ford_294877",
    "link_img": "https://live.staticflickr.com/65535/48117065747_62d7302d55_o.jpg",
    "id_image": "Ford_294877",
    "count_view": 0
  },
  {
    "link_thumb": "https://live.staticflickr.com/65535/49892148041_b55dbf5b74_n.jpg",
    "id_album": "-522462605",
    "description": "2016_rv_Porsche_rv_919_rv_Hybrid_rv_V6_rv_2000",
    "title": "2016_rv_Porsche_rv_919_rv_Hybrid_rv_V6_rv_2000",
    "link_img": "https://live.staticflickr.com/65535/49892148041_ff8ea11db7_o.jpg",
    "id_image": "2016_rv_Porsche_rv_919_rv_Hybrid_rv_V6_rv_2000",
    "count_view": 0
  },
  {
    "link_thumb": "https://live.staticflickr.com/65535/48119564613_2c66f7b748_n.jpg",
    "id_album": "-731054311",
    "description": "MercedesBenz_257258",
    "title": "MercedesBenz_257258",
    "link_img": "https://live.staticflickr.com/65535/48119564613_71cb26c1b6_o.jpg",
    "id_image": "MercedesBenz_257258",
    "count_view": 0
  },
  {
    "link_thumb": "https://live.staticflickr.com/65535/48117635456_c21d674baa_n.jpg",
    "id_album": "-1846404630",
    "description": "Ford_960064",
    "title": "Ford_960064",
    "link_img": "https://live.staticflickr.com/65535/48117635456_1f021c7fe1_o.jpg",
    "id_image": "Ford_960064",
    "count_view": 0
  },
  {
    "link_thumb": "https://live.staticflickr.com/65535/48112656811_469d559174_n.jpg",
    "id_album": "727633301",
    "description": "BMW_254033",
    "title": "BMW_254033",
    "link_img": "https://live.staticflickr.com/65535/48112656811_c13180ca91_o.jpg",
    "id_image": "BMW_254033",
    "count_view": 0
  },
  {
    "link_thumb": "https://live.staticflickr.com/65535/49892033098_4c5e1df4df_n.jpg",
    "id_album": "1662834735",
    "description": "2020_rv_Porsche_rv_911_rv_Turbo_rv_S_rv_V2_rv_2160",
    "title": "2020_rv_Porsche_rv_911_rv_Turbo_rv_S_rv_V2_rv_2160",
    "link_img": "https://live.staticflickr.com/65535/49892033098_f011c79dfd_o.jpg",
    "id_image": "2020_rv_Porsche_rv_911_rv_Turbo_rv_S_rv_V2_rv_2160",
    "count_view": 0
  },
  {
    "link_thumb": "https://live.staticflickr.com/65535/49893016107_aa19e87fda_n.jpg",
    "id_album": "-1852700606",
    "description": "2011_rv_Wiesmann_rv_GT_rv_MF4_rv_V3_rv_1200",
    "title": "2011_rv_Wiesmann_rv_GT_rv_MF4_rv_V3_rv_1200",
    "link_img": "https://live.staticflickr.com/65535/49893016107_ed884b8775_o.jpg",
    "id_image": "2011_rv_Wiesmann_rv_GT_rv_MF4_rv_V3_rv_1200",
    "count_view": 0
  },
  {
    "link_thumb": "https://live.staticflickr.com/65535/49889037133_7f42f33ccd_n.jpg",
    "id_album": "1828723205",
    "description": "1987_rv_Ferrari_rv_F40_rv_V6_rv_1440",
    "title": "1987_rv_Ferrari_rv_F40_rv_V6_rv_1440",
    "link_img": "https://live.staticflickr.com/65535/49889037133_becf23f3ee_o.jpg",
    "id_image": "1987_rv_Ferrari_rv_F40_rv_V6_rv_1440",
    "count_view": 0
  },
  {
    "link_thumb": "https://live.staticflickr.com/65535/49889753702_25a6dcd2d3_n.jpg",
    "id_album": "1471706457",
    "description": "1984_rv_Ferrari_rv_288_rv_GTO_rv_V5_rv_2160",
    "title": "1984_rv_Ferrari_rv_288_rv_GTO_rv_V5_rv_2160",
    "link_img": "https://live.staticflickr.com/65535/49889753702_0e6b7dfc5f_o.jpg",
    "id_image": "1984_rv_Ferrari_rv_288_rv_GTO_rv_V5_rv_2160",
    "count_view": 0
  },
  {
    "link_thumb": "https://live.staticflickr.com/65535/49892629476_38a70f274f_n.jpg",
    "id_album": "-318957908",
    "description": "2017_rv_Vauxhall_rv_Insignia_rv_Grand_rv_Sport_rv_V4_rv_2000",
    "title": "2017_rv_Vauxhall_rv_Insignia_rv_Grand_rv_Sport_rv_V4_rv_2000",
    "link_img": "https://live.staticflickr.com/65535/49892629476_d48ce57c66_o.jpg",
    "id_image": "2017_rv_Vauxhall_rv_Insignia_rv_Grand_rv_Sport_rv_V4_rv_2000",
    "count_view": 0
  },
  {
    "link_thumb": "https://live.staticflickr.com/65535/48113327713_53b517c131_n.jpg",
    "id_album": "727633301",
    "description": "BMW_985290",
    "title": "BMW_985290",
    "link_img": "https://live.staticflickr.com/65535/48113327713_55101acb38_o.jpg",
    "id_image": "BMW_985290",
    "count_view": 0
  },
  {
    "link_thumb": "https://live.staticflickr.com/65535/48111770897_ae01eb3142_n.jpg",
    "id_album": "1482519782",
    "description": "Hyundai_446689",
    "title": "Hyundai_446689",
    "link_img": "https://live.staticflickr.com/65535/48111770897_ee563a08e8_o.jpg",
    "id_image": "Hyundai_446689",
    "count_view": 0
  },
  {
    "link_thumb": "https://live.staticflickr.com/65535/48117708126_774fa084f9_n.jpg",
    "id_album": "-885504812",
    "description": "GMC_98061",
    "title": "GMC_98061",
    "link_img": "https://live.staticflickr.com/65535/48117708126_b2944d6a39_o.jpg",
    "id_image": "GMC_98061",
    "count_view": 0
  },
  {
    "link_thumb": "https://live.staticflickr.com/65535/48121551652_5329f99da4_n.jpg",
    "id_album": "-1178450892",
    "description": "Porsche_597734",
    "title": "Porsche_597734",
    "link_img": "https://live.staticflickr.com/65535/48121551652_129f53f585_o.jpg",
    "id_image": "Porsche_597734",
    "count_view": 0
  },
  {
    "link_thumb": "https://live.staticflickr.com/65535/48121836692_229d1b5058_n.jpg",
    "id_album": "-1178450892",
    "description": "Porsche_929500",
    "title": "Porsche_929500",
    "link_img": "https://live.staticflickr.com/65535/48121836692_247a3a5692_o.jpg",
    "id_image": "Porsche_929500",
    "count_view": 0
  },
  {
    "link_thumb": "https://live.staticflickr.com/65535/48118892728_785424e942_n.jpg",
    "id_album": "446908717",
    "description": "Lexus_417214",
    "title": "Lexus_417214",
    "link_img": "https://live.staticflickr.com/65535/48118892728_aa8187727c_o.jpg",
    "id_image": "Lexus_417214",
    "count_view": 0
  },
  {
    "link_thumb": "https://live.staticflickr.com/65535/48122336411_a1fd9381df_n.jpg",
    "id_album": "-58240507",
    "description": "Studebaker_929709",
    "title": "Studebaker_929709",
    "link_img": "https://live.staticflickr.com/65535/48122336411_15e1be2400_o.jpg",
    "id_image": "Studebaker_929709",
    "count_view": 0
  },
  {
    "link_thumb": "https://live.staticflickr.com/65535/49889516702_5a436a30cc_n.jpg",
    "id_album": "-339563732",
    "description": "2015_rv_Brabus_rv_Mercedes_rv_Benz_rv_S_rv_63_rv_AMG_rv_Coupe_rv_V3_rv_1600",
    "title": "2015_rv_Brabus_rv_Mercedes_rv_Benz_rv_S_rv_63_rv_AMG_rv_Coupe_rv_V3_rv_1600",
    "link_img": "https://live.staticflickr.com/65535/49889516702_36eac0f8f5_o.jpg",
    "id_image": "2015_rv_Brabus_rv_Mercedes_rv_Benz_rv_S_rv_63_rv_AMG_rv_Coupe_rv_V3_rv_1600",
    "count_view": 0
  },
  {
    "link_thumb": "https://live.staticflickr.com/65535/48112333631_c0a9c95106_n.jpg",
    "id_album": "-15119147",
    "description": "Audi_479376",
    "title": "Audi_479376",
    "link_img": "https://live.staticflickr.com/65535/48112333631_0eca2a5583_o.jpg",
    "id_image": "Audi_479376",
    "count_view": 0
  },
  {
    "link_thumb": "https://live.staticflickr.com/65535/49889343962_b6b552f54b_n.jpg",
    "id_album": "915915336",
    "description": "2014_rv_Bentley_rv_Flying_rv_Spur_rv_V3_rv_1600",
    "title": "2014_rv_Bentley_rv_Flying_rv_Spur_rv_V3_rv_1600",
    "link_img": "https://live.staticflickr.com/65535/49889343962_280c970150_o.jpg",
    "id_image": "2014_rv_Bentley_rv_Flying_rv_Spur_rv_V3_rv_1600",
    "count_view": 0
  },
  {
    "link_thumb": "https://live.staticflickr.com/65535/48117353291_582db2b7c0_n.jpg",
    "id_album": "-1846404630",
    "description": "Ford_640402",
    "title": "Ford_640402",
    "link_img": "https://live.staticflickr.com/65535/48117353291_b9759dfb01_o.jpg",
    "id_image": "Ford_640402",
    "count_view": 0
  },
  {
    "link_thumb": "https://live.staticflickr.com/65535/48115518888_3b0bd33d1f_n.jpg",
    "id_album": "413141323",
    "description": "Dodge_774563",
    "title": "Dodge_774563",
    "link_img": "https://live.staticflickr.com/65535/48115518888_5238a42d21_o.jpg",
    "id_image": "Dodge_774563",
    "count_view": 0
  },
  {
    "link_thumb": "https://live.staticflickr.com/65535/49891272376_fe6470c057_n.jpg",
    "id_album": "-925276176",
    "description": "2019_rv_Peugeot_rv_508_rv_Sport_rv_Engineered_rv_Concept_rv_V6_rv_2160",
    "title": "2019_rv_Peugeot_rv_508_rv_Sport_rv_Engineered_rv_Concept_rv_V6_rv_2160",
    "link_img": "https://live.staticflickr.com/65535/49891272376_8be86bf296_o.jpg",
    "id_image": "2019_rv_Peugeot_rv_508_rv_Sport_rv_Engineered_rv_Concept_rv_V6_rv_2160",
    "count_view": 0
  },
  {
    "link_thumb": "https://live.staticflickr.com/65535/49892554212_031285999f_n.jpg",
    "id_album": "-1040682979",
    "description": "2010_rv_Renault_rv_Clio_rv_RS_rv_V3_rv_1440",
    "title": "2010_rv_Renault_rv_Clio_rv_RS_rv_V3_rv_1440",
    "link_img": "https://live.staticflickr.com/65535/49892554212_393935eddf_o.jpg",
    "id_image": "2010_rv_Renault_rv_Clio_rv_RS_rv_V3_rv_1440",
    "count_view": 0
  },
  {
    "link_thumb": "https://live.staticflickr.com/65535/48119116256_6723e40e79_n.jpg",
    "id_album": "697984456",
    "description": "Maserati_87992",
    "title": "Maserati_87992",
    "link_img": "https://live.staticflickr.com/65535/48119116256_2a7a0a1815_o.jpg",
    "id_image": "Maserati_87992",
    "count_view": 0
  },
  {
    "link_thumb": "https://live.staticflickr.com/65535/49889350797_397c983863_n.jpg",
    "id_album": "727633301",
    "description": "2010_rv_BMW_rv_Z4_rv_GT3_rv_V1_rv_1536",
    "title": "2010_rv_BMW_rv_Z4_rv_GT3_rv_V1_rv_1536",
    "link_img": "https://live.staticflickr.com/65535/49889350797_a1eee1ca0a_o.jpg",
    "id_image": "2010_rv_BMW_rv_Z4_rv_GT3_rv_V1_rv_1536",
    "count_view": 0
  },
  {
    "link_thumb": "https://live.staticflickr.com/65535/49889808026_85b043e783_n.jpg",
    "id_album": "-51494743",
    "description": "2019_rv_Porsche_rv_911_rv_GT2_rv_RS_rv_Clubsport_rv_V6_rv_2160",
    "title": "2019_rv_Porsche_rv_911_rv_GT2_rv_RS_rv_Clubsport_rv_V6_rv_2160",
    "link_img": "https://live.staticflickr.com/65535/49889808026_5cbbf0fa0b_o.jpg",
    "id_image": "2019_rv_Porsche_rv_911_rv_GT2_rv_RS_rv_Clubsport_rv_V6_rv_2160",
    "count_view": 0
  },
  {
    "link_thumb": "https://live.staticflickr.com/65535/48117169988_b1e421fa00_n.jpg",
    "id_album": "-1846404630",
    "description": "Ford_415713",
    "title": "Ford_415713",
    "link_img": "https://live.staticflickr.com/65535/48117169988_93eda926ce_o.jpg",
    "id_image": "Ford_415713",
    "count_view": 0
  },
  {
    "link_thumb": "https://live.staticflickr.com/65535/49889118603_7409bbdc19_n.jpg",
    "id_album": "1558646706",
    "description": "2013_rv_Chevrolet_rv_Camaro_rv_ZL1_rv_Convertible_rv_V9_rv_1440",
    "title": "2013_rv_Chevrolet_rv_Camaro_rv_ZL1_rv_Convertible_rv_V9_rv_1440",
    "link_img": "https://live.staticflickr.com/65535/49889118603_af473db423_o.jpg",
    "id_image": "2013_rv_Chevrolet_rv_Camaro_rv_ZL1_rv_Convertible_rv_V9_rv_1440",
    "count_view": 0
  },
  {
    "link_thumb": "https://live.staticflickr.com/65535/49891548477_08fde7b044_n.jpg",
    "id_album": "1900098867",
    "description": "1984_rv_Peugeot_rv_205_rv_GTI_rv_V9_rv_1536",
    "title": "1984_rv_Peugeot_rv_205_rv_GTI_rv_V9_rv_1536",
    "link_img": "https://live.staticflickr.com/65535/49891548477_f226c04907_o.jpg",
    "id_image": "1984_rv_Peugeot_rv_205_rv_GTI_rv_V9_rv_1536",
    "count_view": 0
  },
  {
    "link_thumb": "https://live.staticflickr.com/65535/48121023106_0e378a7c97_n.jpg",
    "id_album": "-1123679742",
    "description": "Plymouth_500869",
    "title": "Plymouth_500869",
    "link_img": "https://live.staticflickr.com/65535/48121023106_a7a9b612d1_o.jpg",
    "id_image": "Plymouth_500869",
    "count_view": 0
  },
  {
    "link_thumb": "https://live.staticflickr.com/65535/48121074578_f38ffceb0e_n.jpg",
    "id_album": "-1123679742",
    "description": "Plymouth_865983",
    "title": "Plymouth_865983",
    "link_img": "https://live.staticflickr.com/65535/48121074578_07e21ef0f8_o.jpg",
    "id_image": "Plymouth_865983",
    "count_view": 0
  },
  {
    "link_thumb": "https://live.staticflickr.com/65535/48120711896_a243d87dd7_n.jpg",
    "id_album": "1952909762",
    "description": "Packard_741045",
    "title": "Packard_741045",
    "link_img": "https://live.staticflickr.com/65535/48120711896_5d8a21656e_o.jpg",
    "id_image": "Packard_741045",
    "count_view": 0
  },
  {
    "link_thumb": "https://live.staticflickr.com/65535/48114096111_cc07664d72_n.jpg",
    "id_album": "-1721545051",
    "description": "Chevrolet_306513",
    "title": "Chevrolet_306513",
    "link_img": "https://live.staticflickr.com/65535/48114096111_338d336c19_o.jpg",
    "id_image": "Chevrolet_306513",
    "count_view": 0
  },
  {
    "link_thumb": "https://live.staticflickr.com/65535/48118998086_584236e75e_n.jpg",
    "id_album": "-1153253263",
    "description": "Lotus_188745",
    "title": "Lotus_188745",
    "link_img": "https://live.staticflickr.com/65535/48118998086_4546a113c6_o.jpg",
    "id_image": "Lotus_188745",
    "count_view": 0
  },
  {
    "link_thumb": "https://live.staticflickr.com/65535/49888244293_8d969bd81d_n.jpg",
    "id_album": "1600499504",
    "description": "2013_rv_Alfa_rv_Romeo_rv_Disco_rv_Volante_rv_Touring_rv_V5_rv_1600",
    "title": "2013_rv_Alfa_rv_Romeo_rv_Disco_rv_Volante_rv_Touring_rv_V5_rv_1600",
    "link_img": "https://live.staticflickr.com/65535/49888244293_b2859ce65d_o.jpg",
    "id_image": "2013_rv_Alfa_rv_Romeo_rv_Disco_rv_Volante_rv_Touring_rv_V5_rv_1600",
    "count_view": 0
  },
  {
    "link_thumb": "https://live.staticflickr.com/65535/48118202013_962e64ab27_n.jpg",
    "id_album": "-625217782",
    "description": "Kia_911358",
    "title": "Kia_911358",
    "link_img": "https://live.staticflickr.com/65535/48118202013_5f948dcbfc_o.jpg",
    "id_image": "Kia_911358",
    "count_view": 0
  },
  {
    "link_thumb": "https://live.staticflickr.com/65535/48112314826_bd50568741_n.jpg",
    "id_album": "-15119147",
    "description": "Audi_475478",
    "title": "Audi_475478",
    "link_img": "https://live.staticflickr.com/65535/48112314826_5dce66bef0_o.jpg",
    "id_image": "Audi_475478",
    "count_view": 0
  },
  {
    "link_thumb": "https://live.staticflickr.com/65535/48119551653_35f80ed6db_n.jpg",
    "id_album": "-731054311",
    "description": "MercedesBenz_257174",
    "title": "MercedesBenz_257174",
    "link_img": "https://live.staticflickr.com/65535/48119551653_c3e93a6b23_o.jpg",
    "id_image": "MercedesBenz_257174",
    "count_view": 0
  },
  {
    "link_thumb": "https://live.staticflickr.com/65535/48112209122_dbc3c26987_n.jpg",
    "id_album": "-1001854128",
    "description": "AstonMartin_313625",
    "title": "AstonMartin_313625",
    "link_img": "https://live.staticflickr.com/65535/48112209122_f46656cb80_o.jpg",
    "id_image": "AstonMartin_313625",
    "count_view": 0
  },
  {
    "link_thumb": "https://live.staticflickr.com/65535/49888730288_bd04de216d_n.jpg",
    "id_album": "-843794467",
    "description": "2006_rv_Chevrolet_rv_Corvette_rv_Z06_rv_V5_rv_1600",
    "title": "2006_rv_Chevrolet_rv_Corvette_rv_Z06_rv_V5_rv_1600",
    "link_img": "https://live.staticflickr.com/65535/49888730288_4bbb3aab26_o.jpg",
    "id_image": "2006_rv_Chevrolet_rv_Corvette_rv_Z06_rv_V5_rv_1600",
    "count_view": 0
  },
  {
    "link_thumb": "https://live.staticflickr.com/65535/48113137173_3a8a389d22_n.jpg",
    "id_album": "727633301",
    "description": "BMW_860278",
    "title": "BMW_860278",
    "link_img": "https://live.staticflickr.com/65535/48113137173_b1fa13dc8d_o.jpg",
    "id_image": "BMW_860278",
    "count_view": 0
  },
  {
    "link_thumb": "https://live.staticflickr.com/65535/49891829883_7cecc2f423_n.jpg",
    "id_album": "-79257297",
    "description": "2011_rv_Shelby_rv_Classic_rv_Recreations_rv_GT500CR_rv_V1_rv_1440",
    "title": "2011_rv_Shelby_rv_Classic_rv_Recreations_rv_GT500CR_rv_V1_rv_1440",
    "link_img": "https://live.staticflickr.com/65535/49891829883_0c1b367f24_o.jpg",
    "id_image": "2011_rv_Shelby_rv_Classic_rv_Recreations_rv_GT500CR_rv_V1_rv_1440",
    "count_view": 0
  },
  {
    "link_thumb": "https://live.staticflickr.com/65535/48112595996_29a5d720b8_n.jpg",
    "id_album": "727633301",
    "description": "BMW_124299",
    "title": "BMW_124299",
    "link_img": "https://live.staticflickr.com/65535/48112595996_62dd2ecb26_o.jpg",
    "id_image": "BMW_124299",
    "count_view": 0
  },
  {
    "link_thumb": "https://live.staticflickr.com/65535/48119840521_1257ebe7aa_n.jpg",
    "id_album": "-731054311",
    "description": "MercedesBenz_898306",
    "title": "MercedesBenz_898306",
    "link_img": "https://live.staticflickr.com/65535/48119840521_1668db0d11_o.jpg",
    "id_image": "MercedesBenz_898306",
    "count_view": 0
  },
  {
    "link_thumb": "https://live.staticflickr.com/65535/48118160548_c88fba1d1b_n.jpg",
    "id_album": "-2009218697",
    "description": "Jeep_892351",
    "title": "Jeep_892351",
    "link_img": "https://live.staticflickr.com/65535/48118160548_f65eb153d4_o.jpg",
    "id_image": "Jeep_892351",
    "count_view": 0
  },
  {
    "link_thumb": "https://live.staticflickr.com/65535/49888772963_872c77f24b_n.jpg",
    "id_album": "1016927281",
    "description": "2016_rv_Porsche_rv_911_rv_Carrera_rv_4_rv_V9_rv_2000",
    "title": "2016_rv_Porsche_rv_911_rv_Carrera_rv_4_rv_V9_rv_2000",
    "link_img": "https://live.staticflickr.com/65535/49888772963_4d14f48333_o.jpg",
    "id_image": "2016_rv_Porsche_rv_911_rv_Carrera_rv_4_rv_V9_rv_2000",
    "count_view": 0
  },
  {
    "link_thumb": "https://live.staticflickr.com/65535/48112497206_9da60d6dec_n.jpg",
    "id_album": "2097036181",
    "description": "Bentley_187431",
    "title": "Bentley_187431",
    "link_img": "https://live.staticflickr.com/65535/48112497206_a7a7eec843_o.jpg",
    "id_image": "Bentley_187431",
    "count_view": 0
  },
  {
    "link_thumb": "https://live.staticflickr.com/65535/48119591671_16bde43d3c_n.jpg",
    "id_album": "-731054311",
    "description": "MercedesBenz_318918",
    "title": "MercedesBenz_318918",
    "link_img": "https://live.staticflickr.com/65535/48119591671_6e8d4e019d_o.jpg",
    "id_image": "MercedesBenz_318918",
    "count_view": 0
  },
  {
    "link_thumb": "https://live.staticflickr.com/65535/48122045157_173fcf4a37_n.jpg",
    "id_album": "-1217333387",
    "description": "Renault_143140",
    "title": "Renault_143140",
    "link_img": "https://live.staticflickr.com/65535/48122045157_99314f4ff7_o.jpg",
    "id_image": "Renault_143140",
    "count_view": 0
  },
  {
    "link_thumb": "https://live.staticflickr.com/65535/49891764668_7e8807e982_n.jpg",
    "id_album": "-1977273812",
    "description": "2015_rv_Rezvani_rv_Beast_rv_V5_rv_1600",
    "title": "2015_rv_Rezvani_rv_Beast_rv_V5_rv_1600",
    "link_img": "https://live.staticflickr.com/65535/49891764668_70e078d4e0_o.jpg",
    "id_image": "2015_rv_Rezvani_rv_Beast_rv_V5_rv_1600",
    "count_view": 0
  },
  {
    "link_thumb": "https://live.staticflickr.com/65535/48112490412_749d0ce9e4_n.jpg",
    "id_album": "-15119147",
    "description": "Audi_725291",
    "title": "Audi_725291",
    "link_img": "https://live.staticflickr.com/65535/48112490412_29530315fd_o.jpg",
    "id_image": "Audi_725291",
    "count_view": 0
  },
  {
    "link_thumb": "https://live.staticflickr.com/65535/48122476638_76c981f42b_n.jpg",
    "id_album": "422322641",
    "description": "Subaru_455431",
    "title": "Subaru_455431",
    "link_img": "https://live.staticflickr.com/65535/48122476638_e015e5f47c_o.jpg",
    "id_image": "Subaru_455431",
    "count_view": 0
  },
  {
    "link_thumb": "https://live.staticflickr.com/65535/49890559368_f80497abca_n.jpg",
    "id_album": "511911560",
    "description": "2001_rv_Nissan_rv_Z_rv_Concept_rv_V1_rv_1440",
    "title": "2001_rv_Nissan_rv_Z_rv_Concept_rv_V1_rv_1440",
    "link_img": "https://live.staticflickr.com/65535/49890559368_95ea6b4902_o.jpg",
    "id_image": "2001_rv_Nissan_rv_Z_rv_Concept_rv_V1_rv_1440",
    "count_view": 0
  },
  {
    "link_thumb": "https://live.staticflickr.com/65535/48118218156_d382ebf3f1_n.jpg",
    "id_album": "1911063798",
    "description": "Koenigsegg_971733",
    "title": "Koenigsegg_971733",
    "link_img": "https://live.staticflickr.com/65535/48118218156_e79ffca7d3_o.jpg",
    "id_image": "Koenigsegg_971733",
    "count_view": 0
  },
  {
    "link_thumb": "https://live.staticflickr.com/65535/48118024366_15546e1252_n.jpg",
    "id_album": "-843028318",
    "description": "Jaguar_885773",
    "title": "Jaguar_885773",
    "link_img": "https://live.staticflickr.com/65535/48118024366_38f827193c_o.jpg",
    "id_image": "Jaguar_885773",
    "count_view": 0
  },
  {
    "link_thumb": "https://live.staticflickr.com/65535/48113207706_bb18f18106_n.jpg",
    "id_album": "727633301",
    "description": "BMW_919817",
    "title": "BMW_919817",
    "link_img": "https://live.staticflickr.com/65535/48113207706_e40fd2eaa3_o.jpg",
    "id_image": "BMW_919817",
    "count_view": 0
  },
  {
    "link_thumb": "https://live.staticflickr.com/65535/48116537222_a6c4191f5c_n.jpg",
    "id_album": "1364506720",
    "description": "Ferrari_993596",
    "title": "Ferrari_993596",
    "link_img": "https://live.staticflickr.com/65535/48116537222_cd2bf249a3_o.jpg",
    "id_image": "Ferrari_993596",
    "count_view": 0
  },
  {
    "link_thumb": "https://live.staticflickr.com/65535/48114767013_1cb2a76bc2_n.jpg",
    "id_album": "939606447",
    "description": "Chrysler_190732",
    "title": "Chrysler_190732",
    "link_img": "https://live.staticflickr.com/65535/48114767013_97ac3794ab_o.jpg",
    "id_image": "Chrysler_190732",
    "count_view": 0
  },
  {
    "link_thumb": "https://live.staticflickr.com/65535/48115994353_b475f80de6_n.jpg",
    "id_album": "1364506720",
    "description": "Ferrari_442663",
    "title": "Ferrari_442663",
    "link_img": "https://live.staticflickr.com/65535/48115994353_b94e7e45f5_o.jpg",
    "id_image": "Ferrari_442663",
    "count_view": 0
  },
  {
    "link_thumb": "https://live.staticflickr.com/65535/48119443722_ca7b30df07_n.jpg",
    "id_album": "990865885",
    "description": "McLaren_844343",
    "title": "McLaren_844343",
    "link_img": "https://live.staticflickr.com/65535/48119443722_34e31b21d3_o.jpg",
    "id_image": "McLaren_844343",
    "count_view": 0
  },
  {
    "link_thumb": "https://live.staticflickr.com/65535/48115050041_2465ae8379_n.jpg",
    "id_album": "413141323",
    "description": "Dodge_199122",
    "title": "Dodge_199122",
    "link_img": "https://live.staticflickr.com/65535/48115050041_bbe4557dbf_o.jpg",
    "id_image": "Dodge_199122",
    "count_view": 0
  },
  {
    "link_thumb": "https://live.staticflickr.com/65535/48112535882_1a8c5d9e2d_n.jpg",
    "id_album": "-15119147",
    "description": "Audi_906815",
    "title": "Audi_906815",
    "link_img": "https://live.staticflickr.com/65535/48112535882_aec7808d55_o.jpg",
    "id_image": "Audi_906815",
    "count_view": 0
  },
  {
    "link_thumb": "https://live.staticflickr.com/65535/49892608166_83207dfcf3_n.jpg",
    "id_album": "-842876950",
    "description": "2011_rv_Aston_rv_Martin_rv_V8_rv_Vantage_rv_S_rv_V9_rv_1440",
    "title": "2011_rv_Aston_rv_Martin_rv_V8_rv_Vantage_rv_S_rv_V9_rv_1440",
    "link_img": "https://live.staticflickr.com/65535/49892608166_944becaf30_o.jpg",
    "id_image": "2011_rv_Aston_rv_Martin_rv_V8_rv_Vantage_rv_S_rv_V9_rv_1440",
    "count_view": 0
  },
  {
    "link_thumb": "https://live.staticflickr.com/65535/49890907276_636a5e3edc_n.jpg",
    "id_album": "-173102747",
    "description": "1999_rv_Mercedes_rv_Benz_rv_Vision_rv_SLR_rv_Roadster_rv_Concept_rv_V3_rv_1440",
    "title": "1999_rv_Mercedes_rv_Benz_rv_Vision_rv_SLR_rv_Roadster_rv_Concept_rv_V3_rv_1440",
    "link_img": "https://live.staticflickr.com/65535/49890907276_e2e45263c2_o.jpg",
    "id_image": "1999_rv_Mercedes_rv_Benz_rv_Vision_rv_SLR_rv_Roadster_rv_Concept_rv_V3_rv_1440",
    "count_view": 0
  },
  {
    "link_thumb": "https://live.staticflickr.com/65535/48117088656_e818547f7e_n.jpg",
    "id_album": "-1846404630",
    "description": "Ford_396187",
    "title": "Ford_396187",
    "link_img": "https://live.staticflickr.com/65535/48117088656_e39c428ffc_o.jpg",
    "id_image": "Ford_396187",
    "count_view": 0
  },
  {
    "link_thumb": "https://live.staticflickr.com/65535/49891169396_31875ab06f_n.jpg",
    "id_album": "-1746133601",
    "description": "2020_rv_Novitec_rv_McLaren_rv_Senna_rv_V5_rv_2160",
    "title": "2020_rv_Novitec_rv_McLaren_rv_Senna_rv_V5_rv_2160",
    "link_img": "https://live.staticflickr.com/65535/49891169396_fb0a56bdf9_o.jpg",
    "id_image": "2020_rv_Novitec_rv_McLaren_rv_Senna_rv_V5_rv_2160",
    "count_view": 0
  },
  {
    "link_thumb": "https://live.staticflickr.com/65535/48117045321_ca96efdb57_n.jpg",
    "id_album": "-1846404630",
    "description": "Ford_355720",
    "title": "Ford_355720",
    "link_img": "https://live.staticflickr.com/65535/48117045321_d4b9d85118_o.jpg",
    "id_image": "Ford_355720",
    "count_view": 0
  },
  {
    "link_thumb": "https://live.staticflickr.com/65535/49889371048_2a04903f68_n.jpg",
    "id_album": "1463562406",
    "description": "2002_rv_Holden_rv_Commodore_rv_SS_rv_V3_rv_1440",
    "title": "2002_rv_Holden_rv_Commodore_rv_SS_rv_V3_rv_1440",
    "link_img": "https://live.staticflickr.com/65535/49889371048_d53222302f_o.jpg",
    "id_image": "2002_rv_Holden_rv_Commodore_rv_SS_rv_V3_rv_1440",
    "count_view": 0
  },
  {
    "link_thumb": "https://live.staticflickr.com/65535/49891194112_a42c43c69b_n.jpg",
    "id_album": "-376919707",
    "description": "1954_rv_Mercedes_rv_Benz_rv_300_rv_SL_rv_Gullwing_rv_V6_rv_1536",
    "title": "1954_rv_Mercedes_rv_Benz_rv_300_rv_SL_rv_Gullwing_rv_V6_rv_1536",
    "link_img": "https://live.staticflickr.com/65535/49891194112_eff7349653_o.jpg",
    "id_image": "1954_rv_Mercedes_rv_Benz_rv_300_rv_SL_rv_Gullwing_rv_V6_rv_1536",
    "count_view": 0
  },
  {
    "link_thumb": "https://live.staticflickr.com/65535/49889091171_8c48183d39_n.jpg",
    "id_album": "-1839907869",
    "description": "2018_rv_BMW_rv_M4_rv_CS_rv_V3_rv_2000",
    "title": "2018_rv_BMW_rv_M4_rv_CS_rv_V3_rv_2000",
    "link_img": "https://live.staticflickr.com/65535/49889091171_0310338066_o.jpg",
    "id_image": "2018_rv_BMW_rv_M4_rv_CS_rv_V3_rv_2000",
    "count_view": 0
  },
  {
    "link_thumb": "https://live.staticflickr.com/65535/48114317353_992429848b_n.jpg",
    "id_album": "-1721545051",
    "description": "Chevrolet_471691",
    "title": "Chevrolet_471691",
    "link_img": "https://live.staticflickr.com/65535/48114317353_9b6f1b31a9_o.jpg",
    "id_image": "Chevrolet_471691",
    "count_view": 0
  },
  {
    "link_thumb": "https://live.staticflickr.com/65535/49889025746_a17f594fa7_n.jpg",
    "id_album": "788591821",
    "description": "2000_rv_Bentley_rv_Arnage_rv_Red_rv_Label_rv_V2_rv_1536",
    "title": "2000_rv_Bentley_rv_Arnage_rv_Red_rv_Label_rv_V2_rv_1536",
    "link_img": "https://live.staticflickr.com/65535/49889025746_dae6580540_o.jpg",
    "id_image": "2000_rv_Bentley_rv_Arnage_rv_Red_rv_Label_rv_V2_rv_1536",
    "count_view": 0
  },
  {
    "link_thumb": "https://live.staticflickr.com/65535/48112862651_df74d4a74b_n.jpg",
    "id_album": "727633301",
    "description": "BMW_484518",
    "title": "BMW_484518",
    "link_img": "https://live.staticflickr.com/65535/48112862651_4b8c67018d_o.jpg",
    "id_image": "BMW_484518",
    "count_view": 0
  },
  {
    "link_thumb": "https://live.staticflickr.com/65535/48115131133_29eb53b6d7_n.jpg",
    "id_album": "413141323",
    "description": "Dodge_250890",
    "title": "Dodge_250890",
    "link_img": "https://live.staticflickr.com/65535/48115131133_623b6ba5be_o.jpg",
    "id_image": "Dodge_250890",
    "count_view": 0
  },
  {
    "link_thumb": "https://live.staticflickr.com/65535/48112620356_63eae0508a_n.jpg",
    "id_album": "727633301",
    "description": "BMW_226257",
    "title": "BMW_226257",
    "link_img": "https://live.staticflickr.com/65535/48112620356_117b1b6c0e_o.jpg",
    "id_image": "BMW_226257",
    "count_view": 0
  },
  {
    "link_thumb": "https://live.staticflickr.com/65535/48119716773_1c5974e794_n.jpg",
    "id_album": "-731054311",
    "description": "MercedesBenz_487149",
    "title": "MercedesBenz_487149",
    "link_img": "https://live.staticflickr.com/65535/48119716773_3fd2c3e732_o.jpg",
    "id_image": "MercedesBenz_487149",
    "count_view": 0
  },
  {
    "link_thumb": "https://live.staticflickr.com/65535/48118594961_6036330b2e_n.jpg",
    "id_album": "-2100339805",
    "description": "Lamborghini_731492",
    "title": "Lamborghini_731492",
    "link_img": "https://live.staticflickr.com/65535/48118594961_d331ba8fb7_o.jpg",
    "id_image": "Lamborghini_731492",
    "count_view": 0
  },
  {
    "link_thumb": "https://live.staticflickr.com/65535/48114342152_1bdff8850d_n.jpg",
    "id_album": "-1721545051",
    "description": "Chevrolet_445764",
    "title": "Chevrolet_445764",
    "link_img": "https://live.staticflickr.com/65535/48114342152_a1456b6cec_o.jpg",
    "id_image": "Chevrolet_445764",
    "count_view": 0
  },
  {
    "link_thumb": "https://live.staticflickr.com/65535/48119181507_b5364d2573_n.jpg",
    "id_album": "697984456",
    "description": "Maserati_450598",
    "title": "Maserati_450598",
    "link_img": "https://live.staticflickr.com/65535/48119181507_1d50ff194a_o.jpg",
    "id_image": "Maserati_450598",
    "count_view": 0
  },
  {
    "link_thumb": "https://live.staticflickr.com/65535/48119886067_7efaf9fcd3_n.jpg",
    "id_album": "-731054311",
    "description": "MercedesBenz_844272",
    "title": "MercedesBenz_844272",
    "link_img": "https://live.staticflickr.com/65535/48119886067_db7e13b7be_o.jpg",
    "id_image": "MercedesBenz_844272",
    "count_view": 0
  },
  {
    "link_thumb": "https://live.staticflickr.com/65535/48113247952_16e3fcd8d3_n.jpg",
    "id_album": "727633301",
    "description": "BMW_892716",
    "title": "BMW_892716",
    "link_img": "https://live.staticflickr.com/65535/48113247952_b58cc966e3_o.jpg",
    "id_image": "BMW_892716",
    "count_view": 0
  },
  {
    "link_thumb": "https://live.staticflickr.com/65535/48112192208_30a7e26a9f_n.jpg",
    "id_album": "548548524",
    "description": "AstonMartin_473312",
    "title": "AstonMartin_473312",
    "link_img": "https://live.staticflickr.com/65535/48112192208_6b1fb9cf7e_o.jpg",
    "id_image": "AstonMartin_473312",
    "count_view": 0
  },
  {
    "link_thumb": "https://live.staticflickr.com/65535/48117420891_6c9b5545f2_n.jpg",
    "id_album": "-1846404630",
    "description": "Ford_741466",
    "title": "Ford_741466",
    "link_img": "https://live.staticflickr.com/65535/48117420891_ed3a97e0e3_o.jpg",
    "id_image": "Ford_741466",
    "count_view": 0
  },
  {
    "link_thumb": "https://live.staticflickr.com/65535/48112286626_4000a1a8f1_n.jpg",
    "id_album": "-15119147",
    "description": "Audi_401258",
    "title": "Audi_401258",
    "link_img": "https://live.staticflickr.com/65535/48112286626_c60b7facdc_o.jpg",
    "id_image": "Audi_401258",
    "count_view": 0
  },
  {
    "link_thumb": "https://live.staticflickr.com/65535/49889319363_9f924d3173_n.jpg",
    "id_album": "-289181366",
    "description": "2016_rv_Ford_rv_Mustang_rv_Shelby_rv_GT350_rv_V3_rv_1600",
    "title": "2016_rv_Ford_rv_Mustang_rv_Shelby_rv_GT350_rv_V3_rv_1600",
    "link_img": "https://live.staticflickr.com/65535/49889319363_8c9a0457ce_o.jpg",
    "id_image": "2016_rv_Ford_rv_Mustang_rv_Shelby_rv_GT350_rv_V3_rv_1600",
    "count_view": 0
  },
  {
    "link_thumb": "https://live.staticflickr.com/65535/49890158473_a1ce6ba89b_n.jpg",
    "id_album": "-538739456",
    "description": "1993_rv_Mercedes_rv_Benz_rv_C36_rv_AMG_rv_V4_rv_1536",
    "title": "1993_rv_Mercedes_rv_Benz_rv_C36_rv_AMG_rv_V4_rv_1536",
    "link_img": "https://live.staticflickr.com/65535/49890158473_b56ee9d269_o.jpg",
    "id_image": "1993_rv_Mercedes_rv_Benz_rv_C36_rv_AMG_rv_V4_rv_1536",
    "count_view": 0
  },
  {
    "link_thumb": "https://live.staticflickr.com/65535/48119893878_67237ae155_n.jpg",
    "id_album": "-731054311",
    "description": "MercedesBenz_919825",
    "title": "MercedesBenz_919825",
    "link_img": "https://live.staticflickr.com/65535/48119893878_7f60431e57_o.jpg",
    "id_image": "MercedesBenz_919825",
    "count_view": 0
  },
  {
    "link_thumb": "https://live.staticflickr.com/65535/48120073931_8f4eb6f0e8_n.jpg",
    "id_album": "-1116477526",
    "description": "Mitsubishi_498194",
    "title": "Mitsubishi_498194",
    "link_img": "https://live.staticflickr.com/65535/48120073931_9c465d52f6_o.jpg",
    "id_image": "Mitsubishi_498194",
    "count_view": 0
  },
  {
    "link_thumb": "https://live.staticflickr.com/65535/49892189033_fd41b278db_n.jpg",
    "id_album": "552106220",
    "description": "2018_rv_W_rv_Motors_rv_Fenyr_rv_Supersport_rv_V3_rv_2000",
    "title": "2018_rv_W_rv_Motors_rv_Fenyr_rv_Supersport_rv_V3_rv_2000",
    "link_img": "https://live.staticflickr.com/65535/49892189033_88dcbacfba_o.jpg",
    "id_image": "2018_rv_W_rv_Motors_rv_Fenyr_rv_Supersport_rv_V3_rv_2000",
    "count_view": 0
  },
  {
    "link_thumb": "https://live.staticflickr.com/65535/48117369606_f1532aa977_n.jpg",
    "id_album": "-1846404630",
    "description": "Ford_682411",
    "title": "Ford_682411",
    "link_img": "https://live.staticflickr.com/65535/48117369606_32ed8be0ef_o.jpg",
    "id_image": "Ford_682411",
    "count_view": 0
  },
  {
    "link_thumb": "https://live.staticflickr.com/65535/48117825881_5cc3d76194_n.jpg",
    "id_album": "-354267407",
    "description": "Honda_598472",
    "title": "Honda_598472",
    "link_img": "https://live.staticflickr.com/65535/48117825881_8c3579c127_o.jpg",
    "id_image": "Honda_598472",
    "count_view": 0
  },
  {
    "link_thumb": "https://live.staticflickr.com/65535/48119729908_5593acefac_n.jpg",
    "id_album": "-731054311",
    "description": "MercedesBenz_512120",
    "title": "MercedesBenz_512120",
    "link_img": "https://live.staticflickr.com/65535/48119729908_a286688b77_o.jpg",
    "id_image": "MercedesBenz_512120",
    "count_view": 0
  },
  {
    "link_thumb": "https://live.staticflickr.com/65535/48118968677_b6c86f4a96_n.jpg",
    "id_album": "446908717",
    "description": "Lexus_552266",
    "title": "Lexus_552266",
    "link_img": "https://live.staticflickr.com/65535/48118968677_104a3265eb_o.jpg",
    "id_image": "Lexus_552266",
    "count_view": 0
  },
  {
    "link_thumb": "https://live.staticflickr.com/65535/48114800318_37f2410ef1_n.jpg",
    "id_album": "939606447",
    "description": "Chrysler_478382",
    "title": "Chrysler_478382",
    "link_img": "https://live.staticflickr.com/65535/48114800318_c8e1507d79_o.jpg",
    "id_image": "Chrysler_478382",
    "count_view": 0
  },
  {
    "link_thumb": "https://live.staticflickr.com/65535/49890381748_168d2617b4_n.jpg",
    "id_album": "-376919707",
    "description": "2015_rv_Mercedes_rv_Benz_rv_SL_rv_Mille_rv_Miglia_rv_417_rv_Edition_rv_V4_rv_1600",
    "title": "2015_rv_Mercedes_rv_Benz_rv_SL_rv_Mille_rv_Miglia_rv_417_rv_Edition_rv_V4_rv_1600",
    "link_img": "https://live.staticflickr.com/65535/49890381748_b5654cabfe_o.jpg",
    "id_image": "2015_rv_Mercedes_rv_Benz_rv_SL_rv_Mille_rv_Miglia_rv_417_rv_Edition_rv_V4_rv_1600",
    "count_view": 0
  },
  {
    "link_thumb": "https://live.staticflickr.com/65535/48118569872_345842cf2c_n.jpg",
    "id_album": "-2100339805",
    "description": "Lamborghini_457640",
    "title": "Lamborghini_457640",
    "link_img": "https://live.staticflickr.com/65535/48118569872_ab721aced0_o.jpg",
    "id_image": "Lamborghini_457640",
    "count_view": 0
  },
  {
    "link_thumb": "https://live.staticflickr.com/65535/49891999408_f32b7b39c8_n.jpg",
    "id_album": "-1206281146",
    "description": "2015_rv_Toyota_rv_S_rv_FR_rv_Concept_rv_V2_rv_1600",
    "title": "2015_rv_Toyota_rv_S_rv_FR_rv_Concept_rv_V2_rv_1600",
    "link_img": "https://live.staticflickr.com/65535/49891999408_834eb19d83_o.jpg",
    "id_image": "2015_rv_Toyota_rv_S_rv_FR_rv_Concept_rv_V2_rv_1600",
    "count_view": 0
  },
  {
    "link_thumb": "https://live.staticflickr.com/65535/49889285642_2819f6aa3e_n.jpg",
    "id_album": "716230168",
    "description": "2018_rv_Audi_rv_RS5_rv_V6_rv_2000",
    "title": "2018_rv_Audi_rv_RS5_rv_V6_rv_2000",
    "link_img": "https://live.staticflickr.com/65535/49889285642_820a9130c5_o.jpg",
    "id_image": "2018_rv_Audi_rv_RS5_rv_V6_rv_2000",
    "count_view": 0
  },
  {
    "link_thumb": "https://live.staticflickr.com/65535/49892705751_76e60988f2_n.jpg",
    "id_album": "-1043396542",
    "description": "2011_rv_Wiesmann_rv_Roadster_rv_MF3_rv_V5_rv_1600",
    "title": "2011_rv_Wiesmann_rv_Roadster_rv_MF3_rv_V5_rv_1600",
    "link_img": "https://live.staticflickr.com/65535/49892705751_5047211913_o.jpg",
    "id_image": "2011_rv_Wiesmann_rv_Roadster_rv_MF3_rv_V5_rv_1600",
    "count_view": 0
  },
  {
    "link_thumb": "https://live.staticflickr.com/65535/49889938261_af95731e4c_n.jpg",
    "id_album": "1127325547",
    "description": "2018_rv_Genesis_rv_Essentia_rv_Concept_rv_V1_rv_2000",
    "title": "2018_rv_Genesis_rv_Essentia_rv_Concept_rv_V1_rv_2000",
    "link_img": "https://live.staticflickr.com/65535/49889938261_437ceb5a27_o.jpg",
    "id_image": "2018_rv_Genesis_rv_Essentia_rv_Concept_rv_V1_rv_2000",
    "count_view": 0
  },
  {
    "link_thumb": "https://live.staticflickr.com/65535/48113120593_2806e4773e_n.jpg",
    "id_album": "727633301",
    "description": "BMW_823929",
    "title": "BMW_823929",
    "link_img": "https://live.staticflickr.com/65535/48113120593_d75f4c5be6_o.jpg",
    "id_image": "BMW_823929",
    "count_view": 0
  },
  {
    "link_thumb": "https://live.staticflickr.com/65535/48122549801_f9af4c5cf2_n.jpg",
    "id_album": "1645818674",
    "description": "Suzuki_825134",
    "title": "Suzuki_825134",
    "link_img": "https://live.staticflickr.com/65535/48122549801_0e7431a65b_o.jpg",
    "id_image": "Suzuki_825134",
    "count_view": 0
  },
  {
    "link_thumb": "https://live.staticflickr.com/65535/49890679612_baf050b790_n.jpg",
    "id_album": "-391278537",
    "description": "2011_rv_Lotus_rv_Evora_rv_S_rv_V8_rv_1536",
    "title": "2011_rv_Lotus_rv_Evora_rv_S_rv_V8_rv_1536",
    "link_img": "https://live.staticflickr.com/65535/49890679612_264887fc9f_o.jpg",
    "id_image": "2011_rv_Lotus_rv_Evora_rv_S_rv_V8_rv_1536",
    "count_view": 0
  },
  {
    "link_thumb": "https://live.staticflickr.com/65535/48122737697_7c58b4b018_n.jpg",
    "id_album": "1274920659",
    "description": "Toyota_319440",
    "title": "Toyota_319440",
    "link_img": "https://live.staticflickr.com/65535/48122737697_8b7df3733f_o.jpg",
    "id_image": "Toyota_319440",
    "count_view": 0
  },
  {
    "link_thumb": "https://live.staticflickr.com/65535/49890152791_0d17eb89a2_n.jpg",
    "id_album": "-936716449",
    "description": "2015_rv_Lamborghini_rv_Huracan_rv_LP610_rv_4_rv_V9_rv_2160",
    "title": "2015_rv_Lamborghini_rv_Huracan_rv_LP610_rv_4_rv_V9_rv_2160",
    "link_img": "https://live.staticflickr.com/65535/49890152791_9dcc7582c6_o.jpg",
    "id_image": "2015_rv_Lamborghini_rv_Huracan_rv_LP610_rv_4_rv_V9_rv_2160",
    "count_view": 0
  },
  {
    "link_thumb": "https://live.staticflickr.com/65535/48119199211_f9dd858e89_n.jpg",
    "id_album": "898314866",
    "description": "Mazda_344848",
    "title": "Mazda_344848",
    "link_img": "https://live.staticflickr.com/65535/48119199211_e04a302549_o.jpg",
    "id_image": "Mazda_344848",
    "count_view": 0
  },
  {
    "link_thumb": "https://live.staticflickr.com/65535/48118385447_e94d03d6aa_n.jpg",
    "id_album": "-2100339805",
    "description": "Lamborghini_290944",
    "title": "Lamborghini_290944",
    "link_img": "https://live.staticflickr.com/65535/48118385447_211ba40d43_o.jpg",
    "id_image": "Lamborghini_290944",
    "count_view": 0
  },
  {
    "link_thumb": "https://live.staticflickr.com/65535/48119495828_3006b5b466_n.jpg",
    "id_album": "-731054311",
    "description": "MercedesBenz_171104",
    "title": "MercedesBenz_171104",
    "link_img": "https://live.staticflickr.com/65535/48119495828_8a529c4763_o.jpg",
    "id_image": "MercedesBenz_171104",
    "count_view": 0
  },
  {
    "link_thumb": "https://live.staticflickr.com/65535/48117874796_9fdb993573_n.jpg",
    "id_album": "-354267407",
    "description": "Honda_684367",
    "title": "Honda_684367",
    "link_img": "https://live.staticflickr.com/65535/48117874796_5f9157b5be_o.jpg",
    "id_image": "Honda_684367",
    "count_view": 0
  },
  {
    "link_thumb": "https://live.staticflickr.com/65535/48114005541_2e6025761a_n.jpg",
    "id_album": "-1721545051",
    "description": "Chevrolet_288988",
    "title": "Chevrolet_288988",
    "link_img": "https://live.staticflickr.com/65535/48114005541_cb7bf62467_o.jpg",
    "id_image": "Chevrolet_288988",
    "count_view": 0
  },
  {
    "link_thumb": "https://live.staticflickr.com/65535/49889770838_3e5b560252_n.jpg",
    "id_album": "84688798",
    "description": "2017_rv_Lexus_rv_IS_rv_V8_rv_2000",
    "title": "2017_rv_Lexus_rv_IS_rv_V8_rv_2000",
    "link_img": "https://live.staticflickr.com/65535/49889770838_baf70cbcbc_o.jpg",
    "id_image": "2017_rv_Lexus_rv_IS_rv_V8_rv_2000",
    "count_view": 0
  },
  {
    "link_thumb": "https://live.staticflickr.com/65535/48112724637_229d7ec728_n.jpg",
    "id_album": "727633301",
    "description": "BMW_228653",
    "title": "BMW_228653",
    "link_img": "https://live.staticflickr.com/65535/48112724637_55cbd46d75_o.jpg",
    "id_image": "BMW_228653",
    "count_view": 0
  },
  {
    "link_thumb": "https://live.staticflickr.com/65535/48114118728_e8d42aaa1e_n.jpg",
    "id_album": "-1721545051",
    "description": "Chevrolet_296937",
    "title": "Chevrolet_296937",
    "link_img": "https://live.staticflickr.com/65535/48114118728_dddc3184aa_o.jpg",
    "id_image": "Chevrolet_296937",
    "count_view": 0
  },
  {
    "link_thumb": "https://live.staticflickr.com/65535/49889385626_54e54cb41e_n.jpg",
    "id_album": "-1198813712",
    "description": "2015_rv_Formula1_rv_McLaren_rv_MP4_rv_30_rv_V4_rv_1600",
    "title": "2015_rv_Formula1_rv_McLaren_rv_MP4_rv_30_rv_V4_rv_1600",
    "link_img": "https://live.staticflickr.com/65535/49889385626_470c9d8ccf_o.jpg",
    "id_image": "2015_rv_Formula1_rv_McLaren_rv_MP4_rv_30_rv_V4_rv_1600",
    "count_view": 0
  },
  {
    "link_thumb": "https://live.staticflickr.com/65535/48115839516_898f242f81_n.jpg",
    "id_album": "1364506720",
    "description": "Ferrari_317909",
    "title": "Ferrari_317909",
    "link_img": "https://live.staticflickr.com/65535/48115839516_e03a075ef2_o.jpg",
    "id_image": "Ferrari_317909",
    "count_view": 0
  },
  {
    "link_thumb": "https://live.staticflickr.com/65535/48112658176_ac7543e336_n.jpg",
    "id_album": "727633301",
    "description": "BMW_254043",
    "title": "BMW_254043",
    "link_img": "https://live.staticflickr.com/65535/48112658176_d53a0296b4_o.jpg",
    "id_image": "BMW_254043",
    "count_view": 0
  },
  {
    "link_thumb": "https://live.staticflickr.com/65535/48112472298_eb0a5ded84_n.jpg",
    "id_album": "-15119147",
    "description": "Audi_906817",
    "title": "Audi_906817",
    "link_img": "https://live.staticflickr.com/65535/48112472298_7fabe8744c_o.jpg",
    "id_image": "Audi_906817",
    "count_view": 0
  },
  {
    "link_thumb": "https://live.staticflickr.com/65535/49892451732_8a1dd2af35_n.jpg",
    "id_album": "-460218730",
    "description": "2020_rv_Land_rv_Rover_rv_Defender_rv_V10_rv_2160",
    "title": "2020_rv_Land_rv_Rover_rv_Defender_rv_V10_rv_2160",
    "link_img": "https://live.staticflickr.com/65535/49892451732_2ea8825753_o.jpg",
    "id_image": "2020_rv_Land_rv_Rover_rv_Defender_rv_V10_rv_2160",
    "count_view": 0
  },
  {
    "link_thumb": "https://live.staticflickr.com/65535/48112542676_3a106d4049_n.jpg",
    "id_album": "2097036181",
    "description": "Bentley_493179",
    "title": "Bentley_493179",
    "link_img": "https://live.staticflickr.com/65535/48112542676_5408f34b4e_o.jpg",
    "id_image": "Bentley_493179",
    "count_view": 0
  },
  {
    "link_thumb": "https://live.staticflickr.com/65535/48120784306_31c2fb1b52_n.jpg",
    "id_album": "-1846404630",
    "description": "Ford_741476",
    "title": "Ford_741476",
    "link_img": "https://live.staticflickr.com/65535/48120784306_861d7d3bbd_o.jpg",
    "id_image": "Ford_741476",
    "count_view": 0
  },
  {
    "link_thumb": "https://live.staticflickr.com/65535/48119706388_b69fe92084_n.jpg",
    "id_album": "-731054311",
    "description": "MercedesBenz_455408",
    "title": "MercedesBenz_455408",
    "link_img": "https://live.staticflickr.com/65535/48119706388_ff535b6acc_o.jpg",
    "id_image": "MercedesBenz_455408",
    "count_view": 0
  },
  {
    "link_thumb": "https://live.staticflickr.com/65535/48112403601_1999169709_n.jpg",
    "id_album": "-15119147",
    "description": "Audi_827765",
    "title": "Audi_827765",
    "link_img": "https://live.staticflickr.com/65535/48112403601_cb55dedefb_o.jpg",
    "id_image": "Audi_827765",
    "count_view": 0
  },
  {
    "link_thumb": "https://live.staticflickr.com/65535/48120173518_ef49c8a673_n.jpg",
    "id_album": "666438681",
    "description": "Motorcycles_187995",
    "title": "Motorcycles_187995",
    "link_img": "https://live.staticflickr.com/65535/48120173518_00ee10f3aa_o.jpg",
    "id_image": "Motorcycles_187995",
    "count_view": 0
  },
  {
    "link_thumb": "https://live.staticflickr.com/65535/48120869248_9f9b16f7a2_n.jpg",
    "id_album": "1965631892",
    "description": "Peugeot_250659",
    "title": "Peugeot_250659",
    "link_img": "https://live.staticflickr.com/65535/48120869248_fbcbeb244d_o.jpg",
    "id_image": "Peugeot_250659",
    "count_view": 0
  },
  {
    "link_thumb": "https://live.staticflickr.com/65535/48113138471_26dcc427ee_n.jpg",
    "id_album": "727633301",
    "description": "BMW_883224",
    "title": "BMW_883224",
    "link_img": "https://live.staticflickr.com/65535/48113138471_f6d734b78b_o.jpg",
    "id_image": "BMW_883224",
    "count_view": 0
  },
  {
    "link_thumb": "https://live.staticflickr.com/65535/48116424097_38ccb521bf_n.jpg",
    "id_album": "1364506720",
    "description": "Ferrari_81571",
    "title": "Ferrari_81571",
    "link_img": "https://live.staticflickr.com/65535/48116424097_a7404dfd20_o.jpg",
    "id_image": "Ferrari_81571",
    "count_view": 0
  },
  {
    "link_thumb": "https://live.staticflickr.com/65535/48112878746_dfbe19a16d_n.jpg",
    "id_album": "727633301",
    "description": "BMW_486598",
    "title": "BMW_486598",
    "link_img": "https://live.staticflickr.com/65535/48112878746_0a7a836b69_o.jpg",
    "id_image": "BMW_486598",
    "count_view": 0
  },
  {
    "link_thumb": "https://live.staticflickr.com/65535/48112589527_0c6bfd60e3_n.jpg",
    "id_album": "2097036181",
    "description": "Bentley_187368",
    "title": "Bentley_187368",
    "link_img": "https://live.staticflickr.com/65535/48112589527_35ae6f66d0_o.jpg",
    "id_image": "Bentley_187368",
    "count_view": 0
  },
  {
    "link_thumb": "https://live.staticflickr.com/65535/48117139291_de90d4586d_n.jpg",
    "id_album": "-1846404630",
    "description": "Ford_416685",
    "title": "Ford_416685",
    "link_img": "https://live.staticflickr.com/65535/48117139291_07e4788b58_o.jpg",
    "id_image": "Ford_416685",
    "count_view": 0
  },
  {
    "link_thumb": "https://live.staticflickr.com/65535/48119033526_9cdc4ea4a6_n.jpg",
    "id_album": "-1153253263",
    "description": "Lotus_893130",
    "title": "Lotus_893130",
    "link_img": "https://live.staticflickr.com/65535/48119033526_08268ea680_o.jpg",
    "id_image": "Lotus_893130",
    "count_view": 0
  },
  {
    "link_thumb": "https://live.staticflickr.com/65535/48112644773_0b7487eacc_n.jpg",
    "id_album": "727633301",
    "description": "BMW_183133",
    "title": "BMW_183133",
    "link_img": "https://live.staticflickr.com/65535/48112644773_f1985bd7e6_o.jpg",
    "id_image": "BMW_183133",
    "count_view": 0
  },
  {
    "link_thumb": "https://live.staticflickr.com/65535/48112833893_68d2695f76_n.jpg",
    "id_album": "727633301",
    "description": "BMW_457235",
    "title": "BMW_457235",
    "link_img": "https://live.staticflickr.com/65535/48112833893_e82c32e851_o.jpg",
    "id_image": "BMW_457235",
    "count_view": 0
  },
  {
    "link_thumb": "https://live.staticflickr.com/65535/48119832198_4fa7b5ab69_n.jpg",
    "id_album": "-731054311",
    "description": "MercedesBenz_855677",
    "title": "MercedesBenz_855677",
    "link_img": "https://live.staticflickr.com/65535/48119832198_be614e1483_o.jpg",
    "id_image": "MercedesBenz_855677",
    "count_view": 0
  },
  {
    "link_thumb": "https://live.staticflickr.com/65535/48118161102_391ced2f8d_n.jpg",
    "id_album": "-2009218697",
    "description": "Jeep_251298",
    "title": "Jeep_251298",
    "link_img": "https://live.staticflickr.com/65535/48118161102_9ea7b92cbe_o.jpg",
    "id_image": "Jeep_251298",
    "count_view": 0
  },
  {
    "link_thumb": "https://live.staticflickr.com/65535/49890042568_c57bccfcc6_n.jpg",
    "id_album": "-646872376",
    "description": "2017_rv_McLaren_rv_675LT_rv_Spider_rv_V3_rv_2000",
    "title": "2017_rv_McLaren_rv_675LT_rv_Spider_rv_V3_rv_2000",
    "link_img": "https://live.staticflickr.com/65535/49890042568_f7bd5bc433_o.jpg",
    "id_image": "2017_rv_McLaren_rv_675LT_rv_Spider_rv_V3_rv_2000",
    "count_view": 0
  },
  {
    "link_thumb": "https://live.staticflickr.com/65535/48113056407_d746786852_n.jpg",
    "id_album": "727633301",
    "description": "BMW_510078",
    "title": "BMW_510078",
    "link_img": "https://live.staticflickr.com/65535/48113056407_e524b05bc8_o.jpg",
    "id_image": "BMW_510078",
    "count_view": 0
  },
  {
    "link_thumb": "https://live.staticflickr.com/65535/49889610098_d228e21dde_n.jpg",
    "id_album": "91448049",
    "description": "1989_rv_Lamborghini_rv_Countach_rv_V6_rv_1440",
    "title": "1989_rv_Lamborghini_rv_Countach_rv_V6_rv_1440",
    "link_img": "https://live.staticflickr.com/65535/49889610098_ac1cdfb93c_o.jpg",
    "id_image": "1989_rv_Lamborghini_rv_Countach_rv_V6_rv_1440",
    "count_view": 0
  },
  {
    "link_thumb": "https://live.staticflickr.com/65535/48114854631_75f15ddebe_n.jpg",
    "id_album": "2072464184",
    "description": "Citroen_317629",
    "title": "Citroen_317629",
    "link_img": "https://live.staticflickr.com/65535/48114854631_4b0227e3cd_o.jpg",
    "id_image": "Citroen_317629",
    "count_view": 0
  },
  {
    "link_thumb": "https://live.staticflickr.com/65535/49890223352_4a67cdc93f_n.jpg",
    "id_album": "-865647970",
    "description": "1990_rv_Honda_rv_NSX_rv_V12_rv_2000",
    "title": "1990_rv_Honda_rv_NSX_rv_V12_rv_2000",
    "link_img": "https://live.staticflickr.com/65535/49890223352_cb15f86eb9_o.jpg",
    "id_image": "1990_rv_Honda_rv_NSX_rv_V12_rv_2000",
    "count_view": 0
  },
  {
    "link_thumb": "https://live.staticflickr.com/65535/48113995538_1b5ca64b83_n.jpg",
    "id_album": "-1721545051",
    "description": "Chevrolet_284643",
    "title": "Chevrolet_284643",
    "link_img": "https://live.staticflickr.com/65535/48113995538_686a2f6d23_o.jpg",
    "id_image": "Chevrolet_284643",
    "count_view": 0
  },
  {
    "link_thumb": "https://live.staticflickr.com/65535/49889357681_0803520f0f_n.jpg",
    "id_album": "-2027089129",
    "description": "1992_rv_BMW_rv_M3_rv_Coupe_rv_V6_rv_2160",
    "title": "1992_rv_BMW_rv_M3_rv_Coupe_rv_V6_rv_2160",
    "link_img": "https://live.staticflickr.com/65535/49889357681_1c49e51282_o.jpg",
    "id_image": "1992_rv_BMW_rv_M3_rv_Coupe_rv_V6_rv_2160",
    "count_view": 0
  },
  {
    "link_thumb": "https://live.staticflickr.com/65535/48115836098_1fcd495dc2_n.jpg",
    "id_album": "1364506720",
    "description": "Ferrari_317794",
    "title": "Ferrari_317794",
    "link_img": "https://live.staticflickr.com/65535/48115836098_8958d225b8_o.jpg",
    "id_image": "Ferrari_317794",
    "count_view": 0
  },
  {
    "link_thumb": "https://live.staticflickr.com/65535/48121275613_5cb25b134e_n.jpg",
    "id_album": "-1178450892",
    "description": "Porsche_251746",
    "title": "Porsche_251746",
    "link_img": "https://live.staticflickr.com/65535/48121275613_4cc9e14b58_o.jpg",
    "id_image": "Porsche_251746",
    "count_view": 0
  },
  {
    "link_thumb": "https://live.staticflickr.com/65535/48122915696_aebebc8351_n.jpg",
    "id_album": "-150952028",
    "description": "Volkswagen_319467",
    "title": "Volkswagen_319467",
    "link_img": "https://live.staticflickr.com/65535/48122915696_0090c18586_o.jpg",
    "id_image": "Volkswagen_319467",
    "count_view": 0
  },
  {
    "link_thumb": "https://live.staticflickr.com/65535/48117735882_be2509c893_n.jpg",
    "id_album": "-1846404630",
    "description": "Ford_972191",
    "title": "Ford_972191",
    "link_img": "https://live.staticflickr.com/65535/48117735882_944f6bdb0a_o.jpg",
    "id_image": "Ford_972191",
    "count_view": 0
  },
  {
    "link_thumb": "https://live.staticflickr.com/65535/48117290878_f317fb969c_n.jpg",
    "id_album": "-1846404630",
    "description": "Ford_476585",
    "title": "Ford_476585",
    "link_img": "https://live.staticflickr.com/65535/48117290878_91a7ee283d_o.jpg",
    "id_image": "Ford_476585",
    "count_view": 0
  },
  {
    "link_thumb": "https://live.staticflickr.com/65535/49892411851_34e8295cf9_n.jpg",
    "id_album": "874272507",
    "description": "2015_rv_Subaru_rv_BRZ_rv_STI_rv_Performance_rv_Concept_rv_V7_rv_1600",
    "title": "2015_rv_Subaru_rv_BRZ_rv_STI_rv_Performance_rv_Concept_rv_V7_rv_1600",
    "link_img": "https://live.staticflickr.com/65535/49892411851_9ed31ea047_o.jpg",
    "id_image": "2015_rv_Subaru_rv_BRZ_rv_STI_rv_Performance_rv_Concept_rv_V7_rv_1600",
    "count_view": 0
  },
  {
    "link_thumb": "https://live.staticflickr.com/65535/49889898316_c7e3c4ae09_n.jpg",
    "id_album": "2135768675",
    "description": "2016_rv_Holden_rv_HSV_rv_Gen_rv_F2_rv_V2_rv_1600",
    "title": "2016_rv_Holden_rv_HSV_rv_Gen_rv_F2_rv_V2_rv_1600",
    "link_img": "https://live.staticflickr.com/65535/49889898316_431c92260e_o.jpg",
    "id_image": "2016_rv_Holden_rv_HSV_rv_Gen_rv_F2_rv_V2_rv_1600",
    "count_view": 0
  },
  {
    "link_thumb": "https://live.staticflickr.com/65535/49889563533_42001ec3b1_n.jpg",
    "id_album": "-2100339805",
    "description": "2003_rv_Lamborghini_rv_Murcielago_rv_RGT_rv_V2_rv_1440",
    "title": "2003_rv_Lamborghini_rv_Murcielago_rv_RGT_rv_V2_rv_1440",
    "link_img": "https://live.staticflickr.com/65535/49889563533_23c127943d_o.jpg",
    "id_image": "2003_rv_Lamborghini_rv_Murcielago_rv_RGT_rv_V2_rv_1440",
    "count_view": 0
  },
  {
    "link_thumb": "https://live.staticflickr.com/65535/48122818537_89371d571b_n.jpg",
    "id_album": "1274920659",
    "description": "Toyota_523946",
    "title": "Toyota_523946",
    "link_img": "https://live.staticflickr.com/65535/48122818537_0fa4d8692b_o.jpg",
    "id_image": "Toyota_523946",
    "count_view": 0
  },
  {
    "link_thumb": "https://live.staticflickr.com/65535/49890833213_5a4a90a5b9_n.jpg",
    "id_album": "654772634",
    "description": "1959_rv_Porsche_rv_356B_rv_V2_rv_1536",
    "title": "1959_rv_Porsche_rv_356B_rv_V2_rv_1536",
    "link_img": "https://live.staticflickr.com/65535/49890833213_dc49e9d077_o.jpg",
    "id_image": "1959_rv_Porsche_rv_356B_rv_V2_rv_1536",
    "count_view": 0
  },
  {
    "link_thumb": "https://live.staticflickr.com/65535/48116070598_b5310dc29d_n.jpg",
    "id_album": "1364506720",
    "description": "Ferrari_519859",
    "title": "Ferrari_519859",
    "link_img": "https://live.staticflickr.com/65535/48116070598_d11596ea0b_o.jpg",
    "id_image": "Ferrari_519859",
    "count_view": 0
  },
  {
    "link_thumb": "https://live.staticflickr.com/65535/48112322288_fe6ec16d9e_n.jpg",
    "id_album": "-15119147",
    "description": "Audi_378374",
    "title": "Audi_378374",
    "link_img": "https://live.staticflickr.com/65535/48112322288_c935733eab_o.jpg",
    "id_image": "Audi_378374",
    "count_view": 0
  },
  {
    "link_thumb": "https://live.staticflickr.com/65535/48120048053_38774b3601_n.jpg",
    "id_album": "-1116477526",
    "description": "Mitsubishi_257410",
    "title": "Mitsubishi_257410",
    "link_img": "https://live.staticflickr.com/65535/48120048053_21cd874da5_o.jpg",
    "id_image": "Mitsubishi_257410",
    "count_view": 0
  },
  {
    "link_thumb": "https://live.staticflickr.com/65535/48121374427_e302dc6433_n.jpg",
    "id_album": "-1178450892",
    "description": "Porsche_283049",
    "title": "Porsche_283049",
    "link_img": "https://live.staticflickr.com/65535/48121374427_6de18ab7a5_o.jpg",
    "id_image": "Porsche_283049",
    "count_view": 0
  },
  {
    "link_thumb": "https://live.staticflickr.com/65535/48121338708_b11e9b995d_n.jpg",
    "id_album": "-1178450892",
    "description": "Porsche_307490",
    "title": "Porsche_307490",
    "link_img": "https://live.staticflickr.com/65535/48121338708_64c4b76270_o.jpg",
    "id_image": "Porsche_307490",
    "count_view": 0
  },
  {
    "link_thumb": "https://live.staticflickr.com/65535/49889823363_beeac273de_n.jpg",
    "id_album": "-578175838",
    "description": "2017_rv_Porsche_rv_919_rv_Hybrid_rv_V2_rv_2000",
    "title": "2017_rv_Porsche_rv_919_rv_Hybrid_rv_V2_rv_2000",
    "link_img": "https://live.staticflickr.com/65535/49889823363_3dcb0eff9d_o.jpg",
    "id_image": "2017_rv_Porsche_rv_919_rv_Hybrid_rv_V2_rv_2000",
    "count_view": 0
  },
  {
    "link_thumb": "https://live.staticflickr.com/65535/49889747317_08f01dc2e3_n.jpg",
    "id_album": "1828657713",
    "description": "1964_rv_Ferrari_rv_250_rv_GTO_rv_V2_rv_1440",
    "title": "1964_rv_Ferrari_rv_250_rv_GTO_rv_V2_rv_1440",
    "link_img": "https://live.staticflickr.com/65535/49889747317_9953cde860_o.jpg",
    "id_image": "1964_rv_Ferrari_rv_250_rv_GTO_rv_V2_rv_1440",
    "count_view": 0
  },
  {
    "link_thumb": "https://live.staticflickr.com/65535/48116924022_c76d624d4a_n.jpg",
    "id_album": "-1846404630",
    "description": "Ford_243575",
    "title": "Ford_243575",
    "link_img": "https://live.staticflickr.com/65535/48116924022_a263bdc8fc_o.jpg",
    "id_image": "Ford_243575",
    "count_view": 0
  },
  {
    "link_thumb": "https://live.staticflickr.com/65535/48119771791_fa816ee6dc_n.jpg",
    "id_album": "-731054311",
    "description": "MercedesBenz_802443",
    "title": "MercedesBenz_802443",
    "link_img": "https://live.staticflickr.com/65535/48119771791_661efe9d00_o.jpg",
    "id_image": "MercedesBenz_802443",
    "count_view": 0
  },
  {
    "link_thumb": "https://live.staticflickr.com/65535/49891656503_1c4f61a952_n.jpg",
    "id_album": "-842352658",
    "description": "2017_rv_Porsche_rv_911_rv_R_rv_V5_rv_2000",
    "title": "2017_rv_Porsche_rv_911_rv_R_rv_V5_rv_2000",
    "link_img": "https://live.staticflickr.com/65535/49891656503_93ac1e29d3_o.jpg",
    "id_image": "2017_rv_Porsche_rv_911_rv_R_rv_V5_rv_2000",
    "count_view": 0
  },
  {
    "link_thumb": "https://live.staticflickr.com/65535/48119344612_db2b8ab501_n.jpg",
    "id_album": "990865885",
    "description": "McLaren_175738",
    "title": "McLaren_175738",
    "link_img": "https://live.staticflickr.com/65535/48119344612_a3f06cf7af_o.jpg",
    "id_image": "McLaren_175738",
    "count_view": 0
  },
  {
    "link_thumb": "https://live.staticflickr.com/65535/49890306916_4ffd062543_n.jpg",
    "id_album": "-1054428103",
    "description": "2015_rv_Lexus_rv_NX_rv_V1_rv_1600",
    "title": "2015_rv_Lexus_rv_NX_rv_V1_rv_1600",
    "link_img": "https://live.staticflickr.com/65535/49890306916_d1cd46516c_o.jpg",
    "id_image": "2015_rv_Lexus_rv_NX_rv_V1_rv_1600",
    "count_view": 0
  },
  {
    "link_thumb": "https://live.staticflickr.com/65535/48117270866_2d04f0c050_n.jpg",
    "id_album": "-1846404630",
    "description": "Ford_485710",
    "title": "Ford_485710",
    "link_img": "https://live.staticflickr.com/65535/48117270866_2b8aa5ee04_o.jpg",
    "id_image": "Ford_485710",
    "count_view": 0
  },
  {
    "link_thumb": "https://live.staticflickr.com/65535/48115804023_feb4c7306d_n.jpg",
    "id_album": "1364506720",
    "description": "Ferrari_317682",
    "title": "Ferrari_317682",
    "link_img": "https://live.staticflickr.com/65535/48115804023_801511e06b_o.jpg",
    "id_image": "Ferrari_317682",
    "count_view": 0
  },
  {
    "link_thumb": "https://live.staticflickr.com/65535/48120107228_4a49307e83_n.jpg",
    "id_album": "-1116477526",
    "description": "Mitsubishi_506821",
    "title": "Mitsubishi_506821",
    "link_img": "https://live.staticflickr.com/65535/48120107228_f5f0b34cbd_o.jpg",
    "id_image": "Mitsubishi_506821",
    "count_view": 0
  },
  {
    "link_thumb": "https://live.staticflickr.com/65535/48120545042_776591060a_n.jpg",
    "id_album": "810634050",
    "description": "Nissan_477657",
    "title": "Nissan_477657",
    "link_img": "https://live.staticflickr.com/65535/48120545042_87a043ff19_o.jpg",
    "id_image": "Nissan_477657",
    "count_view": 0
  },
  {
    "link_thumb": "https://live.staticflickr.com/65535/48118134703_efed70fc46_n.jpg",
    "id_album": "-2009218697",
    "description": "Jeep_500160",
    "title": "Jeep_500160",
    "link_img": "https://live.staticflickr.com/65535/48118134703_5cc031a79e_o.jpg",
    "id_image": "Jeep_500160",
    "count_view": 0
  },
  {
    "link_thumb": "https://live.staticflickr.com/65535/48114210638_dce9502854_n.jpg",
    "id_album": "-1721545051",
    "description": "Chevrolet_382197",
    "title": "Chevrolet_382197",
    "link_img": "https://live.staticflickr.com/65535/48114210638_a34245af95_o.jpg",
    "id_image": "Chevrolet_382197",
    "count_view": 0
  },
  {
    "link_thumb": "https://live.staticflickr.com/65535/48120981691_9c5acd67a1_n.jpg",
    "id_album": "-1123679742",
    "description": "Plymouth_259865",
    "title": "Plymouth_259865",
    "link_img": "https://live.staticflickr.com/65535/48120981691_3d695f882d_o.jpg",
    "id_image": "Plymouth_259865",
    "count_view": 0
  },
  {
    "link_thumb": "https://live.staticflickr.com/65535/49890560458_46e4e23995_n.jpg",
    "id_album": "511911560",
    "description": "2002_rv_Nissan_rv_350Z_rv_V3_rv_1440",
    "title": "2002_rv_Nissan_rv_350Z_rv_V3_rv_1440",
    "link_img": "https://live.staticflickr.com/65535/49890560458_a3afda513f_o.jpg",
    "id_image": "2002_rv_Nissan_rv_350Z_rv_V3_rv_1440",
    "count_view": 0
  },
  {
    "link_thumb": "https://live.staticflickr.com/65535/49892842942_e508c17807_n.jpg",
    "id_album": "883034302",
    "description": "2020_rv_Toyota_rv_Supra_rv_GT4_rv_V4_rv_2160",
    "title": "2020_rv_Toyota_rv_Supra_rv_GT4_rv_V4_rv_2160",
    "link_img": "https://live.staticflickr.com/65535/49892842942_8f7aafa40a_o.jpg",
    "id_image": "2020_rv_Toyota_rv_Supra_rv_GT4_rv_V4_rv_2160",
    "count_view": 0
  },
  {
    "link_thumb": "https://live.staticflickr.com/65535/48112409077_85efbab932_n.jpg",
    "id_album": "-15119147",
    "description": "Audi_470718",
    "title": "Audi_470718",
    "link_img": "https://live.staticflickr.com/65535/48112409077_f5da1bfd02_o.jpg",
    "id_image": "Audi_470718",
    "count_view": 0
  },
  {
    "link_thumb": "https://live.staticflickr.com/65535/48122701133_854697b749_n.jpg",
    "id_album": "1274920659",
    "description": "Toyota_449783",
    "title": "Toyota_449783",
    "link_img": "https://live.staticflickr.com/65535/48122701133_8bcdb01eb8_o.jpg",
    "id_image": "Toyota_449783",
    "count_view": 0
  },
  {
    "link_thumb": "https://live.staticflickr.com/65535/48113841862_268dc042a0_n.jpg",
    "id_album": "-1721545051",
    "description": "Chevrolet_184258",
    "title": "Chevrolet_184258",
    "link_img": "https://live.staticflickr.com/65535/48113841862_212a628c18_o.jpg",
    "id_image": "Chevrolet_184258",
    "count_view": 0
  },
  {
    "link_thumb": "https://live.staticflickr.com/65535/48115623393_252dc12c3a_n.jpg",
    "id_album": "594975066",
    "description": "Duesenberg_742331",
    "title": "Duesenberg_742331",
    "link_img": "https://live.staticflickr.com/65535/48115623393_e40ca77a5d_o.jpg",
    "id_image": "Duesenberg_742331",
    "count_view": 0
  },
  {
    "link_thumb": "https://live.staticflickr.com/65535/48118528248_f7daf0ffa1_n.jpg",
    "id_album": "-2100339805",
    "description": "Lamborghini_498720",
    "title": "Lamborghini_498720",
    "link_img": "https://live.staticflickr.com/65535/48118528248_0257fceba6_o.jpg",
    "id_image": "Lamborghini_498720",
    "count_view": 0
  },
  {
    "link_thumb": "https://live.staticflickr.com/65535/48114733681_01b6195b13_n.jpg",
    "id_album": "939606447",
    "description": "Chrysler_190745",
    "title": "Chrysler_190745",
    "link_img": "https://live.staticflickr.com/65535/48114733681_ef6bb99db9_o.jpg",
    "id_image": "Chrysler_190745",
    "count_view": 0
  },
  {
    "link_thumb": "https://live.staticflickr.com/65535/49040912946_8c0b7ed168_n.jpg",
    "id_album": "-1109579119",
    "description": "AlfaRomeo_960434",
    "title": "AlfaRomeo_960434",
    "link_img": "https://live.staticflickr.com/65535/49040912946_f5771c781c_o.jpg",
    "id_image": "AlfaRomeo_960434",
    "count_view": 0
  },
  {
    "link_thumb": "https://live.staticflickr.com/65535/48117105342_1f741845bd_n.jpg",
    "id_album": "-1846404630",
    "description": "Ford_318155",
    "title": "Ford_318155",
    "link_img": "https://live.staticflickr.com/65535/48117105342_f5c7b9274e_o.jpg",
    "id_image": "Ford_318155",
    "count_view": 0
  },
  {
    "link_thumb": "https://live.staticflickr.com/65535/48114794801_e333f3e0f5_n.jpg",
    "id_album": "2072464184",
    "description": "Citroen_133775",
    "title": "Citroen_133775",
    "link_img": "https://live.staticflickr.com/65535/48114794801_9e66540be2_o.jpg",
    "id_image": "Citroen_133775",
    "count_view": 0
  },
  {
    "link_thumb": "https://live.staticflickr.com/65535/48119489381_0cfe3b4755_n.jpg",
    "id_album": "-731054311",
    "description": "MercedesBenz_232163",
    "title": "MercedesBenz_232163",
    "link_img": "https://live.staticflickr.com/65535/48119489381_4216a1251d_o.jpg",
    "id_image": "MercedesBenz_232163",
    "count_view": 0
  },
  {
    "link_thumb": "https://live.staticflickr.com/65535/48119214232_e122cf81b7_n.jpg",
    "id_album": "697984456",
    "description": "Maserati_891901",
    "title": "Maserati_891901",
    "link_img": "https://live.staticflickr.com/65535/48119214232_a4761f955e_o.jpg",
    "id_image": "Maserati_891901",
    "count_view": 0
  },
  {
    "link_thumb": "https://live.staticflickr.com/65535/48117793101_bb70d9726d_n.jpg",
    "id_album": "-354267407",
    "description": "Honda_396029",
    "title": "Honda_396029",
    "link_img": "https://live.staticflickr.com/65535/48117793101_e42e5f4c7c_o.jpg",
    "id_image": "Honda_396029",
    "count_view": 0
  },
  {
    "link_thumb": "https://live.staticflickr.com/65535/48113682653_0c13e3d125_n.jpg",
    "id_album": "-1721545051",
    "description": "Chevrolet_155021",
    "title": "Chevrolet_155021",
    "link_img": "https://live.staticflickr.com/65535/48113682653_e89398f2e6_o.jpg",
    "id_image": "Chevrolet_155021",
    "count_view": 0
  },
  {
    "link_thumb": "https://live.staticflickr.com/65535/49889042098_93f9e3582f_n.jpg",
    "id_album": "-1955927313",
    "description": "2020_rv_Ferrari_rv_F8_rv_Spider_rv_V7_rv_2160",
    "title": "2020_rv_Ferrari_rv_F8_rv_Spider_rv_V7_rv_2160",
    "link_img": "https://live.staticflickr.com/65535/49889042098_e1ab040f6e_o.jpg",
    "id_image": "2020_rv_Ferrari_rv_F8_rv_Spider_rv_V7_rv_2160",
    "count_view": 0
  },
  {
    "link_thumb": "https://live.staticflickr.com/65535/49888913171_31deed263a_n.jpg",
    "id_album": "216453960",
    "description": "2016_rv_Aston_rv_Martin_rv_Vanquish_rv_Zagato_rv_Concept_rv_V5_rv_2000",
    "title": "2016_rv_Aston_rv_Martin_rv_Vanquish_rv_Zagato_rv_Concept_rv_V5_rv_2000",
    "link_img": "https://live.staticflickr.com/65535/49888913171_f60c59f46f_o.jpg",
    "id_image": "2016_rv_Aston_rv_Martin_rv_Vanquish_rv_Zagato_rv_Concept_rv_V5_rv_2000",
    "count_view": 0
  },
  {
    "link_thumb": "https://live.staticflickr.com/65535/48119766067_f293cccbd6_n.jpg",
    "id_album": "-731054311",
    "description": "MercedesBenz_454109",
    "title": "MercedesBenz_454109",
    "link_img": "https://live.staticflickr.com/65535/48119766067_d425c7f9e9_o.jpg",
    "id_image": "MercedesBenz_454109",
    "count_view": 0
  },
  {
    "link_thumb": "https://live.staticflickr.com/65535/48111987531_0dcc53b2aa_n.jpg",
    "id_album": "1906325017",
    "description": "Infiniti_884867",
    "title": "Infiniti_884867",
    "link_img": "https://live.staticflickr.com/65535/48111987531_96ea745b46_o.jpg",
    "id_image": "Infiniti_884867",
    "count_view": 0
  },
  {
    "link_thumb": "https://live.staticflickr.com/65535/48113610721_687201f29b_n.jpg",
    "id_album": "-680120434",
    "description": "Cadillac_955916",
    "title": "Cadillac_955916",
    "link_img": "https://live.staticflickr.com/65535/48113610721_b535a6ab9a_o.jpg",
    "id_image": "Cadillac_955916",
    "count_view": 0
  },
  {
    "link_thumb": "https://live.staticflickr.com/65535/48117288553_ccd3e08f77_n.jpg",
    "id_album": "-1846404630",
    "description": "Ford_476069",
    "title": "Ford_476069",
    "link_img": "https://live.staticflickr.com/65535/48117288553_aa5f9ec028_o.jpg",
    "id_image": "Ford_476069",
    "count_view": 0
  },
  {
    "link_thumb": "https://live.staticflickr.com/65535/48116977002_752a565657_n.jpg",
    "id_album": "-1846404630",
    "description": "Ford_255401",
    "title": "Ford_255401",
    "link_img": "https://live.staticflickr.com/65535/48116977002_f5b9057b32_o.jpg",
    "id_image": "Ford_255401",
    "count_view": 0
  },
  {
    "link_thumb": "https://live.staticflickr.com/65535/48116210902_498b036ddc_n.jpg",
    "id_album": "1364506720",
    "description": "Ferrari_612342",
    "title": "Ferrari_612342",
    "link_img": "https://live.staticflickr.com/65535/48116210902_4980e96d47_o.jpg",
    "id_image": "Ferrari_612342",
    "count_view": 0
  },
  {
    "link_thumb": "https://live.staticflickr.com/65535/48123175957_acdfdb982d_n.jpg",
    "id_album": "-150952028",
    "description": "Volkswagen_961879",
    "title": "Volkswagen_961879",
    "link_img": "https://live.staticflickr.com/65535/48123175957_bb7175c238_o.jpg",
    "id_image": "Volkswagen_961879",
    "count_view": 0
  },
  {
    "link_thumb": "https://live.staticflickr.com/65535/48112367496_ffc209d2b7_n.jpg",
    "id_album": "-15119147",
    "description": "Audi_669510",
    "title": "Audi_669510",
    "link_img": "https://live.staticflickr.com/65535/48112367496_af80bb5ee9_o.jpg",
    "id_image": "Audi_669510",
    "count_view": 0
  },
  {
    "link_thumb": "https://live.staticflickr.com/65535/49891291877_1149c2fdd0_n.jpg",
    "id_album": "-544435361",
    "description": "2014_rv_Mitsuoka_rv_Orochi_rv_Evangelion_rv_V1_rv_1440",
    "title": "2014_rv_Mitsuoka_rv_Orochi_rv_Evangelion_rv_V1_rv_1440",
    "link_img": "https://live.staticflickr.com/65535/49891291877_1210f461ff_o.jpg",
    "id_image": "2014_rv_Mitsuoka_rv_Orochi_rv_Evangelion_rv_V1_rv_1440",
    "count_view": 0
  },
  {
    "link_thumb": "https://live.staticflickr.com/65535/48112469881_39e6275b94_n.jpg",
    "id_album": "-15119147",
    "description": "Audi_97908",
    "title": "Audi_97908",
    "link_img": "https://live.staticflickr.com/65535/48112469881_63634e87e7_o.jpg",
    "id_image": "Audi_97908",
    "count_view": 0
  },
  {
    "link_thumb": "https://live.staticflickr.com/65535/48119661803_8126343ea1_n.jpg",
    "id_album": "-731054311",
    "description": "MercedesBenz_350293",
    "title": "MercedesBenz_350293",
    "link_img": "https://live.staticflickr.com/65535/48119661803_06ee8b9b85_o.jpg",
    "id_image": "MercedesBenz_350293",
    "count_view": 0
  },
  {
    "link_thumb": "https://live.staticflickr.com/65535/48113901227_f5ac16ef5f_n.jpg",
    "id_album": "-1721545051",
    "description": "Chevrolet_209339",
    "title": "Chevrolet_209339",
    "link_img": "https://live.staticflickr.com/65535/48113901227_5724e26e50_o.jpg",
    "id_image": "Chevrolet_209339",
    "count_view": 0
  },
  {
    "link_thumb": "https://live.staticflickr.com/65535/49891701272_772ef373e5_n.jpg",
    "id_album": "-857328710",
    "description": "2017_rv_Porsche_rv_718_rv_Boxster_rv_V1_rv_2000",
    "title": "2017_rv_Porsche_rv_718_rv_Boxster_rv_V1_rv_2000",
    "link_img": "https://live.staticflickr.com/65535/49891701272_6e22d84834_o.jpg",
    "id_image": "2017_rv_Porsche_rv_718_rv_Boxster_rv_V1_rv_2000",
    "count_view": 0
  },
  {
    "link_thumb": "https://live.staticflickr.com/65535/49889494008_ea12b6eae0_n.jpg",
    "id_album": "1773051539",
    "description": "2013_rv_Jaguar_rv_XJ_rv_Ultimate_rv_V5_rv_1440",
    "title": "2013_rv_Jaguar_rv_XJ_rv_Ultimate_rv_V5_rv_1440",
    "link_img": "https://live.staticflickr.com/65535/49889494008_62bc637422_o.jpg",
    "id_image": "2013_rv_Jaguar_rv_XJ_rv_Ultimate_rv_V5_rv_1440",
    "count_view": 0
  },
  {
    "link_thumb": "https://live.staticflickr.com/65535/48123227011_6b43bde126_n.jpg",
    "id_album": "-360260466",
    "description": "Yamaha_362998",
    "title": "Yamaha_362998",
    "link_img": "https://live.staticflickr.com/65535/48123227011_9efd331890_o.jpg",
    "id_image": "Yamaha_362998",
    "count_view": 0
  },
  {
    "link_thumb": "https://live.staticflickr.com/65535/48118043627_fc4f16014e_n.jpg",
    "id_album": "427416146",
    "description": "Hummer_451666",
    "title": "Hummer_451666",
    "link_img": "https://live.staticflickr.com/65535/48118043627_0b1afa0344_o.jpg",
    "id_image": "Hummer_451666",
    "count_view": 0
  },
  {
    "link_thumb": "https://live.staticflickr.com/65535/49890720251_81a8caaa46_n.jpg",
    "id_album": "1310566757",
    "description": "2020_rv_Mercedes_rv_Benz_rv_CLA_rv_V5_rv_2000",
    "title": "2020_rv_Mercedes_rv_Benz_rv_CLA_rv_V5_rv_2000",
    "link_img": "https://live.staticflickr.com/65535/49890720251_0fc06de188_o.jpg",
    "id_image": "2020_rv_Mercedes_rv_Benz_rv_CLA_rv_V5_rv_2000",
    "count_view": 0
  },
  {
    "link_thumb": "https://live.staticflickr.com/65535/48114996676_5d0db5d60f_n.jpg",
    "id_album": "413141323",
    "description": "Dodge_134136",
    "title": "Dodge_134136",
    "link_img": "https://live.staticflickr.com/65535/48114996676_db744e8985_o.jpg",
    "id_image": "Dodge_134136",
    "count_view": 0
  },
  {
    "link_thumb": "https://live.staticflickr.com/65535/48122921598_55d0a4dc3f_n.jpg",
    "id_album": "-150952028",
    "description": "Volkswagen_259142",
    "title": "Volkswagen_259142",
    "link_img": "https://live.staticflickr.com/65535/48122921598_d9feb31abb_o.jpg",
    "id_image": "Volkswagen_259142",
    "count_view": 0
  },
  {
    "link_thumb": "https://live.staticflickr.com/65535/49890085347_d183e3936b_n.jpg",
    "id_album": "1370790237",
    "description": "2018_rv_Dodge_rv_Challenger_rv_SRT_rv_Demon_rv_V2_rv_2000",
    "title": "2018_rv_Dodge_rv_Challenger_rv_SRT_rv_Demon_rv_V2_rv_2000",
    "link_img": "https://live.staticflickr.com/65535/49890085347_668d3a8136_o.jpg",
    "id_image": "2018_rv_Dodge_rv_Challenger_rv_SRT_rv_Demon_rv_V2_rv_2000",
    "count_view": 0
  },
  {
    "link_thumb": "https://live.staticflickr.com/65535/49888967306_796b4f6244_n.jpg",
    "id_album": "-2012653187",
    "description": "2016_rv_Audi_rv_S4_rv_V3_rv_1600",
    "title": "2016_rv_Audi_rv_S4_rv_V3_rv_1600",
    "link_img": "https://live.staticflickr.com/65535/49888967306_b7b84e0290_o.jpg",
    "id_image": "2016_rv_Audi_rv_S4_rv_V3_rv_1600",
    "count_view": 0
  },
  {
    "link_thumb": "https://live.staticflickr.com/65535/49889983538_d5a725dcb9_n.jpg",
    "id_album": "1773656068",
    "description": "2013_rv_Mazzanti_rv_Evantra_rv_V1_rv_1600",
    "title": "2013_rv_Mazzanti_rv_Evantra_rv_V1_rv_1600",
    "link_img": "https://live.staticflickr.com/65535/49889983538_4cf6d6c714_o.jpg",
    "id_image": "2013_rv_Mazzanti_rv_Evantra_rv_V1_rv_1600",
    "count_view": 0
  },
  {
    "link_thumb": "https://live.staticflickr.com/65535/48112268268_0f76559e2c_n.jpg",
    "id_album": "-15119147",
    "description": "Audi_169835",
    "title": "Audi_169835",
    "link_img": "https://live.staticflickr.com/65535/48112268268_7c32200358_o.jpg",
    "id_image": "Audi_169835",
    "count_view": 0
  },
  {
    "link_thumb": "https://live.staticflickr.com/65535/49890315507_a1424eb36e_n.jpg",
    "id_album": "1773051543",
    "description": "2013_rv_Jaguar_rv_XFR_rv_Speed_rv_Pack_rv_V3_rv_1440",
    "title": "2013_rv_Jaguar_rv_XFR_rv_Speed_rv_Pack_rv_V3_rv_1440",
    "link_img": "https://live.staticflickr.com/65535/49890315507_ae96fcc0c7_o.jpg",
    "id_image": "2013_rv_Jaguar_rv_XFR_rv_Speed_rv_Pack_rv_V3_rv_1440",
    "count_view": 0
  },
  {
    "link_thumb": "https://live.staticflickr.com/65535/48119546551_c7fbf89966_n.jpg",
    "id_album": "-731054311",
    "description": "MercedesBenz_257331",
    "title": "MercedesBenz_257331",
    "link_img": "https://live.staticflickr.com/65535/48119546551_9d156d3cb9_o.jpg",
    "id_image": "MercedesBenz_257331",
    "count_view": 0
  },
  {
    "link_thumb": "https://live.staticflickr.com/65535/48120630691_6f106d8603_n.jpg",
    "id_album": "-2131154733",
    "description": "Oldsmobile_215799",
    "title": "Oldsmobile_215799",
    "link_img": "https://live.staticflickr.com/65535/48120630691_07e75f0f7d_o.jpg",
    "id_image": "Oldsmobile_215799",
    "count_view": 0
  },
  {
    "link_thumb": "https://live.staticflickr.com/65535/48117408771_04717aee8b_n.jpg",
    "id_album": "-1846404630",
    "description": "Ford_740716",
    "title": "Ford_740716",
    "link_img": "https://live.staticflickr.com/65535/48117408771_6766a98b8a_o.jpg",
    "id_image": "Ford_740716",
    "count_view": 0
  },
  {
    "link_thumb": "https://live.staticflickr.com/65535/48118501152_776511116a_n.jpg",
    "id_album": "-2100339805",
    "description": "Lamborghini_390829",
    "title": "Lamborghini_390829",
    "link_img": "https://live.staticflickr.com/65535/48118501152_e6a2866251_o.jpg",
    "id_image": "Lamborghini_390829",
    "count_view": 0
  },
  {
    "link_thumb": "https://live.staticflickr.com/65535/48116560942_26b6ae2afb_n.jpg",
    "id_album": "-803737857",
    "description": "Fiat_282731",
    "title": "Fiat_282731",
    "link_img": "https://live.staticflickr.com/65535/48116560942_e5d19fcc46_o.jpg",
    "id_image": "Fiat_282731",
    "count_view": 0
  },
  {
    "link_thumb": "https://live.staticflickr.com/65535/48122489017_98f1430733_n.jpg",
    "id_album": "422322641",
    "description": "Subaru_259033",
    "title": "Subaru_259033",
    "link_img": "https://live.staticflickr.com/65535/48122489017_3eb366e104_o.jpg",
    "id_image": "Subaru_259033",
    "count_view": 0
  },
  {
    "link_thumb": "https://live.staticflickr.com/65535/48116861987_44cd4f3251_n.jpg",
    "id_album": "-1846404630",
    "description": "Ford_219615",
    "title": "Ford_219615",
    "link_img": "https://live.staticflickr.com/65535/48116861987_894b3b1f65_o.jpg",
    "id_image": "Ford_219615",
    "count_view": 0
  },
  {
    "link_thumb": "https://live.staticflickr.com/65535/48120321197_2c606beb93_n.jpg",
    "id_album": "666438681",
    "description": "Motorcycles_513557",
    "title": "Motorcycles_513557",
    "link_img": "https://live.staticflickr.com/65535/48120321197_03b923e40c_o.jpg",
    "id_image": "Motorcycles_513557",
    "count_view": 0
  },
  {
    "link_thumb": "https://live.staticflickr.com/65535/48112526396_a4686a1a23_n.jpg",
    "id_album": "2097036181",
    "description": "Bentley_470750",
    "title": "Bentley_470750",
    "link_img": "https://live.staticflickr.com/65535/48112526396_e7f49dc15d_o.jpg",
    "id_image": "Bentley_470750",
    "count_view": 0
  },
  {
    "link_thumb": "https://live.staticflickr.com/65535/49892677346_6e33158ddd_n.jpg",
    "id_album": "77012190",
    "description": "1997_rv_Volkswagen_rv_W12_rv_Syncro_rv_Concept_rv_V3_rv_1536",
    "title": "1997_rv_Volkswagen_rv_W12_rv_Syncro_rv_Concept_rv_V3_rv_1536",
    "link_img": "https://live.staticflickr.com/65535/49892677346_382c100e06_o.jpg",
    "id_image": "1997_rv_Volkswagen_rv_W12_rv_Syncro_rv_Concept_rv_V3_rv_1536",
    "count_view": 0
  },
  {
    "link_thumb": "https://live.staticflickr.com/65535/48119760916_0c0d82fd8a_n.jpg",
    "id_album": "-731054311",
    "description": "MercedesBenz_729319",
    "title": "MercedesBenz_729319",
    "link_img": "https://live.staticflickr.com/65535/48119760916_558d275ff3_o.jpg",
    "id_image": "MercedesBenz_729319",
    "count_view": 0
  },
  {
    "link_thumb": "https://live.staticflickr.com/65535/48117621578_b890ff0e34_n.jpg",
    "id_album": "-1846404630",
    "description": "Ford_932318",
    "title": "Ford_932318",
    "link_img": "https://live.staticflickr.com/65535/48117621578_d9ebb024cc_o.jpg",
    "id_image": "Ford_932318",
    "count_view": 0
  },
  {
    "link_thumb": "https://live.staticflickr.com/65535/48120480688_c09d66d226_n.jpg",
    "id_album": "810634050",
    "description": "Nissan_476571",
    "title": "Nissan_476571",
    "link_img": "https://live.staticflickr.com/65535/48120480688_69969177b1_o.jpg",
    "id_image": "Nissan_476571",
    "count_view": 0
  },
  {
    "link_thumb": "https://live.staticflickr.com/65535/49891846918_bd89114a63_n.jpg",
    "id_album": "2063224475",
    "description": "2016_rv_Chevrolet_rv_Camaro_rv_RS_rv_V11_rv_2000",
    "title": "2016_rv_Chevrolet_rv_Camaro_rv_RS_rv_V11_rv_2000",
    "link_img": "https://live.staticflickr.com/65535/49891846918_601293f908_o.jpg",
    "id_image": "2016_rv_Chevrolet_rv_Camaro_rv_RS_rv_V11_rv_2000",
    "count_view": 0
  },
  {
    "link_thumb": "https://live.staticflickr.com/65535/49891790208_8390fde268_n.jpg",
    "id_album": "1291673563",
    "description": "2008_rv_Saleen_rv_S302_rv_Extreme_rv_V5_rv_1600",
    "title": "2008_rv_Saleen_rv_S302_rv_Extreme_rv_V5_rv_1600",
    "link_img": "https://live.staticflickr.com/65535/49891790208_b6f0465b89_o.jpg",
    "id_image": "2008_rv_Saleen_rv_S302_rv_Extreme_rv_V5_rv_1600",
    "count_view": 0
  },
  {
    "link_thumb": "https://live.staticflickr.com/65535/48123178666_1b159eef0e_n.jpg",
    "id_album": "1159292543",
    "description": "Volvo_879801",
    "title": "Volvo_879801",
    "link_img": "https://live.staticflickr.com/65535/48123178666_1bfccc7fbc_o.jpg",
    "id_image": "Volvo_879801",
    "count_view": 0
  },
  {
    "link_thumb": "https://live.staticflickr.com/65535/49889444808_b5534a3677_n.jpg",
    "id_album": "796949652",
    "description": "2003_rv_Italdesign_rv_Corvette_rv_Moray_rv_V4_rv_1440",
    "title": "2003_rv_Italdesign_rv_Corvette_rv_Moray_rv_V4_rv_1440",
    "link_img": "https://live.staticflickr.com/65535/49889444808_381c976b74_o.jpg",
    "id_image": "2003_rv_Italdesign_rv_Corvette_rv_Moray_rv_V4_rv_1440",
    "count_view": 0
  },
  {
    "link_thumb": "https://live.staticflickr.com/65535/48117897678_e265c207aa_n.jpg",
    "id_album": "-354267407",
    "description": "Honda_684290",
    "title": "Honda_684290",
    "link_img": "https://live.staticflickr.com/65535/48117897678_f4a0fa31e3_o.jpg",
    "id_image": "Honda_684290",
    "count_view": 0
  },
  {
    "link_thumb": "https://live.staticflickr.com/65535/48122626522_623985fab2_n.jpg",
    "id_album": "1645818674",
    "description": "Suzuki_825067",
    "title": "Suzuki_825067",
    "link_img": "https://live.staticflickr.com/65535/48122626522_bdbb66395b_o.jpg",
    "id_image": "Suzuki_825067",
    "count_view": 0
  },
  {
    "link_thumb": "https://live.staticflickr.com/65535/49892199963_c475f5b984_n.jpg",
    "id_album": "1158113959",
    "description": "2012_rv_BMW_rv_Zagato_rv_Coupe_rv_Concept_rv_V3_rv_1440",
    "title": "2012_rv_BMW_rv_Zagato_rv_Coupe_rv_Concept_rv_V3_rv_1440",
    "link_img": "https://live.staticflickr.com/65535/49892199963_44b90ee0f6_o.jpg",
    "id_image": "2012_rv_BMW_rv_Zagato_rv_Coupe_rv_Concept_rv_V3_rv_1440",
    "count_view": 0
  },
  {
    "link_thumb": "https://live.staticflickr.com/65535/48115259102_a83f3e74d5_n.jpg",
    "id_album": "413141323",
    "description": "Dodge_317637",
    "title": "Dodge_317637",
    "link_img": "https://live.staticflickr.com/65535/48115259102_7f1a1c3f47_o.jpg",
    "id_image": "Dodge_317637",
    "count_view": 0
  },
  {
    "link_thumb": "https://live.staticflickr.com/65535/49891686317_992dcab7de_n.jpg",
    "id_album": "-857328710",
    "description": "1996_rv_Porsche_rv_Boxster_rv_V2_rv_1536",
    "title": "1996_rv_Porsche_rv_Boxster_rv_V2_rv_1536",
    "link_img": "https://live.staticflickr.com/65535/49891686317_ee2af4c728_o.jpg",
    "id_image": "1996_rv_Porsche_rv_Boxster_rv_V2_rv_1536",
    "count_view": 0
  },
  {
    "link_thumb": "https://live.staticflickr.com/65535/49889093841_e307046f0b_n.jpg",
    "id_album": "-1839907869",
    "description": "2018_rv_BMW_rv_M4_rv_V6_rv_2000",
    "title": "2018_rv_BMW_rv_M4_rv_V6_rv_2000",
    "link_img": "https://live.staticflickr.com/65535/49889093841_ee4bab28d4_o.jpg",
    "id_image": "2018_rv_BMW_rv_M4_rv_V6_rv_2000",
    "count_view": 0
  },
  {
    "link_thumb": "https://live.staticflickr.com/65535/48120047047_a29ab05b1b_n.jpg",
    "id_album": "-731054311",
    "description": "MercedesBenz_988559",
    "title": "MercedesBenz_988559",
    "link_img": "https://live.staticflickr.com/65535/48120047047_2986510820_o.jpg",
    "id_image": "MercedesBenz_988559",
    "count_view": 0
  }
]