[
  {
    "total_img": 0,
    "number_page": 0,
    "title": "Toyota Supra",
    "tag": "Toyota Supra,",
    "description": "Toyota Supra",
    "link_thumb": "https://live.staticflickr.com/65535/49892520996_f7e1517458_n.jpg",
    "id_album": "883034302",
    "total_view": 78
  }
]