[
  {
    "link_thumb": "https://live.staticflickr.com/65535/49889199573_00c6d3fa97_n.jpg",
    "id_album": "104494886",
    "description": "2017_rv_Ford_rv_Fusion_rv_V6_rv_Sport_rv_V1_rv_2000",
    "title": "2017_rv_Ford_rv_Fusion_rv_V6_rv_Sport_rv_V1_rv_2000",
    "link_img": "https://live.staticflickr.com/65535/49889199573_90de48bbd5_o.jpg",
    "id_image": "2017_rv_Ford_rv_Fusion_rv_V6_rv_Sport_rv_V1_rv_2000",
    "count_view": 0
  },
  {
    "link_thumb": "https://live.staticflickr.com/65535/49889717616_667f2876b3_n.jpg",
    "id_album": "104494886",
    "description": "2017_rv_Ford_rv_Fusion_rv_V6_rv_Sport_rv_V2_rv_2000",
    "title": "2017_rv_Ford_rv_Fusion_rv_V6_rv_Sport_rv_V2_rv_2000",
    "link_img": "https://live.staticflickr.com/65535/49889717616_4fbfc4de87_o.jpg",
    "id_image": "2017_rv_Ford_rv_Fusion_rv_V6_rv_Sport_rv_V2_rv_2000",
    "count_view": 0
  },
  {
    "link_thumb": "https://live.staticflickr.com/65535/49889199888_9acc896637_n.jpg",
    "id_album": "104494886",
    "description": "2017_rv_Ford_rv_Fusion_rv_V6_rv_Sport_rv_V3_rv_2000",
    "title": "2017_rv_Ford_rv_Fusion_rv_V6_rv_Sport_rv_V3_rv_2000",
    "link_img": "https://live.staticflickr.com/65535/49889199888_88e3cf6e29_o.jpg",
    "id_image": "2017_rv_Ford_rv_Fusion_rv_V6_rv_Sport_rv_V3_rv_2000",
    "count_view": 0
  }
]