[
  {
    "total_img": 0,
    "number_page": 0,
    "title": "Holden Monaro",
    "tag": "Holden Monaro,",
    "description": "Holden Monaro",
    "link_thumb": "https://live.staticflickr.com/65535/49889900206_90849f14d6_n.jpg",
    "id_album": "-1822879856",
    "total_view": 15
  }
]