[
  {
    "total_img": 0,
    "number_page": 0,
    "title": "V10",
    "tag": "V10,",
    "description": "V10",
    "link_thumb": "https://live.staticflickr.com/65535/49892055778_a1dde93e13_n.jpg",
    "id_album": "-1220388988",
    "total_view": 126
  }
]