[
  {
    "total_img": 0,
    "number_page": 0,
    "title": "Alfa Romeo 12C",
    "tag": "Alfa Romeo 12C,",
    "description": "Alfa Romeo 12C",
    "link_thumb": "https://live.staticflickr.com/65535/49888736841_3b16ba0e64_n.jpg",
    "id_album": "643953885",
    "total_view": 6
  }
]