[
  {
    "link_thumb": "https://live.staticflickr.com/65535/48117363721_9fce679218_n.jpg",
    "id_album": "-1846404630",
    "description": "Ford_651089",
    "title": "Ford_651089",
    "link_img": "https://live.staticflickr.com/65535/48117363721_18b9c9c7be_o.jpg",
    "id_image": "Ford_651089",
    "count_view": 0
  },
  {
    "link_thumb": "https://live.staticflickr.com/65535/48112335057_5698bb3296_n.jpg",
    "id_album": "-15119147",
    "description": "Audi_208289",
    "title": "Audi_208289",
    "link_img": "https://live.staticflickr.com/65535/48112335057_117d56c1d1_o.jpg",
    "id_image": "Audi_208289",
    "count_view": 0
  },
  {
    "link_thumb": "https://live.staticflickr.com/65535/48112375341_f2e0bca7c7_n.jpg",
    "id_album": "-15119147",
    "description": "Audi_697565",
    "title": "Audi_697565",
    "link_img": "https://live.staticflickr.com/65535/48112375341_06f2437f81_o.jpg",
    "id_image": "Audi_697565",
    "count_view": 0
  },
  {
    "link_thumb": "https://live.staticflickr.com/65535/48117554217_8018c84acc_n.jpg",
    "id_album": "-1846404630",
    "description": "Ford_805372",
    "title": "Ford_805372",
    "link_img": "https://live.staticflickr.com/65535/48117554217_4c3d9ebf27_o.jpg",
    "id_image": "Ford_805372",
    "count_view": 0
  },
  {
    "link_thumb": "https://live.staticflickr.com/65535/48113483307_8ccf92f52d_n.jpg",
    "id_album": "1456070666",
    "description": "Bugatti_398931",
    "title": "Bugatti_398931",
    "link_img": "https://live.staticflickr.com/65535/48113483307_784bf27888_o.jpg",
    "id_image": "Bugatti_398931",
    "count_view": 0
  },
  {
    "link_thumb": "https://live.staticflickr.com/65535/48120152743_bf0b8ff767_n.jpg",
    "id_album": "666438681",
    "description": "Motorcycles_165430",
    "title": "Motorcycles_165430",
    "link_img": "https://live.staticflickr.com/65535/48120152743_bf86e72bd6_o.jpg",
    "id_image": "Motorcycles_165430",
    "count_view": 0
  },
  {
    "link_thumb": "https://live.staticflickr.com/65535/48112498488_3c38c9e545_n.jpg",
    "id_album": "-15119147",
    "description": "Audi_958390",
    "title": "Audi_958390",
    "link_img": "https://live.staticflickr.com/65535/48112498488_5bb7c52704_o.jpg",
    "id_image": "Audi_958390",
    "count_view": 0
  },
  {
    "link_thumb": "https://live.staticflickr.com/65535/48118370677_8335c32ee4_n.jpg",
    "id_album": "-2100339805",
    "description": "Lamborghini_273980",
    "title": "Lamborghini_273980",
    "link_img": "https://live.staticflickr.com/65535/48118370677_190ee01584_o.jpg",
    "id_image": "Lamborghini_273980",
    "count_view": 0
  },
  {
    "link_thumb": "https://live.staticflickr.com/65535/48123280701_6a542a2437_n.jpg",
    "id_album": "-360260466",
    "description": "Yamaha_958101",
    "title": "Yamaha_958101",
    "link_img": "https://live.staticflickr.com/65535/48123280701_8ea0d054da_o.jpg",
    "id_image": "Yamaha_958101",
    "count_view": 0
  },
  {
    "link_thumb": "https://live.staticflickr.com/65535/48118133656_8bf81b4cb0_n.jpg",
    "id_album": "-625217782",
    "description": "Kia_222706",
    "title": "Kia_222706",
    "link_img": "https://live.staticflickr.com/65535/48118133656_0535d65b06_o.jpg",
    "id_image": "Kia_222706",
    "count_view": 0
  },
  {
    "link_thumb": "https://live.staticflickr.com/65535/48119981318_6ea579da88_n.jpg",
    "id_album": "-731054311",
    "description": "MercedesBenz_984172",
    "title": "MercedesBenz_984172",
    "link_img": "https://live.staticflickr.com/65535/48119981318_d3944a6616_o.jpg",
    "id_image": "MercedesBenz_984172",
    "count_view": 0
  },
  {
    "link_thumb": "https://live.staticflickr.com/65535/48117939301_660515aae5_n.jpg",
    "id_album": "427416146",
    "description": "Hummer_194996",
    "title": "Hummer_194996",
    "link_img": "https://live.staticflickr.com/65535/48117939301_2bf4de2104_o.jpg",
    "id_image": "Hummer_194996",
    "count_view": 0
  },
  {
    "link_thumb": "https://live.staticflickr.com/65535/48118755406_86ac1e1dbf_n.jpg",
    "id_album": "-2100339805",
    "description": "Lamborghini_996441",
    "title": "Lamborghini_996441",
    "link_img": "https://live.staticflickr.com/65535/48118755406_ab775db0d4_o.jpg",
    "id_image": "Lamborghini_996441",
    "count_view": 0
  },
  {
    "link_thumb": "https://live.staticflickr.com/65535/48118835002_88907b9f6d_n.jpg",
    "id_album": "-2100339805",
    "description": "Lamborghini_992739",
    "title": "Lamborghini_992739",
    "link_img": "https://live.staticflickr.com/65535/48118835002_b7dcef6b9a_o.jpg",
    "id_image": "Lamborghini_992739",
    "count_view": 0
  },
  {
    "link_thumb": "https://live.staticflickr.com/65535/48119699181_21765ed6bd_n.jpg",
    "id_album": "-731054311",
    "description": "MercedesBenz_505459",
    "title": "MercedesBenz_505459",
    "link_img": "https://live.staticflickr.com/65535/48119699181_3f49a5d4aa_o.jpg",
    "id_image": "MercedesBenz_505459",
    "count_view": 0
  },
  {
    "link_thumb": "https://live.staticflickr.com/65535/48122294577_9e51b8af19_n.jpg",
    "id_album": "1536700661",
    "description": "RollsRoyce_995794",
    "title": "RollsRoyce_995794",
    "link_img": "https://live.staticflickr.com/65535/48122294577_eaefc3d8f2_o.jpg",
    "id_image": "RollsRoyce_995794",
    "count_view": 0
  },
  {
    "link_thumb": "https://live.staticflickr.com/65535/48118555318_d8ec14acb4_n.jpg",
    "id_album": "-2100339805",
    "description": "Lamborghini_542656",
    "title": "Lamborghini_542656",
    "link_img": "https://live.staticflickr.com/65535/48118555318_bedd027ff5_o.jpg",
    "id_image": "Lamborghini_542656",
    "count_view": 0
  },
  {
    "link_thumb": "https://live.staticflickr.com/65535/48120036417_720faa5de0_n.jpg",
    "id_album": "-731054311",
    "description": "MercedesBenz_975025",
    "title": "MercedesBenz_975025",
    "link_img": "https://live.staticflickr.com/65535/48120036417_b86263e319_o.jpg",
    "id_image": "MercedesBenz_975025",
    "count_view": 0
  },
  {
    "link_thumb": "https://live.staticflickr.com/65535/48122389558_1c21b018da_n.jpg",
    "id_album": "422322641",
    "description": "Subaru_190166",
    "title": "Subaru_190166",
    "link_img": "https://live.staticflickr.com/65535/48122389558_5b0c476944_o.jpg",
    "id_image": "Subaru_190166",
    "count_view": 0
  },
  {
    "link_thumb": "https://live.staticflickr.com/65535/48117974403_4fa3a11118_n.jpg",
    "id_album": "427416146",
    "description": "Hummer_213838",
    "title": "Hummer_213838",
    "link_img": "https://live.staticflickr.com/65535/48117974403_44ff45acd4_o.jpg",
    "id_image": "Hummer_213838",
    "count_view": 0
  },
  {
    "link_thumb": "https://live.staticflickr.com/65535/48119786621_b6dea05a9d_n.jpg",
    "id_album": "-731054311",
    "description": "MercedesBenz_829261",
    "title": "MercedesBenz_829261",
    "link_img": "https://live.staticflickr.com/65535/48119786621_cd58b297f4_o.jpg",
    "id_image": "MercedesBenz_829261",
    "count_view": 0
  },
  {
    "link_thumb": "https://live.staticflickr.com/65535/48118838647_b8eea545e2_n.jpg",
    "id_album": "-2100339805",
    "description": "Lamborghini_995051",
    "title": "Lamborghini_995051",
    "link_img": "https://live.staticflickr.com/65535/48118838647_4871f293ea_o.jpg",
    "id_image": "Lamborghini_995051",
    "count_view": 0
  },
  {
    "link_thumb": "https://live.staticflickr.com/65535/48122833492_cc13060b1c_n.jpg",
    "id_album": "1274920659",
    "description": "Toyota_549780",
    "title": "Toyota_549780",
    "link_img": "https://live.staticflickr.com/65535/48122833492_e9f2435640_o.jpg",
    "id_image": "Toyota_549780",
    "count_view": 0
  },
  {
    "link_thumb": "https://live.staticflickr.com/65535/48118837832_82fc14eb9b_n.jpg",
    "id_album": "-2100339805",
    "description": "Lamborghini_994763",
    "title": "Lamborghini_994763",
    "link_img": "https://live.staticflickr.com/65535/48118837832_482523c7d1_o.jpg",
    "id_image": "Lamborghini_994763",
    "count_view": 0
  },
  {
    "link_thumb": "https://live.staticflickr.com/65535/48120144953_03f826de7a_n.jpg",
    "id_album": "666438681",
    "description": "Motorcycles_159328",
    "title": "Motorcycles_159328",
    "link_img": "https://live.staticflickr.com/65535/48120144953_88236d44f8_o.jpg",
    "id_image": "Motorcycles_159328",
    "count_view": 0
  },
  {
    "link_thumb": "https://live.staticflickr.com/65535/48122881797_0487274387_n.jpg",
    "id_album": "1274920659",
    "description": "Toyota_882686",
    "title": "Toyota_882686",
    "link_img": "https://live.staticflickr.com/65535/48122881797_d02a550196_o.jpg",
    "id_image": "Toyota_882686",
    "count_view": 0
  },
  {
    "link_thumb": "https://live.staticflickr.com/65535/48112743186_9e161aa7d8_n.jpg",
    "id_album": "727633301",
    "description": "BMW_405660",
    "title": "BMW_405660",
    "link_img": "https://live.staticflickr.com/65535/48112743186_b48f0095a8_o.jpg",
    "id_image": "BMW_405660",
    "count_view": 0
  },
  {
    "link_thumb": "https://live.staticflickr.com/65535/48118038917_6e68dae531_n.jpg",
    "id_album": "427416146",
    "description": "Hummer_328405",
    "title": "Hummer_328405",
    "link_img": "https://live.staticflickr.com/65535/48118038917_d96c231881_o.jpg",
    "id_image": "Hummer_328405",
    "count_view": 0
  },
  {
    "link_thumb": "https://live.staticflickr.com/65535/48120242621_66a730138c_n.jpg",
    "id_album": "666438681",
    "description": "Motorcycles_598511",
    "title": "Motorcycles_598511",
    "link_img": "https://live.staticflickr.com/65535/48120242621_dc86618b92_o.jpg",
    "id_image": "Motorcycles_598511",
    "count_view": 0
  },
  {
    "link_thumb": "https://live.staticflickr.com/65535/48118500138_0c657bbc42_n.jpg",
    "id_album": "-2100339805",
    "description": "Lamborghini_447707",
    "title": "Lamborghini_447707",
    "link_img": "https://live.staticflickr.com/65535/48118500138_b3fea2738f_o.jpg",
    "id_image": "Lamborghini_447707",
    "count_view": 0
  },
  {
    "link_thumb": "https://live.staticflickr.com/65535/48112572507_1ee10da6e5_n.jpg",
    "id_album": "-15119147",
    "description": "Audi_973447",
    "title": "Audi_973447",
    "link_img": "https://live.staticflickr.com/65535/48112572507_24fbbb4378_o.jpg",
    "id_image": "Audi_973447",
    "count_view": 0
  },
  {
    "link_thumb": "https://live.staticflickr.com/65535/48122626062_551086ebca_n.jpg",
    "id_album": "1645818674",
    "description": "Suzuki_825066",
    "title": "Suzuki_825066",
    "link_img": "https://live.staticflickr.com/65535/48122626062_864da9e564_o.jpg",
    "id_image": "Suzuki_825066",
    "count_view": 0
  },
  {
    "link_thumb": "https://live.staticflickr.com/65535/48113316842_1dcd90f312_n.jpg",
    "id_album": "727633301",
    "description": "BMW_920338",
    "title": "BMW_920338",
    "link_img": "https://live.staticflickr.com/65535/48113316842_05080d320a_o.jpg",
    "id_image": "BMW_920338",
    "count_view": 0
  },
  {
    "link_thumb": "https://live.staticflickr.com/65535/48118725117_e2cae26450_n.jpg",
    "id_album": "-2100339805",
    "description": "Lamborghini_873336",
    "title": "Lamborghini_873336",
    "link_img": "https://live.staticflickr.com/65535/48118725117_e4eeec2c6a_o.jpg",
    "id_image": "Lamborghini_873336",
    "count_view": 0
  },
  {
    "link_thumb": "https://live.staticflickr.com/65535/48118851857_0764fa7c49_n.jpg",
    "id_album": "-2100339805",
    "description": "Lamborghini_999302",
    "title": "Lamborghini_999302",
    "link_img": "https://live.staticflickr.com/65535/48118851857_57b57ca55f_o.jpg",
    "id_image": "Lamborghini_999302",
    "count_view": 0
  },
  {
    "link_thumb": "https://live.staticflickr.com/65535/48116618163_cacd48b091_n.jpg",
    "id_album": "-1846404630",
    "description": "Ford_155781",
    "title": "Ford_155781",
    "link_img": "https://live.staticflickr.com/65535/48116618163_4134b2343f_o.jpg",
    "id_image": "Ford_155781",
    "count_view": 0
  },
  {
    "link_thumb": "https://live.staticflickr.com/65535/48117970853_2c4c281dfe_n.jpg",
    "id_album": "427416146",
    "description": "Hummer_192374",
    "title": "Hummer_192374",
    "link_img": "https://live.staticflickr.com/65535/48117970853_a6fa6d9dde_o.jpg",
    "id_image": "Hummer_192374",
    "count_view": 0
  },
  {
    "link_thumb": "https://live.staticflickr.com/65535/48112847932_35bb07b694_n.jpg",
    "id_album": "727633301",
    "description": "BMW_406196",
    "title": "BMW_406196",
    "link_img": "https://live.staticflickr.com/65535/48112847932_ea12c4b522_o.jpg",
    "id_image": "BMW_406196",
    "count_view": 0
  },
  {
    "link_thumb": "https://live.staticflickr.com/65535/48118851232_24dc1ea08d_n.jpg",
    "id_album": "-2100339805",
    "description": "Lamborghini_998539",
    "title": "Lamborghini_998539",
    "link_img": "https://live.staticflickr.com/65535/48118851232_5421c94fbc_o.jpg",
    "id_image": "Lamborghini_998539",
    "count_view": 0
  },
  {
    "link_thumb": "https://live.staticflickr.com/65535/48119791916_235bf4aa2e_n.jpg",
    "id_album": "-731054311",
    "description": "MercedesBenz_839363",
    "title": "MercedesBenz_839363",
    "link_img": "https://live.staticflickr.com/65535/48119791916_1ef94af86b_o.jpg",
    "id_image": "MercedesBenz_839363",
    "count_view": 0
  },
  {
    "link_thumb": "https://live.staticflickr.com/65535/48118421367_d6b13567a8_n.jpg",
    "id_album": "-2100339805",
    "description": "Lamborghini_318588",
    "title": "Lamborghini_318588",
    "link_img": "https://live.staticflickr.com/65535/48118421367_0c2cf37f1f_o.jpg",
    "id_image": "Lamborghini_318588",
    "count_view": 0
  },
  {
    "link_thumb": "https://live.staticflickr.com/65535/48111707716_072084431c_n.jpg",
    "id_album": "1906325017",
    "description": "Infiniti_187543",
    "title": "Infiniti_187543",
    "link_img": "https://live.staticflickr.com/65535/48111707716_4311f09166_o.jpg",
    "id_image": "Infiniti_187543",
    "count_view": 0
  },
  {
    "link_thumb": "https://live.staticflickr.com/65535/48121705137_bd8d02b551_n.jpg",
    "id_album": "-1178450892",
    "description": "Porsche_737538",
    "title": "Porsche_737538",
    "link_img": "https://live.staticflickr.com/65535/48121705137_6e58702fc0_o.jpg",
    "id_image": "Porsche_737538",
    "count_view": 0
  },
  {
    "link_thumb": "https://live.staticflickr.com/65535/48113456496_dd1ab8ce23_n.jpg",
    "id_album": "1456070666",
    "description": "Bugatti_998110",
    "title": "Bugatti_998110",
    "link_img": "https://live.staticflickr.com/65535/48113456496_362cb76012_o.jpg",
    "id_image": "Bugatti_998110",
    "count_view": 0
  },
  {
    "link_thumb": "https://live.staticflickr.com/65535/48119659803_09eb46faa4_n.jpg",
    "id_album": "-731054311",
    "description": "MercedesBenz_339985",
    "title": "MercedesBenz_339985",
    "link_img": "https://live.staticflickr.com/65535/48119659803_d1ee6b286b_o.jpg",
    "id_image": "MercedesBenz_339985",
    "count_view": 0
  },
  {
    "link_thumb": "https://live.staticflickr.com/65535/48122196798_164aa02082_n.jpg",
    "id_album": "1536700661",
    "description": "RollsRoyce_912774",
    "title": "RollsRoyce_912774",
    "link_img": "https://live.staticflickr.com/65535/48122196798_da35ac4f64_o.jpg",
    "id_image": "RollsRoyce_912774",
    "count_view": 0
  },
  {
    "link_thumb": "https://live.staticflickr.com/65535/48112948247_7e4cd4aa5c_n.jpg",
    "id_album": "727633301",
    "description": "BMW_482145",
    "title": "BMW_482145",
    "link_img": "https://live.staticflickr.com/65535/48112948247_ba9a75d4c7_o.jpg",
    "id_image": "BMW_482145",
    "count_view": 0
  },
  {
    "link_thumb": "https://live.staticflickr.com/65535/48113087116_6cb98b8567_n.jpg",
    "id_album": "727633301",
    "description": "BMW_843320",
    "title": "BMW_843320",
    "link_img": "https://live.staticflickr.com/65535/48113087116_5ffccabab9_o.jpg",
    "id_image": "BMW_843320",
    "count_view": 0
  },
  {
    "link_thumb": "https://live.staticflickr.com/65535/48112743351_cf56520ef6_n.jpg",
    "id_album": "727633301",
    "description": "BMW_405661",
    "title": "BMW_405661",
    "link_img": "https://live.staticflickr.com/65535/48112743351_fda07075b6_o.jpg",
    "id_image": "BMW_405661",
    "count_view": 0
  },
  {
    "link_thumb": "https://live.staticflickr.com/65535/48120280621_4bc089e312_n.jpg",
    "id_album": "666438681",
    "description": "Motorcycles_796902",
    "title": "Motorcycles_796902",
    "link_img": "https://live.staticflickr.com/65535/48120280621_492c0a37d0_o.jpg",
    "id_image": "Motorcycles_796902",
    "count_view": 0
  },
  {
    "link_thumb": "https://live.staticflickr.com/65535/48118030317_55bb8b2073_n.jpg",
    "id_album": "427416146",
    "description": "Hummer_205663",
    "title": "Hummer_205663",
    "link_img": "https://live.staticflickr.com/65535/48118030317_2e7a22e3c0_o.jpg",
    "id_image": "Hummer_205663",
    "count_view": 0
  },
  {
    "link_thumb": "https://live.staticflickr.com/65535/48122298827_078f571fb7_n.jpg",
    "id_album": "1536700661",
    "description": "RollsRoyce_998544",
    "title": "RollsRoyce_998544",
    "link_img": "https://live.staticflickr.com/65535/48122298827_1963e5b9ee_o.jpg",
    "id_image": "RollsRoyce_998544",
    "count_view": 0
  },
  {
    "link_thumb": "https://live.staticflickr.com/65535/48117966248_dd9cd7a89d_n.jpg",
    "id_album": "427416146",
    "description": "Hummer_142781",
    "title": "Hummer_142781",
    "link_img": "https://live.staticflickr.com/65535/48117966248_550fb1947c_o.jpg",
    "id_image": "Hummer_142781",
    "count_view": 0
  },
  {
    "link_thumb": "https://live.staticflickr.com/65535/48112465533_13f584d2ef_n.jpg",
    "id_album": "-15119147",
    "description": "Audi_905400",
    "title": "Audi_905400",
    "link_img": "https://live.staticflickr.com/65535/48112465533_eda0c2132d_o.jpg",
    "id_image": "Audi_905400",
    "count_view": 0
  },
  {
    "link_thumb": "https://live.staticflickr.com/65535/48117890706_93c76e9aea_n.jpg",
    "id_album": "-354267407",
    "description": "Honda_739847",
    "title": "Honda_739847",
    "link_img": "https://live.staticflickr.com/65535/48117890706_f834bf9479_o.jpg",
    "id_image": "Honda_739847",
    "count_view": 0
  },
  {
    "link_thumb": "https://live.staticflickr.com/65535/48112529172_21667d3927_n.jpg",
    "id_album": "-15119147",
    "description": "Audi_905397",
    "title": "Audi_905397",
    "link_img": "https://live.staticflickr.com/65535/48112529172_d77ce56212_o.jpg",
    "id_image": "Audi_905397",
    "count_view": 0
  },
  {
    "link_thumb": "https://live.staticflickr.com/65535/48112463648_211480383a_n.jpg",
    "id_album": "-15119147",
    "description": "Audi_892581",
    "title": "Audi_892581",
    "link_img": "https://live.staticflickr.com/65535/48112463648_ee75e9b28f_o.jpg",
    "id_image": "Audi_892581",
    "count_view": 0
  },
  {
    "link_thumb": "https://live.staticflickr.com/65535/48122572968_152b4d0504_n.jpg",
    "id_album": "1645818674",
    "description": "Suzuki_825091",
    "title": "Suzuki_825091",
    "link_img": "https://live.staticflickr.com/65535/48122572968_0b87889215_o.jpg",
    "id_image": "Suzuki_825091",
    "count_view": 0
  },
  {
    "link_thumb": "https://live.staticflickr.com/65535/48113245472_0aac70c150_n.jpg",
    "id_album": "727633301",
    "description": "BMW_889077",
    "title": "BMW_889077",
    "link_img": "https://live.staticflickr.com/65535/48113245472_f02f0b10fc_o.jpg",
    "id_image": "BMW_889077",
    "count_view": 0
  },
  {
    "link_thumb": "https://live.staticflickr.com/65535/48122174171_db6ffe39e9_n.jpg",
    "id_album": "1536700661",
    "description": "RollsRoyce_942922",
    "title": "RollsRoyce_942922",
    "link_img": "https://live.staticflickr.com/65535/48122174171_28d4c52ea6_o.jpg",
    "id_image": "RollsRoyce_942922",
    "count_view": 0
  },
  {
    "link_thumb": "https://live.staticflickr.com/65535/48122838036_4d5f1f5f0d_n.jpg",
    "id_album": "1274920659",
    "description": "Toyota_994664",
    "title": "Toyota_994664",
    "link_img": "https://live.staticflickr.com/65535/48122838036_7480450e3a_o.jpg",
    "id_image": "Toyota_994664",
    "count_view": 0
  },
  {
    "link_thumb": "https://live.staticflickr.com/65535/48118410948_e90dea646c_n.jpg",
    "id_album": "-2100339805",
    "description": "Lamborghini_366904",
    "title": "Lamborghini_366904",
    "link_img": "https://live.staticflickr.com/65535/48118410948_347a28dbaa_o.jpg",
    "id_image": "Lamborghini_366904",
    "count_view": 0
  },
  {
    "link_thumb": "https://live.staticflickr.com/65535/48113227367_fa2ae3c27f_n.jpg",
    "id_album": "727633301",
    "description": "BMW_880921",
    "title": "BMW_880921",
    "link_img": "https://live.staticflickr.com/65535/48113227367_1857677fa1_o.jpg",
    "id_image": "BMW_880921",
    "count_view": 0
  },
  {
    "link_thumb": "https://live.staticflickr.com/65535/48120003387_f6227a4e32_n.jpg",
    "id_album": "-731054311",
    "description": "MercedesBenz_930432",
    "title": "MercedesBenz_930432",
    "link_img": "https://live.staticflickr.com/65535/48120003387_54929fd091_o.jpg",
    "id_image": "MercedesBenz_930432",
    "count_view": 0
  },
  {
    "link_thumb": "https://live.staticflickr.com/65535/48122743546_373bed94dc_n.jpg",
    "id_album": "1274920659",
    "description": "Toyota_552576",
    "title": "Toyota_552576",
    "link_img": "https://live.staticflickr.com/65535/48122743546_18015924a4_o.jpg",
    "id_image": "Toyota_552576",
    "count_view": 0
  },
  {
    "link_thumb": "https://live.staticflickr.com/65535/48118759691_258afe7240_n.jpg",
    "id_album": "-2100339805",
    "description": "Lamborghini_996447",
    "title": "Lamborghini_996447",
    "link_img": "https://live.staticflickr.com/65535/48118759691_8c88d5bffa_o.jpg",
    "id_image": "Lamborghini_996447",
    "count_view": 0
  },
  {
    "link_thumb": "https://live.staticflickr.com/65535/48121225178_360f13381a_n.jpg",
    "id_album": "-1178450892",
    "description": "Porsche_208298",
    "title": "Porsche_208298",
    "link_img": "https://live.staticflickr.com/65535/48121225178_e1d2467850_o.jpg",
    "id_image": "Porsche_208298",
    "count_view": 0
  },
  {
    "link_thumb": "https://live.staticflickr.com/65535/48115528162_8512cf064a_n.jpg",
    "id_album": "413141323",
    "description": "Dodge_616139",
    "title": "Dodge_616139",
    "link_img": "https://live.staticflickr.com/65535/48115528162_24a3f9d9b0_o.jpg",
    "id_image": "Dodge_616139",
    "count_view": 0
  },
  {
    "link_thumb": "https://live.staticflickr.com/65535/48118766937_4aa032ecc0_n.jpg",
    "id_album": "-2100339805",
    "description": "Lamborghini_928618",
    "title": "Lamborghini_928618",
    "link_img": "https://live.staticflickr.com/65535/48118766937_e3059cb2ff_o.jpg",
    "id_image": "Lamborghini_928618",
    "count_view": 0
  },
  {
    "link_thumb": "https://live.staticflickr.com/65535/48117934331_29db56216b_n.jpg",
    "id_album": "427416146",
    "description": "Hummer_155713",
    "title": "Hummer_155713",
    "link_img": "https://live.staticflickr.com/65535/48117934331_728ce582ca_o.jpg",
    "id_image": "Hummer_155713",
    "count_view": 0
  },
  {
    "link_thumb": "https://live.staticflickr.com/65535/48114169852_d21944308c_n.jpg",
    "id_album": "-1721545051",
    "description": "Chevrolet_291983",
    "title": "Chevrolet_291983",
    "link_img": "https://live.staticflickr.com/65535/48114169852_652cdb384c_o.jpg",
    "id_image": "Chevrolet_291983",
    "count_view": 0
  },
  {
    "link_thumb": "https://live.staticflickr.com/65535/48115189951_9f2aae810e_n.jpg",
    "id_album": "413141323",
    "description": "Dodge_361013",
    "title": "Dodge_361013",
    "link_img": "https://live.staticflickr.com/65535/48115189951_7200d121a8_o.jpg",
    "id_image": "Dodge_361013",
    "count_view": 0
  },
  {
    "link_thumb": "https://live.staticflickr.com/65535/48113556962_0cc0537001_n.jpg",
    "id_album": "1456070666",
    "description": "Bugatti_998112",
    "title": "Bugatti_998112",
    "link_img": "https://live.staticflickr.com/65535/48113556962_21ed275d29_o.jpg",
    "id_image": "Bugatti_998112",
    "count_view": 0
  },
  {
    "link_thumb": "https://live.staticflickr.com/65535/48116725148_621d4fb862_n.jpg",
    "id_album": "-1846404630",
    "description": "Ford_188430",
    "title": "Ford_188430",
    "link_img": "https://live.staticflickr.com/65535/48116725148_9e09653f9b_o.jpg",
    "id_image": "Ford_188430",
    "count_view": 0
  },
  {
    "link_thumb": "https://live.staticflickr.com/65535/48122837181_cd5fbc3b80_n.jpg",
    "id_album": "1274920659",
    "description": "Toyota_993325",
    "title": "Toyota_993325",
    "link_img": "https://live.staticflickr.com/65535/48122837181_b93158177e_o.jpg",
    "id_image": "Toyota_993325",
    "count_view": 0
  },
  {
    "link_thumb": "https://live.staticflickr.com/65535/48120038512_05b5ac4c44_n.jpg",
    "id_album": "-731054311",
    "description": "MercedesBenz_983656",
    "title": "MercedesBenz_983656",
    "link_img": "https://live.staticflickr.com/65535/48120038512_0390f1a632_o.jpg",
    "id_image": "MercedesBenz_983656",
    "count_view": 0
  },
  {
    "link_thumb": "https://live.staticflickr.com/65535/48118785198_f3e914402e_n.jpg",
    "id_album": "-2100339805",
    "description": "Lamborghini_996438",
    "title": "Lamborghini_996438",
    "link_img": "https://live.staticflickr.com/65535/48118785198_5fe58363f8_o.jpg",
    "id_image": "Lamborghini_996438",
    "count_view": 0
  },
  {
    "link_thumb": "https://live.staticflickr.com/65535/48118842807_34db760ee4_n.jpg",
    "id_album": "-2100339805",
    "description": "Lamborghini_996437",
    "title": "Lamborghini_996437",
    "link_img": "https://live.staticflickr.com/65535/48118842807_93071a38d8_o.jpg",
    "id_image": "Lamborghini_996437",
    "count_view": 0
  },
  {
    "link_thumb": "https://live.staticflickr.com/65535/48114737457_7078ec409e_n.jpg",
    "id_album": "-1721545051",
    "description": "Chevrolet_912444",
    "title": "Chevrolet_912444",
    "link_img": "https://live.staticflickr.com/65535/48114737457_9db754f836_o.jpg",
    "id_image": "Chevrolet_912444",
    "count_view": 0
  },
  {
    "link_thumb": "https://live.staticflickr.com/65535/48118201377_6a4fbe2a5f_n.jpg",
    "id_album": "-2009218697",
    "description": "Jeep_616797",
    "title": "Jeep_616797",
    "link_img": "https://live.staticflickr.com/65535/48118201377_1da7d07d22_o.jpg",
    "id_image": "Jeep_616797",
    "count_view": 0
  },
  {
    "link_thumb": "https://live.staticflickr.com/65535/48115236422_a89f678718_n.jpg",
    "id_album": "413141323",
    "description": "Dodge_274355",
    "title": "Dodge_274355",
    "link_img": "https://live.staticflickr.com/65535/48115236422_f3bb301393_o.jpg",
    "id_image": "Dodge_274355",
    "count_view": 0
  },
  {
    "link_thumb": "https://live.staticflickr.com/65535/48113450946_5b4b874560_n.jpg",
    "id_album": "1456070666",
    "description": "Bugatti_953686",
    "title": "Bugatti_953686",
    "link_img": "https://live.staticflickr.com/65535/48113450946_2d71f5b261_o.jpg",
    "id_image": "Bugatti_953686",
    "count_view": 0
  },
  {
    "link_thumb": "https://live.staticflickr.com/65535/48121725931_e6de13260b_n.jpg",
    "id_album": "-1178450892",
    "description": "Porsche_907075",
    "title": "Porsche_907075",
    "link_img": "https://live.staticflickr.com/65535/48121725931_d933868599_o.jpg",
    "id_image": "Porsche_907075",
    "count_view": 0
  },
  {
    "link_thumb": "https://live.staticflickr.com/65535/48113496718_06cc639689_n.jpg",
    "id_album": "1456070666",
    "description": "Bugatti_998115",
    "title": "Bugatti_998115",
    "link_img": "https://live.staticflickr.com/65535/48113496718_cc069207d1_o.jpg",
    "id_image": "Bugatti_998115",
    "count_view": 0
  },
  {
    "link_thumb": "https://live.staticflickr.com/65535/48115469003_16c338d9b9_n.jpg",
    "id_album": "413141323",
    "description": "Dodge_616222",
    "title": "Dodge_616222",
    "link_img": "https://live.staticflickr.com/65535/48115469003_3d52a09b5d_o.jpg",
    "id_image": "Dodge_616222",
    "count_view": 0
  },
  {
    "link_thumb": "https://live.staticflickr.com/65535/48113553677_70821378a7_n.jpg",
    "id_album": "1456070666",
    "description": "Bugatti_960782",
    "title": "Bugatti_960782",
    "link_img": "https://live.staticflickr.com/65535/48113553677_93a08a789c_o.jpg",
    "id_image": "Bugatti_960782",
    "count_view": 0
  },
  {
    "link_thumb": "https://live.staticflickr.com/65535/48112791661_b0d1ac19dd_n.jpg",
    "id_album": "727633301",
    "description": "BMW_457613",
    "title": "BMW_457613",
    "link_img": "https://live.staticflickr.com/65535/48112791661_bfa09fc538_o.jpg",
    "id_image": "BMW_457613",
    "count_view": 0
  },
  {
    "link_thumb": "https://live.staticflickr.com/65535/48120570571_6ca44a707c_n.jpg",
    "id_album": "810634050",
    "description": "Nissan_827358",
    "title": "Nissan_827358",
    "link_img": "https://live.staticflickr.com/65535/48120570571_d0f70cef78_o.jpg",
    "id_image": "Nissan_827358",
    "count_view": 0
  },
  {
    "link_thumb": "https://live.staticflickr.com/65535/48118741977_939396f497_n.jpg",
    "id_album": "-2100339805",
    "description": "Lamborghini_906041",
    "title": "Lamborghini_906041",
    "link_img": "https://live.staticflickr.com/65535/48118741977_eaf3f79d60_o.jpg",
    "id_image": "Lamborghini_906041",
    "count_view": 0
  },
  {
    "link_thumb": "https://live.staticflickr.com/65535/48113188827_2e5d326fef_n.jpg",
    "id_album": "727633301",
    "description": "BMW_843794",
    "title": "BMW_843794",
    "link_img": "https://live.staticflickr.com/65535/48113188827_d14073c50a_o.jpg",
    "id_image": "BMW_843794",
    "count_view": 0
  },
  {
    "link_thumb": "https://live.staticflickr.com/65535/48113338578_40844e324b_n.jpg",
    "id_album": "727633301",
    "description": "BMW_994338",
    "title": "BMW_994338",
    "link_img": "https://live.staticflickr.com/65535/48113338578_eb5d9cd686_o.jpg",
    "id_image": "BMW_994338",
    "count_view": 0
  },
  {
    "link_thumb": "https://live.staticflickr.com/65535/48115145521_65db1007ab_n.jpg",
    "id_album": "413141323",
    "description": "Dodge_274344",
    "title": "Dodge_274344",
    "link_img": "https://live.staticflickr.com/65535/48115145521_b9bc6f3959_o.jpg",
    "id_image": "Dodge_274344",
    "count_view": 0
  },
  {
    "link_thumb": "https://live.staticflickr.com/65535/48116700337_5e760a6446_n.jpg",
    "id_album": "-1846404630",
    "description": "Ford_160011",
    "title": "Ford_160011",
    "link_img": "https://live.staticflickr.com/65535/48116700337_802146e466_o.jpg",
    "id_image": "Ford_160011",
    "count_view": 0
  },
  {
    "link_thumb": "https://live.staticflickr.com/65535/48112333631_c0a9c95106_n.jpg",
    "id_album": "-15119147",
    "description": "Audi_479376",
    "title": "Audi_479376",
    "link_img": "https://live.staticflickr.com/65535/48112333631_0eca2a5583_o.jpg",
    "id_image": "Audi_479376",
    "count_view": 0
  },
  {
    "link_thumb": "https://live.staticflickr.com/65535/48118023382_7fcdc42eca_n.jpg",
    "id_album": "427416146",
    "description": "Hummer_143538",
    "title": "Hummer_143538",
    "link_img": "https://live.staticflickr.com/65535/48118023382_1e5eec5525_o.jpg",
    "id_image": "Hummer_143538",
    "count_view": 0
  },
  {
    "link_thumb": "https://live.staticflickr.com/65535/48120226926_c78974fff1_n.jpg",
    "id_album": "666438681",
    "description": "Motorcycles_463958",
    "title": "Motorcycles_463958",
    "link_img": "https://live.staticflickr.com/65535/48120226926_6b2370aca6_o.jpg",
    "id_image": "Motorcycles_463958",
    "count_view": 0
  },
  {
    "link_thumb": "https://live.staticflickr.com/65535/48115686741_dfdd433fff_n.jpg",
    "id_album": "1364506720",
    "description": "Ferrari_255139",
    "title": "Ferrari_255139",
    "link_img": "https://live.staticflickr.com/65535/48115686741_d12218043b_o.jpg",
    "id_image": "Ferrari_255139",
    "count_view": 0
  },
  {
    "link_thumb": "https://live.staticflickr.com/65535/48122851162_3221ea6b5e_n.jpg",
    "id_album": "1274920659",
    "description": "Toyota_616810",
    "title": "Toyota_616810",
    "link_img": "https://live.staticflickr.com/65535/48122851162_4e3717484b_o.jpg",
    "id_image": "Toyota_616810",
    "count_view": 0
  },
  {
    "link_thumb": "https://live.staticflickr.com/65535/48113517342_621297d13b_n.jpg",
    "id_album": "1456070666",
    "description": "Bugatti_611869",
    "title": "Bugatti_611869",
    "link_img": "https://live.staticflickr.com/65535/48113517342_7445c1195d_o.jpg",
    "id_image": "Bugatti_611869",
    "count_view": 0
  },
  {
    "link_thumb": "https://live.staticflickr.com/65535/48119352433_f886febfe1_n.jpg",
    "id_album": "990865885",
    "description": "McLaren_683623",
    "title": "McLaren_683623",
    "link_img": "https://live.staticflickr.com/65535/48119352433_2b48674851_o.jpg",
    "id_image": "McLaren_683623",
    "count_view": 0
  },
  {
    "link_thumb": "https://live.staticflickr.com/65535/48112340743_15509a97c6_n.jpg",
    "id_album": "-15119147",
    "description": "Audi_457626",
    "title": "Audi_457626",
    "link_img": "https://live.staticflickr.com/65535/48112340743_d72cb32eac_o.jpg",
    "id_image": "Audi_457626",
    "count_view": 0
  },
  {
    "link_thumb": "https://live.staticflickr.com/65535/48120304873_ff3e7399fb_n.jpg",
    "id_album": "666438681",
    "description": "Motorcycles_745043",
    "title": "Motorcycles_745043",
    "link_img": "https://live.staticflickr.com/65535/48120304873_3657d2b7d9_o.jpg",
    "id_image": "Motorcycles_745043",
    "count_view": 0
  },
  {
    "link_thumb": "https://live.staticflickr.com/65535/48119975788_e41b9d1f8c_n.jpg",
    "id_album": "-731054311",
    "description": "MercedesBenz_975018",
    "title": "MercedesBenz_975018",
    "link_img": "https://live.staticflickr.com/65535/48119975788_62ef8879db_o.jpg",
    "id_image": "MercedesBenz_975018",
    "count_view": 0
  },
  {
    "link_thumb": "https://live.staticflickr.com/65535/48119281108_3ed190f625_n.jpg",
    "id_album": "898314866",
    "description": "Mazda_946552",
    "title": "Mazda_946552",
    "link_img": "https://live.staticflickr.com/65535/48119281108_388cf05a5c_o.jpg",
    "id_image": "Mazda_946552",
    "count_view": 0
  },
  {
    "link_thumb": "https://live.staticflickr.com/65535/48122448133_1557a75004_n.jpg",
    "id_album": "422322641",
    "description": "Subaru_319411",
    "title": "Subaru_319411",
    "link_img": "https://live.staticflickr.com/65535/48122448133_7dd18652b5_o.jpg",
    "id_image": "Subaru_319411",
    "count_view": 0
  },
  {
    "link_thumb": "https://live.staticflickr.com/65535/48119305338_53b826e47d_n.jpg",
    "id_album": "990865885",
    "description": "McLaren_383955",
    "title": "McLaren_383955",
    "link_img": "https://live.staticflickr.com/65535/48119305338_d8954703cf_o.jpg",
    "id_image": "McLaren_383955",
    "count_view": 0
  },
  {
    "link_thumb": "https://live.staticflickr.com/65535/48120037012_5dd5da6348_n.jpg",
    "id_album": "-731054311",
    "description": "MercedesBenz_975028",
    "title": "MercedesBenz_975028",
    "link_img": "https://live.staticflickr.com/65535/48120037012_3876b84082_o.jpg",
    "id_image": "MercedesBenz_975028",
    "count_view": 0
  },
  {
    "link_thumb": "https://live.staticflickr.com/65535/48116934151_f81b25f24c_n.jpg",
    "id_album": "-1846404630",
    "description": "Ford_275420",
    "title": "Ford_275420",
    "link_img": "https://live.staticflickr.com/65535/48116934151_7862731231_o.jpg",
    "id_image": "Ford_275420",
    "count_view": 0
  },
  {
    "link_thumb": "https://live.staticflickr.com/65535/48118748391_a9b82cca57_n.jpg",
    "id_album": "-2100339805",
    "description": "Lamborghini_994772",
    "title": "Lamborghini_994772",
    "link_img": "https://live.staticflickr.com/65535/48118748391_fe6f034124_o.jpg",
    "id_image": "Lamborghini_994772",
    "count_view": 0
  },
  {
    "link_thumb": "https://live.staticflickr.com/65535/48118786796_de2358899f_n.jpg",
    "id_album": "1234246491",
    "description": "LandRover_258973",
    "title": "LandRover_258973",
    "link_img": "https://live.staticflickr.com/65535/48118786796_8bccf55b2b_o.jpg",
    "id_image": "LandRover_258973",
    "count_view": 0
  },
  {
    "link_thumb": "https://live.staticflickr.com/65535/48113384896_ce5a9b011e_n.jpg",
    "id_album": "1456070666",
    "description": "Bugatti_409344",
    "title": "Bugatti_409344",
    "link_img": "https://live.staticflickr.com/65535/48113384896_8f4891f59c_o.jpg",
    "id_image": "Bugatti_409344",
    "count_view": 0
  },
  {
    "link_thumb": "https://live.staticflickr.com/65535/48114738987_0f08ea2599_n.jpg",
    "id_album": "-1721545051",
    "description": "Chevrolet_918382",
    "title": "Chevrolet_918382",
    "link_img": "https://live.staticflickr.com/65535/48114738987_280d62a56b_o.jpg",
    "id_image": "Chevrolet_918382",
    "count_view": 0
  },
  {
    "link_thumb": "https://live.staticflickr.com/65535/48118062243_788979728e_n.jpg",
    "id_album": "-843028318",
    "description": "Jaguar_893709",
    "title": "Jaguar_893709",
    "link_img": "https://live.staticflickr.com/65535/48118062243_408e9d191e_o.jpg",
    "id_image": "Jaguar_893709",
    "count_view": 0
  },
  {
    "link_thumb": "https://live.staticflickr.com/65535/48118344082_62b0f688cb_n.jpg",
    "id_album": "-2100339805",
    "description": "Lamborghini_248822",
    "title": "Lamborghini_248822",
    "link_img": "https://live.staticflickr.com/65535/48118344082_f0bdb17af2_o.jpg",
    "id_image": "Lamborghini_248822",
    "count_view": 0
  },
  {
    "link_thumb": "https://live.staticflickr.com/65535/48117553391_e5c637c381_n.jpg",
    "id_album": "-1846404630",
    "description": "Ford_931196",
    "title": "Ford_931196",
    "link_img": "https://live.staticflickr.com/65535/48117553391_df3913b276_o.jpg",
    "id_image": "Ford_931196",
    "count_view": 0
  },
  {
    "link_thumb": "https://live.staticflickr.com/65535/48115329112_4f480b32cf_n.jpg",
    "id_album": "413141323",
    "description": "Dodge_449211",
    "title": "Dodge_449211",
    "link_img": "https://live.staticflickr.com/65535/48115329112_704e7f6815_o.jpg",
    "id_image": "Dodge_449211",
    "count_view": 0
  },
  {
    "link_thumb": "https://live.staticflickr.com/65535/48113384571_f0e495c916_n.jpg",
    "id_album": "1456070666",
    "description": "Bugatti_404955",
    "title": "Bugatti_404955",
    "link_img": "https://live.staticflickr.com/65535/48113384571_02ba6451e8_o.jpg",
    "id_image": "Bugatti_404955",
    "count_view": 0
  },
  {
    "link_thumb": "https://live.staticflickr.com/65535/48113011116_6b93fa6f29_n.jpg",
    "id_album": "727633301",
    "description": "BMW_698110",
    "title": "BMW_698110",
    "link_img": "https://live.staticflickr.com/65535/48113011116_2e688a5637_o.jpg",
    "id_image": "BMW_698110",
    "count_view": 0
  },
  {
    "link_thumb": "https://live.staticflickr.com/65535/48123129822_de13466902_n.jpg",
    "id_album": "-150952028",
    "description": "Volkswagen_883942",
    "title": "Volkswagen_883942",
    "link_img": "https://live.staticflickr.com/65535/48123129822_6452aa5ede_o.jpg",
    "id_image": "Volkswagen_883942",
    "count_view": 0
  },
  {
    "link_thumb": "https://live.staticflickr.com/65535/48112991232_45f1546177_n.jpg",
    "id_album": "727633301",
    "description": "BMW_487713",
    "title": "BMW_487713",
    "link_img": "https://live.staticflickr.com/65535/48112991232_5e6381e371_o.jpg",
    "id_image": "BMW_487713",
    "count_view": 0
  },
  {
    "link_thumb": "https://live.staticflickr.com/65535/48113491058_0a6b11c1ce_n.jpg",
    "id_album": "1456070666",
    "description": "Bugatti_958083",
    "title": "Bugatti_958083",
    "link_img": "https://live.staticflickr.com/65535/48113491058_eea59db32b_o.jpg",
    "id_image": "Bugatti_958083",
    "count_view": 0
  },
  {
    "link_thumb": "https://live.staticflickr.com/65535/48113456036_a6ccda500f_n.jpg",
    "id_album": "1456070666",
    "description": "Bugatti_994755",
    "title": "Bugatti_994755",
    "link_img": "https://live.staticflickr.com/65535/48113456036_0d1267abb0_o.jpg",
    "id_image": "Bugatti_994755",
    "count_view": 0
  },
  {
    "link_thumb": "https://live.staticflickr.com/65535/48122164971_a3138ebdd8_n.jpg",
    "id_album": "1536700661",
    "description": "RollsRoyce_942901",
    "title": "RollsRoyce_942901",
    "link_img": "https://live.staticflickr.com/65535/48122164971_d626fe6b0b_o.jpg",
    "id_image": "RollsRoyce_942901",
    "count_view": 0
  },
  {
    "link_thumb": "https://live.staticflickr.com/65535/48119866731_74d67275df_n.jpg",
    "id_album": "-731054311",
    "description": "MercedesBenz_919837",
    "title": "MercedesBenz_919837",
    "link_img": "https://live.staticflickr.com/65535/48119866731_b30164d832_o.jpg",
    "id_image": "MercedesBenz_919837",
    "count_view": 0
  },
  {
    "link_thumb": "https://live.staticflickr.com/65535/48114683478_c3bbe4dcf9_n.jpg",
    "id_album": "-1721545051",
    "description": "Chevrolet_914679",
    "title": "Chevrolet_914679",
    "link_img": "https://live.staticflickr.com/65535/48114683478_40177bf997_o.jpg",
    "id_image": "Chevrolet_914679",
    "count_view": 0
  },
  {
    "link_thumb": "https://live.staticflickr.com/65535/48119934322_0c9b17b98d_n.jpg",
    "id_album": "-731054311",
    "description": "MercedesBenz_903740",
    "title": "MercedesBenz_903740",
    "link_img": "https://live.staticflickr.com/65535/48119934322_702927e8a3_o.jpg",
    "id_image": "MercedesBenz_903740",
    "count_view": 0
  },
  {
    "link_thumb": "https://live.staticflickr.com/65535/48122198928_774806612c_n.jpg",
    "id_album": "1536700661",
    "description": "RollsRoyce_922966",
    "title": "RollsRoyce_922966",
    "link_img": "https://live.staticflickr.com/65535/48122198928_c2e38bda19_o.jpg",
    "id_image": "RollsRoyce_922966",
    "count_view": 0
  },
  {
    "link_thumb": "https://live.staticflickr.com/65535/48119265528_fd9a74252d_n.jpg",
    "id_album": "898314866",
    "description": "Mazda_837571",
    "title": "Mazda_837571",
    "link_img": "https://live.staticflickr.com/65535/48119265528_f216766ae4_o.jpg",
    "id_image": "Mazda_837571",
    "count_view": 0
  },
  {
    "link_thumb": "https://live.staticflickr.com/65535/48122560373_b0a8788010_n.jpg",
    "id_album": "1645818674",
    "description": "Suzuki_220346",
    "title": "Suzuki_220346",
    "link_img": "https://live.staticflickr.com/65535/48122560373_76600545b0_o.jpg",
    "id_image": "Suzuki_220346",
    "count_view": 0
  },
  {
    "link_thumb": "https://live.staticflickr.com/65535/48113186293_7d13980330_n.jpg",
    "id_album": "727633301",
    "description": "BMW_890227",
    "title": "BMW_890227",
    "link_img": "https://live.staticflickr.com/65535/48113186293_a414bbb7d6_o.jpg",
    "id_image": "BMW_890227",
    "count_view": 0
  },
  {
    "link_thumb": "https://live.staticflickr.com/65535/48118780218_ed16d814b1_n.jpg",
    "id_album": "-2100339805",
    "description": "Lamborghini_994771",
    "title": "Lamborghini_994771",
    "link_img": "https://live.staticflickr.com/65535/48118780218_078e7392ea_o.jpg",
    "id_image": "Lamborghini_994771",
    "count_view": 0
  },
  {
    "link_thumb": "https://live.staticflickr.com/65535/48122636902_d6c7d695eb_n.jpg",
    "id_album": "1645818674",
    "description": "Suzuki_825110",
    "title": "Suzuki_825110",
    "link_img": "https://live.staticflickr.com/65535/48122636902_31fbc3fb50_o.jpg",
    "id_image": "Suzuki_825110",
    "count_view": 0
  },
  {
    "link_thumb": "https://live.staticflickr.com/65535/48120324042_b1cded5910_n.jpg",
    "id_album": "666438681",
    "description": "Motorcycles_576445",
    "title": "Motorcycles_576445",
    "link_img": "https://live.staticflickr.com/65535/48120324042_04816cd5b9_o.jpg",
    "id_image": "Motorcycles_576445",
    "count_view": 0
  },
  {
    "link_thumb": "https://live.staticflickr.com/65535/48113537552_0e5fb22b13_n.jpg",
    "id_album": "1456070666",
    "description": "Bugatti_876238",
    "title": "Bugatti_876238",
    "link_img": "https://live.staticflickr.com/65535/48113537552_1dbebab6e9_o.jpg",
    "id_image": "Bugatti_876238",
    "count_view": 0
  },
  {
    "link_thumb": "https://live.staticflickr.com/65535/48113115967_3e031278e7_n.jpg",
    "id_album": "727633301",
    "description": "BMW_700341",
    "title": "BMW_700341",
    "link_img": "https://live.staticflickr.com/65535/48113115967_091109571b_o.jpg",
    "id_image": "BMW_700341",
    "count_view": 0
  },
  {
    "link_thumb": "https://live.staticflickr.com/65535/48115466598_a68e8bafa3_n.jpg",
    "id_album": "413141323",
    "description": "Dodge_612794",
    "title": "Dodge_612794",
    "link_img": "https://live.staticflickr.com/65535/48115466598_ae7934e1fa_o.jpg",
    "id_image": "Dodge_612794",
    "count_view": 0
  },
  {
    "link_thumb": "https://live.staticflickr.com/65535/48112833893_68d2695f76_n.jpg",
    "id_album": "727633301",
    "description": "BMW_457235",
    "title": "BMW_457235",
    "link_img": "https://live.staticflickr.com/65535/48112833893_e82c32e851_o.jpg",
    "id_image": "BMW_457235",
    "count_view": 0
  },
  {
    "link_thumb": "https://live.staticflickr.com/65535/48117936676_122d4cf26d_n.jpg",
    "id_album": "427416146",
    "description": "Hummer_192372",
    "title": "Hummer_192372",
    "link_img": "https://live.staticflickr.com/65535/48117936676_8d70134e30_o.jpg",
    "id_image": "Hummer_192372",
    "count_view": 0
  },
  {
    "link_thumb": "https://live.staticflickr.com/65535/48118834167_ae2238b68b_n.jpg",
    "id_album": "-2100339805",
    "description": "Lamborghini_990722",
    "title": "Lamborghini_990722",
    "link_img": "https://live.staticflickr.com/65535/48118834167_8c664165ff_o.jpg",
    "id_image": "Lamborghini_990722",
    "count_view": 0
  },
  {
    "link_thumb": "https://live.staticflickr.com/65535/48119537638_7c4b4cba67_n.jpg",
    "id_album": "-731054311",
    "description": "MercedesBenz_257097",
    "title": "MercedesBenz_257097",
    "link_img": "https://live.staticflickr.com/65535/48119537638_b01aa8624c_o.jpg",
    "id_image": "MercedesBenz_257097",
    "count_view": 0
  },
  {
    "link_thumb": "https://live.staticflickr.com/65535/48113165823_bb693b5010_n.jpg",
    "id_album": "727633301",
    "description": "BMW_880707",
    "title": "BMW_880707",
    "link_img": "https://live.staticflickr.com/65535/48113165823_547c5e2f19_o.jpg",
    "id_image": "BMW_880707",
    "count_view": 0
  },
  {
    "link_thumb": "https://live.staticflickr.com/65535/48112415763_31b44f53cc_n.jpg",
    "id_album": "-15119147",
    "description": "Audi_697526",
    "title": "Audi_697526",
    "link_img": "https://live.staticflickr.com/65535/48112415763_7400da6d9b_o.jpg",
    "id_image": "Audi_697526",
    "count_view": 0
  },
  {
    "link_thumb": "https://live.staticflickr.com/65535/48122620152_9463ff96ab_n.jpg",
    "id_album": "1645818674",
    "description": "Suzuki_244095",
    "title": "Suzuki_244095",
    "link_img": "https://live.staticflickr.com/65535/48122620152_aa78b9b024_o.jpg",
    "id_image": "Suzuki_244095",
    "count_view": 0
  },
  {
    "link_thumb": "https://live.staticflickr.com/65535/48120411311_431ff7bc9e_n.jpg",
    "id_album": "810634050",
    "description": "Nissan_444396",
    "title": "Nissan_444396",
    "link_img": "https://live.staticflickr.com/65535/48120411311_cd4294ea08_o.jpg",
    "id_image": "Nissan_444396",
    "count_view": 0
  },
  {
    "link_thumb": "https://live.staticflickr.com/65535/48118851572_0b402c548d_n.jpg",
    "id_album": "-2100339805",
    "description": "Lamborghini_998540",
    "title": "Lamborghini_998540",
    "link_img": "https://live.staticflickr.com/65535/48118851572_05bc3ff492_o.jpg",
    "id_image": "Lamborghini_998540",
    "count_view": 0
  },
  {
    "link_thumb": "https://live.staticflickr.com/65535/48120224946_327591e1ec_n.jpg",
    "id_album": "666438681",
    "description": "Motorcycles_449215",
    "title": "Motorcycles_449215",
    "link_img": "https://live.staticflickr.com/65535/48120224946_c9678ee3bc_o.jpg",
    "id_image": "Motorcycles_449215",
    "count_view": 0
  },
  {
    "link_thumb": "https://live.staticflickr.com/65535/48113551337_1705d67fd5_n.jpg",
    "id_album": "1456070666",
    "description": "Bugatti_954484",
    "title": "Bugatti_954484",
    "link_img": "https://live.staticflickr.com/65535/48113551337_0f5cf18b6f_o.jpg",
    "id_image": "Bugatti_954484",
    "count_view": 0
  },
  {
    "link_thumb": "https://live.staticflickr.com/65535/48112849947_6e4213f5b7_n.jpg",
    "id_album": "727633301",
    "description": "BMW_420221",
    "title": "BMW_420221",
    "link_img": "https://live.staticflickr.com/65535/48112849947_6158e4668b_o.jpg",
    "id_image": "BMW_420221",
    "count_view": 0
  },
  {
    "link_thumb": "https://live.staticflickr.com/65535/48120069616_c50ea224b2_n.jpg",
    "id_album": "-1116477526",
    "description": "Mitsubishi_484163",
    "title": "Mitsubishi_484163",
    "link_img": "https://live.staticflickr.com/65535/48120069616_f78aa0c039_o.jpg",
    "id_image": "Mitsubishi_484163",
    "count_view": 0
  },
  {
    "link_thumb": "https://live.staticflickr.com/65535/48118652266_a1352537c1_n.jpg",
    "id_album": "-2100339805",
    "description": "Lamborghini_906205",
    "title": "Lamborghini_906205",
    "link_img": "https://live.staticflickr.com/65535/48118652266_75ce59a6cf_o.jpg",
    "id_image": "Lamborghini_906205",
    "count_view": 0
  },
  {
    "link_thumb": "https://live.staticflickr.com/65535/48122637491_fefe565d1c_n.jpg",
    "id_album": "1274920659",
    "description": "Toyota_319393",
    "title": "Toyota_319393",
    "link_img": "https://live.staticflickr.com/65535/48122637491_fae9ccf9d1_o.jpg",
    "id_image": "Toyota_319393",
    "count_view": 0
  },
  {
    "link_thumb": "https://live.staticflickr.com/65535/48122198228_21bf1fd579_n.jpg",
    "id_album": "1536700661",
    "description": "RollsRoyce_921252",
    "title": "RollsRoyce_921252",
    "link_img": "https://live.staticflickr.com/65535/48122198228_3cf04a3e36_o.jpg",
    "id_image": "RollsRoyce_921252",
    "count_view": 0
  },
  {
    "link_thumb": "https://live.staticflickr.com/65535/48122213298_fe5a97a636_n.jpg",
    "id_album": "1536700661",
    "description": "RollsRoyce_942929",
    "title": "RollsRoyce_942929",
    "link_img": "https://live.staticflickr.com/65535/48122213298_ce50eb0275_o.jpg",
    "id_image": "RollsRoyce_942929",
    "count_view": 0
  },
  {
    "link_thumb": "https://live.staticflickr.com/65535/48113755036_a00945eae3_n.jpg",
    "id_album": "-1721545051",
    "description": "Chevrolet_189786",
    "title": "Chevrolet_189786",
    "link_img": "https://live.staticflickr.com/65535/48113755036_af0b050135_o.jpg",
    "id_image": "Chevrolet_189786",
    "count_view": 0
  },
  {
    "link_thumb": "https://live.staticflickr.com/65535/48120042607_fe032a2443_n.jpg",
    "id_album": "-731054311",
    "description": "MercedesBenz_984379",
    "title": "MercedesBenz_984379",
    "link_img": "https://live.staticflickr.com/65535/48120042607_7e6451cb61_o.jpg",
    "id_image": "MercedesBenz_984379",
    "count_view": 0
  },
  {
    "link_thumb": "https://live.staticflickr.com/65535/48121961663_16cbdaa8f0_n.jpg",
    "id_album": "-1377335499",
    "description": "RangeRover_837085",
    "title": "RangeRover_837085",
    "link_img": "https://live.staticflickr.com/65535/48121961663_0c765d6176_o.jpg",
    "id_image": "RangeRover_837085",
    "count_view": 0
  },
  {
    "link_thumb": "https://live.staticflickr.com/65535/48118760401_23da36c73b_n.jpg",
    "id_album": "-2100339805",
    "description": "Lamborghini_996731",
    "title": "Lamborghini_996731",
    "link_img": "https://live.staticflickr.com/65535/48118760401_cd74c33447_o.jpg",
    "id_image": "Lamborghini_996731",
    "count_view": 0
  },
  {
    "link_thumb": "https://live.staticflickr.com/65535/48119368038_a8b5cd2906_n.jpg",
    "id_album": "990865885",
    "description": "McLaren_705609",
    "title": "McLaren_705609",
    "link_img": "https://live.staticflickr.com/65535/48119368038_c32624688f_o.jpg",
    "id_image": "McLaren_705609",
    "count_view": 0
  },
  {
    "link_thumb": "https://live.staticflickr.com/65535/48121048168_9abd066c71_n.jpg",
    "id_album": "-1123679742",
    "description": "Plymouth_448855",
    "title": "Plymouth_448855",
    "link_img": "https://live.staticflickr.com/65535/48121048168_d670e1e660_o.jpg",
    "id_image": "Plymouth_448855",
    "count_view": 0
  },
  {
    "link_thumb": "https://live.staticflickr.com/65535/48118608783_d05d15aed7_n.jpg",
    "id_album": "-2100339805",
    "description": "Lamborghini_709735",
    "title": "Lamborghini_709735",
    "link_img": "https://live.staticflickr.com/65535/48118608783_9edd237c48_o.jpg",
    "id_image": "Lamborghini_709735",
    "count_view": 0
  },
  {
    "link_thumb": "https://live.staticflickr.com/65535/48119977108_b907fd3682_n.jpg",
    "id_album": "-731054311",
    "description": "MercedesBenz_97553",
    "title": "MercedesBenz_97553",
    "link_img": "https://live.staticflickr.com/65535/48119977108_dbc42cfa86_o.jpg",
    "id_image": "MercedesBenz_97553",
    "count_view": 0
  },
  {
    "link_thumb": "https://live.staticflickr.com/65535/48122025307_00538f2176_n.jpg",
    "id_album": "-1377335499",
    "description": "RangeRover_845737",
    "title": "RangeRover_845737",
    "link_img": "https://live.staticflickr.com/65535/48122025307_10ab52f3d3_o.jpg",
    "id_image": "RangeRover_845737",
    "count_view": 0
  },
  {
    "link_thumb": "https://live.staticflickr.com/65535/48112793318_e0151d5c29_n.jpg",
    "id_album": "727633301",
    "description": "BMW_434533",
    "title": "BMW_434533",
    "link_img": "https://live.staticflickr.com/65535/48112793318_f17479617b_o.jpg",
    "id_image": "BMW_434533",
    "count_view": 0
  },
  {
    "link_thumb": "https://live.staticflickr.com/65535/48118653027_8ba4b78197_n.jpg",
    "id_album": "-2100339805",
    "description": "Lamborghini_685703",
    "title": "Lamborghini_685703",
    "link_img": "https://live.staticflickr.com/65535/48118653027_f13719ff5b_o.jpg",
    "id_image": "Lamborghini_685703",
    "count_view": 0
  },
  {
    "link_thumb": "https://live.staticflickr.com/65535/48113417892_12b7b0d77f_n.jpg",
    "id_album": "1456070666",
    "description": "Bugatti_194484",
    "title": "Bugatti_194484",
    "link_img": "https://live.staticflickr.com/65535/48113417892_9a1ee2497f_o.jpg",
    "id_image": "Bugatti_194484",
    "count_view": 0
  },
  {
    "link_thumb": "https://live.staticflickr.com/65535/48123056817_96a7af49f8_n.jpg",
    "id_album": "-150952028",
    "description": "Volkswagen_464980",
    "title": "Volkswagen_464980",
    "link_img": "https://live.staticflickr.com/65535/48123056817_b70f53a360_o.jpg",
    "id_image": "Volkswagen_464980",
    "count_view": 0
  },
  {
    "link_thumb": "https://live.staticflickr.com/65535/48120199167_209e6237d1_n.jpg",
    "id_album": "666438681",
    "description": "Motorcycles_143569",
    "title": "Motorcycles_143569",
    "link_img": "https://live.staticflickr.com/65535/48120199167_a1cee7434e_o.jpg",
    "id_image": "Motorcycles_143569",
    "count_view": 0
  },
  {
    "link_thumb": "https://live.staticflickr.com/65535/48118340481_7259a4f755_n.jpg",
    "id_album": "-2100339805",
    "description": "Lamborghini_318652",
    "title": "Lamborghini_318652",
    "link_img": "https://live.staticflickr.com/65535/48118340481_cf1f2c449d_o.jpg",
    "id_image": "Lamborghini_318652",
    "count_view": 0
  },
  {
    "link_thumb": "https://live.staticflickr.com/65535/48119990013_cdc8011f9f_n.jpg",
    "id_album": "-731054311",
    "description": "MercedesBenz_993537",
    "title": "MercedesBenz_993537",
    "link_img": "https://live.staticflickr.com/65535/48119990013_fcf80b4cc5_o.jpg",
    "id_image": "MercedesBenz_993537",
    "count_view": 0
  },
  {
    "link_thumb": "https://live.staticflickr.com/65535/48115425546_9ebbbc49e3_n.jpg",
    "id_album": "413141323",
    "description": "Dodge_529651",
    "title": "Dodge_529651",
    "link_img": "https://live.staticflickr.com/65535/48115425546_3d8b6a86ee_o.jpg",
    "id_image": "Dodge_529651",
    "count_view": 0
  },
  {
    "link_thumb": "https://live.staticflickr.com/65535/48122283097_a8843e75ef_n.jpg",
    "id_album": "1536700661",
    "description": "RollsRoyce_943128",
    "title": "RollsRoyce_943128",
    "link_img": "https://live.staticflickr.com/65535/48122283097_7b071a35c6_o.jpg",
    "id_image": "RollsRoyce_943128",
    "count_view": 0
  },
  {
    "link_thumb": "https://live.staticflickr.com/65535/48115547738_c812215db4_n.jpg",
    "id_album": "413141323",
    "description": "Dodge_890217",
    "title": "Dodge_890217",
    "link_img": "https://live.staticflickr.com/65535/48115547738_68b9303863_o.jpg",
    "id_image": "Dodge_890217",
    "count_view": 0
  },
  {
    "link_thumb": "https://live.staticflickr.com/65535/48113552197_ee3a46367c_n.jpg",
    "id_album": "1456070666",
    "description": "Bugatti_958397",
    "title": "Bugatti_958397",
    "link_img": "https://live.staticflickr.com/65535/48113552197_e0600cf499_o.jpg",
    "id_image": "Bugatti_958397",
    "count_view": 0
  },
  {
    "link_thumb": "https://live.staticflickr.com/65535/48117934541_804da0f11f_n.jpg",
    "id_album": "427416146",
    "description": "Hummer_156224",
    "title": "Hummer_156224",
    "link_img": "https://live.staticflickr.com/65535/48117934541_d32f4c2297_o.jpg",
    "id_image": "Hummer_156224",
    "count_view": 0
  },
  {
    "link_thumb": "https://live.staticflickr.com/65535/48113181681_344d9cc5ed_n.jpg",
    "id_album": "727633301",
    "description": "BMW_912757",
    "title": "BMW_912757",
    "link_img": "https://live.staticflickr.com/65535/48113181681_fbe3ecbf91_o.jpg",
    "id_image": "BMW_912757",
    "count_view": 0
  },
  {
    "link_thumb": "https://live.staticflickr.com/65535/48119948096_5423341d6a_n.jpg",
    "id_album": "-731054311",
    "description": "MercedesBenz_980672",
    "title": "MercedesBenz_980672",
    "link_img": "https://live.staticflickr.com/65535/48119948096_7a17f63bd0_o.jpg",
    "id_image": "MercedesBenz_980672",
    "count_view": 0
  },
  {
    "link_thumb": "https://live.staticflickr.com/65535/48113053793_db6c0a859f_n.jpg",
    "id_album": "727633301",
    "description": "BMW_698255",
    "title": "BMW_698255",
    "link_img": "https://live.staticflickr.com/65535/48113053793_b4c9e60974_o.jpg",
    "id_image": "BMW_698255",
    "count_view": 0
  },
  {
    "link_thumb": "https://live.staticflickr.com/65535/48113338053_28b68f3234_n.jpg",
    "id_album": "727633301",
    "description": "BMW_994126",
    "title": "BMW_994126",
    "link_img": "https://live.staticflickr.com/65535/48113338053_982076c308_o.jpg",
    "id_image": "BMW_994126",
    "count_view": 0
  },
  {
    "link_thumb": "https://live.staticflickr.com/65535/48114556182_0d9607d5f1_n.jpg",
    "id_album": "-1721545051",
    "description": "Chevrolet_711404",
    "title": "Chevrolet_711404",
    "link_img": "https://live.staticflickr.com/65535/48114556182_e4484a4933_o.jpg",
    "id_image": "Chevrolet_711404",
    "count_view": 0
  },
  {
    "link_thumb": "https://live.staticflickr.com/65535/48112479797_0c9d7251d7_n.jpg",
    "id_album": "-15119147",
    "description": "Audi_695761",
    "title": "Audi_695761",
    "link_img": "https://live.staticflickr.com/65535/48112479797_c54a32fcc9_o.jpg",
    "id_image": "Audi_695761",
    "count_view": 0
  },
  {
    "link_thumb": "https://live.staticflickr.com/65535/48117025343_0bd1780ab5_n.jpg",
    "id_album": "-1846404630",
    "description": "Ford_314043",
    "title": "Ford_314043",
    "link_img": "https://live.staticflickr.com/65535/48117025343_9dfee53bb9_o.jpg",
    "id_image": "Ford_314043",
    "count_view": 0
  },
  {
    "link_thumb": "https://live.staticflickr.com/65535/48119114736_42b7dc6352_n.jpg",
    "id_album": "697984456",
    "description": "Maserati_872350",
    "title": "Maserati_872350",
    "link_img": "https://live.staticflickr.com/65535/48119114736_68be172e9a_o.jpg",
    "id_image": "Maserati_872350",
    "count_view": 0
  },
  {
    "link_thumb": "https://live.staticflickr.com/65535/48113398507_947618815a_n.jpg",
    "id_album": "727633301",
    "description": "BMW_993578",
    "title": "BMW_993578",
    "link_img": "https://live.staticflickr.com/65535/48113398507_7353a03ff3_o.jpg",
    "id_image": "BMW_993578",
    "count_view": 0
  },
  {
    "link_thumb": "https://live.staticflickr.com/65535/48113552537_a1bcc2cc24_n.jpg",
    "id_album": "1456070666",
    "description": "Bugatti_960776",
    "title": "Bugatti_960776",
    "link_img": "https://live.staticflickr.com/65535/48113552537_d8acdc4090_o.jpg",
    "id_image": "Bugatti_960776",
    "count_view": 0
  },
  {
    "link_thumb": "https://live.staticflickr.com/65535/48123373907_f62f6e384c_n.jpg",
    "id_album": "-360260466",
    "description": "Yamaha_918609",
    "title": "Yamaha_918609",
    "link_img": "https://live.staticflickr.com/65535/48123373907_7613090d23_o.jpg",
    "id_image": "Yamaha_918609",
    "count_view": 0
  },
  {
    "link_thumb": "https://live.staticflickr.com/65535/48117467481_05da9df614_n.jpg",
    "id_album": "-1846404630",
    "description": "Ford_820691",
    "title": "Ford_820691",
    "link_img": "https://live.staticflickr.com/65535/48117467481_b35723b491_o.jpg",
    "id_image": "Ford_820691",
    "count_view": 0
  },
  {
    "link_thumb": "https://live.staticflickr.com/65535/48118748687_256a7f6c0d_n.jpg",
    "id_album": "-2100339805",
    "description": "Lamborghini_927635",
    "title": "Lamborghini_927635",
    "link_img": "https://live.staticflickr.com/65535/48118748687_c89d74a220_o.jpg",
    "id_image": "Lamborghini_927635",
    "count_view": 0
  },
  {
    "link_thumb": "https://live.staticflickr.com/65535/48117969948_68c04999e4_n.jpg",
    "id_album": "427416146",
    "description": "Hummer_188474",
    "title": "Hummer_188474",
    "link_img": "https://live.staticflickr.com/65535/48117969948_95b6dc52b8_o.jpg",
    "id_image": "Hummer_188474",
    "count_view": 0
  },
  {
    "link_thumb": "https://live.staticflickr.com/65535/48114679956_3afb94ed1b_n.jpg",
    "id_album": "-1721545051",
    "description": "Chevrolet_948959",
    "title": "Chevrolet_948959",
    "link_img": "https://live.staticflickr.com/65535/48114679956_b6608299f5_o.jpg",
    "id_image": "Chevrolet_948959",
    "count_view": 0
  },
  {
    "link_thumb": "https://live.staticflickr.com/65535/48115631297_40c337cbb3_n.jpg",
    "id_album": "413141323",
    "description": "Dodge_943957",
    "title": "Dodge_943957",
    "link_img": "https://live.staticflickr.com/65535/48115631297_5ce3ababea_o.jpg",
    "id_image": "Dodge_943957",
    "count_view": 0
  },
  {
    "link_thumb": "https://live.staticflickr.com/65535/48113113597_3b532b4225_n.jpg",
    "id_album": "727633301",
    "description": "BMW_698111",
    "title": "BMW_698111",
    "link_img": "https://live.staticflickr.com/65535/48113113597_7f7f23f56a_o.jpg",
    "id_image": "BMW_698111",
    "count_view": 0
  },
  {
    "link_thumb": "https://live.staticflickr.com/65535/48122453503_e2478e508d_n.jpg",
    "id_album": "422322641",
    "description": "Subaru_319426",
    "title": "Subaru_319426",
    "link_img": "https://live.staticflickr.com/65535/48122453503_b22c52d11c_o.jpg",
    "id_image": "Subaru_319426",
    "count_view": 0
  },
  {
    "link_thumb": "https://live.staticflickr.com/65535/48116618011_22c7238e73_n.jpg",
    "id_album": "-1846404630",
    "description": "Ford_163495",
    "title": "Ford_163495",
    "link_img": "https://live.staticflickr.com/65535/48116618011_3b9788b8ce_o.jpg",
    "id_image": "Ford_163495",
    "count_view": 0
  },
  {
    "link_thumb": "https://live.staticflickr.com/65535/48118846772_c7772d8f59_n.jpg",
    "id_album": "-2100339805",
    "description": "Lamborghini_996442",
    "title": "Lamborghini_996442",
    "link_img": "https://live.staticflickr.com/65535/48118846772_9d0b77fc59_o.jpg",
    "id_image": "Lamborghini_996442",
    "count_view": 0
  },
  {
    "link_thumb": "https://live.staticflickr.com/65535/48120141543_0d60bb076c_n.jpg",
    "id_album": "666438681",
    "description": "Motorcycles_152964",
    "title": "Motorcycles_152964",
    "link_img": "https://live.staticflickr.com/65535/48120141543_80867ec782_o.jpg",
    "id_image": "Motorcycles_152964",
    "count_view": 0
  },
  {
    "link_thumb": "https://live.staticflickr.com/65535/48118758101_3371685236_n.jpg",
    "id_album": "-2100339805",
    "description": "Lamborghini_996445",
    "title": "Lamborghini_996445",
    "link_img": "https://live.staticflickr.com/65535/48118758101_a45a18132b_o.jpg",
    "id_image": "Lamborghini_996445",
    "count_view": 0
  },
  {
    "link_thumb": "https://live.staticflickr.com/65535/48117711368_7dda5630e6_n.jpg",
    "id_album": "-1846404630",
    "description": "Ford_99240",
    "title": "Ford_99240",
    "link_img": "https://live.staticflickr.com/65535/48117711368_ef589c311a_o.jpg",
    "id_image": "Ford_99240",
    "count_view": 0
  },
  {
    "link_thumb": "https://live.staticflickr.com/65535/48122597643_f2b3729010_n.jpg",
    "id_album": "1645818674",
    "description": "Suzuki_922958",
    "title": "Suzuki_922958",
    "link_img": "https://live.staticflickr.com/65535/48122597643_c4ea2d361d_o.jpg",
    "id_image": "Suzuki_922958",
    "count_view": 0
  },
  {
    "link_thumb": "https://live.staticflickr.com/65535/48112791806_5b74ab0b89_n.jpg",
    "id_album": "727633301",
    "description": "BMW_457627",
    "title": "BMW_457627",
    "link_img": "https://live.staticflickr.com/65535/48112791806_fc54bdb18c_o.jpg",
    "id_image": "BMW_457627",
    "count_view": 0
  },
  {
    "link_thumb": "https://live.staticflickr.com/65535/48115151677_4625d984e7_n.jpg",
    "id_album": "413141323",
    "description": "Dodge_216728",
    "title": "Dodge_216728",
    "link_img": "https://live.staticflickr.com/65535/48115151677_09de5d3b99_o.jpg",
    "id_image": "Dodge_216728",
    "count_view": 0
  },
  {
    "link_thumb": "https://live.staticflickr.com/65535/48122221023_cd9f7a3a74_n.jpg",
    "id_album": "1536700661",
    "description": "RollsRoyce_943127",
    "title": "RollsRoyce_943127",
    "link_img": "https://live.staticflickr.com/65535/48122221023_ca54cb080a_o.jpg",
    "id_image": "RollsRoyce_943127",
    "count_view": 0
  },
  {
    "link_thumb": "https://live.staticflickr.com/65535/48113490778_536177a2a3_n.jpg",
    "id_album": "1456070666",
    "description": "Bugatti_955824",
    "title": "Bugatti_955824",
    "link_img": "https://live.staticflickr.com/65535/48113490778_b5246b99b5_o.jpg",
    "id_image": "Bugatti_955824",
    "count_view": 0
  },
  {
    "link_thumb": "https://live.staticflickr.com/65535/48113054588_77aff44707_n.jpg",
    "id_album": "727633301",
    "description": "BMW_699078",
    "title": "BMW_699078",
    "link_img": "https://live.staticflickr.com/65535/48113054588_5e42a01408_o.jpg",
    "id_image": "BMW_699078",
    "count_view": 0
  },
  {
    "link_thumb": "https://live.staticflickr.com/65535/48118162453_fa04c2986c_n.jpg",
    "id_album": "-2009218697",
    "description": "Jeep_898733",
    "title": "Jeep_898733",
    "link_img": "https://live.staticflickr.com/65535/48118162453_a8202beba2_o.jpg",
    "id_image": "Jeep_898733",
    "count_view": 0
  },
  {
    "link_thumb": "https://live.staticflickr.com/65535/48115329432_dec80528af_n.jpg",
    "id_album": "413141323",
    "description": "Dodge_451712",
    "title": "Dodge_451712",
    "link_img": "https://live.staticflickr.com/65535/48115329432_878425b118_o.jpg",
    "id_image": "Dodge_451712",
    "count_view": 0
  },
  {
    "link_thumb": "https://live.staticflickr.com/65535/48120011532_42127ff1e5_n.jpg",
    "id_album": "-731054311",
    "description": "MercedesBenz_937047",
    "title": "MercedesBenz_937047",
    "link_img": "https://live.staticflickr.com/65535/48120011532_df1437199f_o.jpg",
    "id_image": "MercedesBenz_937047",
    "count_view": 0
  },
  {
    "link_thumb": "https://live.staticflickr.com/65535/48119798803_4a22277f41_n.jpg",
    "id_album": "-731054311",
    "description": "MercedesBenz_774285",
    "title": "MercedesBenz_774285",
    "link_img": "https://live.staticflickr.com/65535/48119798803_d51459f4d2_o.jpg",
    "id_image": "MercedesBenz_774285",
    "count_view": 0
  },
  {
    "link_thumb": "https://live.staticflickr.com/65535/48119946281_93b6a51e05_n.jpg",
    "id_album": "-731054311",
    "description": "MercedesBenz_975019",
    "title": "MercedesBenz_975019",
    "link_img": "https://live.staticflickr.com/65535/48119946281_6c052e01dc_o.jpg",
    "id_image": "MercedesBenz_975019",
    "count_view": 0
  },
  {
    "link_thumb": "https://live.staticflickr.com/65535/48115549628_f0de816fab_n.jpg",
    "id_album": "413141323",
    "description": "Dodge_891467",
    "title": "Dodge_891467",
    "link_img": "https://live.staticflickr.com/65535/48115549628_14977ee790_o.jpg",
    "id_image": "Dodge_891467",
    "count_view": 0
  },
  {
    "link_thumb": "https://live.staticflickr.com/65535/48114467531_7b9390286a_n.jpg",
    "id_album": "-1721545051",
    "description": "Chevrolet_723464",
    "title": "Chevrolet_723464",
    "link_img": "https://live.staticflickr.com/65535/48114467531_c70fa9d016_o.jpg",
    "id_image": "Chevrolet_723464",
    "count_view": 0
  },
  {
    "link_thumb": "https://live.staticflickr.com/65535/48113456746_25bbcb8949_n.jpg",
    "id_album": "1456070666",
    "description": "Bugatti_998111",
    "title": "Bugatti_998111",
    "link_img": "https://live.staticflickr.com/65535/48113456746_fec7e161de_o.jpg",
    "id_image": "Bugatti_998111",
    "count_view": 0
  },
  {
    "link_thumb": "https://live.staticflickr.com/65535/48113492263_37e20c9826_n.jpg",
    "id_album": "1456070666",
    "description": "Bugatti_960780",
    "title": "Bugatti_960780",
    "link_img": "https://live.staticflickr.com/65535/48113492263_224d58a14b_o.jpg",
    "id_image": "Bugatti_960780",
    "count_view": 0
  },
  {
    "link_thumb": "https://live.staticflickr.com/65535/48118785868_df116b97f5_n.jpg",
    "id_album": "-2100339805",
    "description": "Lamborghini_996439",
    "title": "Lamborghini_996439",
    "link_img": "https://live.staticflickr.com/65535/48118785868_277da3fa46_o.jpg",
    "id_image": "Lamborghini_996439",
    "count_view": 0
  },
  {
    "link_thumb": "https://live.staticflickr.com/65535/48122764001_9cfecc5c1f_n.jpg",
    "id_album": "1274920659",
    "description": "Toyota_710994",
    "title": "Toyota_710994",
    "link_img": "https://live.staticflickr.com/65535/48122764001_184444d4fd_o.jpg",
    "id_image": "Toyota_710994",
    "count_view": 0
  },
  {
    "link_thumb": "https://live.staticflickr.com/65535/48118779163_26db25fac8_n.jpg",
    "id_album": "-2100339805",
    "description": "Lamborghini_994760",
    "title": "Lamborghini_994760",
    "link_img": "https://live.staticflickr.com/65535/48118779163_309e65651e_o.jpg",
    "id_image": "Lamborghini_994760",
    "count_view": 0
  },
  {
    "link_thumb": "https://live.staticflickr.com/65535/48119910661_5173a231fd_n.jpg",
    "id_album": "-731054311",
    "description": "MercedesBenz_930182",
    "title": "MercedesBenz_930182",
    "link_img": "https://live.staticflickr.com/65535/48119910661_9af7d75510_o.jpg",
    "id_image": "MercedesBenz_930182",
    "count_view": 0
  },
  {
    "link_thumb": "https://live.staticflickr.com/65535/48122133981_fd9169bec9_n.jpg",
    "id_album": "1536700661",
    "description": "RollsRoyce_743368",
    "title": "RollsRoyce_743368",
    "link_img": "https://live.staticflickr.com/65535/48122133981_fa44afa6b6_o.jpg",
    "id_image": "RollsRoyce_743368",
    "count_view": 0
  },
  {
    "link_thumb": "https://live.staticflickr.com/65535/48113454181_bc5bb83267_n.jpg",
    "id_album": "1456070666",
    "description": "Bugatti_960785",
    "title": "Bugatti_960785",
    "link_img": "https://live.staticflickr.com/65535/48113454181_f7654eb62e_o.jpg",
    "id_image": "Bugatti_960785",
    "count_view": 0
  },
  {
    "link_thumb": "https://live.staticflickr.com/65535/48115065836_57e21aeb30_n.jpg",
    "id_album": "413141323",
    "description": "Dodge_223104",
    "title": "Dodge_223104",
    "link_img": "https://live.staticflickr.com/65535/48115065836_a56736a09b_o.jpg",
    "id_image": "Dodge_223104",
    "count_view": 0
  },
  {
    "link_thumb": "https://live.staticflickr.com/65535/48114603713_160fb84a56_n.jpg",
    "id_album": "-1721545051",
    "description": "Chevrolet_814213",
    "title": "Chevrolet_814213",
    "link_img": "https://live.staticflickr.com/65535/48114603713_5708c7defa_o.jpg",
    "id_image": "Chevrolet_814213",
    "count_view": 0
  },
  {
    "link_thumb": "https://live.staticflickr.com/65535/48113496508_e8961d42a4_n.jpg",
    "id_album": "1456070666",
    "description": "Bugatti_998114",
    "title": "Bugatti_998114",
    "link_img": "https://live.staticflickr.com/65535/48113496508_6741f5416f_o.jpg",
    "id_image": "Bugatti_998114",
    "count_view": 0
  },
  {
    "link_thumb": "https://live.staticflickr.com/65535/48120140723_91efcba3f2_n.jpg",
    "id_album": "666438681",
    "description": "Motorcycles_152952",
    "title": "Motorcycles_152952",
    "link_img": "https://live.staticflickr.com/65535/48120140723_43a782bde2_o.jpg",
    "id_image": "Motorcycles_152952",
    "count_view": 0
  },
  {
    "link_thumb": "https://live.staticflickr.com/65535/48118387426_824cac68c5_n.jpg",
    "id_album": "-2100339805",
    "description": "Lamborghini_376465",
    "title": "Lamborghini_376465",
    "link_img": "https://live.staticflickr.com/65535/48118387426_b98a47bd4f_o.jpg",
    "id_image": "Lamborghini_376465",
    "count_view": 0
  },
  {
    "link_thumb": "https://live.staticflickr.com/65535/48122236477_80579b0ee6_n.jpg",
    "id_album": "1536700661",
    "description": "RollsRoyce_837076",
    "title": "RollsRoyce_837076",
    "link_img": "https://live.staticflickr.com/65535/48122236477_2cde21a929_o.jpg",
    "id_image": "RollsRoyce_837076",
    "count_view": 0
  },
  {
    "link_thumb": "https://live.staticflickr.com/65535/48122831032_0b31620706_n.jpg",
    "id_album": "1274920659",
    "description": "Toyota_549173",
    "title": "Toyota_549173",
    "link_img": "https://live.staticflickr.com/65535/48122831032_4a0277dcc3_o.jpg",
    "id_image": "Toyota_549173",
    "count_view": 0
  },
  {
    "link_thumb": "https://live.staticflickr.com/65535/48120353858_fe77223b69_n.jpg",
    "id_album": "810634050",
    "description": "Nissan_217596",
    "title": "Nissan_217596",
    "link_img": "https://live.staticflickr.com/65535/48120353858_c13c3fb225_o.jpg",
    "id_image": "Nissan_217596",
    "count_view": 0
  },
  {
    "link_thumb": "https://live.staticflickr.com/65535/48112230766_85d8cc02bf_n.jpg",
    "id_album": "-15119147",
    "description": "Audi_208292",
    "title": "Audi_208292",
    "link_img": "https://live.staticflickr.com/65535/48112230766_0cc17356c9_o.jpg",
    "id_image": "Audi_208292",
    "count_view": 0
  },
  {
    "link_thumb": "https://live.staticflickr.com/65535/48122559221_a3c2c74711_n.jpg",
    "id_album": "1645818674",
    "description": "Suzuki_843063",
    "title": "Suzuki_843063",
    "link_img": "https://live.staticflickr.com/65535/48122559221_818a0f6d7b_o.jpg",
    "id_image": "Suzuki_843063",
    "count_view": 0
  },
  {
    "link_thumb": "https://live.staticflickr.com/65535/48122734467_319a8e23f4_n.jpg",
    "id_album": "1274920659",
    "description": "Toyota_319405",
    "title": "Toyota_319405",
    "link_img": "https://live.staticflickr.com/65535/48122734467_381cd9dfe6_o.jpg",
    "id_image": "Toyota_319405",
    "count_view": 0
  },
  {
    "link_thumb": "https://live.staticflickr.com/65535/48118668117_9a39d7919b_n.jpg",
    "id_album": "-2100339805",
    "description": "Lamborghini_710932",
    "title": "Lamborghini_710932",
    "link_img": "https://live.staticflickr.com/65535/48118668117_b266a04852_o.jpg",
    "id_image": "Lamborghini_710932",
    "count_view": 0
  },
  {
    "link_thumb": "https://live.staticflickr.com/65535/48118498131_65f962d271_n.jpg",
    "id_album": "-2100339805",
    "description": "Lamborghini_498746",
    "title": "Lamborghini_498746",
    "link_img": "https://live.staticflickr.com/65535/48118498131_84286a3570_o.jpg",
    "id_image": "Lamborghini_498746",
    "count_view": 0
  },
  {
    "link_thumb": "https://live.staticflickr.com/65535/48114501013_6f679380fa_n.jpg",
    "id_album": "-1721545051",
    "description": "Chevrolet_712372",
    "title": "Chevrolet_712372",
    "link_img": "https://live.staticflickr.com/65535/48114501013_38c0512b45_o.jpg",
    "id_image": "Chevrolet_712372",
    "count_view": 0
  },
  {
    "link_thumb": "https://live.staticflickr.com/65535/48115059236_90b2be35a8_n.jpg",
    "id_album": "413141323",
    "description": "Dodge_211317",
    "title": "Dodge_211317",
    "link_img": "https://live.staticflickr.com/65535/48115059236_f485e1bc87_o.jpg",
    "id_image": "Dodge_211317",
    "count_view": 0
  },
  {
    "link_thumb": "https://live.staticflickr.com/65535/48118789093_1676620bd0_n.jpg",
    "id_album": "-2100339805",
    "description": "Lamborghini_996443",
    "title": "Lamborghini_996443",
    "link_img": "https://live.staticflickr.com/65535/48118789093_2dc0de11d3_o.jpg",
    "id_image": "Lamborghini_996443",
    "count_view": 0
  },
  {
    "link_thumb": "https://live.staticflickr.com/65535/48120111611_1147111cc8_n.jpg",
    "id_album": "666438681",
    "description": "Motorcycles_150403",
    "title": "Motorcycles_150403",
    "link_img": "https://live.staticflickr.com/65535/48120111611_c68bc8c6d3_o.jpg",
    "id_image": "Motorcycles_150403",
    "count_view": 0
  },
  {
    "link_thumb": "https://live.staticflickr.com/65535/48114390098_1e78f12e2d_n.jpg",
    "id_album": "-1721545051",
    "description": "Chevrolet_504176",
    "title": "Chevrolet_504176",
    "link_img": "https://live.staticflickr.com/65535/48114390098_6d035503fb_o.jpg",
    "id_image": "Chevrolet_504176",
    "count_view": 0
  },
  {
    "link_thumb": "https://live.staticflickr.com/65535/48118084901_77cac9bc1a_n.jpg",
    "id_album": "-2009218697",
    "description": "Jeep_345375",
    "title": "Jeep_345375",
    "link_img": "https://live.staticflickr.com/65535/48118084901_3ded0e4418_o.jpg",
    "id_image": "Jeep_345375",
    "count_view": 0
  },
  {
    "link_thumb": "https://live.staticflickr.com/65535/48118779648_8313ebeb7d_n.jpg",
    "id_album": "-2100339805",
    "description": "Lamborghini_994762",
    "title": "Lamborghini_994762",
    "link_img": "https://live.staticflickr.com/65535/48118779648_c0b8661aa3_o.jpg",
    "id_image": "Lamborghini_994762",
    "count_view": 0
  },
  {
    "link_thumb": "https://live.staticflickr.com/65535/48113483512_17b2735134_n.jpg",
    "id_album": "1456070666",
    "description": "Bugatti_400301",
    "title": "Bugatti_400301",
    "link_img": "https://live.staticflickr.com/65535/48113483512_e8e2ee29f9_o.jpg",
    "id_image": "Bugatti_400301",
    "count_view": 0
  },
  {
    "link_thumb": "https://live.staticflickr.com/65535/48119962863_8be7406e80_n.jpg",
    "id_album": "-731054311",
    "description": "MercedesBenz_953987",
    "title": "MercedesBenz_953987",
    "link_img": "https://live.staticflickr.com/65535/48119962863_ca58e6fb1b_o.jpg",
    "id_image": "MercedesBenz_953987",
    "count_view": 0
  },
  {
    "link_thumb": "https://live.staticflickr.com/65535/48118663201_a4bdfe0a09_n.jpg",
    "id_album": "-2100339805",
    "description": "Lamborghini_928082",
    "title": "Lamborghini_928082",
    "link_img": "https://live.staticflickr.com/65535/48118663201_11dae083fb_o.jpg",
    "id_image": "Lamborghini_928082",
    "count_view": 0
  },
  {
    "link_thumb": "https://live.staticflickr.com/65535/48120047997_97e6e1649a_n.jpg",
    "id_album": "-731054311",
    "description": "MercedesBenz_989779",
    "title": "MercedesBenz_989779",
    "link_img": "https://live.staticflickr.com/65535/48120047997_424049be71_o.jpg",
    "id_image": "MercedesBenz_989779",
    "count_view": 0
  },
  {
    "link_thumb": "https://live.staticflickr.com/65535/48113318206_5f362a8b5a_n.jpg",
    "id_album": "1456070666",
    "description": "Bugatti_194486",
    "title": "Bugatti_194486",
    "link_img": "https://live.staticflickr.com/65535/48113318206_17bfa2e0c5_o.jpg",
    "id_image": "Bugatti_194486",
    "count_view": 0
  },
  {
    "link_thumb": "https://live.staticflickr.com/65535/48113203841_d0bbaa675f_n.jpg",
    "id_album": "727633301",
    "description": "BMW_917916",
    "title": "BMW_917916",
    "link_img": "https://live.staticflickr.com/65535/48113203841_7753749ce3_o.jpg",
    "id_image": "BMW_917916",
    "count_view": 0
  },
  {
    "link_thumb": "https://live.staticflickr.com/65535/48114776812_978b2b7a3c_n.jpg",
    "id_album": "-1721545051",
    "description": "Chevrolet_951044",
    "title": "Chevrolet_951044",
    "link_img": "https://live.staticflickr.com/65535/48114776812_1f8680ac30_o.jpg",
    "id_image": "Chevrolet_951044",
    "count_view": 0
  },
  {
    "link_thumb": "https://live.staticflickr.com/65535/48113492433_4b88771702_n.jpg",
    "id_album": "1456070666",
    "description": "Bugatti_960781",
    "title": "Bugatti_960781",
    "link_img": "https://live.staticflickr.com/65535/48113492433_f1dfe5ded7_o.jpg",
    "id_image": "Bugatti_960781",
    "count_view": 0
  },
  {
    "link_thumb": "https://live.staticflickr.com/65535/48120316823_529173a77c_n.jpg",
    "id_album": "666438681",
    "description": "Motorcycles_901702",
    "title": "Motorcycles_901702",
    "link_img": "https://live.staticflickr.com/65535/48120316823_3b085dfece_o.jpg",
    "id_image": "Motorcycles_901702",
    "count_view": 0
  }
]