[
  {
    "total_img": 0,
    "number_page": 0,
    "title": "Targa",
    "tag": "Targa,",
    "description": "Targa",
    "link_thumb": "https://live.staticflickr.com/65535/49892439341_e16054b232_n.jpg",
    "id_album": "-1466443727",
    "total_view": 13
  }
]