[
  {
    "total_img": 0,
    "number_page": 0,
    "title": "Aston Martin Virage",
    "tag": "Aston Martin Virage,",
    "description": "Aston Martin Virage",
    "link_thumb": "https://live.staticflickr.com/65535/49889211122_e95e283a35_n.jpg",
    "id_album": "1357324670",
    "total_view": 21
  }
]